<?xml version="1.0" encoding="UTF-8"?>
<!DOCTYPE svg PUBLIC "-//W3C//DTD SVG 1.1//EN" "http://www.w3.org/Graphics/SVG/1.1/DTD/svg11.dtd">
<!-- Creator: CorelDRAW -->
<svg xmlns="http://www.w3.org/2000/svg" xml:space="preserve" width="100%" height="100%" version="1.1" style="shape-rendering:geometricPrecision; text-rendering:geometricPrecision; image-rendering:optimizeQuality; fill-rule:evenodd; clip-rule:evenodd"
viewBox="0 0 29700 21000"
 xmlns:xlink="http://www.w3.org/1999/xlink">
 <defs>
  <style type="text/css">
   <![CDATA[
    .str3 {stroke:black;stroke-width:10;stroke-miterlimit:3.864;stroke-opacity:0.501961}
    .str0 {stroke:#2B2A29;stroke-width:75;stroke-miterlimit:22.9256}
    .str5 {stroke:black;stroke-width:50;stroke-miterlimit:22.9256}
    .str1 {stroke:black;stroke-width:10;stroke-miterlimit:22.9256}
    .str4 {stroke:black;stroke-width:10;stroke-miterlimit:3.864}
    .str2 {stroke:#003399;stroke-width:10;stroke-miterlimit:22.9256}
    .fil7 {fill:none}
    .fil1 {fill:#FEFEFE}
    .fil0 {fill:#2B2A29}
    .fil2 {fill:#A2D9F7}
    .fil6 {fill:#FEFEFE;fill-rule:nonzero}
    .fil5 {fill:#D9DADA;fill-rule:nonzero}
    .fil4 {fill:black;fill-rule:nonzero}
    .fil3 {fill:#FEFEFE;fill-rule:nonzero;fill-opacity:0.501961}
   ]]>
  </style>
 </defs>
<symbol id="villes" viewBox="14797.31 10447.31 105.38 105.38">
 <circle class="fil0" cx="14850" cy="10500" r="52.69"/>
</symbol>
<symbol id="Capitale" viewBox="14721.93 10371.93 256.13 256.13">
 <circle class="fil1 str0" cx="14849.99" cy="10499.99" r="90.56"/>
</symbol>
 <g id="Plan_x0020_1">
  <metadata id="CorelCorpID_0Corel-Layer"/>
  <rect class="fil2" x="1000" y="1000" width="27699.99" height="12993.46"/>
  <path class="fil1 str1" d="M1538.6 3291.41c125.89,41.88 233.37,31.42 355.84,63.05 95.56,24.69 119.15,152.19 207.13,175.47 49.13,12.99 81.22,-31.08 125.91,-31.08 42.97,0 36.26,-140.19 45.62,-180.03 16.65,-70.9 125.13,-120.29 196.17,-127.94 95.37,-10.26 48.35,-41.06 111.32,-75.85 92.04,-81.96 251.91,-110.56 364.06,-48.43 174.17,96.5 34.9,-173.84 77.55,-233.04 28.16,-39.1 206.99,-41.74 261.87,-60.32 82.3,-27.87 138.81,-124.85 110.41,-203.79 -17.76,-49.39 -278.55,15.61 -332.13,28.33 -99.39,23.61 -136.17,100.74 -221.72,133.43 -68.38,26.14 -257.71,81.75 -312.05,27.41 -22.67,-22.67 -90.26,-61.43 -80.29,-95.95 7.33,-25.41 82.7,-90.73 34.67,-104.19 -35.13,-9.85 -116.52,-32.09 -151.46,-21.93 -79.75,-4.91 -160.34,35.78 -231.76,-8.22 -66.72,-41.09 -99.63,-42.89 -169.71,-67.63 -149.06,-52.61 -176.95,-35.67 -320.26,53 -51.22,31.7 -42.12,125.9 -60.22,180.04 -24.31,72.75 -133.82,130.94 -208.04,136.16 -127.63,8.99 -118.96,140.71 -59.3,218.42 3.98,19.45 28.81,41.41 37.41,63.97 13.42,35.17 19.69,72.55 45.62,100.52 33.32,35.96 96.97,41.53 138.69,63.97l34.67 14.63zm1680.69 -863.61c-0.87,-1.9 -2.05,-5.86 -3.65,-6.4 0,-44.19 15.41,-33.66 48.36,-35.64 34.49,-2.08 45.79,-37.19 72.99,-46.6 30.61,-10.58 89.17,40.87 86.68,71.28 -2.89,35.4 -145.06,29.47 -169.71,35.64l-34.67 -18.28zm3708.1 1366.23c-19.71,-85.97 21.12,-43.73 73.91,-26.5 45.37,14.82 67.68,4.46 103.1,-20.1l47.45 -32.9c5.15,-3.57 35.97,-20.88 37.41,-16.45 14.39,0 27.83,57.35 53.83,60.31 56.5,6.42 86.21,93.46 145.99,52.09 64.36,-44.53 51.22,-11.68 93.98,31.08 52.79,52.79 154.41,75.98 221.72,50.26 60.76,-23.23 23.4,33.81 53.84,33.81 39.11,0 58.49,-14.69 99.45,-4.57 0.37,1.52 0.61,2.34 1.82,2.74 0,103.54 -340.64,151.44 -406.94,118.81 -81.2,-39.98 -137.92,19.3 -219.89,0 -53.89,-12.68 -82.87,-180.78 -131.39,-151.71 -51.81,-30.9 -72.58,51.09 -98.54,-53.91 -10.17,-2.55 -47.16,-19.66 -55.66,-26.51l-20.08 -16.45zm1003.67 260.46l-4.56 -4.57c0,-146.53 117.46,-31.79 171.54,-9.14 35.89,15.04 78.9,48.51 114.96,55.74 42.7,8.55 74.72,-26.12 114.97,-13.7 90.43,27.89 81.27,-96.87 154.2,-96.87 140.42,0 145.57,142.38 187.05,236.69 9.62,21.86 53.83,72.22 32.84,93.21 -31.13,31.13 -204.17,64.12 -240.88,36.56 -50.78,-38.14 -131.04,20.48 -195.26,-9.14 -135.95,-62.72 -16.25,-156.78 -135.03,-205.62 -41.13,-16.91 -35.78,-33.81 -85.77,-33.81 -43.95,0 -79.12,10.27 -116.79,-22.85l2.73 -26.5zm1808.43 -317.12c-16.91,-39.58 2.27,-73.31 49.28,-62.14 31.69,7.52 74.81,60.75 74.81,93.22 -1.25,0.41 -3.15,1.65 -3.64,3.65 -29.41,7.39 -57.13,-18.28 -85.77,-18.28l-34.68 -16.45zm436.14 37.47c-9.15,-29.83 46.78,-31 64.79,-27.41 44.47,8.85 67.93,-7.31 109.49,-7.31 30.71,0 38.87,20.96 64.78,27.41 51.39,12.78 86.96,-39.74 138.69,-20.1 31.08,11.79 38.65,37.33 2.74,46.6 -60.7,15.68 -103.71,-6.39 -160.59,-6.39 -24.48,0 -50,5.3 -73.91,9.14 -35.48,5.71 -69.3,-12.8 -104.93,-12.8l-41.06 -9.14zm2449.87 4671.7c-13.37,-23.01 -15.54,-67.6 0.91,-92.3 11.61,-17.45 29.44,-8.64 31.94,9.14 4.99,35.51 7.33,76.4 18.25,111.49 2.4,7.7 8.72,29 5.47,37.47 -6.96,18.16 -36.93,-14.71 -41.97,-21.02l-14.6 -44.78zm-3435.29 5196.25c-6.82,-9.88 -6.41,-38.58 1.83,-47.52 9.67,-10.5 20.09,-20.94 34.67,-23.76 22.02,-4.27 45.36,19.43 38.32,41.13 -9.32,28.76 -42.28,42.95 -70.25,42.95l-4.57 -12.8zm-1119.54 -446.88c-7.56,-9.07 -57.81,-59.04 -34.68,-68.54 12.31,-5.06 63.64,-16.67 74.82,-10.05 4.78,2.82 12.18,2.82 17.34,6.4 20.39,14.14 41.34,51.78 53.83,74.02 7.06,12.56 8.77,22.12 -6.39,30.16 -27.08,14.35 -47.15,0.72 -73.9,-8.23l-31.02 -23.76zm-62.05 -126.11c-10.73,-23.36 12.71,-64.6 30.11,-79.51 15.01,-12.85 41.99,-20.59 56.57,-0.91 17.16,23.14 10.17,55.86 12.77,84.07 1.81,19.7 -12.6,15.01 -26.46,21.94 -27.38,13.69 -42.58,18.01 -72.08,8.22l-0.91 -33.81zm17893.61 -10093.68c-71.34,38.17 -107.02,8.71 -150.55,81.34 -35.31,58.93 -107.27,1.15 -110.4,70.36 -1.96,43.32 -45.77,71.3 -82.12,86.82 -174.46,74.46 -310.03,8.34 -434.32,-116.06 -5.25,-6.85 -34.2,-39.05 -24.63,-45.69 42.47,-29.45 77.08,25.36 81.2,-61.23 3.78,-79.27 87.8,-97.79 152.38,-97.79 40.54,0 83.89,-17.09 115.88,-41.12 34.13,-25.62 20.81,-83.66 32.85,-119.72 13.93,-149.81 12.27,-292.33 -68.44,-423.12 -33.56,-54.38 -124.09,-65.83 -124.09,-153.53 0,-40.81 62.05,-65.01 85.77,-95.04 29.2,-36.98 26.06,-93.09 76.65,-116.06 30.48,-15.79 60.95,-38.7 95.8,-45.69 30.33,-6.09 64.46,7.72 93.07,-2.75 85.72,-31.4 95.75,-25.58 180.66,-25.58 44.96,0 94.42,-13.71 145.99,-13.71 68,0 155.46,-95.02 115.87,-159.02 -21.63,-34.95 9.06,-123.45 22.82,-159.92 9.52,-25.22 175.38,-111.82 203.47,-113.32 152.92,-8.22 86.95,87.17 185.22,130.68 39.84,-7.72 116.48,-15.86 154.2,-6.4 44.87,11.26 8.72,57.66 14.6,85.91 6.34,30.41 142.24,24.47 177.01,38.38 48.22,19.3 47.22,77.28 57.48,118.8 75.07,18.97 132.17,4.87 65.7,-69.45 -62.51,-69.91 -98.51,-82.72 -12.78,-116.98 51.67,-20.64 266.89,-161.4 323,-117.89 53.32,41.33 82.2,118.75 -10.03,128.86 -73.93,8.11 -45.96,123.37 -7.3,123.37 38.29,0 82.69,-42.95 143.25,-42.95 119.15,0 79.4,-113 143.25,-167.24 86.44,-73.45 124.06,38.2 177.01,71.28l143.25 63.06c73.68,32.42 187.5,65.8 268.25,65.8 102.21,0 51.41,53.35 1.83,84.08 -92.04,57.07 -170.6,111.11 -253.66,180.94 -122.35,102.85 -237.61,72.7 -376.83,121.55 -26.27,90.47 -95.56,62.33 -136.86,118.8 -36.37,49.71 -47.54,70.25 -111.32,53.92 -82.23,-21.06 -152.85,10.92 -239.97,-6.4 -57.62,-11.46 -63.09,-4.97 -112.23,21.02 -48.24,25.5 -103.19,26.41 -157.85,29.24 -32.51,13.67 -106.84,15.6 -126.82,35.64 -61.43,61.59 -51.51,139.69 -175.19,116.98 -66.44,-12.19 -107.47,-42.29 -177.92,-22.85 -151.92,41.92 -33.66,112.37 -61.13,196.48 -30.27,92.71 -135.34,201.7 -208.95,263.2l-93.07 53zm-12095.13 8884.63c9.07,27.42 -14.48,98.22 -30.11,122.46 -27.6,42.83 -77.76,81.02 -65.7,138.91 17.16,82.31 154.65,40.08 190.7,-0.92 80.48,-40.24 136.2,-66.27 225.37,-77.68 60.63,-7.75 127.69,-49.01 183.4,-46.6 28.85,1.25 85.5,4.22 110.4,-8.23 52.3,-26.14 73.26,-85.78 131.39,-108.75 64.03,-25.29 147.63,-6.54 205.29,-45.69 65.24,16.19 136.47,109.3 182.49,111.49 65.33,3.1 102.56,-29.85 114.97,-93.21 34.69,-177.1 151.89,-40.94 257.3,-126.12 22.46,-18.14 46.69,-9.55 66.61,-22.85 30.93,-20.64 27.86,-61.23 70.25,-66.71 71.54,-9.24 42.06,-22.85 81.21,-53.92 72.95,-40.47 105.87,-16.45 181.57,-16.45 50.23,0 51.41,-37.53 93.98,-45.69 24.24,-4.65 70.43,-0.53 78.47,-32.9 7.8,-31.45 -55,-48.29 -6.38,-71.28 54.98,-26.01 70.58,-24.5 112.22,-73.11 32.82,-38.33 55.07,-109.2 76.65,-155.36 18.06,-38.65 1.29,-83.45 33.76,-117.89 26.64,-28.24 60.29,-76.67 72.08,-113.32 41.6,-66.42 74.7,-37.5 120.44,-76.76 30.02,-25.78 58.6,-73.22 89.42,-89.56 26.01,-13.78 35.58,-36.79 35.58,-64.88 0,-57.92 28.13,-76.21 46.54,-123.38 16.9,-43.33 -23.23,-182.77 0.91,-185.51 31.67,-3.6 60.96,-28.64 92.15,-31.99 114.27,-12.31 53.18,91.31 68.44,156.27 10.5,44.67 -14.18,120.43 -1.83,152.62 14.19,36.95 83.61,-66.13 91.24,-76.76 45.43,-45.52 183.84,-98.93 187.05,-166.33 7.02,-147.38 99.41,-47.84 153.29,-11.88 31.51,21.04 79.34,5.61 117.7,29.24 97.5,60.05 53.72,-43.94 103.11,-85.9 31.77,-27 28.66,-44.05 52.92,-70.37 21.25,-23.07 62.11,-23.79 89.42,-35.64 31.63,15.9 84.52,68.28 117.7,66.71 40.34,-1.92 79.35,-32.5 119.53,-40.21 94.71,-18.17 118.3,-26.87 188.87,-91.38 56.18,-51.34 69.86,-30.39 135.95,-41.13 75.05,-12.19 61.32,-91.91 80.29,-148.04 27.06,-80.03 14.64,-150.65 122.27,-129.77 48.39,9.39 45.98,-65.59 53.83,-97.79 13.89,-56.91 64.03,-84.03 96.72,-119.71 95.84,-40.12 72.74,8.17 144.16,2.74 69.3,-5.26 39.21,45.1 98.55,49.35 86.37,6.2 272.15,-21.7 358.58,-42.04 34.79,-8.19 32.46,-40.54 59.31,-53.92l196.17 -97.78c49.92,-24.88 13.68,-64.2 41.06,-116.06 37.06,-70.22 -60.46,-67.16 -62.96,-122.46 -4.29,-94.57 201.47,-225.64 281.03,-168.15 29.99,21.66 44.71,49.11 85.77,29.24l158.76 -65.8c33.96,-14.07 57.1,41.28 93.98,-4.57 63.74,-79.27 179.46,-70.32 239.97,-137.99 41.68,-46.6 62.24,-81.03 129.56,-84.08 31.48,-1.43 162.9,-35.21 187.96,-50.26 37.14,-22.29 49.08,-75.97 89.42,-91.39 42.22,-16.13 86.19,2.92 126.83,-24.67 58.59,-24.76 122.55,-25.29 177.92,-53.01 38.89,-19.46 54.09,-50.79 101.28,-56.66 82.58,-10.27 114.06,80.42 175.19,-21.02 -2.72,-7.19 -1.75,-13.64 -5.48,-22.84 -13.98,-44.82 -51.33,-77.82 -20.98,-124.29 11.9,-18.21 42.5,-48.92 43.79,-70.37 5.33,-88.45 -130.47,28.52 -130.47,-95.04 0,-32.29 86.36,-67.79 59.3,-76.76 -23.69,-7.84 -47.72,17.5 -54.74,-19.19 -5.19,-27.1 69.84,-113.87 93.98,-116.98 34.71,-4.46 56.56,16.87 76.64,-28.33 34.99,-78.72 54.57,-42.82 106.76,-80.42 71.17,-47.7 94.83,-76.65 130.47,-152.62 42.64,-90.91 25.08,-88.91 2.74,-184.6 -33.71,-144.44 209.95,-133.84 259.13,-10.05 44.32,111.58 137.46,16.57 201.65,128.86 41.93,73.37 66.49,60.65 146.9,46.6 39.58,-6.92 179.85,-18.41 204.38,-42.04 170.27,-31.72 109.72,-114.06 186.13,-218.41 6.29,-8.6 234.52,-17.81 250.01,-9.14 74.51,41.75 89.23,46.23 162.41,-4.57 51.84,-36 197.19,-127.6 100.37,-188.25 6.72,-53.53 -70.62,-87.21 -50.18,-159.93 43.17,-104.22 133.21,-60.67 208.94,-79.51 64.17,-15.97 153.19,119.28 169.71,16.45 7.07,-43.98 28.29,-112.9 28.29,-152.61 0,-24.08 -25.55,-41.51 -25.55,-69.46 0,-36.98 50.72,-63.65 49.27,-81.33 -3.01,-36.75 -70.46,-22.92 -64.78,-73.11l14.6 -128.86c4.87,-43.04 37.54,-110.1 7.3,-150.79 1.4,-2.81 -2.19,-5.88 -4.56,-10.05 0,-50.14 -23.11,-107.01 43.79,-123.37 31.61,-7.72 102.28,9.34 122.27,-6.4 20.34,-16.01 -2.84,-57.31 11.86,-78.59 24.4,-35.35 77.19,-20.11 113.14,-20.11 66.66,0 47.9,-65.21 58.39,-105.09 6.63,-25.19 39.31,-35.74 55.66,-52.09 4.6,-4.6 27.93,-177.28 20.08,-187.34 -28.49,-36.48 -44.44,-57.75 -67.52,-96.87 -28.1,-47.65 -97.14,36.61 -130.48,57.57 -59.28,37.29 -137.23,-74.84 -179.75,-104.18 -88.74,-66.67 -175.04,-186.42 -146.9,-306.15 16.64,-70.84 62.79,-160.82 138.69,-182.77 60.96,-17.64 114.43,7 143.25,-62.14 43.72,-104.84 63.4,-158 156.03,-228.47 38.4,-92.7 283.16,-128.76 375,-172.72 128.7,-61.62 191.27,-156.77 241.8,-287.87 28.09,-72.91 102.71,-146.89 147.81,-211.1 27.54,-51.91 68.59,-81.36 65.69,-145.31 -2,-44.32 -23.09,-89.56 45.63,-71.28 91.51,24.34 226.87,51.59 285.59,-42.04 52.48,-83.66 8.32,-64.79 -39.24,-134.34 -22.59,-33.02 -37.71,-78.56 -52.92,-116.06 0,-51.24 -25.13,-131.54 4.56,-173.63 35.97,-51.01 78.69,-79.19 112.23,-137.08 21.11,-36.42 105.83,-285.64 57.48,-292.44 -23.17,-40.73 -112.24,38.17 -133.21,47.52 -56.5,25.18 -70.32,-47.18 -107.67,-44.78 -27.37,1.75 -47.84,50.52 -74.82,53.92 -38,53.57 -13.68,51.95 -13.68,109.66 0,38.84 -67.71,20 -89.42,30.16 -23.97,11.23 -25.03,50.37 -38.32,71.28 6.79,27.34 -69.12,56.01 -39.24,134.34 19.63,51.45 16.37,67.4 -29.19,101.44l-10.04 -1.83c-62.48,19.28 -100.9,72.24 -146.9,114.24 -56.09,51.2 -121.27,0.86 -176.1,23.76 -101.13,42.25 -239.89,153.61 -270.99,266.85 -21.71,79.04 -28.22,167.26 -116.79,195.56 -93.3,29.82 -201.31,-24.89 -289.24,-44.78 -197.32,0 -315.3,19.33 -471.73,141.65 -134.1,104.85 -269.13,138.72 -432.49,180.04 -72.71,18.39 -167.28,138.44 -212.59,139.82 -45.79,40.66 -145.37,99.21 -205.3,113.32 -79.97,18.82 -80.8,-22.31 -134.13,-69.46 -132.16,-116.82 -120.06,-181.6 -29.19,-331.73l-5.48 -11.88c-47.3,-6.84 -103.82,22.94 -152.37,32.9 -57.04,11.71 -117.26,-2.53 -169.71,18.28l-426.11 169.06c-163.84,43.59 -294.09,146.15 -440.7,238.52 -43.81,27.61 -89.82,13.11 -132.3,51.18 -68.6,61.46 -104.12,111.03 -205.3,94.13 -91.56,-15.3 -177.01,-102.41 -226.28,-177.29 -135.13,-205.4 -125.51,-55.45 -261.87,17.36 -97.24,97.5 -230.23,141.18 -348.54,202.88 -123.81,64.58 -230.34,57.15 -346.73,112.4l-227.19 107.84c-81.78,38.82 -169.27,22.19 -255.48,38.38 -103.53,24.09 -134.94,33.18 -218.98,107.84 -50.9,45.23 -136.93,143.18 -199.82,161.75 -45.37,13.39 -83.95,-8.17 -129.57,14.63 -77,38.5 -126.51,35.6 -199.82,60.31 -89.67,30.22 -152.82,129.34 -235.41,173.64 -50.11,100.59 17.31,82.9 -118.61,108.75 -87.41,16.63 -132.9,105.17 -205.3,143.47 -45.12,23.86 -88.97,4.13 -105.84,65.8 -16.13,59.01 -8.61,117.21 -90.33,96.87 -28.88,-7.18 -174.34,27.48 -198,51.18 -109.04,109.28 35.23,218.91 -147.81,144.39 -54.14,-22.04 -92.71,79.07 -115.88,115.15 -29.93,90.25 -64.36,161.07 -175.18,173.63 -25.12,2.85 -55.8,-11.56 -77.56,-6.4 -30.39,7.22 -31.67,52.78 -56.57,74.94 -28.23,25.14 -70.79,30.32 -36.5,70.37 62.34,72.79 396.53,253.34 380.48,336.3 -20.57,46.46 -3.61,79.35 -18.25,118.81 -13.43,36.23 -22.27,55.51 12.78,82.24 94.62,72.13 -33.25,127.84 11.86,176.38 36.45,39.21 65.54,69.89 93.98,116.06 35.55,57.69 20.83,146.38 7.3,208.36 -32.34,97.58 -158.29,185.11 -226.28,263.2 -81.84,93.98 -202.29,137.39 -307.49,195.57 -71.28,39.41 -102.64,116.78 -168.8,161.75 -196.08,49.02 -349.41,75.14 -531.03,175.46 -176.51,97.51 -354.44,24.75 -532.86,116.98 -191.97,56.47 -261.72,216.57 -403.29,334.47 -13.07,10.89 -100.43,75.48 -97.63,86.82 85.99,21.73 175.71,9.89 258.21,-8.22 100.24,-22 127.64,77.2 148.73,149.87 0,73.74 -10.04,145.38 -10.04,218.42 0,33.69 -0.16,119.03 -45.62,123.37 -32.68,3.11 -60.33,-33.69 -87.59,-24.68 0,23.21 43.94,62.55 52.92,89.56 -29.28,37.73 -50.17,67.67 -84.86,102.36 -20.1,20.1 -67.63,43.38 -93.98,55.74 -96.53,45.26 -154.99,44.61 -253.65,12.8 -145.38,-105.99 -369.76,-55 -533.77,-15.54l-535.6 128.86c-55.36,40.22 -139.79,94.81 -202.55,118.8 -64.13,24.5 -120.88,-9.1 -184.31,1.83 -45.31,7.81 -79.47,33.71 -125.92,9.14 -66.13,-34.97 -57.48,-50.36 -144.16,-51.18l-284.68 -2.74c-55.27,-0.52 -56.65,51.8 -93.07,60.31 -111.2,111.81 -316.49,4.68 -459.86,15.54 -172.78,13.1 -309.17,136.41 -422.45,250.4 0.4,2.06 0.05,1.22 -0.92,3.65 -30.17,15.08 -6.1,137.8 -0.91,161.76 8.8,40.66 -81.19,163.42 -112.23,191.91 -57.76,79.65 -596.52,571.21 -646.91,367.38 -32.33,-8.17 -70.84,26.86 -98.54,41.12 -29.27,15.08 -62.84,-11.98 -76.65,1.83 45.46,112.67 -122.29,192.27 -172.44,270.5l-148.73 127.03c-31.66,27.04 -74.17,8.7 -104.93,29.24 -35.27,23.54 -134.81,108.75 -177.01,108.75 -31.32,0 -55.79,87.79 -85.77,111.5 -62.54,49.48 -151.08,94.72 -230.84,59.4 -45.21,-20.03 -20.75,-54.07 -28.29,-84.08l-123.17 10.97c-62.15,20.64 -130.07,72.74 -189.79,80.42 -22.59,2.91 -8.7,103.49 -31.93,130.68 -22.42,26.26 -2.07,50.94 -19.17,80.42 -27.37,47.15 -78.29,31.15 -104.92,63.97 -13.74,16.92 -0.58,44.75 -30.11,52.09 -17.56,4.37 -47.48,0.05 -60.23,12.8 -19.9,19.9 -8.53,56.21 -31.93,69.45 -46.32,26.19 -18.27,25.43 -38.32,65.8 -20.27,40.79 -69.06,21.01 -85.77,78.59 -18.83,50.69 -79.47,74.17 -122.27,101.44 -33.61,21.4 -99.9,-9.56 -124.09,12.8 -29.65,27.39 -15.02,36.79 -25.54,68.54 -8.39,25.35 -50.88,45.93 -70.26,68.54 -9.47,11.06 -117.15,77.79 -51.1,94.12 0.71,2.82 2.78,3.12 5.48,4.57 5.74,1.3 8.99,-0.55 10.03,3.66 75.77,0 164.75,69.78 250.01,24.67 28.24,-14.93 52.28,-51.37 82.12,-58.48 64.73,-15.41 92.65,9.78 160.59,-39.3 67.17,-48.54 159.52,-156.89 240.88,-169.98 102.54,-16.51 78.34,79.65 128.65,109.66 13.21,-9.87 81.86,-61.89 77.56,-75.85 -21.07,-68.44 -18.56,-81.29 45.62,-127.02 105.42,-54.53 224.19,-91.05 338.51,-33.82 65.79,32.94 123.5,105.33 164.23,165.41 54.75,80.78 71.91,40.65 143.25,54.84 93.6,18.61 92.1,123.68 215.34,58.48 53.68,-28.39 10.95,-65 10.95,-106.92 0,-56.72 41.62,-76.02 62.95,-118.8 106.55,-78.07 252.31,-142.81 388.7,-125.2 34.63,4.47 123.73,25.57 116.79,74.93 -2.47,17.57 -29.65,41.09 -38.32,58.49 -16.62,33.38 -23.73,68.69 -23.73,106.01 0.58,18.57 30.73,87.57 45.63,98.7 43.51,32.47 52.51,-134.71 56.57,-158.1 13.26,-76.42 51.92,-129.97 101.28,-186.43 35,-46.15 93.36,-72.48 128.65,-126.11 148.71,-226.04 251.55,-294.57 509.13,-304.32 89.75,-3.4 169.21,-5.91 211.69,84.07 36.55,77.44 100.18,195.92 197.08,66.72 59.68,-81.87 71.74,-125.89 165.15,-182.78l181.57 -110.58c105.07,-63.99 133.97,-96.92 219.9,-179.11 70.15,-67.08 153.78,-147.47 249.09,-179.12 103.06,-19.97 194.63,-64.88 305.66,-76.77 125.96,-13.5 707.68,81.27 639.61,285.13 0,25.54 -3.83,42.86 2.74,68.54 5.67,22.12 33.31,38.15 45.62,56.66 12.22,18.35 25.7,51.64 17.34,74.02l10.04 27.42z"/>
  <path class="fil2 str2" d="M9508.65 12330.48c-38.81,-56.09 -30.71,-179.37 17.34,-231.21 27.09,-29.24 37.03,-36.25 76.64,-27.42 81.65,18.2 138.69,-7.45 147.81,94.13 3.87,43.11 -5.14,105.54 26.46,139.82 15.29,16.6 51.75,54.05 43.8,79.51 -14.66,46.88 -251.71,-29.51 -289.24,-42.04l-22.81 -12.79zm414.24 265.02c-30.11,-16.25 -17.21,-65.43 9.13,-78.59 78.22,-39.11 148.71,24.33 228.1,-75.85 128.81,-162.56 197.1,-161.93 392.35,-215.68l156.02 -42.95c34.74,-9.56 101.95,-49.63 109.49,-0.91 6.95,44.98 103.43,191.68 -34.67,135.25 -72.32,-29.56 -134.86,-86.41 -219.89,-75.85 -69.68,8.66 -322.75,119.14 -355.85,180.95 -36.12,67.42 -4.71,142.16 -18.25,211.1 -93.87,53.55 -154.66,5.69 -248.18,-19.19l-18.25 -18.28zm1053.86 -425.86c-31.33,7.7 -39.83,39.66 -83.95,35.64 -126.19,-11.5 124.74,-436.59 227.2,-461.51 45.94,-11.18 85.43,-3.66 135.04,-21.01 48.06,-16.82 184.06,-98.11 197.08,-16.45 11.67,73.26 61.62,85.38 83.94,145.3 -17.71,47.68 -131.63,39.63 -177.92,51.18 -107.65,26.88 -165.4,63.22 -223.54,157.18 -37.42,60.48 -69.69,113.32 -149.64,113.32 -2.85,-4.57 -3.92,-10.17 -8.21,-3.65zm682.49 -305.23c-2.51,-7.57 -31.11,-86.54 -2.74,-78.6 19.02,5.33 43.19,60.1 56.57,76.77 46.04,57.38 138.33,36.81 200.74,34.72 105.42,-3.53 63.26,159.44 -40.15,63.06 -66.14,-61.63 -151.61,-26.24 -215.33,-82.25l0.91 -13.7zm516.44 -318.94c4.16,-18.21 16.27,-101.44 38.32,-101.44 8.72,26.35 11.66,45.75 36.49,14.62 10.2,-12.78 31.92,-34 38.33,-8.23 5.5,22.14 24.97,65.8 16.42,86.82 -17.24,42.33 -75.74,20.19 -109.49,17.36l-20.07 -9.13zm364.05 -399.37c-8.63,-37.63 58.42,-79.4 89.42,-56.65 13.13,9.63 18.11,24.68 5.48,38.38 -14.9,16.18 -43.64,19.02 -63.87,17.36l-31.03 0.91zm796.55 187.35c-65.16,-30.11 -94.67,-117.94 -83.03,-191 13.91,-87.26 130.09,39.63 163.33,63.06 115.44,81.36 331.07,128.71 343.07,-70.37 3.12,-51.85 8.38,-100.61 68.43,-82.25 45.4,13.89 4.18,74.23 -3.65,105.1 -17.7,69.83 68.06,482.11 -123.18,321.68 -112.18,-94.12 -216.71,-112.95 -353.11,-147.14l-11.86 0.92zm-2410.63 -43.87c-41.79,-77.68 97.62,-101.74 144.16,-123.37 100.12,-46.52 139.61,-65.31 172.45,-180.95 56.38,-198.57 101.34,-173.78 283.77,-171.8l166.97 1.82c159.56,1.73 138.57,33.72 2.74,67.63 -102.85,25.68 -184.71,30.33 -253.66,120.63 -108.63,142.29 -133.19,136.36 -296.53,184.6 -91.11,26.9 -128.7,92.92 -212.6,118.81l-7.3 -17.37zm4010.12 -1760.11c-33,-47.61 -21.5,-166.25 -35.59,-226.64 -16.56,-70.92 -84.85,-129.11 -84.85,-201.96 15.14,0 40.18,19.83 56.57,24.67 147.8,43.61 303.54,-11.23 440.7,29.25 79.02,23.31 121.21,143.7 99.46,217.5 -39.65,134.57 -210.18,126.57 -291.07,233.03 -24.48,32.23 -53.97,60.32 -96.72,60.32 -68.52,0 -39.94,-65.84 -79.38,-90.47l-9.12 -45.7zm5072.18 -905.64c-65.85,-122.62 246.43,-211.11 328.48,-211.11 82.45,0 180.95,-40.36 246.35,-90.47 48.27,-36.97 150.88,-137.08 208.03,-137.08l1.83 0.92c0.91,1.22 0.91,1.52 1.82,2.74 0,2.39 0.35,1.97 -0.91,3.65 0,28.24 -55.9,88.66 -62.96,128.86 -11.58,65.97 112.45,124.8 -29.19,139.82 -132.78,14.07 -325.44,-61.22 -418.81,76.76 -57.25,84.62 -151.57,108.76 -249.09,108.76l-25.55 -22.85zm-352.2 -814.26c-23.59,16.35 -76.9,-14.88 -48.35,-50.26 27.38,-33.95 234.75,-158.91 176.09,-205.62 -130.11,-103.63 -62.92,-103.86 44.71,-116.06 98.4,-11.16 191.9,-69.04 275.56,-116.98 117.85,-67.52 204.8,-194.45 333.03,-58.49 28.02,29.72 16.93,88.06 5.48,122.46 -19.01,57.15 -58.92,34.36 -100.37,63.06 -35.66,24.68 -38.02,76.45 -68.43,106.92 -55.13,55.22 -158.17,-30.76 -218.98,67.63 -60.77,98.35 -67.61,202.91 -206.21,116.97 -94.15,-58.37 -107.9,23.4 -166.07,68.54l-26.46 1.83zm3209.01 -1809.46c8.27,-38.87 10.25,-100.17 37.41,-130.68 39.03,-43.82 124.32,-201.97 187.96,-116.98 49.23,65.73 130.38,89.14 178.84,149.88 47.96,60.1 -7.79,71.44 -58.4,90.47l-216.24 81.34c-57.01,21.44 -136.5,60.42 -146.9,-23.76l17.33 -50.27zm2678.89 -3500.11c-25.18,-46.75 -46.36,-148.42 -42.89,-201.97 4.34,-66.79 79.78,-85.36 104.93,-20.1 17.1,44.39 2.76,95.74 21.9,141.65 13.58,32.6 85.85,58.98 45.62,108.75 -35.94,44.48 -78.61,26.81 -109.49,-11.88l-20.07 -16.45z"/>
  <use x="19594.83" y="5074.67" width="105.38" height="105.38" xlink:href="#villes"/>
  <use x="21600.47" y="4688.83" width="105.38" height="105.38" xlink:href="#villes"/>
  <use x="22288.43" y="5773.55" width="105.38" height="105.38" xlink:href="#villes"/>
  <use x="22171.95" y="6417.83" width="105.38" height="105.38" xlink:href="#villes"/>
  <use x="19023.35" y="6701.75" width="105.38" height="105.38" xlink:href="#villes"/>
  <use x="17735.85" y="8067.81" width="256.13" height="256.13" xlink:href="#Capitale"/>
  <use x="16730.15" y="7822.87" width="105.38" height="105.38" xlink:href="#villes"/>
  <use x="14669.91" y="9049.55" width="105.38" height="105.38" xlink:href="#villes"/>
  <use x="16271.51" y="9220.63" width="105.38" height="105.38" xlink:href="#villes"/>
  <use x="14524.31" y="11284.51" width="105.38" height="105.38" xlink:href="#villes"/>
  <use x="11426.67" y="10367.23" width="105.38" height="105.38" xlink:href="#villes"/>
  <polygon class="fil3 str3" points="24757.11,12170.12 28104.38,12170.12 28104.38,13763.02 24757.11,13763.02 "/>
  <path class="fil4" d="M26267.33 12489.03l0 24.34 -31.39 0 0 61.74 -28.58 0 0 -61.74 -98.43 0 0 -21.93 107.96 -154.81 19.05 0 0 152.4 31.39 0zm-59.97 0l0 -116.06 -81.61 116.06 81.61 0z"/>
  <path id="1" class="fil4" d="M26425.74 12329.93l0 157.16 39.98 -36.63c8.52,-7.82 13.46,-12.76 14.81,-14.82 0.95,-1.41 1.42,-2.76 1.42,-4.17 0,-2.29 -1,-4.23 -2.89,-5.94 -1.88,-1.65 -4.99,-2.59 -9.4,-2.82l0 -5.65 68.61 0 0 5.65c-9.35,0.23 -17.17,1.7 -23.4,4.35 -6.23,2.7 -13.05,7.47 -20.52,14.29l-40.63 37.22 40.34 51.33c11.29,14.05 18.81,23.04 22.58,26.98 5.58,5.24 10.4,8.65 14.58,10.17 2.94,1.12 7.99,1.71 15.17,1.71l0 6.35 -76.73 0 0 -6.35c4.41,-0.12 7.35,-0.76 8.88,-1.94 1.58,-1.24 2.35,-2.88 2.35,-5.06 0,-2.64 -2.3,-6.88 -6.88,-12.7l-48.27 -61.79 0 52.21c0,10.23 0.7,16.93 2.11,20.17 1.47,3.17 3.47,5.46 6.12,6.88 2.64,1.35 8.35,2.11 17.17,2.23l0 6.35 -80.08 0 0 -6.35c7.99,0 14.05,-1 18.05,-2.94 2.41,-1.23 4.23,-3.17 5.46,-5.76 1.71,-3.76 2.59,-10.29 2.59,-19.52l0 -143.94c0,-18.05 -0.41,-29.1 -1.18,-33.16 -0.82,-4.05 -2.11,-6.82 -3.99,-8.35 -1.83,-1.58 -4.24,-2.35 -7.18,-2.35 -2.41,0 -6.05,1 -10.82,2.94l-2.93 -6.35 46.74 -19.4 7.94 0z"/>
  <path id="2" class="fil4" d="M26602.48 12446.23c11.41,-11.53 18.17,-18.17 20.22,-19.93 5.12,-4.36 10.65,-7.77 16.59,-10.18 5.93,-2.41 11.81,-3.64 17.63,-3.64 9.88,0 18.29,2.88 25.4,8.64 7.06,5.76 11.82,14.11 14.17,25.11 11.88,-13.88 21.88,-22.93 30.05,-27.28 8.17,-4.3 16.58,-6.47 25.22,-6.47 8.35,0 15.82,2.17 22.35,6.47 6.46,4.29 11.64,11.34 15.4,21.16 2.53,6.65 3.82,17.11 3.82,31.4l0 67.97c0,9.82 0.71,16.58 2.18,20.23 1.12,2.46 3.23,4.64 6.23,6.4 3.06,1.77 8,2.65 14.88,2.65l0 6.35 -77.26 0 0 -6.35 3.29 0c6.7,0 11.99,-1.29 15.76,-3.94 2.64,-1.82 4.52,-4.76 5.64,-8.76 0.47,-1.94 0.71,-7.47 0.71,-16.58l0 -67.91c0,-12.88 -1.53,-21.93 -4.65,-27.22 -4.52,-7.35 -11.7,-11.06 -21.63,-11.06 -6.06,0 -12.23,1.53 -18.41,4.59 -6.11,3 -13.58,8.7 -22.34,16.93l-0.35 1.94 0.7 7.41 0 75.32c0,10.7 0.59,17.4 1.77,20.05 1.23,2.59 3.46,4.82 6.76,6.58 3.29,1.77 8.93,2.65 16.87,2.65l0 6.35 -79.37 0 0 -6.35c8.64,0 14.58,-1 17.81,-3.06 3.24,-2.06 5.47,-5.17 6.7,-9.29 0.59,-1.94 0.89,-7.58 0.89,-16.93l0 -67.91c0,-12.88 -1.88,-22.17 -5.65,-27.87 -5.05,-7.41 -12.05,-11.11 -21.11,-11.11 -6.17,0 -12.28,1.7 -18.34,5.05 -9.47,5.06 -16.82,10.82 -21.93,17.17l0 84.67c0,10.29 0.7,16.93 2.12,20.05 1.41,3.06 3.52,5.35 6.35,6.94 2.76,1.53 8.4,2.29 16.93,2.29l0 6.35 -77.97 0 0 -6.35c7.24,0 12.29,-0.76 15.17,-2.29 2.89,-1.59 5.06,-4 6.59,-7.41 1.47,-3.35 2.23,-9.88 2.23,-19.58l0 -60.33c0,-17.28 -0.53,-28.45 -1.53,-33.51 -0.82,-3.82 -2.05,-6.41 -3.82,-7.82 -1.7,-1.47 -4.05,-2.18 -6.99,-2.18 -3.24,0 -7.06,0.89 -11.53,2.59l-2.58 -6.35 47.62 -19.4 7.41 0 0 33.75z"/>
  <path class="fil4" d="M25995.51 13499.6l-16.34 45.39 -137.82 0 0 -6.47c40.57,-36.98 69.08,-67.14 85.61,-90.54 16.52,-23.41 24.81,-44.81 24.81,-64.21 0,-14.82 -4.53,-26.99 -13.64,-36.51 -9.06,-9.53 -19.88,-14.29 -32.52,-14.29 -11.52,0 -21.81,3.29 -30.92,9.94 -9.18,6.64 -15.88,16.4 -20.29,29.22l-6.35 0c2.88,-21.11 10.29,-37.34 22.17,-48.69 11.87,-11.28 26.75,-16.93 44.62,-16.93 18.94,0 34.81,6.12 47.51,18.29 12.7,12.17 19.05,26.51 19.05,43.09 0,11.82 -2.76,23.7 -8.29,35.52 -8.47,18.58 -22.28,38.27 -41.33,59.09 -28.64,31.16 -46.28,49.86 -53.04,56.03l60.39 0c12.29,0 20.93,-0.47 25.87,-1.35 4.94,-0.94 9.41,-2.82 13.4,-5.65 4,-2.76 7.47,-6.76 10.41,-11.93l6.7 0z"/>
  <path id="1" class="fil4" d="M26156.74 13416.11c11.41,-11.53 18.17,-18.17 20.22,-19.93 5.12,-4.36 10.65,-7.77 16.59,-10.18 5.93,-2.41 11.81,-3.64 17.63,-3.64 9.88,0 18.29,2.88 25.4,8.64 7.06,5.76 11.82,14.11 14.17,25.11 11.88,-13.88 21.88,-22.93 30.05,-27.28 8.17,-4.3 16.58,-6.47 25.22,-6.47 8.35,0 15.82,2.17 22.35,6.47 6.46,4.29 11.64,11.34 15.4,21.16 2.53,6.65 3.82,17.11 3.82,31.4l0 67.97c0,9.82 0.71,16.58 2.18,20.23 1.12,2.46 3.23,4.64 6.23,6.4 3.06,1.77 8,2.65 14.88,2.65l0 6.35 -77.26 0 0 -6.35 3.29 0c6.7,0 11.99,-1.29 15.76,-3.94 2.64,-1.82 4.52,-4.76 5.64,-8.76 0.47,-1.94 0.71,-7.47 0.71,-16.58l0 -67.91c0,-12.88 -1.53,-21.93 -4.65,-27.22 -4.52,-7.35 -11.7,-11.06 -21.63,-11.06 -6.06,0 -12.23,1.53 -18.41,4.59 -6.11,3 -13.58,8.7 -22.34,16.93l-0.35 1.94 0.7 7.41 0 75.32c0,10.7 0.59,17.4 1.77,20.05 1.23,2.59 3.46,4.82 6.76,6.58 3.29,1.77 8.93,2.65 16.87,2.65l0 6.35 -79.37 0 0 -6.35c8.64,0 14.58,-1 17.81,-3.06 3.24,-2.06 5.47,-5.17 6.7,-9.29 0.59,-1.94 0.89,-7.58 0.89,-16.93l0 -67.91c0,-12.88 -1.88,-22.17 -5.65,-27.87 -5.05,-7.41 -12.05,-11.11 -21.11,-11.11 -6.17,0 -12.28,1.7 -18.34,5.05 -9.47,5.06 -16.82,10.82 -21.93,17.17l0 84.67c0,10.29 0.7,16.93 2.12,20.05 1.41,3.06 3.52,5.35 6.35,6.94 2.76,1.53 8.4,2.29 16.93,2.29l0 6.35 -77.97 0 0 -6.35c7.24,0 12.29,-0.76 15.17,-2.29 2.89,-1.59 5.06,-4 6.59,-7.41 1.47,-3.35 2.23,-9.88 2.23,-19.58l0 -60.33c0,-17.28 -0.53,-28.45 -1.53,-33.51 -0.82,-3.82 -2.05,-6.41 -3.82,-7.82 -1.7,-1.47 -4.05,-2.18 -6.99,-2.18 -3.24,0 -7.06,0.89 -11.53,2.59l-2.58 -6.35 47.62 -19.4 7.41 0 0 33.75z"/>
  <path id="2" class="fil4" d="M26424.38 13299.81c4.76,0 8.88,1.7 12.29,5.05 3.35,3.41 5.05,7.53 5.05,12.29 0,4.82 -1.7,9 -5.05,12.41 -3.41,3.47 -7.53,5.17 -12.29,5.17 -4.82,0 -9,-1.7 -12.41,-5.17 -3.47,-3.41 -5.17,-7.59 -5.17,-12.41 0,-4.76 1.7,-8.88 5.05,-12.29 3.41,-3.35 7.59,-5.05 12.53,-5.05zm14.17 82.55l0 127c0,9.82 0.7,16.34 2.17,19.58 1.41,3.29 3.53,5.7 6.35,7.29 2.82,1.59 8,2.41 15.47,2.41l0 6.35 -76.56 0 0 -6.35c7.65,0 12.82,-0.76 15.41,-2.23 2.64,-1.47 4.7,-3.94 6.29,-7.35 1.53,-3.41 2.29,-10 2.29,-19.7l0 -61.03c0,-16.99 -0.53,-27.99 -1.53,-33.05 -0.82,-3.64 -2.05,-6.17 -3.82,-7.58 -1.7,-1.47 -4.06,-2.18 -7,-2.18 -3.23,0 -7.11,0.89 -11.7,2.59l-2.41 -6.35 47.45 -19.4 7.59 0z"/>
  <path class="fil4" d="M28283.11 13670.12c0,-17.45 4.47,-34.48 13.46,-51.13 8.93,-16.61 21.77,-29.59 38.43,-38.86 16.69,-9.26 34.1,-13.92 52.16,-13.92 17.92,0 35.18,4.56 51.69,13.74 16.56,9.12 29.4,21.92 38.53,38.43 9.17,16.51 13.73,33.77 13.73,51.74 0,18.01 -4.56,35.27 -13.73,51.78 -9.13,16.51 -21.97,29.35 -38.53,38.53 -16.51,9.17 -33.77,13.78 -51.69,13.78 -18.06,0 -35.47,-4.66 -52.16,-13.97 -16.66,-9.36 -29.5,-22.34 -38.43,-38.95 -8.99,-16.65 -13.46,-33.68 -13.46,-51.17zm17.22 0c0,14.62 3.76,28.88 11.24,42.7 7.48,13.83 18.2,24.65 32.13,32.46 13.92,7.81 28.41,11.71 43.46,11.71 15,0 29.35,-3.85 43.08,-11.52 13.74,-7.67 24.46,-18.39 32.13,-32.17 7.67,-13.79 11.52,-28.18 11.52,-43.18 0,-14.96 -3.85,-29.36 -11.52,-43.14 -7.67,-13.78 -18.39,-24.5 -32.13,-32.12 -13.73,-7.62 -28.08,-11.43 -43.08,-11.43 -15.05,0 -29.54,3.9 -43.46,11.66 -13.93,7.76 -24.65,18.58 -32.13,32.46 -7.48,13.87 -11.24,28.08 -11.24,42.57zm103.57 -33.35l5.08 -16.94c11.53,2.78 20.7,8.61 27.52,17.55 6.87,8.98 10.3,19.85 10.3,32.59 0,16.19 -5.22,29.31 -15.71,39.42 -10.49,10.11 -24.98,15.15 -43.55,15.15 -12.14,0 -22.68,-2.31 -31.61,-6.92 -8.99,-4.56 -15.71,-11.15 -20.28,-19.61 -4.56,-8.52 -6.82,-18.25 -6.82,-29.16 0,-12.23 2.92,-22.39 8.8,-30.48 5.88,-8.09 13.88,-13.6 23.94,-16.56l4.23 16.37c-6.91,2.77 -12.23,6.82 -15.89,12.23 -3.72,5.41 -5.55,11.71 -5.55,19 0,10.58 3.76,19.33 11.28,26.2 7.53,6.87 18.35,10.3 32.37,10.3 14.06,0 24.69,-3.24 31.89,-9.74 7.19,-6.49 10.81,-14.86 10.81,-25.16 0,-8.28 -2.39,-15.57 -7.24,-21.83 -4.8,-6.25 -11.33,-10.39 -19.57,-12.41z"/>
  <path id="1" class="fil4" d="M28488.57 13374.96l-18.58 0c14.44,9.27 21.68,22.91 21.68,40.92 0,11.67 -3.19,22.39 -9.64,32.13 -6.4,9.78 -15.38,17.35 -26.86,22.76 -11.52,5.37 -24.74,8.05 -39.69,8.05 -14.59,0 -27.8,-2.45 -39.7,-7.29 -11.86,-4.9 -20.98,-12.19 -27.29,-21.92 -6.35,-9.69 -9.5,-20.61 -9.5,-32.6 0,-8.84 1.88,-16.7 5.6,-23.56 3.72,-6.87 8.61,-12.47 14.58,-16.8l-72.67 0 0 -24.83 202.07 0 0 23.14zm-73.05 78.46c18.72,0 32.69,-3.95 41.96,-11.9 9.26,-7.91 13.87,-17.27 13.87,-28.04 0,-10.86 -4.42,-20.08 -13.26,-27.7 -8.84,-7.57 -22.34,-11.38 -40.5,-11.38 -19.94,0 -34.62,3.85 -43.98,11.61 -9.36,7.72 -14.01,17.27 -14.01,28.6 0,11.06 4.46,20.27 13.45,27.71 8.98,7.38 23.14,11.1 42.47,11.1z"/>
  <polygon id="2" class="fil4" points="28427.89,13322.42 28403.06,13322.42 28403.06,13245.66 28427.89,13245.66 "/>
  <path id="3" class="fil4" d="M28488.57 13218.56l-146.47 0 0 -22.29 20.69 0c-7.15,-4.56 -12.93,-10.68 -17.26,-18.3 -4.37,-7.62 -6.54,-16.27 -6.54,-26.01 0,-10.82 2.26,-19.71 6.73,-26.62 4.52,-6.92 10.77,-11.81 18.86,-14.63 -17.07,-11.67 -25.59,-26.77 -25.59,-45.39 0,-14.58 4,-25.83 12.04,-33.63 8.05,-7.86 20.42,-11.81 37.12,-11.81l100.42 0 0 24.84 -92.19 0c-9.88,0 -17.03,0.84 -21.4,2.44 -4.38,1.6 -7.86,4.52 -10.54,8.8 -2.68,4.23 -4,9.22 -4,14.91 0,10.35 3.44,18.91 10.26,25.73 6.86,6.82 17.82,10.2 32.87,10.2l85 0 0 24.84 -95.06 0c-11.01,0 -19.29,2.02 -24.79,6.07 -5.5,4.04 -8.28,10.67 -8.28,19.85 0,6.96 1.84,13.4 5.51,19.33 3.66,5.93 9.03,10.21 16.13,12.89 7.05,2.63 17.26,3.95 30.57,3.95l75.92 0 0 24.83z"/>
  <path id="4" class="fil4" d="M28470.23 12887.8c7.85,9.22 13.35,18.11 16.6,26.62 3.25,8.52 4.84,17.64 4.84,27.43 0,16.08 -3.9,28.45 -11.75,37.11 -7.81,8.65 -17.83,12.98 -30.01,12.98 -7.15,0 -13.69,-1.65 -19.62,-4.89 -5.93,-3.29 -10.63,-7.57 -14.2,-12.84 -3.58,-5.32 -6.31,-11.24 -8.14,-17.88 -1.27,-4.89 -2.49,-12.27 -3.72,-22.1 -2.35,-20.04 -5.22,-34.86 -8.51,-44.31 -3.39,-0.1 -5.55,-0.14 -6.44,-0.14 -10.07,0 -17.17,2.35 -21.31,7.05 -5.6,6.35 -8.37,15.81 -8.37,28.32 0,11.71 2.07,20.36 6.16,25.92 4.09,5.59 11.38,9.68 21.78,12.37l-3.39 24.27c-10.4,-2.21 -18.82,-5.84 -25.21,-10.92 -6.4,-5.08 -11.29,-12.41 -14.77,-22.01 -3.44,-9.55 -5.18,-20.7 -5.18,-33.3 0,-12.51 1.46,-22.72 4.42,-30.57 2.97,-7.81 6.64,-13.6 11.11,-17.27 4.46,-3.67 10.11,-6.25 16.93,-7.76 4.23,-0.8 11.85,-1.22 22.81,-1.22l32.93 0c23,0 37.53,-0.52 43.69,-1.55 6.17,-0.99 12.05,-3.06 17.69,-6.07l0 25.96c-5.22,2.5 -11.34,4.1 -18.34,4.8zm-55.04 1.98c3.67,9.03 6.78,22.57 9.32,40.64 1.45,10.25 3.1,17.49 4.93,21.73 1.84,4.23 4.52,7.48 8,9.78 3.53,2.31 7.43,3.48 11.76,3.48 6.54,0 12.04,-2.49 16.42,-7.52 4.37,-5.04 6.58,-12.38 6.58,-22.02 0,-9.55 -2.07,-18.06 -6.25,-25.54 -4.14,-7.43 -9.84,-12.93 -17.03,-16.41 -5.6,-2.69 -13.83,-4 -24.7,-4l-9.03 -0.14z"/>
  <path id="5" class="fil4" d="M28544.73 12826.51l-202.63 0 0 -22.57 19.24 0c-7.44,-5.32 -13.03,-11.34 -16.75,-18.07 -3.72,-6.68 -5.6,-14.81 -5.6,-24.36 0,-12.51 3.2,-23.52 9.65,-33.07 6.39,-9.55 15.47,-16.74 27.14,-21.63 11.71,-4.85 24.5,-7.3 38.47,-7.3 14.91,0 28.37,2.69 40.36,8.05 11.95,5.36 21.12,13.17 27.52,23.42 6.35,10.21 9.54,20.98 9.54,32.27 0,8.28 -1.74,15.71 -5.22,22.25 -3.48,6.58 -7.85,11.94 -13.17,16.18l71.45 0 0 24.83zm-128.5 -22.57c18.77,0 32.69,-3.81 41.67,-11.39 8.99,-7.62 13.45,-16.84 13.45,-27.65 0,-11.01 -4.65,-20.42 -13.97,-28.23 -9.31,-7.85 -23.7,-11.76 -43.22,-11.76 -18.63,0 -32.55,3.81 -41.82,11.48 -9.26,7.67 -13.87,16.79 -13.87,27.42 0,10.54 4.94,19.85 14.77,27.94 9.87,8.14 24.17,12.19 42.99,12.19z"/>
  <path id="6" class="fil4" d="M28444.83 12679.43l-3.96 -24.55c9.84,-1.37 17.36,-5.22 22.63,-11.53 5.22,-6.3 7.85,-15.14 7.85,-26.43 0,-11.43 -2.3,-19.9 -6.96,-25.45 -4.61,-5.5 -10.06,-8.28 -16.32,-8.28 -5.6,0 -10.02,2.5 -13.22,7.44 -2.21,3.48 -4.98,11.94 -8.42,25.4 -4.56,18.15 -8.51,30.71 -11.85,37.77 -3.39,7 -7.99,12.32 -13.92,15.94 -5.88,3.62 -12.42,5.46 -19.57,5.46 -6.54,0 -12.56,-1.51 -18.11,-4.47 -5.55,-3.01 -10.16,-7.06 -13.83,-12.18 -2.82,-3.86 -5.22,-9.13 -7.19,-15.76 -1.98,-6.68 -2.97,-13.78 -2.97,-21.4 0,-11.48 1.65,-21.54 4.99,-30.2 3.29,-8.7 7.81,-15.1 13.45,-19.24 5.69,-4.09 13.27,-6.96 22.77,-8.51l3.38 24.27c-7.62,1.08 -13.59,4.28 -17.87,9.55 -4.28,5.27 -6.4,12.7 -6.4,22.34 0,11.34 1.88,19.47 5.65,24.32 3.76,4.84 8.18,7.29 13.21,7.29 3.2,0 6.12,-0.99 8.71,-3.01 2.63,-2.02 4.84,-5.18 6.58,-9.5 0.94,-2.5 3.06,-9.74 6.35,-21.87 4.66,-17.5 8.52,-29.73 11.48,-36.69 2.96,-6.96 7.34,-12.42 12.98,-16.37 5.69,-4 12.75,-5.98 21.21,-5.98 8.24,0 16,2.4 23.29,7.25 7.29,4.84 12.93,11.8 16.93,20.88 4,9.13 5.97,19.43 5.97,30.91 0,19 -3.95,33.53 -11.8,43.5 -7.9,9.98 -19.57,16.33 -35.04,19.1z"/>
  <polygon id="7" class="fil4" points="28488.57,12521.39 28460.35,12521.39 28460.35,12493.17 28488.57,12493.17 "/>
  <path id="8" class="fil4" d="M28434.95 12354.36l3.38 -24.27c16.7,2.68 29.73,9.45 39.19,20.41 9.45,10.96 14.15,24.46 14.15,40.41 0,19.99 -6.53,36.08 -19.61,48.21 -13.08,12.18 -31.8,18.25 -56.16,18.25 -15.81,0 -29.59,-2.63 -41.39,-7.85 -11.86,-5.22 -20.75,-13.17 -26.63,-23.9 -5.92,-10.68 -8.89,-22.29 -8.89,-34.9 0,-15.85 4,-28.88 12.04,-38.95 8.05,-10.11 19.48,-16.6 34.25,-19.42l3.67 23.99c-9.83,2.3 -17.22,6.35 -22.2,12.23 -4.94,5.83 -7.44,12.88 -7.44,21.16 0,12.51 4.47,22.67 13.41,30.53 8.98,7.81 23.09,11.71 42.47,11.71 19.66,0 33.92,-3.76 42.81,-11.29 8.89,-7.57 13.35,-17.4 13.35,-29.49 0,-9.78 -2.96,-17.92 -8.93,-24.41 -5.93,-6.54 -15.1,-10.68 -27.47,-12.42z"/>
  <path id="9" class="fil4" d="M28415.33 12318.24c-27.04,0 -47.08,-7.53 -60.11,-22.63 -10.82,-12.56 -16.23,-27.94 -16.23,-46.05 0,-20.08 6.59,-36.54 19.76,-49.34 13.12,-12.75 31.33,-19.14 54.51,-19.14 18.82,0 33.59,2.82 44.36,8.46 10.77,5.65 19.14,13.88 25.12,24.7 5.97,10.77 8.93,22.58 8.93,35.32 0,20.51 -6.53,37.07 -19.66,49.72 -13.12,12.65 -32.03,18.96 -56.68,18.96zm0.05 -25.4c18.72,0 32.74,-4.1 42,-12.28 9.32,-8.23 13.97,-18.53 13.97,-31 0,-12.32 -4.65,-22.57 -14.01,-30.81 -9.36,-8.18 -23.61,-12.27 -42.76,-12.27 -18.06,0 -31.75,4.14 -41.01,12.37 -9.32,8.23 -13.97,18.48 -13.97,30.71 0,12.47 4.61,22.77 13.87,31 9.27,8.18 23.24,12.28 41.91,12.28z"/>
  <path id="10" class="fil4" d="M28488.57 12151.96l-146.47 0 0 -22.29 20.69 0c-7.15,-4.56 -12.93,-10.68 -17.26,-18.3 -4.37,-7.62 -6.54,-16.27 -6.54,-26.01 0,-10.82 2.26,-19.71 6.73,-26.62 4.52,-6.92 10.77,-11.81 18.86,-14.63 -17.07,-11.67 -25.59,-26.77 -25.59,-45.39 0,-14.58 4,-25.83 12.04,-33.63 8.05,-7.86 20.42,-11.81 37.12,-11.81l100.42 0 0 24.84 -92.19 0c-9.88,0 -17.03,0.84 -21.4,2.44 -4.38,1.6 -7.86,4.52 -10.54,8.8 -2.68,4.23 -4,9.22 -4,14.91 0,10.35 3.44,18.91 10.26,25.73 6.86,6.82 17.82,10.2 32.87,10.2l85 0 0 24.84 -95.06 0c-11.01,0 -19.29,2.02 -24.79,6.07 -5.5,4.04 -8.28,10.67 -8.28,19.85 0,6.96 1.84,13.4 5.51,19.33 3.66,5.93 9.03,10.21 16.13,12.89 7.05,2.63 17.26,3.95 30.57,3.95l75.92 0 0 24.83z"/>
  <g id="_1291032158448">
   <polygon class="fil5 str4" points="24900.58,12767.19 25668.04,12767.19 25668.04,12866.35 24900.58,12866.35 "/>
   <polygon class="fil6 str4" points="25668.04,12767.19 26435.5,12767.19 26435.5,12866.35 25668.04,12866.35 "/>
   <polygon class="fil5 str4" points="26435.49,12767.19 27202.95,12767.19 27202.95,12866.35 26435.49,12866.35 "/>
   <polygon class="fil6 str4" points="27203.13,12767.19 27970.59,12767.19 27970.59,12866.35 27203.13,12866.35 "/>
   <polygon class="fil5 str4" points="26130.73,13066.13 27358.2,13066.13 27358.2,13165.29 26130.73,13165.29 "/>
   <polygon class="fil6 str4" points="24903.27,13066.13 26130.74,13066.13 26130.74,13165.29 24903.27,13165.29 "/>
  </g>
  <rect class="fil7 str5" x="1000" y="1000" width="27699.99" height="12993.46"/>
 </g>
</svg>
