<?xml version="1.0" encoding="UTF-8"?>
<!DOCTYPE svg PUBLIC "-//W3C//DTD SVG 1.0//EN" "http://www.w3.org/TR/2001/REC-SVG-20010904/DTD/svg10.dtd">
<!-- Creator: CorelDRAW -->
<svg xmlns="http://www.w3.org/2000/svg" xml:space="preserve" width="297mm" height="210mm" version="1.0" style="shape-rendering:geometricPrecision; text-rendering:geometricPrecision; image-rendering:optimizeQuality; fill-rule:evenodd; clip-rule:evenodd"
viewBox="0 0 29700 21000"
 xmlns:xlink="http://www.w3.org/1999/xlink">
 <defs>
  <style type="text/css">
   <![CDATA[
    .str2 {stroke:black;stroke-width:10;stroke-miterlimit:3.864;stroke-opacity:0.501961}
    .str0 {stroke:#2B2A29;stroke-width:75;stroke-miterlimit:22.9256}
    .str4 {stroke:black;stroke-width:50;stroke-miterlimit:3.864}
    .str1 {stroke:black;stroke-width:10;stroke-miterlimit:22.9256}
    .str3 {stroke:black;stroke-width:10;stroke-miterlimit:3.864}
    .fil8 {fill:none;fill-rule:nonzero}
    .fil1 {fill:#FEFEFE}
    .fil0 {fill:#2B2A29}
    .fil2 {fill:#A2D9F7}
    .fil3 {fill:#FEFEFE;fill-rule:nonzero}
    .fil6 {fill:#D9DADA;fill-rule:nonzero}
    .fil7 {fill:#2B2A29;fill-rule:nonzero}
    .fil5 {fill:black;fill-rule:nonzero}
    .fil4 {fill:#FEFEFE;fill-rule:nonzero;fill-opacity:0.501961}
   ]]>
  </style>
 </defs>
<symbol id="villes" viewBox="14797.31 10447.31 105.38 105.38">
 <circle class="fil0" cx="14850" cy="10500" r="52.69"/>
</symbol>
<symbol id="Capitale" viewBox="14721.93 10371.93 256.13 256.13">
 <circle class="fil1 str0" cx="14849.99" cy="10499.99" r="90.56"/>
</symbol>
 <g id="Plan_x0020_1">
  <metadata id="CorelCorpID_0Corel-Layer"/>
  <rect class="fil2" x="1002.81" y="1001.77" width="25089.9" height="18997.58"/>
  <path class="fil3 str1" d="M8086.45 2812.9c-29.84,90.39 -53.52,141.26 -119.34,207.09 -29.85,29.81 -31.54,80.71 -73.7,80.71 -25.43,0 -39.47,-14.04 -64.95,-14.04 -42.96,0 -64.87,14.04 -107.03,24.55 -45.65,11.43 -101.77,19.34 -101.77,66.71 0,30.7 49.14,31.58 49.14,62.27l0 43c-4.41,4.41 -7.9,8.79 -10.55,14.04 -94.76,-126.36 -172.83,-184.25 -308.86,-263.2 -77.22,-44.77 -125.45,-67.56 -193.04,-126.37 -47.38,-41.24 -60.53,-111.44 -122.83,-101.78 30.69,30.7 37.74,68.44 66.67,101.78 49.18,56.16 91.26,70.2 147.43,119.31 72.81,63.18 92.99,120.23 168.48,179.04 128.98,100.89 198.3,214.06 361.49,214.06 124.61,0 179,-77.22 291.33,-133.35 118.43,-58.77 192.16,-75.46 312.35,-129.86 132.5,-60.53 219.39,-69.32 365.05,-80.75 90.38,-6.98 138.64,-31.57 228.99,-31.57l68.47 0c62.27,0 94.76,-29.81 155.3,-42.12 157.05,-32.46 246.55,-63.15 407.14,-63.15 106.18,0 194.8,27.2 242.18,122.8 28.08,56.16 21.06,97.4 49.14,154.45 76.34,-60.54 122.84,-120.19 122.84,-217.63 0,-15.77 -21.03,-15.77 -35.1,-21.03 -34.22,-12.27 -52.64,-24.58 -84.21,-42.12 -61.45,-34.22 -98.32,-81.6 -98.32,-151.8l0 -111.41c-53.48,39.48 -79.8,91.23 -147.39,91.23 -43.89,0 -65.83,-21.06 -109.68,-21.06l-68.44 0c-88.62,0 -171.13,20.18 -204.43,101.81 -28.12,-21.97 -38.63,-56.16 -75.5,-56.16 -49.1,0 -75.42,17.53 -124.6,17.53 -63.15,0 -100.01,-17.53 -154.41,-49.14 -44.73,82.48 -127.21,86.86 -221.12,98.25l-407.14 -129.82c-29.85,4.37 -47.38,10.51 -77.22,10.51 -79.87,0 -69.32,-103.54 -105.27,-175.47 -31.61,21.06 -27.24,52.63 -38.63,87.74 -12.31,37.74 -31.61,57.89 -31.61,98.24 0,6.18 6.14,8.79 7.05,14.05 22.79,0 47.35,8.78 49.11,31.6l-7.02 21.06zm1951.48 -582.63c5.25,0 8.78,3.53 14.04,3.53 6.14,0 8.78,-6.14 14.04,-7.06l83.36 0c42.12,0 57.04,42.16 99.16,42.16 20.18,0 24.56,-21.06 35.11,-38.63 -95.64,0 -217.63,-91.27 -245.71,0zm301.85 17.55c78.96,52.67 128.13,77.22 203.59,133.39 16.65,-40.4 80.72,-33.38 80.72,-77.23 0,-22.82 -9.67,-44.73 -31.61,-49.14 -31.57,-6.14 -48.26,21.94 -80.72,24.59 -68.44,5.22 -103.54,-23.71 -171.98,-31.61zm365.01 -14.04c-28.08,0 -39.47,28.97 -45.61,56.17 28.08,-4.38 45.61,-9.67 66.71,-28.08 -5.29,-7.91 -13.16,-22.83 -21.1,-28.09zm136.91 108.8l-77.22 -59.66 -3.53 14.04c86.89,115.82 210.61,160.59 210.61,305.33 0,110.56 -129.86,142.17 -129.86,252.7 0,29 3.53,51.79 24.56,70.24l196.56 -42.16 83.36 0c14.01,0 21.91,-6.99 35.95,-6.99 33.38,0 50.91,14.04 84.25,14.04 37.71,0 80.71,-14.92 80.71,-52.67 0,-60.53 -71.05,-68.43 -126.33,-91.26 -68.44,-28.04 -91.26,-75.42 -133.38,-136.84 -30.7,-45.65 -79.87,-44.77 -108.8,-91.27 -45.65,-73.69 -75.49,-114.08 -136.88,-175.5zm410.66 617.74c-12.32,24.55 -21.1,42.09 -21.1,70.17 0,43.88 19.3,78.1 59.69,94.79 23.71,-47.38 44.73,-73.73 49.11,-126.37 -1.7,-10.51 -4.38,-25.43 -6.99,-35.1 -31.57,12.28 -32.49,43.01 -56.16,66.68 -5.26,-31.58 0.88,-51.75 -24.55,-70.17zm133.36 84.23c-2.65,10.52 -7.02,18.42 -7.02,29.81 0,29.85 8.78,47.38 17.53,75.46 28.12,-7.02 41.28,-24.55 70.2,-24.55 60.57,0 96.52,0 154.45,17.53 28.08,7.9 27.2,52.67 57.01,52.67l27.23 0c0,-5.29 3.49,-7.9 3.49,-13.16 0,-79.83 -109.67,-82.51 -189.54,-78.1 -29.81,1.76 -35.07,-33.34 -63.19,-42.12 -26.31,-7.91 -43.85,-8.75 -70.16,-17.54zm238.67 1856.67c4.38,-56.16 1.77,-88.62 1.77,-144.78 0,-41.24 -12.32,-64.95 -12.32,-106.19 0,-104.38 45.65,-159.7 45.65,-264.12l0 -114.06c0,-94.75 41.21,-149.15 108.8,-216.74 59.69,-59.62 91.26,-126.33 175.51,-126.33 17.53,0 35.06,10.55 35.06,28.08 0,31.61 -8.75,50.02 -24.55,77.22l3.49 14.04 14.08 -3.49c19.26,-38.63 59.65,-46.53 59.65,-87.77 0,-35.98 -45.65,-44.73 -45.65,-80.72 0,-42.12 31.61,-59.65 35.11,-101.81 23.7,-2.61 39.47,0.88 59.69,-10.51 -22.83,-25.44 -58.81,-15.8 -80.72,-42.12 -40.39,-48.26 -34.25,-92.99 -49.14,-154.41 -8.79,-35.99 -42.12,-47.38 -42.12,-84.25 0,-26.31 34.18,-26.31 45.61,-49.14 34.22,-69.32 -0.88,-134.27 45.65,-196.53 -38.63,19.3 -58.81,42.12 -101.81,42.12 -45.62,0 -55.28,-44.77 -87.77,-77.22 -10.48,-7.9 -18.42,-15.81 -31.58,-21.06l-17.53 0c1.76,23.67 12.28,35.1 12.28,58.77l0 100.05c0,10.51 -2.65,17.53 -5.26,27.2 -21.94,-7.02 -32.49,-24.59 -56.16,-24.59 -17.57,0 -21.94,21.06 -38.6,24.59 -6.13,-16.69 -12.31,-26.36 -21.06,-42.12 -13.15,6.13 -20.18,14.04 -35.1,14.04 -8.78,0 -13.16,-4.38 -21.06,-7.02 -3.53,7.02 -10.55,12.27 -10.55,21.06 0,42.12 28.08,62.3 28.08,104.42l0 88.62c21.07,-7.91 31.61,-17.54 52.64,-24.59 33.37,80.71 35.1,133.38 42.16,221.12 -6.14,0 -7.94,7.02 -14.08,7.02 -21.03,0 -21.91,-26.32 -38.56,-38.63 -16.68,-12.24 -38.63,-17.53 -38.63,-38.56 0,-8.78 4.38,-13.16 7.02,-21.06l0 -28.08c-38.63,14.89 -70.2,42.09 -70.2,84.21 0,76.34 164.96,31.61 164.96,107.91l0 29c-21.06,-7.06 -29.81,-24.59 -52.67,-24.59 -70.17,0 -112.29,35.1 -154.45,91.23 18.45,7.9 31.65,10.55 52.71,14.08 0,44.73 28.04,66.67 28.04,111.4l0 43.01c-7.9,-0.89 -12.27,-3.5 -20.18,-3.5 -54.39,0 -99.13,43.85 -99.13,98.25 0,43.89 36.87,61.42 36.87,105.31 0,32.49 -1.76,51.75 -1.76,84.24 34.22,0 56.16,0.88 87.73,14.04 -7.94,33.34 -38.63,41.24 -66.71,59.66 -42.97,28.08 -63.18,50.9 -105.27,80.71 -98.28,71.09 -148.31,118.46 -228.17,210.61 -34.19,39.48 -71.94,49.14 -98.25,94.76 51.78,0 78.1,28.08 129.85,28.08 39.48,0 58.81,-28.08 98.29,-28.08 10.51,0 18.41,7.9 28.08,10.51 42.09,64.06 23.71,121.11 63.18,186.02 50.03,82.48 119.35,121.11 119.35,217.63 10.51,0.88 16.65,3.49 27.16,3.49 46.53,0 51.79,-58.77 57.04,-105.27 6.14,-50.02 24.59,-76.38 24.59,-126.36 0,-38.63 -18.45,-70.21 -21.06,-108.8zm-982.78 -1010.83c21.1,42.12 42.12,65.79 42.12,112.32 5.29,3.5 7.9,7.91 10.55,14.05 18.45,-18.42 31.61,-33.34 31.61,-59.66 0,-42.16 -43.89,-53.55 -84.28,-66.71zm-712.48 1568.86c2.61,17.57 6.14,26.32 14,42.12l-14 3.5 -3.53 14.04c36.87,56.16 59.69,89.53 108.8,133.38 0,-85.97 -42.97,-130.74 -105.27,-193.04zm1561.87 -1976c-12.28,-21.06 -22.79,-35.1 -42.09,-49.14 -18.45,45.65 -9.7,76.34 -17.56,126.36 37.71,-14.88 53.51,-35.98 59.65,-77.22zm-5194.55 2147.98c-26.32,-13.16 -37.71,-27.2 -63.18,-42.12 0,6.14 -7.02,7.9 -7.02,14.04 0,20.18 24.59,21.06 38.59,35.1 26.35,26.32 47.38,36.87 84.24,45.65 -7.86,-22.82 -36.86,-35.1 -52.63,-52.67zm38.62 470.33c-2.65,-16.69 -5.26,-26.35 -10.55,-42.12l-14 -3.49c-11.47,13.15 -18.46,20.14 -31.65,31.57 14.96,14.89 20.18,27.2 35.1,42.12 13.16,-6.14 16.69,-14.92 21.1,-28.08zm2776.26 1038.88c23.71,23.68 53.56,9.63 84.25,21.06 54.4,20.18 71.96,73.7 129.86,73.7 65.82,0 92.14,-63.18 157.93,-63.18 68.44,0 108.84,68.44 108.84,136.88 0,43.88 -12.32,77.22 -49.18,101.81 50.94,21.02 105.34,39.47 105.34,94.75 0,47.38 -28.08,71.05 -28.08,118.47 0,35.94 7.86,56.12 3.49,92.11l14.04 7.02 14.01 -7.02 24.62 0c0,32.45 23.64,63.18 56.13,63.18l0 25.43c0,23.71 -14.04,35.11 -14.04,58.81 0,35.99 63.18,30.69 63.18,66.68 0,14.04 -10.55,21.06 -10.55,35.1 0,112.29 96.52,150.03 171.98,231.63 32.49,35.1 73.73,50.03 73.73,98.29 0,31.57 -27.23,42.12 -45.61,66.67 -57.05,73.7 -125.52,74.58 -203.63,126.37 28.12,28.08 38.63,52.63 38.63,91.26 5.29,-0.88 10.55,0 16.69,0 21.06,0 26.31,-21.94 46.49,-28.08 57.01,-18.45 103.54,3.49 147.43,-35.1 38.63,-34.22 38.63,-74.58 38.63,-126.37 127.21,92.15 157.9,214.98 157.9,372.04 0,31.58 -10.51,49.14 -10.51,80.72 0,113.2 57.04,166.72 84.24,277.28 -80.71,33.34 -122.83,64.06 -200.06,105.3 -46.49,24.56 -62.3,73.7 -115.81,73.7 -19.34,0 -29.85,-7.02 -49.18,-7.02 -16.65,0 -26.32,7.02 -38.6,17.53 9.67,11.43 24.59,15.81 24.59,31.61 0,104.39 -139.52,84.24 -217.63,154.41 -28.08,4.41 -45.61,17.57 -73.69,17.57 -50.02,0 -77.22,-14.04 -127.21,-14.04l-68.48 0c-16.65,0 -32.45,-11.39 -32.45,-28.08 0,-21.94 11.43,-35.98 28.08,-49.14 -64.07,-15.81 -79.83,-71.09 -108.83,-129.86 -37.72,12.28 -46.5,43 -84.21,56.16 -20.18,-35.98 -73.7,-35.98 -73.7,-77.22 0,-75.46 38.56,-113.17 66.68,-182.53l-14.04 3.53c-56.16,28.08 -92.11,48.26 -122.87,101.78 -61.42,-45.62 -111.41,-48.26 -182.5,-77.23 -145.66,-60.53 -228.14,-119.31 -322.89,-245.67 -14.93,13.16 -23.71,21.94 -38.6,35.1 -39.51,-52.63 -108.79,-64.03 -108.79,-129.86 0,-52.63 56.12,-62.3 101.74,-87.73 50.9,-28.08 69.32,-64.95 98.32,-115.86 36.83,27.24 53.51,53.56 73.66,94.8 6.17,12.27 24.58,14.04 24.58,28.08 0,42.12 -21.06,63.18 -21.06,105.3 0,38.59 36.87,47.34 56.17,80.72 14.92,10.51 28.08,20.14 38.62,35.06 35.11,-47.34 44.74,-83.32 87.74,-126.33l7.02 14.04 0 83.36c0,54.4 -3.53,88.62 21.06,137.76 44.73,-14.92 64.95,-45.65 112.29,-45.65 78.11,0 121.96,14.05 196.57,38.63 -25.44,-101.81 -42.12,-163.19 -101.78,-249.2 -26.31,-37.75 -35.1,-71.93 -77.26,-91.26 -58.77,-26.32 -42.08,-93.88 -63.14,-154.41 -27.2,-77.23 -75.46,-140.41 -157.94,-140.41l0 -53.51c0,-41.24 41.24,-50.91 70.2,-79.87 46.46,-46.46 68.4,-78.96 105.27,-133.35 48.3,-71.09 115.85,-102.66 115.85,-188.63 0,-44.77 -3.53,-69.36 -3.53,-114.09 0,-71.93 73.73,-97.4 73.73,-169.34 0,-116.69 -50.94,-175.5 -87.73,-286.06 -16.69,-50.87 -20.22,-84.21 -42.16,-133.35 -15.77,-35.99 -52.63,-47.42 -52.63,-86.89l0 -32.46 21.06 -3.49c31.57,13.16 35.95,52.63 70.2,52.63 5.22,0 12.28,-14.04 17.53,-14.04zm-266.75 1256.5c-21.06,7.02 -34.22,5.26 -56.16,1.76l-10.51 15.81c47.37,35.06 64.91,69.28 108.79,108.79 0,-6.13 3.53,-10.54 3.53,-16.68 0,-43.01 -21.94,-73.7 -45.65,-109.68zm157.06 368.52l-27.2 0c22.83,70.2 71.97,92.15 115.85,150.92l5.26 -14.04 0 -87.74c-11.39,2.61 -17.57,10.52 -29.84,10.52 -34.22,0 -29.81,-59.66 -64.07,-59.66zm1274.96 589.65c-22.79,22.78 -40.39,34.21 -66.71,52.63 7.9,2.65 12.31,7.02 21.1,7.02 35.06,0 87.73,14.04 87.73,-21.06 0,-32.46 -5.25,-51.75 -10.51,-84.21 -12.31,10.51 -25.47,30.69 -31.61,45.62zm-115.82 73.7c-11.4,0 -16.69,10.52 -24.56,17.57l21.03 28.05c-37.71,8.78 -77.19,23.71 -77.19,62.3l0 28.96c6.14,0 7.9,7.02 14.01,7.02 55.31,0 74.61,-47.38 126.36,-66.71 26.35,-9.63 42.16,-14.88 70.21,-14 23.7,0.84 59.65,16.65 59.65,-7.02 0,-77.23 -112.32,-56.17 -189.51,-56.17zm-744.07 112.31c-0.89,6.14 -7.02,7.91 -7.02,14.05 0,52.63 38.62,73.69 70.16,115.81 15.81,-11.39 23.71,-22.82 42.12,-31.57 -13.15,-20.22 -22.78,-34.26 -31.57,-56.16 16.69,-5.3 26.32,-9.67 42.12,-17.57 -35.1,-28.08 -70.2,-19.3 -115.81,-24.56zm245.67 217.61c-7.91,-0.88 -13.16,-3.53 -21.06,-3.53 -23.71,0 -32.5,24.59 -56.13,24.59 -14.92,0 -21.06,-14.04 -36.02,-14.04l-41.2 0c44.73,25.44 49.98,84.21 101.77,84.21 47.38,0 57.89,-47.38 91.27,-80.71 11.39,-11.4 31.57,-11.4 31.57,-28.09 0,-7.02 -14.04,-3.49 -14.04,-10.51 0,-17.53 14.04,-25.47 17.57,-42.12 -5.29,-0.88 -7.94,-7.02 -14.08,-7.02 -34.18,0 -44.73,46.5 -59.65,77.22zm73.72 115.83c-26.32,0 -36.87,25.43 -63.18,28.08 -33.34,3.49 -70.21,-3.53 -80.72,28.08 35.07,17.53 58.77,20.18 98.25,24.55l3.53 14.04c-14.04,14.04 -21.94,24.56 -31.61,42.12 6.14,1.77 7.02,10.52 14.08,10.52 25.4,0 33.33,-26.32 56.12,-35.07 72.85,-29.84 121.11,-44.77 200.06,-38.63 -4.37,-17.53 -21.02,-23.71 -21.02,-42.12 0,-22.79 17.53,-33.34 17.53,-56.16 0,-7.02 -8.78,-7.87 -10.55,-14.04 -28.08,21.94 -30.69,63.18 -66.67,63.18 -7.02,0 -7.02,-10.55 -14.04,-10.55 -40.4,0 -61.42,-14 -101.78,-14zm1077.49 859.89c0,-44.77 -0.85,-105.27 -45.61,-105.27 -17.54,0 -24.56,14.86 -42.09,17.54 6.1,-20.22 15.77,-35.11 35.06,-42.16l-77.22 -393.07 0 -71.08c0,-56.16 -42.12,-78.95 -73.69,-125.48 -28.97,-42.97 -45.62,-94.76 -98.29,-94.76 -32.49,0 -44.73,27.2 -70.2,45.61 -4.37,-28.04 -5.26,-45.61 -17.53,-70.16 -11.4,15.77 -20.18,25.43 -35.1,38.59l-14.05 -10.51c28.09,-31.61 28.09,-60.57 52.67,-94.76 15.77,-21.98 45.62,-25.47 45.62,-52.67 0,-23.7 -26.32,-27.2 -35.1,-49.14 -15.81,-40.36 -25.44,-72.81 -63.19,-94.76 -55.28,31.58 -85.97,57.9 -143.89,84.21 -28.08,12.31 -55.28,4.41 -73.7,28.08 -17.57,22.83 -11.43,46.53 -28.08,70.24 -30.73,42.97 -73.69,42.09 -112.32,80.72 0.88,-12.28 1.76,-19.34 3.52,-31.61l-14.07 -3.49c-42.09,56.12 -48.23,100.01 -87.74,157.93 -35.1,51.76 -89.5,45.62 -136.88,87.74 22.79,22.82 43.01,37.75 45.62,70.2 -29.85,1.73 -63.15,12.28 -63.15,42.12 0,30.7 39.48,35.11 70.17,35.11 17.57,0 25.47,-10.55 42.16,-14.04l24.55 3.49c7.87,100.05 72.81,139.52 112.29,231.67 31.61,72.81 17.57,128.09 56.16,196.53 21.1,37.71 80.72,33.34 80.72,77.19 0,6.17 -6.14,8.78 -6.99,14.07 37.71,18.42 67.56,33.31 80.72,73.7 -6.18,0 -10.55,3.49 -16.69,3.49 -43.89,0 -60.5,-35.1 -102.66,-49.11 -6.14,11.4 -14,18.38 -14,31.54 0,22.86 28.04,23.71 49.1,31.65 38.6,14 67.56,9.63 108.8,6.98 29.84,-9.63 41.24,-31.57 59.69,-56.16 43,30.69 71.05,59.69 124.6,59.69 -2.64,16.65 -0.88,25.43 0,42.12l29.85 0 56.16 -21.09c-5.29,78.1 -97.4,94.79 -175.51,94.79 -20.18,0 -23.71,-22.83 -42.12,-31.61 -1.76,27.23 4.41,43 0,70.24 31.57,-15.84 53.52,-17.57 88.62,-17.57l68.44 0c94.75,0 122.83,-88.62 211.49,-122.88 18.38,-6.98 14.88,-38.59 35.06,-38.59 24.59,0 35.1,21.06 59.66,21.06 49.14,0 41.24,-77.19 49.14,-126.33zm-122.82 221.11c21.95,10.55 35.1,17.53 52.64,35.1l-35.1 126.33c-18.42,-24.55 -18.42,-63.18 -49.15,-63.18 -10.51,0 -18.41,4.41 -28.04,7.02 -10.55,7.94 -21.94,10.55 -35.98,10.55l-27.2 0 0 -24.56c4.37,-10.55 10.51,-16.68 10.51,-28.08 0,-7.02 -10.51,-7.02 -10.51,-14.04 0,-24.59 28.96,-24.59 49.1,-38.59 10.55,-7.02 11.4,-24.59 24.56,-24.59 17.56,0 32.49,8.78 49.17,14.04zm-200.05 73.72c-4.41,26.32 -4.41,47.38 -24.59,63.15 43.88,80.72 111.44,122.84 203.59,122.84 24.58,0 24.58,-30.69 35.06,-52.64 -85.09,-49.14 -128.06,-86.89 -214.06,-133.35zm-210.6 87.72c-7.91,0 -11.4,-2.61 -19.3,-3.53 0,-23.67 -3.49,-38.56 -12.31,-59.66 -14.89,46.5 -42.97,63.19 -73.7,101.82 86.01,14 132.5,31.57 218.48,31.57l55.28 0c0,-7.02 3.52,-10.55 3.52,-17.57 0,-28.04 -21.06,-42.08 -21.06,-70.17 -21.06,6.99 -27.2,28.09 -49.14,28.09 -25.43,0 -30.69,-35.11 -56.16,-35.11 -20.14,0 -25.44,24.56 -45.61,24.56zm73.69 136.9c-6.14,-9.63 -11.4,-17.57 -17.54,-28.11 -12.31,32.49 -6.13,53.55 -14.04,87.77 21.95,-21.98 42.13,-27.2 70.21,-38.6 -10.55,-6.17 -28.08,-16.68 -38.63,-21.06zm568.61 -3783.54c-87.73,35.1 -154.44,58.77 -189.55,143.9 71.97,23.67 114.06,38.59 189.55,38.59 23.67,0 35.98,7.02 59.66,7.02 26.35,0 42.12,-7.02 68.43,-7.02 39.52,0 60.58,21.1 100.05,21.1 21.03,0 28.97,-20.21 49.11,-24.59 38.63,-9.67 63.18,6.14 101.81,0 57.01,-8.78 82.48,-44.77 115.82,-91.26 -58.81,-52.64 -85.97,-119.35 -164.93,-119.35 -52.7,0 -80.78,17.57 -133.42,17.57 -46.49,0 -72.81,-14.04 -119.34,-14.04 -26.32,0 -54.4,14.92 -77.19,28.08zm1544.33 -719.51c6.14,0.89 7.9,7.02 14.01,7.02 38.63,0 63.18,-38.63 63.18,-77.22 0,-19.3 -35.1,-11.39 -49.11,0 -22.86,19.33 -21.06,41.24 -28.08,70.2zm393.09 -610.69c12.31,-31.61 27.2,-45.61 49.14,-70.2l-14.04 -3.5 -28.08 7.03 -42.09 -10.55 -14.07 3.52 -3.5 14.05 10.55 45.61c-12.31,80.72 -77.26,112.32 -77.26,193.04 0,41.24 4.41,64.06 0,105.3 6.14,1.73 10.55,6.99 17.57,6.99 25.44,0 37.75,-17.53 63.18,-17.53 57.89,0 89.5,24.58 147.39,24.58 37.75,0 94.8,16.66 94.8,-21.06 0,-32.49 -34.22,-40.39 -52.67,-66.71 -12.28,-17.53 -8.79,-40.35 -28.08,-49.1 -35.95,-16.69 -71.05,-6.18 -98.29,-35.1 -33.3,-35.99 -21.02,-76.38 -24.55,-126.37zm368.56 326.4c64.02,71.09 113.17,104.43 200.02,143.9 64.98,28.97 97.44,74.58 169.37,74.58 40.36,0 63.18,-0.88 103.54,-0.88 68.44,0 75.46,78.1 120.19,129.89 36.87,42.09 69.32,55.28 108.8,94.76 57.92,57.89 72,107.03 129.89,164.96 82.48,82.47 184.29,67.55 252.69,161.43 42.16,57.92 35.11,110.56 35.11,182.52 0,43.85 -10.55,67.56 -10.55,111.41l0 86.01c0,99.13 -91.23,138.64 -91.23,237.77 0,16.69 4.41,27.2 10.51,42.12 9.67,-8.78 15.81,-14.92 24.59,-24.55 40.36,26.32 38.6,71.08 38.6,119.31 0,158.82 -150.92,220.24 -150.92,379.06 0,83.36 21.94,131.62 56.16,207.08 14.92,33.34 45.65,46.49 45.65,83.36 0,11.39 -2.65,17.53 -3.53,28.96 -135.11,-73.69 -123.75,-209.72 -224.61,-326.42 -61.46,-71.09 -121.99,-85.09 -196.57,-140.37 67.59,5.25 100.89,42.08 168.45,42.08 42.12,0 62.34,-25.43 98.28,-45.58 64.95,-37.74 122.88,-73.73 122.88,-149.18 0,-11.4 -4.38,-19.3 -7.06,-29.85 -25.43,6.14 -36.79,28.08 -63.18,28.08 -43.85,0 -42.09,-61.42 -42.09,-105.3 0,-193.89 189.51,-265.86 189.51,-459.74 0,-98.32 -1.76,-169.37 -66.67,-242.22 -42.12,-47.34 -94.76,-41.24 -143.9,-80.72 -67.59,-55.28 -82.48,-108.79 -140.4,-175.47 -49.15,-57.04 -98.25,-74.61 -133.35,-140.4 -139.53,-258.84 -505.43,-136.88 -638.81,-403.62l38.63 7.02zm2207.68 2074.28c-46.49,19.3 -78.98,21.06 -129.89,21.06 28.96,25.44 50.91,33.34 84.24,52.64 60.54,35.98 66.71,93.02 122.84,133.38 55.32,40.36 101.81,73.7 101.81,142.14 0,29.84 -7.02,46.49 -14.04,75.45 16.65,-6.13 23.71,-21.06 42.09,-21.06 53.55,0 56.16,63.19 84.28,108.8 55.24,89.54 98.24,139.52 119.34,242.18 17.53,84.25 78.07,113.21 129.82,182.49 26.32,35.14 39.48,57.05 52.64,98.29 7.05,21.94 11.43,49.14 35.13,49.14 14.04,0 21.03,-10.51 35.11,-10.51 37.71,0 49.98,36.83 66.64,70.2 21.09,42.97 35.1,71.05 35.1,119.31 0,35.98 5.29,68.44 -21.03,91.26 -22.82,19.3 -47.41,14.04 -73.73,28.08 -82.48,45.62 -129.86,94.76 -224.61,94.76l-3.53 14.04c38.63,42.97 71.97,73.7 129.89,73.7 58.77,0 78.11,-63.15 136.88,-63.15 44.73,0 67.56,24.55 112.29,24.55 71.97,0 114.97,-26.31 168.52,-73.73 -42.16,-72.81 -41.27,-124.56 -70.24,-203.55 -25.43,-68.44 -67.55,-93.87 -115.81,-147.39 -94.76,-105.31 -157.94,-156.21 -266.74,-249.2 -57.04,-48.26 -63.18,-100.05 -91.26,-168.49 -26.32,-64.06 -58.78,-95.64 -94.76,-154.41 -70.2,-112.33 -140.4,-176.39 -140.4,-308.86 0,-76.34 -43.85,-118.46 -101.78,-168.48 -30.73,-26.32 -40.39,-66.68 -80.75,-66.68 -6.14,0 -21.91,14.04 -28.05,14.04zm-1772.5 1618.01c-13.16,-34.22 -21.06,-60.54 -52.64,-77.23 -2.61,7.9 -7.02,12.28 -7.02,21.06 0,56.17 35.14,81.6 56.17,133.35 34.22,83.4 63.14,132.51 129.85,193.08l14.04 10.51c-43.88,-111.44 -95.6,-172.86 -140.4,-280.77zm905.58 1123.1c-22.83,-20.14 -31.61,-35.98 -54.44,-56.16 -3.53,43.88 0,68.47 0,112.32 0,6.17 7.02,8.79 8.79,14.04 30.69,-9.63 62.3,-42.08 45.65,-70.2zm154.41 91.26c214.98,124.6 274.63,276.4 484.36,407.14 56.16,35.1 63.18,86.01 119.31,122.84 21.94,14.04 40.39,18.45 56.2,38.63 -23.71,-3.5 -36.87,-10.55 -60.57,-10.55l-71.94 0c-42.12,0 -64.06,21.06 -106.18,21.06 6.14,-46.5 10.51,-91.26 52.67,-108.8 -54.4,-93.87 -138.64,-98.28 -228.14,-157.97 -100.05,-66.64 -155.3,-136.84 -275.56,-136.84 -42.97,0 -64.03,21.02 -107.03,24.55 34.22,-37.71 66.67,-47.38 115.82,-59.69 -26.32,-64.03 -107.92,-57.86 -133.35,-122.8 22.82,-14.92 42.08,-21.06 70.16,-21.06 21.06,0 32.46,10.51 53.52,10.51 10.55,0 20.18,-7.02 30.73,-7.02zm923.07 649.29c12.32,36.87 14.05,84.28 52.64,84.28 71.97,0 110.6,-15.84 182.53,-21.09 -29.85,-90.39 -140.37,-77.19 -235.17,-63.19zm1551.37 923.09c-65.8,-37.72 -86.01,-86.01 -126.37,-150.89 -44.77,-71.96 -71.93,-121.11 -71.93,-206.23l0 -152.68c0,-60.54 -38.63,-87.74 -68.47,-139.49 -39.48,-68.48 -48.26,-117.58 -94.73,-182.49 -48.29,-66.71 -92.14,-98.29 -112.35,-179 -15.77,-64.95 -8.79,-107.11 -35.11,-168.49 -34.18,-79.83 -102.65,-95.64 -143.86,-171.98 -35.98,-67.59 -38.63,-117.58 -84.28,-179l-0.84 80.72 -27.2 105.3c10.51,-0.88 16.65,-3.49 27.2,-3.49 35.98,0 34.22,45.61 49.98,77.19 25.47,50.9 45.65,76.3 59.66,133.38l-14.01 63.18c47.38,64.03 76.34,100.9 133.35,157.91 19.34,19.29 0.92,51.79 21.1,70.2 101.78,95.64 163.19,164.08 203.55,298.34 6.14,20.18 28.08,24.56 28.08,45.62 0,46.53 -39.47,64.06 -59.65,105.3 -28.08,57.05 -28.08,97.4 -28.08,161.43 0,64.07 88.62,50.03 143.9,80.75 51.75,28.93 80.71,70.17 80.71,129.86 0,14.01 -10.51,28.08 -24.55,28.08 -26.32,0 -28.93,-30.72 -52.64,-42.12 -54.43,-27.2 -94.79,-21.06 -150.95,-42.12 121.96,121.99 249.2,93.87 410.67,147.43 130.74,75.42 167.6,174.59 224.61,312.35 39.48,96.48 29.85,164.95 84.25,256.22 19.29,33.34 53.51,29.84 84.24,52.63 0.88,-8.75 3.49,-13.16 3.49,-21.91 0,-105.3 -28.93,-163.23 -52.63,-265.88 -30.69,-133.35 -41.24,-236.05 -150.92,-315.85 -84.24,-61.48 -156.21,-50.94 -256.22,-84.27zm1614.54 1516.22c81.6,-81.6 188.67,-95.64 207.05,-210.61 -32.46,17.57 -42.09,43.88 -73.7,63.18 -65.83,40.39 -121.07,70.24 -133.35,147.43zm231.65 -779.18c-61.46,9.66 -140.41,12.31 -140.41,73.73 0,59.65 55.28,78.95 77.23,133.35 29.84,-26.32 43.85,-47.38 70.16,-77.19 -6.14,-4.41 -14,-6.14 -14,-14.08 0,-16.65 18.38,-24.55 35.06,-24.55 24.59,0 28.12,31.57 28.12,56.2 0,46.46 -43.89,57.85 -77.26,91.23 44.77,44.73 43.01,90.38 84.25,136.87 17.56,-11.43 28.08,-24.58 49.17,-24.58 161.43,0 217.6,164.95 379.03,164.95 27.2,0 21.94,-38.59 42.12,-56.16 48.26,-42.08 78.1,-64.91 115.82,-115.82l-14.01 -3.52 -28.12 7.05 -35.06 0c-2.61,-11.43 -3.53,-18.41 -3.53,-30.72 0,-11.4 -9.63,-21.95 -21.06,-21.95 -31.57,0 -45.61,24.63 -77.22,24.63 -62.3,0 -89.5,-42.16 -147.43,-63.19 -56.13,-21.09 -97.37,-27.23 -140.37,-70.23 -28.08,-28.05 0.88,-69.29 -24.55,-98.25 -43.01,-48.3 -115.86,-39.48 -157.94,-87.77zm1088.03 308.89c-58.77,23.7 -93.88,35.06 -157.94,45.61l-45.65 -10.55 -28.05 0c14.05,14.08 23.68,20.18 35.11,35.1 -43.89,21.95 -40.4,72.85 -84.25,94.79 -67.59,33.34 -150.92,46.5 -150.92,121.96l0 28.93c6.14,0 10.52,3.53 16.66,3.53 14.04,0 21.94,-7.03 35.98,-7.03 28.96,0 34.22,36.83 63.18,38.63l126.33 -17.56c51.79,7.9 69.36,50.02 94.76,94.79 36.86,63.14 52.7,108.79 52.7,182.49 0,88.62 -84.28,147.39 -172.89,147.39l-71.94 0c-26.35,0 -57.04,8.78 -57.04,35.1 0,14.92 14.04,20.22 14.04,35.1 0,49.99 -56.16,58.81 -101.78,77.23 -42.15,17.56 -70.23,24.55 -115.85,21.06 -1.73,6.13 -10.51,7.02 -10.51,14.04 0,28.08 21.02,42.12 21.02,70.16 0,32.5 -35.06,40.4 -63.14,56.17 -72.82,42.12 -168.49,52.63 -168.49,136.91 0,37.71 -43.85,40.36 -70.17,66.67 -45.65,45.65 -73.69,73.7 -133.38,94.76 -43.89,15.77 -94.76,27.24 -94.76,73.73 0,26.32 23.67,36.83 28.08,63.15 18.42,-14.01 21.03,-36.83 42.09,-49.14 54.43,-32.46 100.89,-19.3 154.45,-52.64 58.8,-35.98 84.24,-73.73 119.34,-133.35 18.42,-31.61 19.3,-77.22 56.16,-77.22 24.56,0 38.6,14.04 63.19,14.04 49.1,0 61.41,-50.02 108.79,-63.18 70.2,-20.18 137.76,-3.53 175.47,-66.71 43.01,-72.82 31.61,-131.59 80.72,-200.06 55.31,-76.34 112.32,-94.76 179.03,-161.43 75.43,-75.46 77.23,-154.45 77.23,-259.72 0,-47.41 -15.81,-72.81 -15.81,-120.23l0 -97.36c-76.34,0 -118.5,-64.07 -142.13,-136.92 5.25,-0.84 7.87,-7.02 14,-7.02 62.34,0 94.76,24.59 150.92,52.67 -13.16,-54.39 -11.39,-89.5 -24.55,-143.89zm1919.88 765.12c-5.25,0 -8.78,3.53 -14.04,3.53 1.77,14 7.02,21.02 7.02,35.1 0,89.5 -64.06,124.56 -98.25,207.04 32.46,-8.75 50.03,-24.55 84.21,-24.55 72.85,0 109.68,44.73 157.94,98.28 50.87,-36.86 80.72,-73.73 143.9,-73.73 48.26,0 74.58,24.59 122.84,24.59 57.92,0 87.77,-31.61 145.66,-31.61 95.64,0 126.36,82.52 194.8,150.92 45.65,45.65 85.13,57.04 143.93,80.72l14.01 -3.53c11.43,-58.78 70.2,-74.54 70.2,-133.35 0,-23.67 -33.34,-17.54 -56.16,-21.06 -43.85,-7.02 -71.93,-13.16 -112.32,-31.58 -68.41,-30.69 -57.9,-140.4 -133.35,-140.4 -60.54,0 -93.88,28.08 -154.45,28.08 -211.46,0 -304.48,-168.45 -515.94,-168.45zm136.88 2607.76c0,34.22 21.94,50.87 28.08,84.25 9.63,48.26 6.14,80.71 24.59,126.33 59.69,-21.07 82.48,-58.78 143.86,-73.7 64.95,-15.8 154.45,-7.02 154.45,-73.7 0,-51.78 -70.17,-48.26 -98.29,-91.26 -27.16,-41.24 -51.75,-77.19 -101.78,-77.19 -36.86,0 -41.23,43.85 -73.73,59.62 -31.53,15.81 -77.18,10.55 -77.18,45.65zm-1341.63 1133.64l-27.2 0 -7.05 -14.04c62.33,-14.88 96.55,-52.67 115.85,-112.32 -99.17,17.57 -128.09,88.65 -217.59,133.38l-56.17 -21.06c16.65,23.67 28.08,42.12 28.08,71.97 0,89.5 -93.9,107.91 -171.97,152.68 21.02,48.26 51.75,66.64 70.16,115.78 13.73,36.78 52.67,244.84 52.67,124.6 0,-49.98 46.5,-74.57 94.79,-85.97l414.13 98.29c64.03,-15.77 96.52,-49.15 162.31,-49.15l96.56 0c31.57,0 44.73,-25.43 74.58,-35.1 89.5,-29.84 149.19,-20.18 242.18,-35.1 52.63,-8.75 83.36,-16.68 136.88,-21.06 32.45,-2.65 58.77,22.83 84.24,3.49 19.3,-14.04 11.39,-37.67 21.02,-59.62 24.59,-55.31 51.79,-81.63 87.78,-129.89 37.71,-50.87 47.41,-87.73 77.22,-143.9 42.12,-79.87 122.84,-90.38 154.41,-175.5 51.79,-139.49 31.61,-230.76 31.61,-379.03 0,-19.3 7.87,-34.25 -3.53,-49.14 -15.77,-21.06 -43.85,-2.65 -70.17,-8.78 6.14,28.08 17.54,43 17.54,71.93 0,54.4 -21.95,82.51 -28.09,136.87 -6.13,53.56 -2.61,126.37 -56.16,126.37 -34.22,0 -38.63,-46.5 -38.63,-80.72 0,-27.2 32.49,-28.96 45.65,-52.67 31.58,-56.16 38.6,-97.36 38.6,-162.27 0,-13.16 -1.73,-21.06 -3.5,-34.22 -62.3,21.9 -61.41,85.97 -84.24,147.39 -19.3,51.75 -55.28,67.59 -87.73,112.29 -42.13,57.96 -44.74,111.44 -105.31,150.92 -51.79,33.37 -92.11,28.08 -150.92,45.64 -65.79,20.22 -96.48,57.05 -164.96,59.69 -62.33,2.62 -88.65,-42.12 -140.37,-77.25 -50.02,-34.19 -66.71,-71.05 -91.26,-126.37 -9.67,-22.79 -14.08,-70.17 -35.1,-56.13 -35.98,23.68 -29.85,67.6 -63.18,94.76 -39.52,31.61 -79.87,25.47 -129.86,17.53 -37.71,-6.13 -59.69,-2.61 -98.29,-3.45 -28.96,-0.92 -57.92,-21.06 -73.73,3.45 -11.36,18.49 -4.37,36.02 -10.51,56.2 -28.08,84.24 -41.24,189.51 -130.74,189.51zm-416.79 -5534.89c-19.29,0 -29.84,-3.52 -49.14,-3.52 -41.27,0 -64.06,7.05 -105.3,10.54 41.24,41.21 78.95,56.17 136.03,56.17l85.12 0c42.97,0 62.27,-45.65 105.27,-35.1 0,-6.18 7.02,-7.91 7.02,-14.08 0,-27.16 -28.96,-42.12 -56.16,-42.12 -28.08,0 -35.98,35.13 -64.06,35.13 -18.38,0 -40.36,-7.9 -58.78,-7.02zm-2716.63 -1733.84c-136.87,57.04 -242.14,49.14 -347.48,154.44 32.49,7.91 50.9,21.06 84.24,21.06 31.61,0 49.14,-10.54 80.75,-10.54 39.48,0 60.54,14.04 100.01,14.04 42.13,0 64.95,-10.55 107.04,-14.04 0,-6.14 7.05,-7.87 7.05,-14.04 0,-19.3 -28.08,-22.79 -28.08,-42.13 0,-32.45 45.65,-37.67 45.65,-70.16 0,-24.59 -24.62,-35.1 -49.18,-38.63zm870.44 -1123.12l-14 3.52c10.51,21.07 24.55,32.46 24.55,56.13 0,17.57 -10.55,35.14 -28.08,35.14 -9.67,0 -14.08,-4.41 -22.83,-7.06l0 -42.97c0,-12.31 -3.49,-27.19 -15.8,-27.19 -26.32,0 -42.09,26.31 -42.09,52.63 -23.7,-3.53 -36.02,-2.61 -59.69,0 -1.73,8.78 -7.02,12.28 -7.02,21.06 0,78.07 101.81,93.87 101.81,171.98 0,16.69 -0.88,25.43 -0.88,42.12 0,11.4 11.4,15.81 11.4,27.2l0 28.96c-46.54,-18.45 -26.32,-80.75 -66.68,-112.32 -9.66,9.63 -10.55,21.06 -10.55,35.1 0,21.94 -22.79,26.32 -31.57,45.61 -25.47,57.05 -44.77,91.27 -52.67,154.45 88.62,-14.04 146.54,-50.02 186.02,-129.89 16.69,5.29 25.47,10.55 43,10.55 13.16,0 21.1,-3.5 34.26,-3.5 6.1,-78.1 38.56,-118.46 38.56,-196.56 0,-62.3 -38.56,-92.15 -45.62,-154.45l-42.12 -10.51zm-9797.55 -8575.19c-1.79,-23.28 -33.89,-38.19 -55.37,-43.55 -9.18,-2.28 -19.28,-2.64 -29.01,-2.64 -19.36,0 -25.98,9.53 -36.91,21.12 -6.37,6.74 -5.27,31.49 -5.27,40.91 0,26.36 30.19,44.77 54.05,47.51 20.29,2.32 74.61,11.1 79.1,-15.84l-6.59 -47.51zm3485.76 1742.07c0,-14.28 -8.46,-28.45 -17.14,-35.64 -14.02,-11.59 -28.84,-13.19 -47.46,-13.19 -11.77,0 -14.82,2.95 -19.77,11.87 -9.27,16.67 -8.77,32.23 2.63,48.83 8.31,12.08 22.07,20.04 35.6,27.72 12.56,7.12 26.25,16.22 38.23,6.6l7.91 -46.19zm3083.23 12282.87c-8.01,-11.59 -7.26,-9.73 -10.28,-20.6 -4.44,-16.01 -13.38,-30.55 -18.5,-45.31 -2.19,-6.32 -8.21,-13.22 -10.29,-20.59 -5.84,-20.75 -10.28,-39.98 -10.28,-61.78 0,-30.35 13.99,-37.52 37.01,-14.42 22.03,22.09 22.27,61.95 37.02,88.56 2.28,4.11 4.46,9.95 6.16,14.41 0.93,2.42 2.06,18.32 2.06,20.6 0,13.19 -6.68,17.92 -8.22,28.83l-24.68 10.3zm-2683.36 -9419.43c-17.46,-4.04 -37.79,20 -55.89,20 -9.56,0 -47.76,-3.76 -57.89,-3.76 -4.19,0 -9.05,-0.46 -13.19,0 -4.94,0.56 -6.21,5.36 -10.54,6.6 0,10.98 -2.09,15.22 13.18,18.48 19.96,4.25 40.76,1.14 60.65,5.28 9.53,1.99 68.34,11.59 70.98,1.01 22.44,-3.21 5.29,-46.35 -7.3,-47.61zm-1335.76 -3509.41c2.02,-8.79 4.59,-18.51 -2.1,-25.2 -4,-4 -10,-5.8 -14.7,-8.4 -5.22,-2.9 -7.2,-1.66 -12.6,-2.1 -8.14,-0.67 -15.92,-2.1 -25.2,-2.1 -7.44,0 -12.06,2.1 -18.9,2.1 -1.27,5.1 -2.38,2.38 -4.2,4.2 -7.62,7.62 -10.5,22.52 -10.5,31.5l0 10.5c0,6.17 3.34,12 6.3,16.8 6.09,9.91 13.59,19.4 25.2,25.2 1.38,0.69 4.87,-0.64 6.3,0 6.84,3.05 8.58,4.87 16.8,4.2 6.4,-0.53 3.16,-6.3 10.5,-6.3 3.46,-6.93 16.54,-9.32 23.1,-12.6l0 -37.8z"/>
  <use x="11119.38" y="7394.48" width="256.13" height="256.13" xlink:href="#Capitale"/>
  <use x="10881.79" y="2394.21" width="105.38" height="105.38" xlink:href="#villes"/>
  <use x="11826.41" y="3278.26" width="105.38" height="105.38" xlink:href="#villes"/>
  <use x="9898.29" y="8282.93" width="105.38" height="105.38" xlink:href="#villes"/>
  <use x="12619.37" y="6098.74" width="105.38" height="105.38" xlink:href="#villes"/>
  <use x="17257.37" y="12941.63" width="105.38" height="105.38" xlink:href="#villes"/>
  <use x="13156.4" y="6410.36" width="105.38" height="105.38" xlink:href="#villes"/>
  <use x="7062.31" y="2821.51" width="105.38" height="105.38" xlink:href="#villes"/>
  <use x="7914.07" y="3214.63" width="105.38" height="105.38" xlink:href="#villes"/>
  <use x="8805.87" y="2956.19" width="105.38" height="105.38" xlink:href="#villes"/>
  <use x="13952.83" y="8219.63" width="105.38" height="105.38" xlink:href="#villes"/>
  <use x="14098.43" y="7877.47" width="105.38" height="105.38" xlink:href="#villes"/>
  <path class="fil4 str2" d="M22817.97 1231.11l2689.13 0 0 1592.89 -2689.13 0 0 -1592.89z"/>
  <path class="fil5" d="M25675.83 2958.2c0,-17.45 4.47,-34.48 13.46,-51.13 8.93,-16.61 21.77,-29.59 38.43,-38.86 16.69,-9.26 34.1,-13.92 52.16,-13.92 17.92,0 35.18,4.56 51.69,13.74 16.56,9.12 29.4,21.92 38.53,38.43 9.17,16.51 13.73,33.77 13.73,51.74 0,18.01 -4.56,35.27 -13.73,51.78 -9.13,16.51 -21.97,29.35 -38.53,38.53 -16.51,9.17 -33.77,13.78 -51.69,13.78 -18.06,0 -35.47,-4.66 -52.16,-13.97 -16.66,-9.36 -29.5,-22.34 -38.43,-38.95 -8.99,-16.65 -13.46,-33.68 -13.46,-51.17zm17.22 0c0,14.62 3.76,28.88 11.24,42.7 7.48,13.83 18.2,24.65 32.13,32.46 13.92,7.81 28.41,11.71 43.46,11.71 15,0 29.35,-3.85 43.08,-11.52 13.74,-7.67 24.46,-18.39 32.13,-32.17 7.67,-13.79 11.52,-28.18 11.52,-43.18 0,-14.96 -3.85,-29.36 -11.52,-43.14 -7.67,-13.78 -18.39,-24.5 -32.13,-32.12 -13.73,-7.62 -28.08,-11.43 -43.08,-11.43 -15.05,0 -29.54,3.9 -43.46,11.66 -13.93,7.76 -24.65,18.58 -32.13,32.46 -7.48,13.87 -11.24,28.08 -11.24,42.57zm103.57 -33.35l5.08 -16.94c11.53,2.78 20.7,8.61 27.52,17.55 6.87,8.98 10.3,19.85 10.3,32.59 0,16.19 -5.22,29.31 -15.71,39.42 -10.49,10.11 -24.98,15.15 -43.55,15.15 -12.14,0 -22.68,-2.31 -31.61,-6.92 -8.99,-4.56 -15.71,-11.15 -20.28,-19.61 -4.56,-8.52 -6.82,-18.25 -6.82,-29.16 0,-12.23 2.92,-22.39 8.8,-30.48 5.88,-8.09 13.88,-13.6 23.94,-16.56l4.23 16.37c-6.91,2.77 -12.23,6.82 -15.89,12.23 -3.72,5.41 -5.55,11.71 -5.55,19 0,10.58 3.76,19.33 11.28,26.2 7.53,6.87 18.35,10.3 32.37,10.3 14.06,0 24.69,-3.24 31.89,-9.74 7.19,-6.49 10.81,-14.86 10.81,-25.16 0,-8.28 -2.39,-15.57 -7.24,-21.83 -4.8,-6.25 -11.33,-10.39 -19.57,-12.41z"/>
  <path id="1" class="fil5" d="M25881.29 2663.04l-18.58 0c14.44,9.27 21.68,22.91 21.68,40.92 0,11.67 -3.19,22.39 -9.64,32.13 -6.4,9.78 -15.38,17.35 -26.86,22.76 -11.52,5.37 -24.74,8.05 -39.69,8.05 -14.59,0 -27.8,-2.45 -39.7,-7.29 -11.86,-4.9 -20.98,-12.19 -27.29,-21.92 -6.35,-9.69 -9.5,-20.61 -9.5,-32.6 0,-8.84 1.88,-16.7 5.6,-23.56 3.72,-6.87 8.61,-12.47 14.58,-16.8l-72.67 0 0 -24.83 202.07 0 0 23.14zm-73.05 78.46c18.72,0 32.69,-3.95 41.96,-11.9 9.26,-7.91 13.87,-17.27 13.87,-28.04 0,-10.86 -4.42,-20.08 -13.26,-27.7 -8.84,-7.57 -22.34,-11.38 -40.5,-11.38 -19.94,0 -34.62,3.85 -43.98,11.61 -9.36,7.72 -14.01,17.27 -14.01,28.6 0,11.06 4.46,20.27 13.45,27.71 8.98,7.38 23.14,11.1 42.47,11.1z"/>
  <path id="2" class="fil5" d="M25820.61 2610.5l-24.83 0 0 -76.76 24.83 0 0 76.76z"/>
  <path id="3" class="fil5" d="M25881.29 2506.64l-146.47 0 0 -22.29 20.69 0c-7.15,-4.56 -12.93,-10.68 -17.26,-18.3 -4.37,-7.62 -6.54,-16.27 -6.54,-26.01 0,-10.82 2.26,-19.71 6.73,-26.62 4.52,-6.92 10.77,-11.81 18.86,-14.63 -17.07,-11.67 -25.59,-26.77 -25.59,-45.39 0,-14.58 4,-25.83 12.04,-33.63 8.05,-7.86 20.42,-11.81 37.12,-11.81l100.42 0 0 24.84 -92.19 0c-9.88,0 -17.03,0.84 -21.4,2.44 -4.38,1.6 -7.86,4.52 -10.54,8.8 -2.68,4.23 -4,9.22 -4,14.91 0,10.35 3.44,18.91 10.26,25.73 6.86,6.82 17.82,10.2 32.87,10.2l85 0 0 24.84 -95.06 0c-11.01,0 -19.29,2.02 -24.79,6.07 -5.5,4.04 -8.28,10.67 -8.28,19.85 0,6.96 1.84,13.4 5.51,19.33 3.66,5.93 9.03,10.21 16.13,12.89 7.05,2.63 17.26,3.95 30.57,3.95l75.92 0 0 24.83z"/>
  <path id="4" class="fil5" d="M25862.95 2175.88c7.85,9.22 13.35,18.11 16.6,26.62 3.25,8.52 4.84,17.64 4.84,27.43 0,16.08 -3.9,28.45 -11.75,37.11 -7.81,8.65 -17.83,12.98 -30.01,12.98 -7.15,0 -13.69,-1.65 -19.62,-4.89 -5.93,-3.29 -10.63,-7.57 -14.2,-12.84 -3.58,-5.32 -6.31,-11.24 -8.14,-17.88 -1.27,-4.89 -2.49,-12.27 -3.72,-22.1 -2.35,-20.04 -5.22,-34.86 -8.51,-44.31 -3.39,-0.1 -5.55,-0.14 -6.44,-0.14 -10.07,0 -17.17,2.35 -21.31,7.05 -5.6,6.35 -8.37,15.81 -8.37,28.32 0,11.71 2.07,20.36 6.16,25.92 4.09,5.59 11.38,9.68 21.78,12.37l-3.39 24.27c-10.4,-2.21 -18.82,-5.84 -25.21,-10.92 -6.4,-5.08 -11.29,-12.41 -14.77,-22.01 -3.44,-9.55 -5.18,-20.7 -5.18,-33.3 0,-12.51 1.46,-22.72 4.42,-30.57 2.97,-7.81 6.64,-13.6 11.11,-17.27 4.46,-3.67 10.11,-6.25 16.93,-7.76 4.23,-0.8 11.85,-1.22 22.81,-1.22l32.93 0c23,0 37.53,-0.52 43.69,-1.55 6.17,-0.99 12.05,-3.06 17.69,-6.07l0 25.96c-5.22,2.5 -11.34,4.1 -18.34,4.8zm-55.04 1.98c3.67,9.03 6.78,22.57 9.32,40.64 1.45,10.25 3.1,17.49 4.93,21.73 1.84,4.23 4.52,7.48 8,9.78 3.53,2.31 7.43,3.48 11.76,3.48 6.54,0 12.04,-2.49 16.42,-7.52 4.37,-5.04 6.58,-12.38 6.58,-22.02 0,-9.55 -2.07,-18.06 -6.25,-25.54 -4.14,-7.43 -9.84,-12.93 -17.03,-16.41 -5.6,-2.69 -13.83,-4 -24.7,-4l-9.03 -0.14z"/>
  <path id="5" class="fil5" d="M25937.45 2114.59l-202.63 0 0 -22.57 19.24 0c-7.44,-5.32 -13.03,-11.34 -16.75,-18.07 -3.72,-6.68 -5.6,-14.81 -5.6,-24.36 0,-12.51 3.2,-23.52 9.65,-33.07 6.39,-9.55 15.47,-16.74 27.14,-21.63 11.71,-4.85 24.5,-7.3 38.47,-7.3 14.91,0 28.37,2.69 40.36,8.05 11.95,5.36 21.12,13.17 27.52,23.42 6.35,10.21 9.54,20.98 9.54,32.27 0,8.28 -1.74,15.71 -5.22,22.25 -3.48,6.58 -7.85,11.94 -13.17,16.18l71.45 0 0 24.83zm-128.5 -22.57c18.77,0 32.69,-3.81 41.67,-11.39 8.99,-7.62 13.45,-16.84 13.45,-27.65 0,-11.01 -4.65,-20.42 -13.97,-28.23 -9.31,-7.85 -23.7,-11.76 -43.22,-11.76 -18.63,0 -32.55,3.81 -41.82,11.48 -9.26,7.67 -13.87,16.79 -13.87,27.42 0,10.54 4.94,19.85 14.77,27.94 9.87,8.14 24.17,12.19 42.99,12.19z"/>
  <path id="6" class="fil5" d="M25837.55 1967.51l-3.96 -24.55c9.84,-1.37 17.36,-5.22 22.63,-11.53 5.22,-6.3 7.85,-15.14 7.85,-26.43 0,-11.43 -2.3,-19.9 -6.96,-25.45 -4.61,-5.5 -10.06,-8.28 -16.32,-8.28 -5.6,0 -10.02,2.5 -13.22,7.44 -2.21,3.48 -4.98,11.94 -8.42,25.4 -4.56,18.15 -8.51,30.71 -11.85,37.77 -3.39,7 -7.99,12.32 -13.92,15.94 -5.88,3.62 -12.42,5.46 -19.57,5.46 -6.54,0 -12.56,-1.51 -18.11,-4.47 -5.55,-3.01 -10.16,-7.06 -13.83,-12.18 -2.82,-3.86 -5.22,-9.13 -7.19,-15.76 -1.98,-6.68 -2.97,-13.78 -2.97,-21.4 0,-11.48 1.65,-21.54 4.99,-30.2 3.29,-8.7 7.81,-15.1 13.45,-19.24 5.69,-4.09 13.27,-6.96 22.77,-8.51l3.38 24.27c-7.62,1.08 -13.59,4.28 -17.87,9.55 -4.28,5.27 -6.4,12.7 -6.4,22.34 0,11.34 1.88,19.47 5.65,24.32 3.76,4.84 8.18,7.29 13.21,7.29 3.2,0 6.12,-0.99 8.71,-3.01 2.63,-2.02 4.84,-5.18 6.58,-9.5 0.94,-2.5 3.06,-9.74 6.35,-21.87 4.66,-17.5 8.52,-29.73 11.48,-36.69 2.96,-6.96 7.34,-12.42 12.98,-16.37 5.69,-4 12.75,-5.98 21.21,-5.98 8.24,0 16,2.4 23.29,7.25 7.29,4.84 12.93,11.8 16.93,20.88 4,9.13 5.97,19.43 5.97,30.91 0,19 -3.95,33.53 -11.8,43.5 -7.9,9.98 -19.57,16.33 -35.04,19.1z"/>
  <path id="7" class="fil5" d="M25881.29 1809.47l-28.22 0 0 -28.22 28.22 0 0 28.22z"/>
  <path id="8" class="fil5" d="M25827.67 1642.44l3.38 -24.27c16.7,2.68 29.73,9.45 39.19,20.41 9.45,10.96 14.15,24.46 14.15,40.41 0,19.99 -6.53,36.08 -19.61,48.21 -13.08,12.18 -31.8,18.25 -56.16,18.25 -15.81,0 -29.59,-2.63 -41.39,-7.85 -11.86,-5.22 -20.75,-13.17 -26.63,-23.9 -5.92,-10.68 -8.89,-22.29 -8.89,-34.9 0,-15.85 4,-28.88 12.04,-38.95 8.05,-10.11 19.48,-16.6 34.25,-19.42l3.67 23.99c-9.83,2.3 -17.22,6.35 -22.2,12.23 -4.94,5.83 -7.44,12.88 -7.44,21.16 0,12.51 4.47,22.67 13.41,30.53 8.98,7.81 23.09,11.71 42.47,11.71 19.66,0 33.92,-3.76 42.81,-11.29 8.89,-7.57 13.35,-17.4 13.35,-29.49 0,-9.78 -2.96,-17.92 -8.93,-24.41 -5.93,-6.54 -15.1,-10.68 -27.47,-12.42z"/>
  <path id="9" class="fil5" d="M25808.05 1606.32c-27.04,0 -47.08,-7.53 -60.11,-22.63 -10.82,-12.56 -16.23,-27.94 -16.23,-46.05 0,-20.08 6.59,-36.54 19.76,-49.34 13.12,-12.75 31.33,-19.14 54.51,-19.14 18.82,0 33.59,2.82 44.36,8.46 10.77,5.65 19.14,13.88 25.12,24.7 5.97,10.77 8.93,22.58 8.93,35.32 0,20.51 -6.53,37.07 -19.66,49.72 -13.12,12.65 -32.03,18.96 -56.68,18.96zm0.05 -25.4c18.72,0 32.74,-4.1 42,-12.28 9.32,-8.23 13.97,-18.53 13.97,-31 0,-12.32 -4.65,-22.57 -14.01,-30.81 -9.36,-8.18 -23.61,-12.27 -42.76,-12.27 -18.06,0 -31.75,4.14 -41.01,12.37 -9.32,8.23 -13.97,18.48 -13.97,30.71 0,12.47 4.61,22.77 13.87,31 9.27,8.18 23.24,12.28 41.91,12.28z"/>
  <path id="10" class="fil5" d="M25881.29 1440.04l-146.47 0 0 -22.29 20.69 0c-7.15,-4.56 -12.93,-10.68 -17.26,-18.3 -4.37,-7.62 -6.54,-16.27 -6.54,-26.01 0,-10.82 2.26,-19.71 6.73,-26.62 4.52,-6.92 10.77,-11.81 18.86,-14.63 -17.07,-11.67 -25.59,-26.77 -25.59,-45.39 0,-14.58 4,-25.83 12.04,-33.63 8.05,-7.86 20.42,-11.81 37.12,-11.81l100.42 0 0 24.84 -92.19 0c-9.88,0 -17.03,0.84 -21.4,2.44 -4.38,1.6 -7.86,4.52 -10.54,8.8 -2.68,4.23 -4,9.22 -4,14.91 0,10.35 3.44,18.91 10.26,25.73 6.86,6.82 17.82,10.2 32.87,10.2l85 0 0 24.84 -95.06 0c-11.01,0 -19.29,2.02 -24.79,6.07 -5.5,4.04 -8.28,10.67 -8.28,19.85 0,6.96 1.84,13.4 5.51,19.33 3.66,5.93 9.03,10.21 16.13,12.89 7.05,2.63 17.26,3.95 30.57,3.95l75.92 0 0 24.83z"/>
  <g id="_2010741545824">
   <path class="fil6 str3" d="M22941.77 1825l490.06 0 0 99.16 -490.06 0 0 -99.16z"/>
   <path class="fil3 str3" d="M23431.83 1825l490.06 0 0 99.16 -490.06 0 0 -99.16z"/>
   <path class="fil6 str3" d="M23921.89 1825l490.06 0 0 99.16 -490.06 0 0 -99.16z"/>
   <path class="fil3 str3" d="M24412.07 1825l490.06 0 0 99.16 -490.06 0 0 -99.16z"/>
   <path class="fil6 str3" d="M24902.14 1825l490.06 0 0 99.16 -490.06 0 0 -99.16z"/>
   <path class="fil3 str3" d="M24511.09 2123.94l783.8 0 0 99.16 -783.8 0 0 -99.16z"/>
   <path class="fil6 str3" d="M23727.28 2123.94l783.81 0 0 99.16 -783.81 0 0 -99.16z"/>
   <path class="fil3 str3" d="M22943.49 2123.94l783.8 0 0 99.16 -783.8 0 0 -99.16z"/>
   <path class="fil7" d="M23678.92 1442.69l57.09 -27.52 5.71 0 0 197.2c0,13.12 0.53,21.35 1.64,24.58 1.12,3.18 3.36,5.71 6.82,7.41 3.47,1.71 10.53,2.7 21.17,2.94l0 6.35 -88.19 0 0 -6.35c11.05,-0.24 18.16,-1.18 21.34,-2.88 3.23,-1.65 5.47,-3.88 6.76,-6.7 1.24,-2.83 1.88,-11.29 1.88,-25.35l0 -126.29c0,-16.99 -0.59,-27.93 -1.7,-32.75 -0.83,-3.7 -2.3,-6.41 -4.41,-8.11 -2.18,-1.71 -4.71,-2.59 -7.71,-2.59 -4.29,0 -10.23,1.76 -17.81,5.35l-2.59 -5.29z"/>
   <path id="1" class="fil7" d="M24313.23 1408.47l0 157.16 39.98 -36.63c8.52,-7.82 13.46,-12.76 14.81,-14.82 0.95,-1.41 1.42,-2.76 1.42,-4.17 0,-2.29 -1,-4.23 -2.89,-5.94 -1.88,-1.65 -4.99,-2.59 -9.4,-2.82l0 -5.65 68.61 0 0 5.65c-9.35,0.23 -17.17,1.7 -23.4,4.35 -6.23,2.7 -13.05,7.47 -20.52,14.29l-40.63 37.22 40.34 51.33c11.29,14.05 18.81,23.04 22.58,26.98 5.58,5.24 10.4,8.65 14.58,10.17 2.94,1.12 7.99,1.71 15.17,1.71l0 6.35 -76.73 0 0 -6.35c4.41,-0.12 7.35,-0.76 8.88,-1.94 1.58,-1.24 2.35,-2.88 2.35,-5.06 0,-2.64 -2.3,-6.88 -6.88,-12.7l-48.27 -61.79 0 52.21c0,10.23 0.7,16.93 2.11,20.17 1.47,3.17 3.47,5.46 6.12,6.88 2.64,1.35 8.35,2.11 17.17,2.23l0 6.35 -80.08 0 0 -6.35c7.99,0 14.05,-1 18.05,-2.94 2.41,-1.23 4.23,-3.17 5.46,-5.76 1.71,-3.76 2.59,-10.29 2.59,-19.52l0 -143.94c0,-18.05 -0.41,-29.1 -1.18,-33.16 -0.82,-4.05 -2.11,-6.82 -3.99,-8.35 -1.83,-1.58 -4.24,-2.35 -7.18,-2.35 -2.41,0 -6.05,1 -10.82,2.94l-2.93 -6.35 46.74 -19.4 7.94 0z"/>
   <path id="2" class="fil7" d="M24489.97 1524.77c11.41,-11.53 18.17,-18.17 20.22,-19.93 5.12,-4.36 10.65,-7.77 16.59,-10.18 5.93,-2.41 11.81,-3.64 17.63,-3.64 9.88,0 18.29,2.88 25.4,8.64 7.06,5.76 11.82,14.11 14.17,25.11 11.88,-13.88 21.88,-22.93 30.05,-27.28 8.17,-4.3 16.58,-6.47 25.22,-6.47 8.35,0 15.82,2.17 22.35,6.47 6.46,4.29 11.64,11.34 15.4,21.16 2.53,6.65 3.82,17.11 3.82,31.4l0 67.97c0,9.82 0.71,16.58 2.18,20.23 1.12,2.46 3.23,4.64 6.23,6.4 3.06,1.77 8,2.65 14.88,2.65l0 6.35 -77.26 0 0 -6.35 3.29 0c6.7,0 11.99,-1.29 15.76,-3.94 2.64,-1.82 4.52,-4.76 5.64,-8.76 0.47,-1.94 0.71,-7.47 0.71,-16.58l0 -67.91c0,-12.88 -1.53,-21.93 -4.65,-27.22 -4.52,-7.35 -11.7,-11.06 -21.63,-11.06 -6.06,0 -12.23,1.53 -18.41,4.59 -6.11,3 -13.58,8.7 -22.34,16.93l-0.35 1.94 0.7 7.41 0 75.32c0,10.7 0.59,17.4 1.77,20.05 1.23,2.59 3.46,4.82 6.76,6.58 3.29,1.77 8.93,2.65 16.87,2.65l0 6.35 -79.37 0 0 -6.35c8.64,0 14.58,-1 17.81,-3.06 3.24,-2.06 5.47,-5.17 6.7,-9.29 0.59,-1.94 0.89,-7.58 0.89,-16.93l0 -67.91c0,-12.88 -1.88,-22.17 -5.65,-27.87 -5.05,-7.41 -12.05,-11.11 -21.11,-11.11 -6.17,0 -12.28,1.7 -18.34,5.05 -9.47,5.06 -16.82,10.82 -21.93,17.17l0 84.67c0,10.29 0.7,16.93 2.12,20.05 1.41,3.06 3.52,5.35 6.35,6.94 2.76,1.53 8.4,2.29 16.93,2.29l0 6.35 -77.97 0 0 -6.35c7.24,0 12.29,-0.76 15.17,-2.29 2.89,-1.59 5.06,-4 6.59,-7.41 1.47,-3.35 2.23,-9.88 2.23,-19.58l0 -60.33c0,-17.28 -0.53,-28.45 -1.53,-33.51 -0.82,-3.82 -2.05,-6.41 -3.82,-7.82 -1.7,-1.47 -4.05,-2.18 -6.99,-2.18 -3.24,0 -7.06,0.89 -11.53,2.59l-2.58 -6.35 47.62 -19.4 7.41 0 0 33.75z"/>
   <path id="3" class="fil7" d="M23827.09 1538.06c0,-26.64 4,-49.51 12.05,-68.74 8.06,-19.22 18.7,-33.57 32.05,-42.98 10.29,-7.47 20.99,-11.17 31.98,-11.17 17.94,0 33.99,9.11 48.22,27.34 17.81,22.64 26.69,53.27 26.69,91.96 0,27.05 -3.88,50.09 -11.7,69.03 -7.82,18.93 -17.76,32.63 -29.87,41.21 -12.11,8.53 -23.81,12.82 -35.04,12.82 -22.29,0 -40.81,-13.11 -55.62,-39.39 -12.53,-22.17 -18.76,-48.86 -18.76,-80.08zm33.87 4.23c0,32.1 3.94,58.33 11.82,78.67 6.52,17.11 16.28,25.63 29.22,25.63 6.17,0 12.58,-2.76 19.22,-8.34 6.65,-5.59 11.65,-14.88 15.11,-27.99 5.24,-19.7 7.88,-47.57 7.88,-83.43 0,-26.64 -2.76,-48.86 -8.23,-66.62 -4.11,-13.23 -9.46,-22.58 -15.99,-28.05 -4.65,-3.82 -10.35,-5.7 -16.99,-5.7 -7.76,0 -14.7,3.53 -20.76,10.52 -8.23,9.53 -13.87,24.46 -16.81,44.92 -3,20.41 -4.47,40.52 -4.47,60.39z"/>
   <path id="4" class="fil7" d="M24003.48 1538.06c0,-26.64 4,-49.51 12.05,-68.74 8.06,-19.22 18.7,-33.57 32.05,-42.98 10.29,-7.47 20.99,-11.17 31.98,-11.17 17.94,0 33.99,9.11 48.22,27.34 17.81,22.64 26.69,53.27 26.69,91.96 0,27.05 -3.88,50.09 -11.7,69.03 -7.82,18.93 -17.76,32.63 -29.87,41.21 -12.11,8.53 -23.81,12.82 -35.04,12.82 -22.29,0 -40.81,-13.11 -55.62,-39.39 -12.53,-22.17 -18.76,-48.86 -18.76,-80.08zm33.87 4.23c0,32.1 3.94,58.33 11.82,78.67 6.52,17.11 16.28,25.63 29.22,25.63 6.17,0 12.58,-2.76 19.22,-8.34 6.65,-5.59 11.65,-14.88 15.11,-27.99 5.24,-19.7 7.88,-47.57 7.88,-83.43 0,-26.64 -2.76,-48.86 -8.23,-66.62 -4.11,-13.23 -9.46,-22.58 -15.99,-28.05 -4.65,-3.82 -10.35,-5.7 -16.99,-5.7 -7.76,0 -14.7,3.53 -20.76,10.52 -8.23,9.53 -13.87,24.46 -16.81,44.92 -3,20.41 -4.47,40.52 -4.47,60.39z"/>
   <path class="fil7" d="M23894.72 2384.6l0 6.7c-15.12,1.47 -27.46,4.47 -37.05,9 -9.58,4.53 -19.05,11.41 -28.34,20.7 -9.35,9.23 -17.11,19.58 -23.22,30.92 -6.12,11.41 -11.23,24.93 -15.35,40.57 16.47,-11.23 32.99,-16.87 49.63,-16.87 15.93,0 29.69,6.41 41.39,19.28 11.7,12.82 17.52,29.34 17.52,49.51 0,19.46 -5.88,37.28 -17.7,53.33 -14.23,19.46 -33.04,29.22 -56.44,29.22 -15.93,0 -29.52,-5.29 -40.63,-15.82 -21.81,-20.57 -32.69,-47.21 -32.69,-79.9 0,-20.87 4.17,-40.75 12.58,-59.56 8.35,-18.82 20.35,-35.51 35.87,-50.1 15.58,-14.52 30.45,-24.34 44.68,-29.39 14.23,-5.06 27.46,-7.59 39.75,-7.59l10 0zm-106.9 120.48c-2.11,15.52 -3.17,28.04 -3.17,37.57 0,11.05 2.06,22.99 6.11,35.92 4.06,12.94 10.12,23.17 18.11,30.75 5.82,5.41 12.94,8.12 21.29,8.12 9.93,0 18.87,-4.71 26.69,-14.12 7.82,-9.46 11.76,-22.87 11.76,-40.33 0,-19.64 -3.88,-36.63 -11.64,-51.04 -7.82,-14.34 -18.82,-21.52 -33.1,-21.52 -4.36,0 -9.06,0.95 -14,2.77 -5,1.82 -12.35,5.82 -22.05,11.88z"/>
   <path id="1" class="fil7" d="M23925.76 2507.49c0,-26.64 4,-49.51 12.05,-68.74 8.06,-19.22 18.7,-33.57 32.05,-42.98 10.29,-7.47 20.99,-11.17 31.98,-11.17 17.94,0 33.99,9.11 48.22,27.34 17.81,22.64 26.69,53.27 26.69,91.96 0,27.05 -3.88,50.09 -11.7,69.03 -7.82,18.93 -17.76,32.63 -29.87,41.21 -12.11,8.53 -23.81,12.82 -35.04,12.82 -22.29,0 -40.81,-13.11 -55.62,-39.39 -12.53,-22.17 -18.76,-48.86 -18.76,-80.08zm33.87 4.23c0,32.1 3.94,58.33 11.82,78.67 6.52,17.11 16.28,25.63 29.22,25.63 6.17,0 12.58,-2.76 19.22,-8.34 6.65,-5.59 11.65,-14.88 15.11,-27.99 5.24,-19.7 7.88,-47.57 7.88,-83.43 0,-26.64 -2.76,-48.86 -8.23,-66.62 -4.11,-13.23 -9.46,-22.58 -15.99,-28.05 -4.65,-3.82 -10.35,-5.7 -16.99,-5.7 -7.76,0 -14.7,3.53 -20.76,10.52 -8.23,9.53 -13.87,24.46 -16.81,44.92 -3,20.41 -4.47,40.52 -4.47,60.39z"/>
   <path id="2" class="fil7" d="M24235.86 2494.2c11.41,-11.53 18.17,-18.17 20.22,-19.93 5.12,-4.36 10.65,-7.77 16.59,-10.18 5.93,-2.41 11.81,-3.64 17.63,-3.64 9.88,0 18.29,2.88 25.4,8.64 7.06,5.76 11.82,14.11 14.17,25.11 11.88,-13.88 21.88,-22.93 30.05,-27.28 8.17,-4.3 16.58,-6.47 25.22,-6.47 8.35,0 15.82,2.17 22.35,6.47 6.46,4.29 11.64,11.34 15.4,21.16 2.53,6.65 3.82,17.11 3.82,31.4l0 67.97c0,9.82 0.71,16.58 2.18,20.23 1.12,2.46 3.23,4.64 6.23,6.4 3.06,1.77 8,2.65 14.88,2.65l0 6.35 -77.26 0 0 -6.35 3.29 0c6.7,0 11.99,-1.29 15.76,-3.94 2.64,-1.82 4.52,-4.76 5.64,-8.76 0.47,-1.94 0.71,-7.47 0.71,-16.58l0 -67.91c0,-12.88 -1.53,-21.93 -4.65,-27.22 -4.52,-7.35 -11.7,-11.06 -21.63,-11.06 -6.06,0 -12.23,1.53 -18.41,4.59 -6.11,3 -13.58,8.7 -22.34,16.93l-0.35 1.94 0.7 7.41 0 75.32c0,10.7 0.59,17.4 1.77,20.05 1.23,2.59 3.46,4.82 6.76,6.58 3.29,1.77 8.93,2.65 16.87,2.65l0 6.35 -79.37 0 0 -6.35c8.64,0 14.58,-1 17.81,-3.06 3.24,-2.06 5.47,-5.17 6.7,-9.29 0.59,-1.94 0.89,-7.58 0.89,-16.93l0 -67.91c0,-12.88 -1.88,-22.17 -5.65,-27.87 -5.05,-7.41 -12.05,-11.11 -21.11,-11.11 -6.17,0 -12.28,1.7 -18.34,5.05 -9.47,5.06 -16.82,10.82 -21.93,17.17l0 84.67c0,10.29 0.7,16.93 2.12,20.05 1.41,3.06 3.52,5.35 6.35,6.94 2.76,1.53 8.4,2.29 16.93,2.29l0 6.35 -77.97 0 0 -6.35c7.24,0 12.29,-0.76 15.17,-2.29 2.89,-1.59 5.06,-4 6.59,-7.41 1.47,-3.35 2.23,-9.88 2.23,-19.58l0 -60.33c0,-17.28 -0.53,-28.45 -1.53,-33.51 -0.82,-3.82 -2.05,-6.41 -3.82,-7.82 -1.7,-1.47 -4.05,-2.18 -6.99,-2.18 -3.24,0 -7.06,0.89 -11.53,2.59l-2.58 -6.35 47.62 -19.4 7.41 0 0 33.75z"/>
   <path id="3" class="fil7" d="M24503.5 2377.9c4.76,0 8.88,1.7 12.29,5.05 3.35,3.41 5.05,7.53 5.05,12.29 0,4.82 -1.7,9 -5.05,12.41 -3.41,3.47 -7.53,5.17 -12.29,5.17 -4.82,0 -9,-1.7 -12.41,-5.17 -3.47,-3.41 -5.17,-7.59 -5.17,-12.41 0,-4.76 1.7,-8.88 5.05,-12.29 3.41,-3.35 7.59,-5.05 12.53,-5.05zm14.17 82.55l0 127c0,9.82 0.7,16.34 2.17,19.58 1.41,3.29 3.53,5.7 6.35,7.29 2.82,1.59 8,2.41 15.47,2.41l0 6.35 -76.56 0 0 -6.35c7.65,0 12.82,-0.76 15.41,-2.23 2.64,-1.47 4.7,-3.94 6.29,-7.35 1.53,-3.41 2.29,-10 2.29,-19.7l0 -61.03c0,-16.99 -0.53,-27.99 -1.53,-33.05 -0.82,-3.64 -2.05,-6.17 -3.82,-7.58 -1.7,-1.47 -4.06,-2.18 -7,-2.18 -3.23,0 -7.11,0.89 -11.7,2.59l-2.41 -6.35 47.45 -19.4 7.59 0z"/>
  </g>
  <path class="fil8 str4" d="M1002.81 1001.77l25089.91 0 0 18997.58 -25089.91 0 0 -18997.58z"/>
 </g>
</svg>
