<?xml version="1.0" encoding="UTF-8"?>
<!DOCTYPE svg PUBLIC "-//W3C//DTD SVG 1.0//EN" "http://www.w3.org/TR/2001/REC-SVG-20010904/DTD/svg10.dtd">
<!-- Creator: CorelDRAW -->
<svg xmlns="http://www.w3.org/2000/svg" xml:space="preserve" width="210mm" height="297mm" version="1.0" style="shape-rendering:geometricPrecision; text-rendering:geometricPrecision; image-rendering:optimizeQuality; fill-rule:evenodd; clip-rule:evenodd"
viewBox="0 0 21000 29700"
 xmlns:xlink="http://www.w3.org/1999/xlink">
 <defs>
  <style type="text/css">
   <![CDATA[
    .str4 {stroke:black;stroke-width:10;stroke-miterlimit:3.864;stroke-opacity:0.501961}
    .str0 {stroke:#2B2A29;stroke-width:75;stroke-miterlimit:22.9256}
    .str6 {stroke:black;stroke-width:50;stroke-miterlimit:22.9256}
    .str3 {stroke:#003399;stroke-width:20;stroke-miterlimit:22.9256}
    .str5 {stroke:#3F3E3F;stroke-width:10;stroke-miterlimit:3.864}
    .str1 {stroke:black;stroke-width:10;stroke-miterlimit:22.9256}
    .str2 {stroke:#003399;stroke-width:10;stroke-miterlimit:22.9256}
    .fil4 {fill:none}
    .fil9 {fill:none;fill-rule:nonzero}
    .fil0 {fill:#FEFEFE}
    .fil1 {fill:#2B2A29}
    .fil2 {fill:#A2D9F7}
    .fil3 {fill:#FEFEFE;fill-rule:nonzero}
    .fil7 {fill:#D9DADA;fill-rule:nonzero}
    .fil8 {fill:#2B2A29;fill-rule:nonzero}
    .fil6 {fill:black;fill-rule:nonzero}
    .fil5 {fill:#FEFEFE;fill-rule:nonzero;fill-opacity:0.501961}
   ]]>
  </style>
 </defs>
<symbol id="Capitale" viewBox="10371.93 14721.93 256.13 256.13">
 <circle class="fil0 str0" cx="10499.99" cy="14849.99" r="90.56"/>
</symbol>
<symbol id="villes" viewBox="10447.31 14797.31 105.38 105.38">
 <circle class="fil1" cx="10500" cy="14850" r="52.69"/>
</symbol>
 <g id="Plan_x0020_1">
  <metadata id="CorelCorpID_0Corel-Layer"/>
  <rect class="fil2" x="1017.56" y="1012.03" width="18902.19" height="23763.97"/>
  <path class="fil3 str1" d="M12991.56 8307.13c30.97,0 47.03,4.59 77.98,4.59 38.99,0 45.88,-44.73 64.22,-77.98 18.35,-33.27 26.39,-55.04 36.7,-91.74 20.64,-74.55 34.41,-118.13 68.81,-188.07 19.5,-39 37.85,-60.8 68.8,-91.75 12.63,-12.62 20.65,-24.09 36.7,-32.11 20.65,-10.33 35.56,-13.76 55.05,-22.94 79.13,-38.99 112.38,-103.2 201.83,-110.09 61.93,-82.56 71.1,-153.66 128.44,-238.53 34.41,-50.46 66.52,-72.26 87.16,-128.44 11.47,-33.27 9.17,-56.2 9.17,-91.74 0,-50.46 -12.6,-77.99 -18.35,-128.44 -10.31,-86.02 -4.58,-134.19 -4.58,-220.18 0,-63.09 -6.88,-97.5 0,-160.56 2.29,-21.8 8.03,-34.4 13.76,-55.04 28.68,-97.49 92.9,-130.74 137.61,-220.19 24.09,-48.17 28.68,-81.43 55.05,-128.44 16.06,-29.81 34.4,-44.73 50.46,-73.39 16.05,-27.52 25.23,-47.03 41.28,-73.4 41.29,-67.67 75.69,-106.66 96.33,-183.49 13.76,-50.45 14.92,-81.43 22.94,-133.02 20.64,-125.01 34.4,-197.25 59.63,-321.1 5.75,-29.82 18.35,-44.74 27.52,-73.4 18.35,-57.34 17.22,-97.48 50.47,-146.79 41.28,-60.79 86.01,-80.27 128.43,-142.2 12.63,-19.5 18.35,-35.56 32.12,-55.04 3.45,-5.75 14.91,-3.45 18.34,-9.18 5.75,-8.04 3.46,-17.21 4.59,-27.52l-91.74 -477.07c5.74,-68.8 18.34,-108.95 36.69,-174.31 -6.88,-27.52 -13.76,-49.32 -13.76,-77.98 0,-28.68 -4.59,-49.32 -18.35,-73.4 -3.42,-6.88 -18.34,-1.15 -18.34,-9.17 0,-36.7 20.64,-56.2 27.52,-91.74 14.91,-74.55 17.21,-119.27 32.11,-192.66 11.47,-58.5 16.06,-95.19 22.94,-155.97 5.74,-50.46 13.75,-77.98 13.75,-128.44 0,-13.76 -9.17,-21.8 -9.17,-35.56l0 -139.91c0,-60.77 18.35,-94.03 27.52,-154.8l-103.21 -550.46c-14.89,-61.93 -1.13,-100.92 0,-165.14 -18.34,-75.69 -35.54,-121.56 -80.27,-183.49 -25.23,-35.56 -58.48,-45.87 -73.4,-87.15 -20.64,-57.34 -32.1,-91.75 -59.63,-146.79 -22.94,-47.03 -26.36,-80.28 -45.87,-128.44 -14.9,-36.7 -32.11,-55.05 -45.87,-91.75 -6.88,-20.64 -19.49,-33.26 -22.94,-55.04 -3.43,-20.65 -3.43,-36.7 -13.76,-55.05 -11.47,-20.64 -33.25,-24.09 -45.87,-45.87 -13.76,-22.93 -18.35,-37.85 -18.35,-64.22 0,-33.27 4.59,-55.04 22.94,-82.57 13.76,-21.8 41.28,-28.68 41.28,-55.04 0,-50.47 -43.58,-80.28 -91.74,-91.75 -37.84,-9.17 -61.93,-6.88 -100.92,-9.17 -28.66,-2.3 -52.75,4.58 -73.39,-13.76 -5.73,-4.59 -4.59,-12.63 -9.18,-18.35 -13.76,-14.92 -36.7,-19.51 -36.7,-41.29 0,-27.52 26.39,-37.85 50.46,-50.45 28.68,-14.93 44.73,-22.94 73.4,-36.7 -59.63,-34.41 -96.33,-59.63 -165.14,-59.63 -17.2,0 -20.64,20.63 -32.11,32.1 -14.9,14.9 -25.23,24.08 -41.28,36.7 -6.89,4.59 -4.59,18.35 -13.77,18.35 -14.9,0 -22.93,-9.17 -36.7,-13.76 -28.66,-10.33 -44.71,-16.06 -73.39,-27.53 -61.93,-25.23 -97.47,-42.44 -155.96,-73.39 -52.75,-27.52 -89.45,-34.41 -146.79,-50.46 -52.75,-14.91 -82.57,-32.11 -137.61,-32.11 -32.12,0 -51.61,12.61 -82.57,18.35 -56.21,11.47 -96.33,9.18 -151.38,27.52 -60.79,29.82 -102.08,32.11 -169.73,32.11 -37.85,0 -59.63,-13.76 -97.49,-13.76 -13.75,0 -21.77,3.43 -35.54,4.59 0,34.4 -8.03,53.89 -13.76,87.15 -6.88,37.84 0,65.36 -13.76,100.92 -13.76,34.4 -55.04,32.11 -92.9,32.11l-89.45 0c-44.71,0 -67.65,-12.62 -111.23,-22.93 -19.5,38.99 -28.68,65.36 -59.63,96.33 -35.56,35.54 -74.55,44.71 -91.74,91.74 -30.97,83.71 -69.97,122.7 -100.92,206.42 -29.82,81.42 -43.58,134.17 -91.74,206.43 -17.21,26.36 -22.94,44.71 -36.7,73.39 -21.8,44.72 -55.05,68.81 -55.05,119.27 0,18.35 9.18,27.52 9.18,45.87 0,16.05 -14.92,24.07 -22.94,36.69 -22.93,34.41 -48.16,49.31 -73.39,82.57 -36.7,48.17 -53.91,81.42 -87.16,133.03 -26.39,41.29 -43.58,66.52 -55.04,114.68 -5.75,27.52 -2.3,45.87 -9.18,73.39 -6.88,28.67 -14.92,45.88 -22.94,73.4 -5.74,21.78 -12.62,33.25 -18.34,55.05 -3.46,12.6 -2.3,26.36 -9.18,36.69 -3.44,5.73 -13.76,4.59 -18.35,9.18 -26.38,26.37 -37.85,48.16 -68.8,68.8 -27.53,18.35 -55.05,22.94 -73.4,50.47 -17.21,26.36 -19.5,47 -27.52,77.98 -16.06,61.92 -18.35,100.92 -18.35,165.13 0,41.29 10.31,64.22 9.17,105.51 0,8.02 -9.17,12.6 -9.17,20.64 0,6.88 9.17,9.17 9.17,16.06 1.14,38.99 -4.58,63.06 -13.76,100.91 -3.45,63.07 -53.9,104.35 -110.09,133.03 -48.17,25.23 -75.68,44.71 -128.44,59.64 -49.32,13.75 -77.98,29.81 -123.85,50.45 -22.94,10.32 -43.58,5.73 -68.81,9.18 -30.97,3.43 -51.61,13.76 -83.73,13.76l-108.93 0c-17.21,35.54 -37.85,47.01 -64.22,73.39 -17.21,17.19 -29.82,27.52 -50.46,41.29 5.73,4.58 13.76,3.43 18.35,9.17 9.17,11.47 5.72,26.37 9.17,41.29 3.44,14.89 9.18,26.36 13.77,41.28 3.42,13.76 13.76,21.78 13.76,36.7 0,30.95 -18.35,47.01 -32.11,73.39 -17.21,33.25 -22.94,55.05 -36.7,91.75 -8.04,24.07 -18.35,37.83 -18.35,64.22 0,11.47 11.47,14.89 18.35,22.93 26.37,29.82 68.81,37.84 68.81,77.99 0,33.24 -27.53,45.86 -50.46,68.8 -50.46,50.46 -86.02,73.4 -123.85,133.03 -27.53,43.58 -59.64,60.77 -100.92,91.74 -32.12,24.08 -73.4,32.11 -73.4,72.24l0 98.63c0,74.54 -61.92,106.66 -61.92,181.19l0 327.98c0,91.75 -13.77,143.36 -34.41,232.81 -4.59,20.64 -18.35,32.11 -18.35,53.89l0 235.1c-6.88,64.22 -18.35,100.91 -18.35,165.14 0,40.13 4.59,81.41 41.29,96.32 19.48,8.02 33.24,-2.29 55.04,0 28.67,3.44 44.72,9.18 73.4,13.77 -14.92,44.71 -18.35,72.24 -18.35,119.27 0,20.64 16.05,29.81 27.52,45.86 16.06,21.79 24.08,40.13 45.88,55.05 12.6,9.17 27.52,11.47 36.69,22.94 12.61,14.9 9.18,33.25 9.18,53.89l0 94.03c0,13.77 -6.89,22.94 -4.59,35.56 5.72,24.08 24.07,34.41 36.7,55.05 18.35,29.82 35.54,44.72 55.04,73.4 13.76,20.64 19.49,40.12 41.29,50.45 5.72,2.3 12.6,-1.15 18.34,0 27.53,10.32 44.72,18.35 73.4,22.94 55.05,9.18 64.22,66.51 82.57,119.26 8.02,22.94 16.05,37.84 27.52,59.64 11.47,21.78 18.35,42.42 41.29,50.46 13.76,4.59 22.93,-4.59 37.83,-4.59 44.74,0 64.22,4.59 108.96,4.59 44.71,32.11 55.04,67.65 73.39,119.26 14.9,40.13 27.53,66.52 27.53,110.1 0,28.65 2.29,45.87 -4.59,73.39 -3.46,17.19 -18.35,21.78 -27.53,36.7 -20.64,30.95 -32.11,52.75 -41.28,89.45 24.07,0 38.99,-2.29 63.07,-2.29 45.86,0 69.96,18.34 115.83,18.34 58.47,0 91.74,-26.38 142.2,-55.04 26.37,-14.92 42.42,-32.11 73.4,-32.11 14.89,0 21.77,14.89 32.1,22.93 19.49,16.06 32.11,27.53 50.46,45.88 19.49,19.48 41.29,19.48 64.22,36.69 44.72,33.25 73.4,67.65 73.4,123.86 0,21.77 -6.88,33.24 -9.18,55.04 -3.45,35.54 1.14,57.34 -4.58,91.74 -8.04,51.6 -45.87,74.54 -45.87,127.29 0,20.64 3.43,30.97 4.58,51.61 13.77,1.14 21.78,4.59 35.54,4.59 17.21,0 22.94,-16.05 37.86,-22.94 27.52,-13.76 47.01,-25.23 73.39,-41.28 36.7,-22.94 57.34,-50.46 100.92,-50.46 26.37,0 40.13,14.9 64.22,22.94 56.18,20.64 91.74,29.81 146.79,55.04 21.78,9.18 33.25,19.49 55.05,27.53 55.04,20.64 94.03,21.77 137.61,59.63 20.64,17.19 36.69,27.52 50.46,50.46 6.88,12.6 12.6,26.36 22.93,36.69 29.82,29.82 55.05,39 91.75,59.64 65.36,37.83 118.11,35.54 188.07,64.22 -27.52,55.04 -35.56,89.45 -50.46,151.38 22.94,-3.44 35.55,-11.47 55.05,-22.94 47.01,-27.53 82.57,-29.82 133.03,-50.46 32.11,-12.62 51.59,-27.52 87.15,-27.52 18.35,0 20.65,22.93 32.11,36.7 27.52,33.26 57.34,50.45 100.92,50.45 34.4,0 65.36,-21.78 96.33,-36.7zm-876.15 2105.51l59.64 -32.11c36.69,55.05 36.69,99.78 36.69,165.14 0,37.85 -8.02,59.64 -13.76,96.33 -1.14,12.62 0,24.09 -4.59,36.7 -8.02,21.8 -20.64,33.26 -27.52,55.04 -13.76,43.58 -26.36,68.81 -36.69,114.69 -4.59,20.63 3.44,35.55 -4.59,55.04 -14.92,34.4 -52.76,29.82 -87.16,45.87 -37.85,17.21 -55.05,41.29 -82.57,73.39 -24.09,28.68 -47.03,37.86 -73.39,64.23 -12.63,12.62 -12.63,27.52 -27.53,36.69 -20.64,13.76 -36.7,18.35 -55.04,36.7 59.63,29.81 119.26,57.34 119.26,123.85 0,14.92 -9.17,22.94 -13.76,36.7 -12.62,40.15 -14.92,67.67 -13.76,110.1 1.14,28.67 13.76,47.02 4.59,73.39 -4.59,13.76 -14.92,21.8 -27.52,27.52 -6.88,2.29 -11.47,-4.59 -19.51,-4.59 -13.76,0 -21.78,3.45 -35.54,4.59 -1.16,14.92 -4.59,22.94 -4.59,37.85 0,40.13 27.52,59.63 27.52,99.77 0,24.09 -30.97,27.52 -55.04,27.52 1.14,13.76 4.59,22.93 4.59,36.7 0,20.64 -22.94,24.09 -41.29,32.1 -24.09,10.34 -34.4,26.39 -55.04,41.29 -36.7,27.52 -61.93,37.85 -91.75,73.39 -59.63,69.97 -80.27,127.31 -160.55,169.73 -34.4,17.21 -55.04,29.82 -91.74,41.29 -21.8,6.87 -33.27,16.05 -55.05,22.93 -84.86,27.52 -135.32,41.29 -224.77,41.29 -44.73,0 -71.1,-9.18 -114.68,-18.35 -35.56,-8.02 -65.38,-4.59 -91.74,-27.53 -11.47,-10.31 -14.92,-24.07 -22.94,-36.69 -14.91,-21.79 -37.85,-25.23 -55.04,-45.88 -22.94,-27.52 -47.03,-41.28 -83.73,-41.28l-341.74 0c-36.7,0 -58.48,9.18 -92.88,18.35 -35.56,10.33 -58.49,10.33 -96.33,13.76 -21.8,2.29 -33.27,8.04 -55.05,9.17 -42.44,3.46 -71.1,-9.17 -110.09,4.59 -2.3,0 -14.68,-39.47 -22.93,-64.22 74.52,-11.47 116.97,-16.06 188.07,-36.7 20.64,-5.72 34.4,-6.87 55.05,-13.76 21.77,-6.88 34.4,-21.78 55.04,-32.11 25.23,-12.61 44.71,-13.76 73.39,-13.76 24.08,0 36.7,18.35 60.77,18.35l89.45 0c35.57,0 53.92,-13.76 88.32,-22.94 81.41,-21.78 127.28,-34.4 211.01,-36.69 73.39,-2.3 114.67,-1.14 188.07,-9.18 21.78,-2.29 34.4,-5.72 55.05,-9.17 28.66,-4.59 45.87,-13.76 73.39,-22.94 29.81,-9.17 49.3,-16.06 73.4,-36.69 5.72,-4.59 14.9,-3.44 18.35,-9.18 34.4,-44.71 33.24,-83.71 59.63,-133.03 43.57,-80.27 71.1,-126.14 91.74,-215.59 -35.56,-17.2 -57.34,-32.12 -97.49,-32.12l-139.9 0c-21.78,0 -34.41,-6.88 -56.19,-9.17 -43.58,-4.58 -74.55,-10.31 -105.5,-41.28 20.64,-28.66 32.11,-51.6 64.22,-68.81 40.13,-21.78 67.65,-29.82 105.5,-55.05 17.19,-11.46 21.78,-24.07 36.7,-36.69 35.54,-30.96 61.92,-47.01 96.33,-77.99 58.48,-53.88 95.18,-83.7 165.14,-123.85 50.45,-28.66 87.15,-33.25 133.02,-68.81 53.9,-41.28 72.24,-83.71 123.86,-128.44 58.48,-50.46 102.05,-65.35 169.72,-100.91 43.58,-22.94 68.81,-40.13 105.51,-73.4 12.6,-11.47 27.52,-12.61 36.69,-27.52 18.35,-27.52 19.49,-55.05 45.88,-73.4 29.81,-21.77 47.01,-37.83 73.39,-64.22zm-1041.29 2114.68c18.35,-11.47 36.7,-11.47 55.05,-22.93 12.63,-8.04 18.35,-20.64 32.11,-27.52 18.35,-9.18 41.29,-14.92 41.29,-36.7 0,-14.92 -4.59,-26.39 -13.76,-36.7 -9.18,-10.33 -25.24,-5.74 -36.7,-13.76 -5.73,-3.45 -3.43,-14.92 -9.17,-18.35 -12.61,-9.17 -22.94,-11.47 -36.7,-18.35 -22.94,33.25 -40.13,50.46 -55.05,87.16 -33.62,84.05 -63.55,139.98 22.93,87.15zm-564.22 509.18c0,24.09 18.35,36.7 32.12,55.04 18.35,25.23 29.81,42.44 36.69,73.4 13.76,-19.49 26.39,-28.66 45.88,-41.28 38.98,-26.37 61.92,-55.05 110.08,-55.05 22.94,0 35.56,12.62 55.05,22.93 19.51,10.34 35.56,12.63 55.05,22.94 20.64,10.33 30.97,32.11 55.04,32.11 26.39,0 33.27,-26.37 50.46,-45.87 17.21,-19.49 30.98,-30.95 41.29,-55.05 18.35,-40.14 24.09,-67.67 36.7,-110.09 4.58,-14.92 4.58,-26.39 9.17,-41.28 21.8,-65.38 59.63,-99.78 59.63,-169.73 0,-30.97 -33.24,-40.14 -55.04,-59.63 -6.88,-5.75 -8.02,-16.05 -18.35,-18.35 -27.53,-5.74 -35.54,26.37 -55.05,45.87 -25.23,25.23 -40.13,41.29 -64.22,68.81 -28.66,33.25 -38.99,60.77 -77.98,82.57 -45.87,25.23 -68.81,45.87 -114.68,73.39 -22.94,13.76 -41.29,18.35 -64.22,32.11 -26.37,16.06 -43.58,26.37 -73.4,36.7 -20.63,6.88 -38.98,13.76 -50.45,32.11 -4.59,6.88 -13.77,9.17 -13.77,18.35zm-211 22.94l-27.53 0c-1.15,14.91 -4.58,22.93 -4.58,37.85 0,8.02 8.02,10.31 9.17,17.19 8.02,35.56 16.06,55.04 18.35,91.74l18.35 4.59c11.46,-13.76 22.93,-22.94 22.93,-41.29 0,-40.12 -17.19,-75.68 -36.69,-110.08zm3821.1 -394.5c-33.26,57.34 -47.02,102.07 -105.5,133.03 36.69,47.03 64.22,76.84 73.39,137.61 24.07,-5.72 36.7,-19.48 59.63,-27.52 36.7,-12.61 61.93,-9.17 100.92,-9.17 0,-28.67 -3.43,-47.01 4.59,-73.4 14.92,-44.72 41.28,-67.65 41.28,-115.82l0 -35.56c-22.93,20.64 -36.69,45.88 -68.8,45.88 -24.08,0 -36.7,-12.61 -55.05,-27.53 -5.73,-4.59 -3.43,-14.9 -9.17,-18.35 -17.2,-11.46 -19.49,-9.17 -41.29,-9.17zm-403.67 206.42c1.16,13.76 4.59,22.94 4.59,36.7 0,49.32 -59.63,60.79 -59.63,110.09 0,36.7 28.65,51.62 45.86,82.57 18.35,33.26 27.53,53.91 36.7,91.74 12.63,52.76 13.77,83.73 13.77,137.62 0,11.46 -5.73,17.21 -9.18,27.52 40.15,-12.6 58.5,-41.28 100.92,-41.28 29.81,0 43.58,22.93 73.39,22.93 18.35,0 24.1,-19.48 27.53,-36.69 6.88,-30.96 6.88,-49.31 6.88,-81.42 0,-24.09 1.16,-36.69 0,-60.78 -45.87,-3.44 -74.53,-11.47 -112.39,-36.7 -25.23,-16.06 -55.05,-28.66 -55.05,-59.64 0,-8.02 8.04,-11.46 9.18,-18.35 8.04,-28.65 10.33,-48.16 18.35,-77.98 5.74,-21.78 22.94,-33.24 22.94,-56.18l0 -38.99c-47.01,9.17 -75.69,4.58 -123.86,-1.16zm-715.6 1201.84c-22.93,9.17 -45.87,20.64 -45.87,45.87 0,26.39 16.06,41.28 27.52,64.22 22.94,-22.94 64.22,-22.94 64.22,-55.05 0,-22.93 -29.81,-38.99 -45.87,-55.04zm-229.35 633.03c-13.76,0 -8.04,-24.09 -18.35,-32.12 -11.47,-9.17 -22.94,-11.46 -36.7,-18.34 -28.68,49.3 -45.87,80.27 -91.74,114.68 -34.41,25.23 -66.52,29.81 -91.74,64.22l4.58 18.35c47.01,14.91 87.16,42.44 87.16,91.74 0,49.32 -17.21,77.98 -32.11,123.85 -11.47,35.56 -14.92,58.5 -32.11,91.74 -27.52,52.76 -68.81,81.44 -68.81,142.21 0,18.34 21.78,17.21 36.7,27.52 16.05,11.47 21.78,24.09 32.11,41.29 16.05,25.22 32.11,41.28 32.11,72.25 0,92.55 3.96,-12.62 55.04,-12.62 26.37,0 36.7,24.09 50.46,45.87 27.28,40.93 59.64,264.37 59.64,113.54 0,-22.93 -1.16,-38.99 9.17,-58.49 12.62,-22.94 40.15,-21.79 55.04,-41.29 9.18,-11.47 10.33,-26.37 13.77,-41.28 5.74,-27.53 1.15,-45.88 9.17,-73.4 8.04,-27.52 22.94,-43.58 22.94,-73.39 0,-24.08 -27.53,-30.96 -27.53,-55.05 0,-32.11 19.51,-51.6 41.29,-73.39 13.76,-13.77 32.11,-20.65 32.11,-41.29 0,-18.35 -10.32,-27.52 -9.18,-45.87 2.3,-41.28 16.06,-64.22 9.18,-105.5 22.94,0 36.7,2.29 59.63,0 34.41,-3.43 48.17,-28.67 77.98,-45.88 38.99,-22.93 87.16,-33.24 87.16,-77.98 0,-12.61 -13.76,-16.05 -18.35,-27.52 -16.05,-41.28 -16.05,-71.1 -22.93,-114.68 -1.14,-6.88 -9.18,-10.33 -9.18,-18.35 0,-21.8 13.76,-33.26 13.76,-55.04 0,-24.09 1.16,-42.44 -13.76,-59.64 -9.17,-10.33 -22.94,-10.33 -36.7,-13.76 -8.01,21.78 -12.6,42.42 -32.11,55.05 -19.48,12.6 -35.54,16.05 -55.05,27.52 -17.19,10.31 -19.48,26.37 -36.69,36.7 -21.78,12.61 -37.83,18.35 -64.22,18.35 -18.35,0 -27.52,-6.88 -45.87,-9.18 -18.35,-2.29 -27.52,9.18 -45.87,9.18zm-403.67 1376.14c0,18.35 13.75,27.53 13.75,45.88 0,13.76 -4.58,24.09 -9.16,36.69 47.02,6.88 76.84,17.21 110.08,50.46 5.75,5.75 3.45,12.63 9.18,18.35 4.59,4.59 12.62,1.16 18.35,4.59 8.03,-32.11 13.76,-52.75 27.52,-82.57 5.75,-13.76 18.35,-20.64 18.35,-36.7 0,-22.93 -24.07,-27.52 -41.28,-41.28 -12.61,-10.33 -21.79,-18.35 -32.12,-32.11 -3.42,-4.59 3.45,-12.62 0,-18.35 -4.58,-8.04 -13.76,-14.92 -22.93,-13.76 -24.07,4.58 -34.4,22.93 -55.05,36.7 -14.89,9.17 -36.69,13.75 -36.69,32.1zm-307.35 866.98c-18.34,55.04 -9.17,91.74 -22.93,146.79l18.35 13.76c16.05,-32.11 18.35,-55.05 22.93,-91.74 2.3,-21.79 13.77,-33.25 13.77,-55.05 0,-12.61 -21.78,-6.88 -32.12,-13.76zm-1885.32 353.21c-11.47,0 -17.21,-5.74 -27.52,-9.18l-32.11 4.59c-1.15,18.35 -4.59,28.68 -4.59,47.03 0,26.37 17.2,41.29 36.7,58.48 20.64,-14.9 50.46,-19.49 50.46,-45.87 0,-13.77 -5.73,-24.08 -9.18,-36.7 -2.29,-8.02 -4.58,-18.35 -13.76,-18.35zm-1403.67 1651.38l0 125.01c0,25.23 -13.76,37.83 -13.76,63.06 0,21.8 19.5,28.68 32.11,45.88 24.09,32.1 36.7,55.04 50.46,91.73 16.05,43.59 13.76,72.26 13.76,119.27 0,26.39 -8.02,42.44 -9.18,68.81 0,8.04 8.04,10.33 8.04,18.35 0,8.04 -8.04,10.33 -8.04,18.35 3.46,33.27 30.98,43.57 45.88,73.39 12.62,25.23 18.35,44.74 18.35,73.4 0,59.63 -17.2,96.33 -45.88,146.79 -28.65,50.46 -59.63,76.84 -114.67,96.33 -10.34,3.44 -16.06,9.17 -27.53,9.17 -19.5,0 -30.97,-8.02 -45.87,-18.35 -24.09,33.27 -50.46,43.58 -87.16,64.22 -33.26,18.35 -52.75,36.7 -91.74,36.7 -61.93,0 -103.21,-16.06 -146.79,-59.63 -29.81,-29.82 -45.87,-53.89 -82.57,-73.4 -19.5,-10.31 -38.99,-6.88 -55.04,-22.93 -4.59,-4.59 -1.16,-13.77 -4.59,-18.35 -13.76,-18.35 -28.68,-26.37 -50.46,-36.7 -1.16,8.04 -9.17,10.33 -9.17,18.35 0,8.03 8.01,11.47 9.17,18.35 5.72,30.97 9.18,51.61 9.18,83.72 20.64,0 33.24,-1.15 53.89,-1.15 47.02,0 82.57,9.17 111.25,45.87 13.75,18.35 20.63,35.56 32.1,55.05 32.11,52.75 53.89,86.01 68.81,146.78 50.46,-28.66 55.05,-80.27 110.09,-100.92 49.31,-18.35 80.28,-18.35 133.03,-18.35 13.76,0 24.07,-2.29 36.7,0 19.48,4.59 20.64,25.24 36.7,36.7 41.28,30.98 60.78,53.91 110.09,77.99 37.85,-76.83 60.79,-119.27 100.91,-192.67 8.04,-16.05 21.8,-19.48 27.53,-36.69 12.62,-34.41 24.09,-55.05 27.52,-91.75 1.16,-18.34 -2.29,-28.65 0,-45.86 1.16,-6.89 8.04,-11.47 9.17,-18.35 8.04,-40.14 10.33,-64.23 13.77,-105.51 2.29,-30.95 2.29,-47.01 0,-77.98 -2.3,-30.95 -17.2,-52.75 0,-77.98 8.03,-12.61 22.93,-12.61 36.7,-18.35 14.91,-6.88 25.22,-14.9 41.28,-18.35 51.61,-12.61 80.27,-26.37 133.02,-32.11 30.98,-3.43 48.17,4.59 79.14,4.59 13.77,0 21.78,-3.44 35.54,-4.59 -21.77,-67.65 -10.31,-112.39 -18.35,-183.49 -3.42,-29.82 -11.46,-45.87 -22.93,-73.39 -8.02,-20.65 -18.35,-32.11 -18.35,-55.05 -2.29,-71.1 17.21,-118.11 -9.17,-183.48 -33.25,18.34 -56.19,21.77 -91.75,36.69 -25.23,10.33 -28.65,35.56 -45.87,55.05 -38.99,42.44 -74.53,68.81 -133.03,68.81 -37.83,0 -48.16,-36.7 -77.98,-59.64 -25.23,-19.48 -36.69,-36.69 -59.63,-59.63 -13.76,11.47 -22.94,22.94 -41.29,22.94 -11.46,0 -19.48,-1.14 -27.52,-9.18 -4.58,-4.59 1.16,-14.9 -4.58,-18.35 -12.61,-8.01 -25.23,-6.88 -41.29,-9.17zm-1591.74 2481.65c0,22.94 -4.59,50.46 -27.53,50.46 -21.79,0 -25.23,-22.93 -36.7,-41.28 -12.62,-21.8 -29.81,-30.98 -41.28,-55.05 0,55.05 -17.21,84.86 -32.11,137.61 -8.04,29.82 -6.88,50.47 -27.52,73.4 -14.92,17.21 -34.41,17.21 -55.05,27.52 -8.03,3.45 -6.88,12.63 -13.76,18.35 35.54,11.47 68.81,30.98 68.81,68.81 0,44.74 -19.51,68.81 -36.7,110.09 -16.06,40.15 -13.76,66.52 -18.35,110.09 22.94,-1.13 37.83,-6.88 59.63,-9.17 29.82,-4.59 61.93,2.29 77.98,-22.93 6.89,-11.47 -1.15,-22.94 0,-36.7 8.02,-72.24 34.41,-151.38 106.67,-151.38l90.58 0c17.22,-26.36 24.1,-44.71 36.7,-73.39 12.63,-28.67 27.52,-45.88 27.52,-77.99 0,-22.93 -18.34,-32.11 -36.69,-45.87 -33.25,-24.07 -60.77,-42.42 -73.39,-82.57 -14.91,-47.02 -14.91,-90.6 -55.05,-119.26 -4.59,6.88 -17.22,5.72 -18.35,13.76 -10.33,38.99 4.59,64.22 4.59,105.5zm908.25 110.09c-13.76,5.75 -27.52,5.75 -36.69,18.35 -20.65,28.68 1.14,60.79 -18.35,91.75 -3.45,6.88 -12.63,6.88 -18.35,13.76 -25.23,29.81 -41.28,52.75 -41.28,91.74 0,8.04 9.17,11.47 9.17,18.35 4.59,30.97 9.18,73.39 41.28,73.39 19.49,0 21.78,-22.93 27.53,-41.28 9.17,-27.52 16.05,-44.71 22.93,-73.39 8.02,-35.55 27.52,-55.05 27.52,-91.75 0,-18.35 -9.17,-28.66 -9.17,-47 0,-24.1 -4.59,-29.82 -4.59,-53.92zm289 518.36c-6.89,0 -11.47,-4.59 -18.35,-4.59 -14.92,0 -21.8,13.76 -32.11,22.94 -20.65,19.5 -29.82,38.98 -32.11,68.8 51.59,-3.43 90.6,-12.61 123.85,-50.46l-41.28 -36.69zm-2651.39 321.1c-8.03,0 -10.32,-9.18 -18.34,-9.18 -29.82,0 -44.74,13.76 -74.55,13.76 -45.87,0 -72.24,1.16 -118.11,1.16 55.04,88.29 151.37,115.81 151.37,219.03 0,30.97 -22.93,43.58 -41.28,68.8 -9.18,12.63 -9.18,24.09 -18.35,36.7 -30.97,43.58 -67.67,53.91 -105.5,91.75 -35.57,35.56 -64.22,48.16 -110.1,68.8 -32.11,13.76 -68.8,24.09 -68.8,59.63 0,27.53 21.77,43.58 45.86,55.05 44.72,21.8 73.4,36.7 119.27,55.05 29.82,11.47 43.58,30.97 73.4,41.28 21.78,6.88 36.7,6.88 59.63,13.76 10.31,2.3 16.05,9.18 27.52,9.18 20.65,0 24.08,-21.78 36.7,-36.7 21.78,-25.23 40.13,-45.87 73.4,-50.46 41.28,-5.73 68.8,-8.02 105.5,-27.52 30.97,-16.06 32.11,-49.31 41.29,-82.57 11.46,-41.29 29.81,-66.52 64.21,-91.74 42.45,42.43 36.7,119.26 96.34,119.26 18.35,0 28.67,-11.47 45.86,-13.76 48.17,-8.02 80.28,-12.6 123.86,-32.11 21.8,-9.17 32.11,-21.78 55.05,-27.52 27.52,-6.88 45.87,5.74 73.39,0 56.2,-11.47 55.05,-73.4 96.33,-114.68 38.99,-38.99 87.16,-58.48 87.16,-114.68 0,-22.94 -13.77,-45.87 -36.7,-45.87 -35.54,0 -56.18,13.76 -91.74,13.76 -38.99,0 -49.3,-36.7 -82.57,-55.05 -24.08,-12.6 -44.72,-18.35 -73.39,-18.35 -21.79,0 -34.41,10.33 -55.05,13.77 -51.6,8.03 -82.57,9.17 -135.32,9.17 -40.13,0 -64.22,-20.64 -89.45,-50.46 -29.82,-34.4 -73.4,-45.87 -73.4,-91.74 0,-18.35 9.18,-27.52 9.18,-45.87 0,-26.39 -16.06,-41.29 -27.53,-64.22 -8.02,-16.06 -13.76,-36.7 -32.1,-36.7 -14.91,0 -21.79,13.76 -32.12,22.93 -26.37,24.08 -36.7,45.87 -64.22,68.81 -13.76,11.47 -18.35,27.53 -36.7,27.53zm1266.06 619.26c-19.5,-8.04 -33.26,-12.62 -55.05,-13.76 0,8.02 -4.58,11.47 -4.58,19.51 0,43.57 -2.29,104.34 41.28,104.34 20.65,0 29.82,-16.05 50.46,-18.35 21.8,-2.29 34.41,6.89 55.05,0 14.92,-4.58 20.64,-16.05 32.11,-27.52 -34.4,-30.95 -74.54,-53.89 -119.27,-64.22zm339.45 1302.76c-21.79,-6.88 -33.26,-13.76 -56.2,-13.76l-42.42 0 0 91.74 92.88 0c29.84,0 45.89,20.64 60.79,45.87 16.05,27.52 36.7,40.15 55.04,64.22 17.21,-17.19 36.7,-26.37 36.7,-50.46 0,-24.07 -21.78,-34.4 -32.11,-55.04 -6.88,-13.77 -13.76,-21.79 -18.34,-36.7 -4.59,-12.61 0,-28.66 -9.18,-36.7 -9.17,-8.02 -24.08,-2.3 -36.7,-4.59 -12.61,-2.29 -36.69,-2.29 -50.46,-4.58z"/>
  <path class="fil2 str2" d="M12803.24 2513.04c-28.09,0 -60.56,-0.03 -85.2,-8.52 -13.01,-4.49 -23.46,-9.02 -36.92,-14.2 -11.85,-4.55 -25.21,3.47 -34.08,5.68l-2.84 2.84c-3.62,14.51 -15.27,44.94 -8.52,62.48 4.83,12.58 4.92,23.91 8.52,36.92 2.81,10.13 11.36,19.46 11.36,31.24 9.32,3.1 37.89,32.21 48.28,42.6 8.7,8.7 15.52,14.87 25.56,19.88 7.52,3.76 28.74,6.7 31.24,14.2 17.93,0 33.73,8.52 53.96,8.52 33.77,0 81.5,-44.93 93.72,-76.68 3.89,-10.13 -4.06,-43.08 -8.52,-51.12 -6.92,-12.44 -29.68,-31.67 -31.24,-42.6 -3.5,-1.75 -10.15,-12.2 -11.36,-17.04l-53.96 -14.2z"/>
  <g id="_1826240205632">
   <path class="fil4 str3" d="M11327.41 3262.63c17.21,10.97 76.75,35.65 95.67,42.78 2.65,0.99 3.38,1.6 4.27,4.28 9.84,29.53 30.65,67.51 49.78,94.06 47.54,65.97 57.52,148.51 109.52,218.07 41.68,55.75 27.3,125.67 72.54,175.3 18.31,20.09 76.65,80.73 99.56,88.37 71.91,24 82.87,92.66 146.5,136.83 26.14,18.14 70.24,9.41 100.98,28.5 34.24,21.27 55.95,30.68 96.72,51.31 25.57,12.94 13.73,59.24 28.44,84.09 22.85,38.6 34.49,75.93 79.65,99.77 75.28,39.75 136.2,2.92 184.9,-58.44 112.67,-141.96 96.05,132.96 126.59,188.14 39.86,72.02 92.02,64.24 160.72,41.33 27.94,-9.31 56.89,-17.97 86.76,-11.4 34.76,7.65 59.41,38.83 69.7,69.83l1.42 4.28"/>
   <path class="fil4 str3" d="M10427.73 6442.39c7.8,-2.54 9.98,-0.67 15.38,-4.26 7.07,-4.69 71.77,-21.59 81.07,-27.08 31.23,-18.42 188.47,-48.56 223.3,-66.99l177.79 -94.07c78.19,-41.37 95.02,-47.55 169.26,-19.95 47.84,17.79 108.36,-32.08 159.3,8.55 119.73,95.51 136.7,-19.3 227.57,-64.14 103.6,-51.12 154.53,41.6 223.3,-94.06 7.91,-15.61 15.51,-12.97 24.18,-25.66 18.53,-27.1 37.62,-57.81 59.74,-82.66 26.95,-30.28 38.03,-54.71 51.2,-91.22 13.08,-36.28 22.29,-72.45 44.09,-102.62 31.71,-43.88 59.98,-77.52 109.52,-52.73l8.53 4.27c24.04,12.02 57.43,10.06 85.34,-5.7 34.68,-19.58 55.05,-50.94 81.07,-76.96"/>
   <path class="fil4 str3" d="M12440.04 5382.01c109.43,109.67 316.23,-33.28 393.98,64.14 40.02,50.16 73.44,90.75 140.81,57.01 27.46,-13.75 53.49,-14.91 76.8,-37.06 20.77,-19.74 46.18,-41.7 64.01,-65.56l4.26 -5.7c63.52,-84.99 83.19,-189.95 163.57,-222.34 98.44,-39.67 149.98,-71.97 210.5,-161.06 6.27,-9.24 28.64,-23.57 38.4,-25.65 69.73,-14.91 167.26,-155.43 229,-71.26 36.82,50.2 79.67,80.58 147.92,65.56 40.08,-8.82 126.1,-58.21 162.14,-38.48 63.98,35.04 78.3,110.45 160.72,114.02 72.42,3.13 154.13,47.63 220.46,79.81l46.38 22.51"/>
  </g>
  <use x="13189.07" y="1531.19" width="105.38" height="105.38" xlink:href="#villes"/>
  <use x="11856.27" y="2916.35" width="105.38" height="105.38" xlink:href="#villes"/>
  <use x="14245.79" y="2863.99" width="105.38" height="105.38" xlink:href="#villes"/>
  <use x="14374.31" y="3768.39" width="105.38" height="105.38" xlink:href="#villes"/>
  <use x="11194.63" y="3820.75" width="105.38" height="105.38" xlink:href="#villes"/>
  <use x="10537.75" y="6129.35" width="105.38" height="105.38" xlink:href="#villes"/>
  <use x="11519.09" y="7134.49" width="256.13" height="256.13" xlink:href="#Capitale"/>
  <use x="13769.79" y="6286.43" width="105.38" height="105.38" xlink:href="#villes"/>
  <use x="12394.15" y="7833.43" width="105.38" height="105.38" xlink:href="#villes"/>
  <use x="11427.87" y="11179.71" width="105.38" height="105.38" xlink:href="#villes"/>
  <use x="6091.91" y="22717.95" width="105.38" height="105.38" xlink:href="#villes"/>
  <path class="fil5 str4" d="M16588.04 22952.67l2736.09 0 0 1592.9 -2736.09 0 0 -1592.9z"/>
  <path class="fil6" d="M19502.86 24452.67c0,-17.45 4.47,-34.48 13.46,-51.13 8.93,-16.61 21.77,-29.59 38.43,-38.86 16.69,-9.26 34.1,-13.92 52.16,-13.92 17.92,0 35.18,4.56 51.69,13.74 16.56,9.12 29.4,21.92 38.53,38.43 9.17,16.51 13.73,33.77 13.73,51.74 0,18.01 -4.56,35.27 -13.73,51.78 -9.13,16.51 -21.97,29.35 -38.53,38.53 -16.51,9.17 -33.77,13.78 -51.69,13.78 -18.06,0 -35.47,-4.66 -52.16,-13.97 -16.66,-9.36 -29.5,-22.34 -38.43,-38.95 -8.99,-16.65 -13.46,-33.68 -13.46,-51.17zm17.22 0c0,14.62 3.76,28.88 11.24,42.7 7.48,13.83 18.2,24.65 32.13,32.46 13.92,7.81 28.41,11.71 43.46,11.71 15,0 29.35,-3.85 43.08,-11.52 13.74,-7.67 24.46,-18.39 32.13,-32.17 7.67,-13.79 11.52,-28.18 11.52,-43.18 0,-14.96 -3.85,-29.36 -11.52,-43.14 -7.67,-13.78 -18.39,-24.5 -32.13,-32.12 -13.73,-7.62 -28.08,-11.43 -43.08,-11.43 -15.05,0 -29.54,3.9 -43.46,11.66 -13.93,7.76 -24.65,18.58 -32.13,32.46 -7.48,13.87 -11.24,28.08 -11.24,42.57zm103.57 -33.35l5.08 -16.94c11.53,2.78 20.7,8.61 27.52,17.55 6.87,8.98 10.3,19.85 10.3,32.59 0,16.19 -5.22,29.31 -15.71,39.42 -10.49,10.11 -24.98,15.15 -43.55,15.15 -12.14,0 -22.68,-2.31 -31.61,-6.92 -8.99,-4.56 -15.71,-11.15 -20.28,-19.61 -4.56,-8.52 -6.82,-18.25 -6.82,-29.16 0,-12.23 2.92,-22.39 8.8,-30.48 5.88,-8.09 13.88,-13.6 23.94,-16.56l4.23 16.37c-6.91,2.77 -12.23,6.82 -15.89,12.23 -3.72,5.41 -5.55,11.71 -5.55,19 0,10.58 3.76,19.33 11.28,26.2 7.53,6.87 18.35,10.3 32.37,10.3 14.06,0 24.69,-3.24 31.89,-9.74 7.19,-6.49 10.81,-14.86 10.81,-25.16 0,-8.28 -2.39,-15.57 -7.24,-21.83 -4.8,-6.25 -11.33,-10.39 -19.57,-12.41z"/>
  <path id="1" class="fil6" d="M19708.32 24157.51l-18.58 0c14.44,9.27 21.68,22.91 21.68,40.92 0,11.67 -3.19,22.39 -9.64,32.13 -6.4,9.78 -15.38,17.35 -26.86,22.76 -11.52,5.37 -24.74,8.05 -39.69,8.05 -14.59,0 -27.8,-2.45 -39.7,-7.29 -11.86,-4.9 -20.98,-12.19 -27.29,-21.92 -6.35,-9.69 -9.5,-20.61 -9.5,-32.6 0,-8.84 1.88,-16.7 5.6,-23.56 3.72,-6.87 8.61,-12.47 14.58,-16.8l-72.67 0 0 -24.83 202.07 0 0 23.14zm-73.05 78.46c18.72,0 32.69,-3.95 41.96,-11.9 9.26,-7.91 13.87,-17.27 13.87,-28.04 0,-10.86 -4.42,-20.08 -13.26,-27.7 -8.84,-7.57 -22.34,-11.38 -40.5,-11.38 -19.94,0 -34.62,3.85 -43.98,11.61 -9.36,7.72 -14.01,17.27 -14.01,28.6 0,11.06 4.46,20.27 13.45,27.71 8.98,7.38 23.14,11.1 42.47,11.1z"/>
  <path id="2" class="fil6" d="M19647.64 24104.97l-24.83 0 0 -76.76 24.83 0 0 76.76z"/>
  <path id="3" class="fil6" d="M19708.32 24001.11l-146.47 0 0 -22.29 20.69 0c-7.15,-4.56 -12.93,-10.68 -17.26,-18.3 -4.37,-7.62 -6.54,-16.27 -6.54,-26.01 0,-10.82 2.26,-19.71 6.73,-26.62 4.52,-6.92 10.77,-11.81 18.86,-14.63 -17.07,-11.67 -25.59,-26.77 -25.59,-45.39 0,-14.58 4,-25.83 12.04,-33.63 8.05,-7.86 20.42,-11.81 37.12,-11.81l100.42 0 0 24.84 -92.19 0c-9.88,0 -17.03,0.84 -21.4,2.44 -4.38,1.6 -7.86,4.52 -10.54,8.8 -2.68,4.23 -4,9.22 -4,14.91 0,10.35 3.44,18.91 10.26,25.73 6.86,6.82 17.82,10.2 32.87,10.2l85 0 0 24.84 -95.06 0c-11.01,0 -19.29,2.02 -24.79,6.07 -5.5,4.04 -8.28,10.67 -8.28,19.85 0,6.96 1.84,13.4 5.51,19.33 3.66,5.93 9.03,10.21 16.13,12.89 7.05,2.63 17.26,3.95 30.57,3.95l75.92 0 0 24.83z"/>
  <path id="4" class="fil6" d="M19689.98 23670.35c7.85,9.22 13.35,18.11 16.6,26.62 3.25,8.52 4.84,17.64 4.84,27.43 0,16.08 -3.9,28.45 -11.75,37.11 -7.81,8.65 -17.83,12.98 -30.01,12.98 -7.15,0 -13.69,-1.65 -19.62,-4.89 -5.93,-3.29 -10.63,-7.57 -14.2,-12.84 -3.58,-5.32 -6.31,-11.24 -8.14,-17.88 -1.27,-4.89 -2.49,-12.27 -3.72,-22.1 -2.35,-20.04 -5.22,-34.86 -8.51,-44.31 -3.39,-0.1 -5.55,-0.14 -6.44,-0.14 -10.07,0 -17.17,2.35 -21.31,7.05 -5.6,6.35 -8.37,15.81 -8.37,28.32 0,11.71 2.07,20.36 6.16,25.92 4.09,5.59 11.38,9.68 21.78,12.37l-3.39 24.27c-10.4,-2.21 -18.82,-5.84 -25.21,-10.92 -6.4,-5.08 -11.29,-12.41 -14.77,-22.01 -3.44,-9.55 -5.18,-20.7 -5.18,-33.3 0,-12.51 1.46,-22.72 4.42,-30.57 2.97,-7.81 6.64,-13.6 11.11,-17.27 4.46,-3.67 10.11,-6.25 16.93,-7.76 4.23,-0.8 11.85,-1.22 22.81,-1.22l32.93 0c23,0 37.53,-0.52 43.69,-1.55 6.17,-0.99 12.05,-3.06 17.69,-6.07l0 25.96c-5.22,2.5 -11.34,4.1 -18.34,4.8zm-55.04 1.98c3.67,9.03 6.78,22.57 9.32,40.64 1.45,10.25 3.1,17.49 4.93,21.73 1.84,4.23 4.52,7.48 8,9.78 3.53,2.31 7.43,3.48 11.76,3.48 6.54,0 12.04,-2.49 16.42,-7.52 4.37,-5.04 6.58,-12.38 6.58,-22.02 0,-9.55 -2.07,-18.06 -6.25,-25.54 -4.14,-7.43 -9.84,-12.93 -17.03,-16.41 -5.6,-2.69 -13.83,-4 -24.7,-4l-9.03 -0.14z"/>
  <path id="5" class="fil6" d="M19764.48 23609.06l-202.63 0 0 -22.57 19.24 0c-7.44,-5.32 -13.03,-11.34 -16.75,-18.07 -3.72,-6.68 -5.6,-14.81 -5.6,-24.36 0,-12.51 3.2,-23.52 9.65,-33.07 6.39,-9.55 15.47,-16.74 27.14,-21.63 11.71,-4.85 24.5,-7.3 38.47,-7.3 14.91,0 28.37,2.69 40.36,8.05 11.95,5.36 21.12,13.17 27.52,23.42 6.35,10.21 9.54,20.98 9.54,32.27 0,8.28 -1.74,15.71 -5.22,22.25 -3.48,6.58 -7.85,11.94 -13.17,16.18l71.45 0 0 24.83zm-128.5 -22.57c18.77,0 32.69,-3.81 41.67,-11.39 8.99,-7.62 13.45,-16.84 13.45,-27.65 0,-11.01 -4.65,-20.42 -13.97,-28.23 -9.31,-7.85 -23.7,-11.76 -43.22,-11.76 -18.63,0 -32.55,3.81 -41.82,11.48 -9.26,7.67 -13.87,16.79 -13.87,27.42 0,10.54 4.94,19.85 14.77,27.94 9.87,8.14 24.17,12.19 42.99,12.19z"/>
  <path id="6" class="fil6" d="M19664.58 23461.98l-3.96 -24.55c9.84,-1.37 17.36,-5.22 22.63,-11.53 5.22,-6.3 7.85,-15.14 7.85,-26.43 0,-11.43 -2.3,-19.9 -6.96,-25.45 -4.61,-5.5 -10.06,-8.28 -16.32,-8.28 -5.6,0 -10.02,2.5 -13.22,7.44 -2.21,3.48 -4.98,11.94 -8.42,25.4 -4.56,18.15 -8.51,30.71 -11.85,37.77 -3.39,7 -7.99,12.32 -13.92,15.94 -5.88,3.62 -12.42,5.46 -19.57,5.46 -6.54,0 -12.56,-1.51 -18.11,-4.47 -5.55,-3.01 -10.16,-7.06 -13.83,-12.18 -2.82,-3.86 -5.22,-9.13 -7.19,-15.76 -1.98,-6.68 -2.97,-13.78 -2.97,-21.4 0,-11.48 1.65,-21.54 4.99,-30.2 3.29,-8.7 7.81,-15.1 13.45,-19.24 5.69,-4.09 13.27,-6.96 22.77,-8.51l3.38 24.27c-7.62,1.08 -13.59,4.28 -17.87,9.55 -4.28,5.27 -6.4,12.7 -6.4,22.34 0,11.34 1.88,19.47 5.65,24.32 3.76,4.84 8.18,7.29 13.21,7.29 3.2,0 6.12,-0.99 8.71,-3.01 2.63,-2.02 4.84,-5.18 6.58,-9.5 0.94,-2.5 3.06,-9.74 6.35,-21.87 4.66,-17.5 8.52,-29.73 11.48,-36.69 2.96,-6.96 7.34,-12.42 12.98,-16.37 5.69,-4 12.75,-5.98 21.21,-5.98 8.24,0 16,2.4 23.29,7.25 7.29,4.84 12.93,11.8 16.93,20.88 4,9.13 5.97,19.43 5.97,30.91 0,19 -3.95,33.53 -11.8,43.5 -7.9,9.98 -19.57,16.33 -35.04,19.1z"/>
  <path id="7" class="fil6" d="M19708.32 23303.94l-28.22 0 0 -28.22 28.22 0 0 28.22z"/>
  <path id="8" class="fil6" d="M19654.7 23136.91l3.38 -24.27c16.7,2.68 29.73,9.45 39.19,20.41 9.45,10.96 14.15,24.46 14.15,40.41 0,19.99 -6.53,36.08 -19.61,48.21 -13.08,12.18 -31.8,18.25 -56.16,18.25 -15.81,0 -29.59,-2.63 -41.39,-7.85 -11.86,-5.22 -20.75,-13.17 -26.63,-23.9 -5.92,-10.68 -8.89,-22.29 -8.89,-34.9 0,-15.85 4,-28.88 12.04,-38.95 8.05,-10.11 19.48,-16.6 34.25,-19.42l3.67 23.99c-9.83,2.3 -17.22,6.35 -22.2,12.23 -4.94,5.83 -7.44,12.88 -7.44,21.16 0,12.51 4.47,22.67 13.41,30.53 8.98,7.81 23.09,11.71 42.47,11.71 19.66,0 33.92,-3.76 42.81,-11.29 8.89,-7.57 13.35,-17.4 13.35,-29.49 0,-9.78 -2.96,-17.92 -8.93,-24.41 -5.93,-6.54 -15.1,-10.68 -27.47,-12.42z"/>
  <path id="9" class="fil6" d="M19635.08 23100.79c-27.04,0 -47.08,-7.53 -60.11,-22.63 -10.82,-12.56 -16.23,-27.94 -16.23,-46.05 0,-20.08 6.59,-36.54 19.76,-49.34 13.12,-12.75 31.33,-19.14 54.51,-19.14 18.82,0 33.59,2.82 44.36,8.46 10.77,5.65 19.14,13.88 25.12,24.7 5.97,10.77 8.93,22.58 8.93,35.32 0,20.51 -6.53,37.07 -19.66,49.72 -13.12,12.65 -32.03,18.96 -56.68,18.96zm0.05 -25.4c18.72,0 32.74,-4.1 42,-12.28 9.32,-8.23 13.97,-18.53 13.97,-31 0,-12.32 -4.65,-22.57 -14.01,-30.81 -9.36,-8.18 -23.61,-12.27 -42.76,-12.27 -18.06,0 -31.75,4.14 -41.01,12.37 -9.32,8.23 -13.97,18.48 -13.97,30.71 0,12.47 4.61,22.77 13.87,31 9.27,8.18 23.24,12.28 41.91,12.28z"/>
  <path id="10" class="fil6" d="M19708.32 22934.51l-146.47 0 0 -22.29 20.69 0c-7.15,-4.56 -12.93,-10.68 -17.26,-18.3 -4.37,-7.62 -6.54,-16.27 -6.54,-26.01 0,-10.82 2.26,-19.71 6.73,-26.62 4.52,-6.92 10.77,-11.81 18.86,-14.63 -17.07,-11.67 -25.59,-26.77 -25.59,-45.39 0,-14.58 4,-25.83 12.04,-33.63 8.05,-7.86 20.42,-11.81 37.12,-11.81l100.42 0 0 24.84 -92.19 0c-9.88,0 -17.03,0.84 -21.4,2.44 -4.38,1.6 -7.86,4.52 -10.54,8.8 -2.68,4.23 -4,9.22 -4,14.91 0,10.35 3.44,18.91 10.26,25.73 6.86,6.82 17.82,10.2 32.87,10.2l85 0 0 24.84 -95.06 0c-11.01,0 -19.29,2.02 -24.79,6.07 -5.5,4.04 -8.28,10.67 -8.28,19.85 0,6.96 1.84,13.4 5.51,19.33 3.66,5.93 9.03,10.21 16.13,12.89 7.05,2.63 17.26,3.95 30.57,3.95l75.92 0 0 24.83z"/>
  <g id="_1826240184864">
   <g>
    <path class="fil7 str5" d="M16733.31 23548.34l495.15 0 0 99.16 -495.15 0 0 -99.16z"/>
    <path class="fil3 str5" d="M17228.46 23548.34l495.15 0 0 99.16 -495.15 0 0 -99.16z"/>
    <path class="fil7 str5" d="M17723.61 23548.34l495.15 0 0 99.16 -495.15 0 0 -99.16z"/>
    <path class="fil3 str5" d="M18218.88 23548.34l495.15 0 0 99.16 -495.15 0 0 -99.16z"/>
    <path class="fil7 str5" d="M18714.04 23548.34l495.15 0 0 99.16 -495.15 0 0 -99.16z"/>
    <path class="fil3 str5" d="M18318.92 23847.28l791.95 0 0 99.16 -791.95 0 0 -99.16z"/>
    <path class="fil7 str5" d="M17526.98 23847.28l791.95 0 0 99.16 -791.95 0 0 -99.16z"/>
    <path class="fil3 str5" d="M16735.04 23847.28l791.95 0 0 99.16 -791.95 0 0 -99.16z"/>
   </g>
   <path class="fil8" d="M17555.59 23141.79l57.09 -27.52 5.71 0 0 197.2c0,13.12 0.53,21.35 1.64,24.58 1.12,3.18 3.36,5.71 6.82,7.41 3.47,1.71 10.53,2.7 21.17,2.94l0 6.35 -88.19 0 0 -6.35c11.05,-0.24 18.16,-1.18 21.34,-2.88 3.23,-1.65 5.47,-3.88 6.76,-6.7 1.24,-2.83 1.88,-11.29 1.88,-25.35l0 -126.29c0,-16.99 -0.59,-27.93 -1.7,-32.75 -0.83,-3.7 -2.3,-6.41 -4.41,-8.11 -2.18,-1.71 -4.71,-2.59 -7.71,-2.59 -4.29,0 -10.23,1.76 -17.81,5.35l-2.59 -5.29z"/>
   <path id="1" class="fil8" d="M18013.51 23107.57l0 157.16 39.98 -36.63c8.52,-7.82 13.46,-12.76 14.81,-14.82 0.95,-1.41 1.42,-2.76 1.42,-4.17 0,-2.29 -1,-4.23 -2.89,-5.94 -1.88,-1.65 -4.99,-2.59 -9.4,-2.82l0 -5.65 68.61 0 0 5.65c-9.35,0.23 -17.17,1.7 -23.4,4.35 -6.23,2.7 -13.05,7.47 -20.52,14.29l-40.63 37.22 40.34 51.33c11.29,14.05 18.81,23.04 22.58,26.98 5.58,5.24 10.4,8.65 14.58,10.17 2.94,1.12 7.99,1.71 15.17,1.71l0 6.35 -76.73 0 0 -6.35c4.41,-0.12 7.35,-0.76 8.88,-1.94 1.58,-1.24 2.35,-2.88 2.35,-5.06 0,-2.64 -2.3,-6.88 -6.88,-12.7l-48.27 -61.79 0 52.21c0,10.23 0.7,16.93 2.11,20.17 1.47,3.17 3.47,5.46 6.12,6.88 2.64,1.35 8.35,2.11 17.17,2.23l0 6.35 -80.08 0 0 -6.35c7.99,0 14.05,-1 18.05,-2.94 2.41,-1.23 4.23,-3.17 5.46,-5.76 1.71,-3.76 2.59,-10.29 2.59,-19.52l0 -143.94c0,-18.05 -0.41,-29.1 -1.18,-33.16 -0.82,-4.05 -2.11,-6.82 -3.99,-8.35 -1.83,-1.58 -4.24,-2.35 -7.18,-2.35 -2.41,0 -6.05,1 -10.82,2.94l-2.93 -6.35 46.74 -19.4 7.94 0z"/>
   <path id="2" class="fil8" d="M18190.25 23223.87c11.41,-11.53 18.17,-18.17 20.22,-19.93 5.12,-4.36 10.65,-7.77 16.59,-10.18 5.93,-2.41 11.81,-3.64 17.63,-3.64 9.88,0 18.29,2.88 25.4,8.64 7.06,5.76 11.82,14.11 14.17,25.11 11.88,-13.88 21.88,-22.93 30.05,-27.28 8.17,-4.3 16.58,-6.47 25.22,-6.47 8.35,0 15.82,2.17 22.35,6.47 6.46,4.29 11.64,11.34 15.4,21.16 2.53,6.65 3.82,17.11 3.82,31.4l0 67.97c0,9.82 0.71,16.58 2.18,20.23 1.12,2.46 3.23,4.64 6.23,6.4 3.06,1.77 8,2.65 14.88,2.65l0 6.35 -77.26 0 0 -6.35 3.29 0c6.7,0 11.99,-1.29 15.76,-3.94 2.64,-1.82 4.52,-4.76 5.64,-8.76 0.47,-1.94 0.71,-7.47 0.71,-16.58l0 -67.91c0,-12.88 -1.53,-21.93 -4.65,-27.22 -4.52,-7.35 -11.7,-11.06 -21.63,-11.06 -6.06,0 -12.23,1.53 -18.41,4.59 -6.11,3 -13.58,8.7 -22.34,16.93l-0.35 1.94 0.7 7.41 0 75.32c0,10.7 0.59,17.4 1.77,20.05 1.23,2.59 3.46,4.82 6.76,6.58 3.29,1.77 8.93,2.65 16.87,2.65l0 6.35 -79.37 0 0 -6.35c8.64,0 14.58,-1 17.81,-3.06 3.24,-2.06 5.47,-5.17 6.7,-9.29 0.59,-1.94 0.89,-7.58 0.89,-16.93l0 -67.91c0,-12.88 -1.88,-22.17 -5.65,-27.87 -5.05,-7.41 -12.05,-11.11 -21.11,-11.11 -6.17,0 -12.28,1.7 -18.34,5.05 -9.47,5.06 -16.82,10.82 -21.93,17.17l0 84.67c0,10.29 0.7,16.93 2.12,20.05 1.41,3.06 3.52,5.35 6.35,6.94 2.76,1.53 8.4,2.29 16.93,2.29l0 6.35 -77.97 0 0 -6.35c7.24,0 12.29,-0.76 15.17,-2.29 2.89,-1.59 5.06,-4 6.59,-7.41 1.47,-3.35 2.23,-9.88 2.23,-19.58l0 -60.33c0,-17.28 -0.53,-28.45 -1.53,-33.51 -0.82,-3.82 -2.05,-6.41 -3.82,-7.82 -1.7,-1.47 -4.05,-2.18 -6.99,-2.18 -3.24,0 -7.06,0.89 -11.53,2.59l-2.58 -6.35 47.62 -19.4 7.41 0 0 33.75z"/>
   <path id="3" class="fil8" d="M17703.76 23237.16c0,-26.64 4,-49.51 12.05,-68.74 8.06,-19.22 18.7,-33.57 32.05,-42.98 10.29,-7.47 20.99,-11.17 31.98,-11.17 17.94,0 33.99,9.11 48.22,27.34 17.81,22.64 26.69,53.27 26.69,91.96 0,27.05 -3.88,50.09 -11.7,69.03 -7.82,18.93 -17.76,32.63 -29.87,41.21 -12.11,8.53 -23.81,12.82 -35.04,12.82 -22.29,0 -40.81,-13.11 -55.62,-39.39 -12.53,-22.17 -18.76,-48.86 -18.76,-80.08zm33.87 4.23c0,32.1 3.94,58.33 11.82,78.67 6.52,17.11 16.28,25.63 29.22,25.63 6.17,0 12.58,-2.76 19.22,-8.34 6.65,-5.59 11.65,-14.88 15.11,-27.99 5.24,-19.7 7.88,-47.57 7.88,-83.43 0,-26.64 -2.76,-48.86 -8.23,-66.62 -4.11,-13.23 -9.46,-22.58 -15.99,-28.05 -4.65,-3.82 -10.35,-5.7 -16.99,-5.7 -7.76,0 -14.7,3.53 -20.76,10.52 -8.23,9.53 -13.87,24.46 -16.81,44.92 -3,20.41 -4.47,40.52 -4.47,60.39z"/>
   <path class="fil8" d="M17803.37 24084.15l0 6.7c-15.12,1.47 -27.46,4.47 -37.05,9 -9.58,4.53 -19.05,11.41 -28.34,20.7 -9.35,9.23 -17.11,19.58 -23.22,30.92 -6.12,11.41 -11.23,24.93 -15.35,40.57 16.47,-11.23 32.99,-16.87 49.63,-16.87 15.93,0 29.69,6.41 41.39,19.28 11.7,12.82 17.52,29.34 17.52,49.51 0,19.46 -5.88,37.28 -17.7,53.33 -14.23,19.46 -33.04,29.22 -56.44,29.22 -15.93,0 -29.52,-5.29 -40.63,-15.82 -21.81,-20.57 -32.69,-47.21 -32.69,-79.9 0,-20.87 4.17,-40.75 12.58,-59.56 8.35,-18.82 20.35,-35.51 35.87,-50.1 15.58,-14.52 30.45,-24.34 44.68,-29.39 14.23,-5.06 27.46,-7.59 39.75,-7.59l10 0zm-106.9 120.48c-2.11,15.52 -3.17,28.04 -3.17,37.57 0,11.05 2.06,22.99 6.11,35.92 4.06,12.94 10.12,23.17 18.11,30.75 5.82,5.41 12.94,8.12 21.29,8.12 9.93,0 18.87,-4.71 26.69,-14.12 7.82,-9.46 11.76,-22.87 11.76,-40.33 0,-19.64 -3.88,-36.63 -11.64,-51.04 -7.82,-14.34 -18.82,-21.52 -33.1,-21.52 -4.36,0 -9.06,0.95 -14,2.77 -5,1.82 -12.35,5.82 -22.05,11.88z"/>
   <path id="1" class="fil8" d="M17968.12 24193.75c11.41,-11.53 18.17,-18.17 20.22,-19.93 5.12,-4.36 10.65,-7.77 16.59,-10.18 5.93,-2.41 11.81,-3.64 17.63,-3.64 9.88,0 18.29,2.88 25.4,8.64 7.06,5.76 11.82,14.11 14.17,25.11 11.88,-13.88 21.88,-22.93 30.05,-27.28 8.17,-4.3 16.58,-6.47 25.22,-6.47 8.35,0 15.82,2.17 22.35,6.47 6.46,4.29 11.64,11.34 15.4,21.16 2.53,6.65 3.82,17.11 3.82,31.4l0 67.97c0,9.82 0.71,16.58 2.18,20.23 1.12,2.46 3.23,4.64 6.23,6.4 3.06,1.77 8,2.65 14.88,2.65l0 6.35 -77.26 0 0 -6.35 3.29 0c6.7,0 11.99,-1.29 15.76,-3.94 2.64,-1.82 4.52,-4.76 5.64,-8.76 0.47,-1.94 0.71,-7.47 0.71,-16.58l0 -67.91c0,-12.88 -1.53,-21.93 -4.65,-27.22 -4.52,-7.35 -11.7,-11.06 -21.63,-11.06 -6.06,0 -12.23,1.53 -18.41,4.59 -6.11,3 -13.58,8.7 -22.34,16.93l-0.35 1.94 0.7 7.41 0 75.32c0,10.7 0.59,17.4 1.77,20.05 1.23,2.59 3.46,4.82 6.76,6.58 3.29,1.77 8.93,2.65 16.87,2.65l0 6.35 -79.37 0 0 -6.35c8.64,0 14.58,-1 17.81,-3.06 3.24,-2.06 5.47,-5.17 6.7,-9.29 0.59,-1.94 0.89,-7.58 0.89,-16.93l0 -67.91c0,-12.88 -1.88,-22.17 -5.65,-27.87 -5.05,-7.41 -12.05,-11.11 -21.11,-11.11 -6.17,0 -12.28,1.7 -18.34,5.05 -9.47,5.06 -16.82,10.82 -21.93,17.17l0 84.67c0,10.29 0.7,16.93 2.12,20.05 1.41,3.06 3.52,5.35 6.35,6.94 2.76,1.53 8.4,2.29 16.93,2.29l0 6.35 -77.97 0 0 -6.35c7.24,0 12.29,-0.76 15.17,-2.29 2.89,-1.59 5.06,-4 6.59,-7.41 1.47,-3.35 2.23,-9.88 2.23,-19.58l0 -60.33c0,-17.28 -0.53,-28.45 -1.53,-33.51 -0.82,-3.82 -2.05,-6.41 -3.82,-7.82 -1.7,-1.47 -4.05,-2.18 -6.99,-2.18 -3.24,0 -7.06,0.89 -11.53,2.59l-2.58 -6.35 47.62 -19.4 7.41 0 0 33.75z"/>
   <path id="2" class="fil8" d="M18235.76 24077.45c4.76,0 8.88,1.7 12.29,5.05 3.35,3.41 5.05,7.53 5.05,12.29 0,4.82 -1.7,9 -5.05,12.41 -3.41,3.47 -7.53,5.17 -12.29,5.17 -4.82,0 -9,-1.7 -12.41,-5.17 -3.47,-3.41 -5.17,-7.59 -5.17,-12.41 0,-4.76 1.7,-8.88 5.05,-12.29 3.41,-3.35 7.59,-5.05 12.53,-5.05zm14.17 82.55l0 127c0,9.82 0.7,16.34 2.17,19.58 1.41,3.29 3.53,5.7 6.35,7.29 2.82,1.59 8,2.41 15.47,2.41l0 6.35 -76.56 0 0 -6.35c7.65,0 12.82,-0.76 15.41,-2.23 2.64,-1.47 4.7,-3.94 6.29,-7.35 1.53,-3.41 2.29,-10 2.29,-19.7l0 -61.03c0,-16.99 -0.53,-27.99 -1.53,-33.05 -0.82,-3.64 -2.05,-6.17 -3.82,-7.58 -1.7,-1.47 -4.06,-2.18 -7,-2.18 -3.23,0 -7.11,0.89 -11.7,2.59l-2.41 -6.35 47.45 -19.4 7.59 0z"/>
  </g>
  <path class="fil9 str6" d="M1017.56 1012.04l18902.19 0 0 23763.97 -18902.19 0 0 -23763.97z"/>
 </g>
</svg>
