<?xml version="1.0" encoding="UTF-8"?>
<!DOCTYPE svg PUBLIC "-//W3C//DTD SVG 1.1//EN" "http://www.w3.org/Graphics/SVG/1.1/DTD/svg11.dtd">
<!-- Creator: CorelDRAW -->
<svg xmlns="http://www.w3.org/2000/svg" xml:space="preserve" width="100%" height="100%" version="1.1" style="shape-rendering:geometricPrecision; text-rendering:geometricPrecision; image-rendering:optimizeQuality; fill-rule:evenodd; clip-rule:evenodd"
viewBox="0 0 21000 29700"
 xmlns:xlink="http://www.w3.org/1999/xlink">
 <defs>
  <style type="text/css">
   <![CDATA[
    .str3 {stroke:black;stroke-width:10;stroke-miterlimit:3.864;stroke-opacity:0.501961}
    .str0 {stroke:#2B2A29;stroke-width:75;stroke-miterlimit:22.9256}
    .str4 {stroke:black;stroke-width:50;stroke-miterlimit:22.9256}
    .str2 {stroke:#003399;stroke-width:20;stroke-miterlimit:22.9256}
    .str1 {stroke:black;stroke-width:10;stroke-miterlimit:22.9256}
    .str5 {stroke:black;stroke-width:10;stroke-miterlimit:3.864}
    .fil4 {fill:none}
    .fil1 {fill:#FEFEFE}
    .fil3 {fill:#EBECEC}
    .fil0 {fill:#2B2A29}
    .fil2 {fill:#A2D9F7}
    .fil8 {fill:#FEFEFE;fill-rule:nonzero}
    .fil7 {fill:#D9DADA;fill-rule:nonzero}
    .fil6 {fill:black;fill-rule:nonzero}
    .fil5 {fill:#FEFEFE;fill-rule:nonzero;fill-opacity:0.501961}
   ]]>
  </style>
 </defs>
<symbol id="villes" viewBox="10447.31 14797.31 105.38 105.38">
 <circle class="fil0" cx="10500" cy="14850" r="52.69"/>
</symbol>
<symbol id="Capitale" viewBox="10371.93 14721.93 256.13 256.13">
 <circle class="fil1 str0" cx="10499.99" cy="14849.99" r="90.56"/>
</symbol>
 <g id="Plan_x0020_1">
  <metadata id="CorelCorpID_0Corel-Layer"/>
  <rect class="fil2" x="1000" y="1000" width="19000" height="19161.58"/>
  <path class="fil3 str1" d="M2484.77 1000l22.65 45.05c32.94,20.05 42.85,95.39 35.75,132.49 -11.38,59.44 18.34,142.63 32.77,200.31l0 0c145.94,-40.52 304.09,-39.69 429.6,33.63l314.6 183.81c96.76,56.53 97.21,181.4 178.75,208.88l0 4.77c-88.3,22.26 -81.22,85.54 -52.43,150.39 -22.82,45.83 72.92,45.62 89.37,62.07 8.84,8.84 42.25,47.32 22.65,56.1 -6.2,2.77 -60.13,-5.67 -38.14,19.1 40.75,45.88 99.63,122.31 108.45,183.81 42.8,7.07 18.67,59.53 58.39,72.8 40.8,13.62 41.27,155.85 121.55,122.94 84.32,-34.56 113.95,54.28 178.75,94.3 30.24,24.42 75.05,33.52 109.63,45.35 52.41,17.92 80.78,24.26 131.09,-3.58 11.97,-6.63 27.51,-4.5 38.13,-11.93 16.14,-11.28 -7.96,-43.75 2.39,-64.46 20.01,-40.02 70.02,-50.02 106.06,-68.03 10.9,-5.45 36.24,-86.15 38.13,-101.46 11.86,-33.78 23.26,-61.75 41.71,-89.51 46.94,-70.65 173.63,-131.37 258.59,-149.2 55.52,-11.66 111.97,10.74 168.03,10.74 56.14,0 122.56,-66.36 163.26,-102.65 44.46,-30.1 60.41,-117.88 98.91,-133.68 24.79,-10.18 112.05,5.97 146.57,5.97 93.29,0 159.38,-29.49 253.83,-29.84l322.95 -1.19c59.44,-0.22 73.45,28.67 117.97,54.9 45.05,26.53 109.04,-43.56 148.96,-58.48 39.17,-10.62 286.67,-21.11 325.33,-1.2 45.99,23.68 101.42,42.87 158.49,52.52 25.84,4.37 118.61,-45.89 120.36,-69.23 11.53,-153.77 298.21,-121.19 338.44,41.78 2.14,0.53 7.89,5.78 8.34,7.16l108.44 -78.78c0,-62.58 167.58,-175.18 147.77,-230.36 -20.42,-56.91 100.8,-263.57 135.85,-316.3 31.01,-20.68 63.21,-43.88 73.89,-78.77 14.23,-46.45 83.69,-16.94 85.8,-52.52 1.09,-18.31 21.01,-40.85 39.32,-45.36 32.65,-8.06 38.3,-28.8 60.78,-51.32l58.39 -51.02 -5310.12 0 0 0z"/>
  <path class="fil3 str1" d="M2484.77 1000l22.65 45.05c32.94,20.05 42.85,95.39 35.75,132.49 -11.38,59.44 18.34,142.63 32.77,200.31l0 0c-44.66,12.4 -88.2,28.68 -129.3,47.95 -50.82,23.83 -104.18,66.05 -150.15,84.75 -135.99,67.99 -182.27,85.5 -308.64,7.16 -79.74,-49.44 -232.75,-21.04 -314.61,-26.26 -73.02,-4.65 -139.77,-96.82 -193.05,-22.68 -14.43,20.09 -93.65,35.4 -119.17,41.78 -47.09,11.79 -88.25,64.13 -113.21,70.42 -0.6,-1.84 0.04,-1.2 -2.38,-1.2 0,-18.35 -43.88,-58.93 -7.15,-68.03 0,-2.37 1.1,-4.16 3.57,-4.77 0,-16.15 24.76,-61.81 35.76,-72.81 34.25,-34.25 -6.81,-61.78 14.3,-66.84 16.57,-3.96 11.39,-26.62 22.64,-39.39 29.02,-32.96 2.38,-41.21 2.38,-72.81 0,-14.14 46.77,-79.51 54.82,-103.84 15.77,-47.61 24.1,-98.64 15.49,-151.28l1097.53 0 0 0z"/>
  <path class="fil3 str1" d="M7073.23 3633.53c-22.5,-4.8 -42.02,-8.88 -54.12,-10.35 -84.82,-10.31 -92.75,-71.71 -178.75,-28.64 -140.8,70.5 -287.61,79.82 -378.96,-75.2 -34.55,-58.65 -27.8,-182.53 -44.09,-248.26l-1.19 -1.2 -3.58 0 -54.81 91.91c-37.32,62.59 -48.49,52.01 -103.68,87.13 -129.23,82.26 -168.31,57.29 -307.45,57.29 -45.61,-12.68 -114.87,-60.5 -145.39,-68.03 -5.4,-21.82 -60.05,-7.96 -72.69,0 -5.48,3.44 -10.31,40.14 -19.06,54.9 -29.47,49.76 -115.38,15.52 -126.32,-28.64 -127.52,0 -240.95,75.47 -367.04,93.1 -84.17,11.76 -284.6,-39.29 -361.08,-77.59 -70.17,-35.13 -136.22,-90.52 -195.43,-139.64l-83.42 -69.23c-46.29,-38.41 -50.67,-94.14 -101.29,-118.17 -59.32,-4.89 -115.6,-192.17 -115.6,-243.49 0,-25.07 -21.08,-42.84 -22.64,-62.06 -2.81,-34.6 46.4,-62.24 42.9,-72.81l-109.63 0c-51.63,0 -82.42,45.47 -122.74,65.65 -27.91,13.98 -80.43,0.71 -114.41,14.32 -38.57,15.44 -109.65,29.25 -146.57,10.74 -25,-12.54 -64.49,132.8 -67.93,149.2 -26.49,177.57 -120.08,304.85 -170.41,469.08 -42.38,138.32 -111.6,296.31 -132.27,438.04 -64.63,167.52 -150.49,320.7 -247.87,465.5 -78.47,116.66 -161.12,376.67 -295.54,432.07 -54.52,75.14 -201.1,144.28 -283.62,189.78 -65.23,35.96 -200.98,185.45 -270.51,182.62 -94.67,-3.85 -103.76,32.14 -188.28,62.06 -97.93,34.66 -241.39,139.3 -338.44,146.82 -55.98,37.26 -95.73,55.65 -146.58,100.26 -23.31,20.46 -72.28,65.48 -104.86,53.71 -48.78,-17.61 -118.99,84 -116.79,113.39 5.47,72.79 -245.6,297.06 -300.3,361.65 -40.71,48.06 -168.71,200.53 -222.79,217.23l0 6552.76 0 0 448.03 0 16.68 -1282.05 0 0 34.55 -1342.63 193.05 -127.72 260.98 -222c73.13,-67.19 184.01,-106.84 260.97,-177.85 45.33,-41.81 150.44,-116.15 206.16,-130.1 68.29,-17.09 70.9,-47.71 153.73,-52.51 28.69,-1.66 54.06,-35.47 83.42,-47.75 58.17,-24.32 189.27,-84.71 249.06,-64.45 139.14,47.17 251.3,27.56 387.29,1.19 55.01,-17.18 88.44,-6.88 132.28,-25.06 8.98,-3.73 104.36,1.22 116.78,5.97 31.15,11.91 42.88,42.23 75.08,50.13 62.48,15.32 281.05,-6.11 328.9,-51.33 89.93,-85 41.61,-29.57 59.59,42.97 34.26,0 53.37,-39.37 64.35,3.58 9.93,38.82 -12.37,99.82 51.24,52.52 31.46,-23.38 87.81,-166.94 85.8,-205.3l314.6 -361.65c22.3,-25.5 36.95,-10.9 63.16,-21.49 18.31,-7.39 50.51,-36.31 64.35,-51.32 41.84,-45.34 102.19,-64.74 147.77,-103.84 94.57,-81.15 233.58,-94.04 313.41,-202.91 30.63,-41.76 108.83,-97.02 154.92,-121.75 82.78,-36.72 160.68,-36.59 237.14,-70.42 44.26,-19.59 130.55,-20.9 169.22,-59.68 17.28,-17.34 30.36,-73.19 41.71,-99.06 28.17,-64.2 69.3,-101.14 110.83,-152.78 27.46,-34.15 130.57,-122.12 119.17,-168.3l-1.2 -1.19c-28.5,0 -90.8,30.16 -102.48,-15.52 -21.54,-84.17 13.7,-68.84 -56.01,-16.71 -19.27,-14.41 -0.01,-44.36 -4.77,-68.03 -27.22,-6.74 -22.82,18.87 -41.7,22.68 -4.82,19.15 -32.43,-19.44 -34.56,-29.84 -5.4,-26.41 9.66,-45.69 8.34,-69.23 -3.8,-67.74 -15.94,-67.18 42.9,-108.61 129.27,-51.84 -55.87,-265.5 185.9,-313.92l393.25 -78.77c61.61,-12.33 200.39,-54.54 181.14,-143.23 -19.2,-88.44 -153.62,-229.38 9.53,-232.75l172.8 -3.58c62.17,-1.28 145.45,-67.9 207.35,-46.55 58.95,20.32 217.06,27.64 275.28,-3.58 31.1,-3.91 134.34,15.31 156.11,-4.78 24.38,-22.48 31.49,-14.38 59.58,-1.19 30.56,14.36 131.01,13.13 166.83,13.13 34.66,0 54.52,-18.44 84.61,-21.48 37.9,-3.84 52.27,31.17 98.91,16.71 83.38,-25.84 72.57,29.81 132.28,46.55 34.74,9.73 60.53,3.95 90.57,-3.59 22.07,-89.03 -63.88,-154.14 -17.88,-243.49 16.98,-30.28 58.05,-64.28 92.95,-69.22 4.54,-32.21 53.63,-32.93 53.63,-76.39 -1.44,-0.48 -3.09,-2.79 -3.58,-4.78 -80.96,-20.07 -173.01,-138.18 -255.02,-176.65 -76.17,-35.74 -143.54,-147.98 -177.56,-216.03 -32.42,-64.84 26.87,-94.97 14.3,-159.94 -17.62,-91.11 -107.43,-164.77 -131.08,-264.98 -15.36,-50.03 7.55,-165.49 30.98,-211.26 33.95,-66.35 -21.6,-101.91 -59.58,-144.43 -38.32,-42.92 -8.34,-307.1 9.53,-368.81 26.52,-91.6 -31.27,-168.92 -17.87,-247.07 -14.13,-53.2 -32.18,-126.06 -32.18,-180.23 0,-36.13 23.84,-116.13 0,-142.04 -104.64,-113.68 -59.37,-108.08 1.19,-217.23 30.32,-54.67 -106.21,-43.99 -125.12,-79.97 -14.88,-28.33 -38.57,-64.36 -64.35,-83.55 -29.82,-22.18 -91.56,-33.2 -102.49,-71.62 -16.57,-58.29 -67.51,-43.7 -98.91,-96.68l-12.61 -62.46 0 0z"/>
  <polygon class="fil3 str1" points="1000,12799.43 1448.03,12799.43 1464.71,11517.38 1464.71,11517.38 4799.01,13738.9 4799.01,13738.9 3297.68,13738.9 3983.87,20161.57 3983.87,20161.57 1000,20161.57 1000,12799.43 "/>
  <path class="fil3 str1" d="M3983.87 20161.57l-686.19 -6422.67 1501.33 0 0 0 5195.9 3665.14c29.62,113.31 -27.91,212.53 -10.91,315.33 7.42,44.87 37.98,52.01 76.27,31.03 75.32,-41.26 71.35,49.29 117.98,64.45 56.54,18.39 233.57,34.35 233.57,121.75 0,33.4 -2.49,115.33 33.36,130.1 18.6,7.67 39.35,21.36 58.4,29.84 17.21,7.65 -1.24,41.34 23.83,52.52 29.78,7.64 62.17,4.18 91.76,8.35 0.54,2.19 0.2,1.84 2.38,2.39 16.32,82.44 104.53,-1.72 148.96,46.55 70.28,76.36 48.34,-96.82 134.66,-37 73.27,50.78 112.45,56.39 139.43,148 30.33,102.94 61.97,12.33 107.25,72.81 53.98,72.08 231.91,32.78 330.09,69.23 81.82,30.37 127.65,72.75 199.01,106.23 21.27,9.97 100.1,5.76 100.1,31.03 0,32.76 -14.68,72.48 -30.98,100.26 -22.14,37.7 35.82,45.09 5.96,105.03 -18.97,38.06 38.13,51.11 38.13,108.62 13.36,40.12 39.88,69.81 -8.34,96.68 -35.16,19.6 -46.44,85.63 -65.54,121.75 -14.79,27.95 -47.53,60.32 -23.84,93.09 19.33,26.76 63.9,37.62 85.81,65.65 31.49,40.31 46.75,95.37 110.82,97.87 73.62,2.88 154.58,-40.53 222.85,-63.25l535.6 -103.64 0 0 0 942.86 0 0 -8667.65 0 0 0z"/>
  <polygon class="fil3 str1" points="12651.52,20161.57 12651.52,19218.71 12651.52,19218.71 14015.47,18946.37 15255.24,17782.16 16421.44,16982.48 19327.87,15131.68 19327.87,15131.68 19585.27,15208.07 19682.98,15218.81 20000,15303.55 20000,15303.55 20000,20161.57 12651.52,20161.57 "/>
  <path class="fil3 str1" d="M17244.9 8633.83c29.97,-7.49 60.24,-13.35 88.18,-22.67 18.6,-6.21 33.56,-21.67 47.67,-35.81 9.41,-9.42 20.72,-18.64 30.98,-26.26 16.49,-12.26 29.78,-15.51 48.86,-22.68 91.76,-30.58 132.77,-10.55 170.41,-109.81 28.64,-75.55 68.32,-102.94 110.83,-169.49 24.63,-38.57 53.25,-64.95 84.61,-100.26 41.39,-46.62 34.54,-119.67 66.73,-171.87 23.11,-37.46 -10.96,-59.89 -20.26,-93.1 -13.8,-49.22 -3.57,-78.78 -3.57,-126.52 0,-18.42 -16.69,-31.14 -16.69,-50.13 0,-58.01 -31.13,-95.41 -51.52,-150.27 -16.01,-34.49 -58.28,-141.27 -46.2,-180.35 13.57,-43.94 53.71,-79.61 71.51,-122.94 46.77,-113.89 130.77,-143.23 250.25,-143.23 21.05,0 120.32,-145.93 116.78,-155.17 -23.35,-60.83 11.92,-40.51 11.92,-79.97 51.63,0 176.37,-10.01 176.37,-97.87 0,-60.39 -12.3,-37.43 41.71,-64.45 26.97,-27.08 121.55,-70.22 121.55,-84.75 34.47,-11.42 95.94,-39.83 129.89,-60.87 44.78,-27.77 107.18,-9.54 139.43,-31.03 23.86,-15.91 26.16,-45.1 56.01,-57.3 101.91,-41.63 218.65,-120.15 107.25,-231.55 -59.15,-59.15 -58.96,-128.29 -46.48,-210.07 6.28,-41.22 31.5,-232.01 15.49,-261.39 -19.14,-35.14 13.52,-48.69 26.22,-79.97l8.7 -38.09 0 0c29.04,14.5 46.31,31.76 89.02,51.22 71.5,24.47 167.72,24.45 228.8,58.48 43.19,24.07 71.74,74.33 114.4,102.65 78.11,51.84 139.4,94.98 234.76,114.58 42.28,8.68 89.18,6.67 129.89,16.71 48.66,11.99 84.78,38.85 139.43,28.65l82.17 0 0 9275.3 0 0 -317.02 -84.74 -97.71 -10.74 -257.4 -76.39 0 0 -22.56 -74 -152.54 -291.23c-31.62,-60.36 -76.56,-115.68 -89.37,-182.62 -6.79,-35.46 -28.6,-93.3 -28.6,-122.94l-1.19 -1.19c-35.54,-8.77 -89.61,25.13 -126.32,28.65 -61.54,5.9 -110.21,-68.45 -168.03,-87.14 -64.3,-64.3 -151.6,-76.08 -212.12,-130.1 -56.3,-50.24 -171.68,-63.3 -245.48,-100.26 -44.45,-22.25 -94.96,11.39 -141.81,31.04 -93.65,39.27 -115.73,28.57 -206.16,-16.71 -101.67,-50.92 -133.47,-126.11 -133.47,-237.53 0,-28.9 -103.13,-78.16 -135.82,-90.71l-1.22 -432.07 -560.09 -810.45c25.46,-70.19 85.52,-134.58 128.7,-193.36 49.04,-66.78 180.86,-46.79 228.8,-112.19 10.51,-14.35 33.1,-14.33 48.86,-14.33l1.19 -2.38c8.9,-2.24 12.64,-21.44 14.3,-27.45 21.98,-71.76 41.87,-89.55 23.83,-157.56 -15.45,-58.23 31.99,-111.52 8.35,-159.94 -14.8,-30.34 -34.71,-49.96 -48.86,-84.74 -14.84,-36.5 -13.21,-72.46 -20.26,-111 -9.32,-50.89 5.08,-110.68 -30.98,-152.78 -49.76,-58.12 -3.58,-146.24 -3.58,-210.07 0,-34.09 53.84,-42.92 60.78,-91.91 5.28,-37.33 -17.31,-12.24 -42.9,-26.26 -18.54,-10.17 56.07,-47.11 65.54,-53.71 57.94,-68.55 7.41,-121.86 33.36,-183.81 35.43,-84.61 25.37,-84.78 -7.15,-162.33 -46.51,-110.88 -90.63,-260.54 -71.5,-384.33 12.13,-78.47 38.64,-168.46 26.22,-249.46 0,-51.61 30.62,-158.03 7.15,-193.36 -22.62,-34.03 8.28,-142.38 -1.19,-188.58l-84.61 -412.98c-8.17,-39.85 -38.39,-87.83 -40.52,-124.13l-100.1 -231.56 -84.61 -153.97c-19.06,-34.67 -30.55,-67.59 -59.58,-96.68 -48.84,-48.93 -22.4,-90.74 -48.86,-138.46 -14.71,-26.52 118.6,-51.73 139.43,-63.26l0 0z"/>
  <path class="fil3 str1" d="M18343.62 5062.64c-17.34,9.37 -19.15,31.04 -42.9,31.04 -3.45,-13.99 -30.69,-51.66 -29.79,-59.68 1,-8.98 18.06,-20.95 22.64,-32.23 10.62,-26.09 -4.05,-54.19 2.39,-79.97 10.2,-40.85 24.77,-18.99 48.86,-14.32 41.59,8.05 96.78,-3.63 134.65,11.93 11.49,4.71 16.4,21.42 26.22,28.65 18.87,13.88 71.51,32.44 33.37,60.87 -16.06,11.98 -36.92,21.1 -53.63,32.23 -26.53,17.69 -38.31,24.97 -53.62,54.9 -7.93,15.5 -8.79,60.87 -34.56,60.87 0,-36.98 -2.25,-47.76 -22.64,-79.97l-30.99 -14.32zm126.32 -985.9c39.99,3.77 83.67,-2.74 121.55,4.78 0.48,1.47 0.92,1.9 2.39,2.39 0,13.4 -21.03,13.84 -30.99,16.71 -4.4,1.27 -12.58,4.87 -14.3,8.35 -1.38,2.78 -3.37,10.1 -5.96,10.74 -4.78,14.59 -64.49,-10.55 -66.73,-28.64l-5.96 -14.33zm145.39 -21.48c5.52,-52.68 54.44,-34.29 82.22,-62.07 8.41,-8.41 14.52,-15.06 9.54,-26.25 -4.54,-10.23 6.31,-13.04 11.91,-21.49 2.08,-3.13 6.21,-21.5 10.73,-20.29 13.82,3.7 13.16,46.32 11.91,57.29 -3.49,30.69 -29.63,44.55 -58.39,48.94 -4.59,0.7 -11.39,5.81 -15.49,8.35 -6.13,3.78 -1.8,16.13 -7.15,21.49 -9.91,9.95 -26.35,20.29 -40.52,20.29l-4.76 -26.26zm366.2 1600.7c-13.2,-6.58 -28.84,-12.62 -50.41,-18.01 -46.1,-11.54 -100.23,7.31 -141.81,-11.94 -35.69,-16.51 -68.83,-36.99 -109.63,-17.9 -37.4,17.51 -52.38,-58.39 -65.55,-84.75 -36.33,-72.66 18.94,-20.47 70.31,-33.42 0,-51.88 -129.72,-40.29 -90.56,-168.29 23.89,-78.12 -47.18,-194.99 -128.71,-163.52 -101.09,39.03 44.64,75.68 -39.32,113.39 -47.99,21.56 -156.23,73.53 -181.14,-1.2 -26.88,-80.66 115.18,-224.26 -51.24,-162.32 -86.36,57.69 -152.81,70.68 -228.8,0 -62.73,-58.33 -144.97,-115.97 -196.63,-185.01 -105.32,-140.72 -168.03,-310.02 -42.9,-464.3 18.76,-23.14 81.04,-41.68 81.04,-69.23 15.56,5.24 5.9,40.26 41.71,9.55 13.28,-11.4 29.87,-39.18 42.9,-46.55 48.57,-27.46 78.73,4.24 100.1,-72.81 2.29,-25.54 73.06,-58.68 95.33,-63.26 29.52,-6.06 61.97,42.1 61.97,-32.22 0,-14.91 22.67,-35.19 32.17,-48.94 17.46,-25.3 23.76,-57.24 64.35,-46.55 51.33,13.53 29.1,-58.94 45.29,-75.2 37.56,-37.69 58.82,-65.89 86.99,-114.58 16.16,-27.95 45.98,-39.15 61.97,-63.26 18.91,-28.53 -6.68,-75.89 22.64,-95.48 62.59,-41.81 43.34,-45.61 56.01,-113.4 13.92,-62.78 41.13,-95.14 91.76,-130.1 33.32,-23.02 -19.43,-47.53 -40.52,-63.26 -63.67,-47.47 -38.27,-154.73 -26.22,-219.61 7.03,-37.85 -19.44,-71.97 -14.3,-122.94 6.35,-63.06 -130.75,-57.47 -177.56,-114.59 -20.91,-25.53 -6.84,-91.9 -9.53,-91.9 -52.14,0 -60.45,51.46 -110.83,-4.78 -41.56,-46.38 -80.6,-62.91 -101.29,-131.29 -62.74,-117.04 -88.83,-168.25 -83.42,-303.17 4.05,-100.87 48.02,-187.18 145.39,-210.07 188.31,-44.26 223.47,-264.07 314.6,-409.4 29.08,-32.68 70.57,-47.9 106.06,-71.61 28.92,-19.31 -19.65,-46.67 -25.02,-68.04l-44.1 -175.45c-60.65,0 -167.75,93.9 -208.54,134.87 -58.27,58.51 -225.23,62.36 -225.23,120.55 0,81.05 2.65,109.2 -92.95,127.72 -83.26,16.14 -206.89,-97.86 -126.32,-118.17 14.04,-97.85 16.61,-64.64 -57.2,-138.45 -44.59,-44.59 -36.64,-143 -19.06,-199.33 5.09,-16.31 38.13,-36.88 38.13,-46.55 -31.77,-10.53 -114.89,-35.35 -135.85,-64.45 -22.9,-31.8 -104.97,12.05 -152.54,-17.91 -34.77,-21.91 -42.54,-66.73 -71.5,-72.81 -54.95,-11.53 -96.63,-18.19 -151.34,4.78 -20.21,8.49 -81.31,17.29 -77.46,15.51l-407.55 157.56c-128.51,49.68 -155.37,186.86 -288.39,230.36 -24.5,8.01 -53.24,22.36 -83.22,36.92l0 0 9.34 50.21c7.91,92.91 -130.93,100.99 -200.2,118.16 4.28,13.08 34.31,45.76 29.79,62.07 -7.66,27.66 -38.37,28.21 -23.84,60.87 11.16,25.06 -174.81,123.71 -213.31,140.85 -113.38,50.47 63.34,85.25 110.83,71.61 88.09,-25.3 50.94,55.62 40.52,87.13 -6.55,19.78 15.53,34.57 7.15,51.33 -22.21,44.45 -53.92,10.42 -29.79,72.8 15.54,40.15 -66.02,50.18 -14.3,121.75 17.27,23.91 -9.94,44.53 -25.03,59.68 -20.01,20.07 -7.01,71.55 -11.92,97.87 -8.26,29.02 -29.79,37.85 -29.79,65.65 0,76.09 -15.94,189.42 38.13,243.49 64.25,64.25 26.44,102.91 39.33,187.39 3.52,23.07 23.59,38.25 10.73,65.65 -26.48,56.46 -83.67,164.34 -5.96,204.1 20.28,10.38 96.06,28.4 81.03,52.52 -29.08,46.69 -36.73,81.8 -76.27,130.1 -45.92,44.25 -25.35,119.76 -71.5,165.91 -37,37 -12.6,87.83 -1.19,132.48 4.19,16.4 7.11,88.08 0,89.52 -22.31,4.55 -35.7,44.26 -33.37,64.45 1,8.67 23.42,13.91 16.69,27.46 -4.87,9.83 -25.61,5.36 -32.18,21.48 -12.03,29.53 4.76,53.71 -39.32,53.71 -9.03,0 -22.19,40.96 -30.99,48.94 -12.54,11.35 -93.33,41.77 -109.63,41.77 -17.42,0 -11.49,51.33 -53.63,51.33 -6.46,0 -94.49,41.89 -91.76,46.55 15.34,26.08 -11.72,138.22 -22.64,164.71 -28.3,50 -67.9,30.05 -122.74,40.58 -78.06,15 -26.61,11.43 -53.63,57.3 -17.54,29.76 -26.19,41.26 -52.43,66.84 -25.8,25.14 4.37,37.83 1.19,65.64 -3.93,34.41 -45.29,105.87 -21.45,132.49 27.73,30.96 -20.55,82.79 0,99.07 29.22,23.13 42.38,-11.16 39.33,42.97 -2.69,47.87 17.87,65.62 17.87,115.77 0,47.3 38.71,98.76 65.54,137.27 46.14,62.16 56.01,59.88 56.01,140.84 0,37.42 0.8,204.78 56.01,183.81 39.05,-14.84 119.41,58.38 169.22,68.03 113.61,22.01 148.33,134.82 220.46,224.4 69.85,86.76 81.04,232.9 81.04,347.33l3.57 65.65 624.44 438.04 409.94 1875.11 0 0c29.97,-7.49 60.24,-13.35 88.18,-22.67 18.6,-6.21 33.56,-21.67 47.67,-35.81 9.41,-9.42 20.72,-18.64 30.98,-26.26 16.49,-12.26 29.78,-15.51 48.86,-22.68 91.76,-30.58 132.77,-10.55 170.41,-109.81 28.64,-75.55 68.32,-102.94 110.83,-169.49 24.63,-38.57 53.25,-64.95 84.61,-100.26 41.39,-46.62 34.54,-119.67 66.73,-171.87 23.11,-37.46 -10.96,-59.89 -20.26,-93.1 -13.8,-49.22 -3.57,-78.78 -3.57,-126.52 0,-18.42 -16.69,-31.14 -16.69,-50.13 0,-58.01 -31.13,-95.41 -51.52,-150.27 -16.01,-34.49 -58.28,-141.27 -46.2,-180.35 13.57,-43.94 53.71,-79.61 71.51,-122.94 46.77,-113.89 130.77,-143.23 250.25,-143.23 21.05,0 120.32,-145.93 116.78,-155.17 -23.35,-60.83 11.92,-40.51 11.92,-79.97 51.63,0 176.37,-10.01 176.37,-97.87 0,-60.39 -12.3,-37.43 41.71,-64.45 26.97,-27.08 121.55,-70.22 121.55,-84.75 34.47,-11.42 95.94,-39.83 129.89,-60.87 44.78,-27.77 107.18,-9.54 139.43,-31.03 23.86,-15.91 26.16,-45.1 56.01,-57.3 101.91,-41.63 218.65,-120.15 107.25,-231.55 -59.15,-59.15 -58.96,-128.29 -46.48,-210.07 6.28,-41.22 31.5,-232.01 15.49,-261.39 -19.14,-35.14 13.52,-48.69 26.22,-79.97l8.7 -38.09 0 0z"/>
  <path class="fil3 str1" d="M19348.21 1844.75c-9.57,-0.72 -23.88,-16.94 -27.41,-26.26 -2.81,-7.45 -11.66,-24.55 -9.53,-32.23 5,-18.06 30.84,0.42 41.7,0 19.89,-0.76 31.43,-9.11 47.67,7.17 13.01,13.03 -0.57,37.55 4.77,53.71 2.16,6.53 4.25,16.92 1.19,23.87 -7.46,16.88 -41.62,1.81 -53.63,-1.2l-4.76 -25.06z"/>
  <path class="fil1 str1" d="M16483.61 1681.15l9.34 50.21c7.91,92.91 -130.93,100.99 -200.2,118.16 4.28,13.08 34.31,45.76 29.79,62.07 -7.66,27.66 -38.37,28.21 -23.84,60.87 11.16,25.06 -174.81,123.71 -213.31,140.85 -113.38,50.47 63.34,85.25 110.83,71.61 88.09,-25.3 50.94,55.62 40.52,87.13 -6.55,19.78 15.53,34.57 7.15,51.33 -22.21,44.45 -53.92,10.42 -29.79,72.8 15.54,40.15 -66.02,50.18 -14.3,121.75 17.27,23.91 -9.94,44.53 -25.03,59.68 -20.01,20.07 -7.01,71.55 -11.92,97.87 -8.26,29.02 -29.79,37.85 -29.79,65.65 0,76.09 -15.94,189.42 38.13,243.49 64.25,64.25 26.44,102.91 39.33,187.39 3.52,23.07 23.59,38.25 10.73,65.65 -26.48,56.46 -83.67,164.34 -5.96,204.1 20.28,10.38 96.06,28.4 81.03,52.52 -29.08,46.69 -36.73,81.8 -76.27,130.1 -45.92,44.25 -25.35,119.76 -71.5,165.91 -37,37 -12.6,87.83 -1.19,132.48 4.19,16.4 7.11,88.08 0,89.52 -22.31,4.55 -35.7,44.26 -33.37,64.45 1,8.67 23.42,13.91 16.69,27.46 -4.87,9.83 -25.61,5.36 -32.18,21.48 -12.03,29.53 4.76,53.71 -39.32,53.71 -9.03,0 -22.19,40.96 -30.99,48.94 -12.54,11.35 -93.33,41.77 -109.63,41.77 -17.42,0 -11.49,51.33 -53.63,51.33 -6.46,0 -94.49,41.89 -91.76,46.55 15.34,26.08 -11.72,138.22 -22.64,164.71 -28.3,50 -67.9,30.05 -122.74,40.58 -78.06,15 -26.61,11.43 -53.63,57.3 -17.54,29.76 -26.19,41.26 -52.43,66.84 -25.8,25.14 4.37,37.83 1.19,65.64 -3.93,34.41 -45.29,105.87 -21.45,132.49 27.73,30.96 -20.55,82.79 0,99.07 29.22,23.13 42.38,-11.16 39.33,42.97 -2.69,47.87 17.87,65.62 17.87,115.77 0,47.3 38.71,98.76 65.54,137.27 46.14,62.16 56.01,59.88 56.01,140.84 0,37.42 0.8,204.78 56.01,183.81 39.05,-14.84 119.41,58.38 169.22,68.03 113.61,22.01 148.33,134.82 220.46,224.4 69.85,86.76 81.04,232.9 81.04,347.33l3.57 65.65 624.44 438.04 409.94 1875.11 0 0c-20.83,11.53 -154.14,36.74 -139.43,63.26 26.46,47.72 0.02,89.53 48.86,138.46 29.03,29.09 40.52,62.01 59.58,96.68l84.61 153.97 100.1 231.56c2.13,36.3 32.35,84.28 40.52,124.13l84.61 412.98c9.47,46.2 -21.43,154.55 1.19,188.58 23.47,35.33 -7.15,141.75 -7.15,193.36 12.42,81 -14.09,170.99 -26.22,249.46 -19.13,123.79 24.99,273.45 71.5,384.33 32.52,77.55 42.58,77.72 7.15,162.33 -25.95,61.95 24.58,115.26 -33.36,183.81 -9.47,6.6 -84.08,43.54 -65.54,53.71 25.59,14.02 48.18,-11.07 42.9,26.26 -6.94,48.99 -60.78,57.82 -60.78,91.91 0,63.83 -46.18,151.95 3.58,210.07 36.06,42.1 21.66,101.89 30.98,152.78 7.05,38.54 5.42,74.5 20.26,111 14.15,34.78 34.06,54.4 48.86,84.74 23.64,48.42 -23.8,101.71 -8.35,159.94 18.04,68.01 -1.85,85.8 -23.83,157.56 -1.66,6.01 -5.4,25.21 -14.3,27.45l-1.19 2.38c-15.76,0 -38.35,-0.02 -48.86,14.33 -47.94,65.4 -179.76,45.41 -228.8,112.19 -43.18,58.78 -103.24,123.17 -128.7,193.36l560.09 810.45 1.22 432.07c32.69,12.55 135.82,61.81 135.82,90.71 0,111.42 31.8,186.61 133.47,237.53 90.43,45.28 112.51,55.98 206.16,16.71 46.85,-19.65 97.36,-53.29 141.81,-31.04 73.8,36.96 189.18,50.02 245.48,100.26 60.52,54.02 147.82,65.8 212.12,130.1 57.82,18.69 106.49,93.04 168.03,87.14 36.71,-3.52 90.78,-37.42 126.32,-28.65l1.19 1.19c0,29.64 21.81,87.48 28.6,122.94 12.81,66.94 57.75,122.26 89.37,182.62l152.54 291.23 22.56 74 0 0 -2906.43 1850.8 -1166.2 799.68 -1239.77 1164.21 -1363.95 272.34 0 0 -535.6 103.64c-68.27,22.72 -149.23,66.13 -222.85,63.25 -64.07,-2.5 -79.33,-57.56 -110.82,-97.87 -21.91,-28.03 -66.48,-38.89 -85.81,-65.65 -23.69,-32.77 9.05,-65.14 23.84,-93.09 19.1,-36.12 30.38,-102.15 65.54,-121.75 48.22,-26.87 21.7,-56.56 8.34,-96.68 0,-57.51 -57.1,-70.56 -38.13,-108.62 29.86,-59.94 -28.1,-67.33 -5.96,-105.03 16.3,-27.78 30.98,-67.5 30.98,-100.26 0,-25.27 -78.83,-21.06 -100.1,-31.03 -71.36,-33.48 -117.19,-75.86 -199.01,-106.23 -98.18,-36.45 -276.11,2.85 -330.09,-69.23 -45.28,-60.48 -76.92,30.13 -107.25,-72.81 -26.98,-91.61 -66.16,-97.22 -139.43,-148 -86.32,-59.82 -64.38,113.36 -134.66,37 -44.43,-48.27 -132.64,35.89 -148.96,-46.55 -2.18,-0.55 -1.84,-0.2 -2.38,-2.39 -29.59,-4.17 -61.98,-0.71 -91.76,-8.35 -25.07,-11.18 -6.62,-44.87 -23.83,-52.52 -19.05,-8.48 -39.8,-22.17 -58.4,-29.84 -35.85,-14.77 -33.36,-96.7 -33.36,-130.1 0,-87.4 -177.03,-103.36 -233.57,-121.75 -46.63,-15.16 -42.66,-105.71 -117.98,-64.45 -38.29,20.98 -68.85,13.84 -76.27,-31.03 -17,-102.8 40.53,-202.02 10.91,-315.33l-5195.9 -3665.14 0 0 -3334.3 -2221.52 0 0 34.55 -1342.63 193.05 -127.72 260.98 -222c73.13,-67.19 184.01,-106.84 260.97,-177.85 45.33,-41.81 150.44,-116.15 206.16,-130.1 68.29,-17.09 70.9,-47.71 153.73,-52.51 28.69,-1.66 54.06,-35.47 83.42,-47.75 58.17,-24.32 189.27,-84.71 249.06,-64.45 139.14,47.17 251.3,27.56 387.29,1.19 55.01,-17.18 88.44,-6.88 132.28,-25.06 8.98,-3.73 104.36,1.22 116.78,5.97 31.15,11.91 42.88,42.23 75.08,50.13 62.48,15.32 281.05,-6.11 328.9,-51.33 89.93,-85 41.61,-29.57 59.59,42.97 34.26,0 53.37,-39.37 64.35,3.58 9.93,38.82 -12.37,99.82 51.24,52.52 31.46,-23.38 87.81,-166.94 85.8,-205.3l314.6 -361.65c22.3,-25.5 36.95,-10.9 63.16,-21.49 18.31,-7.39 50.51,-36.31 64.35,-51.32 41.84,-45.34 102.19,-64.74 147.77,-103.84 94.57,-81.15 233.58,-94.04 313.41,-202.91 30.63,-41.76 108.83,-97.02 154.92,-121.75 82.78,-36.72 160.68,-36.59 237.14,-70.42 44.26,-19.59 130.55,-20.9 169.22,-59.68 17.28,-17.34 30.36,-73.19 41.71,-99.06 28.17,-64.2 69.3,-101.14 110.83,-152.78 27.46,-34.15 130.57,-122.12 119.17,-168.3l-1.2 -1.19c-28.5,0 -90.8,30.16 -102.48,-15.52 -21.54,-84.17 13.7,-68.84 -56.01,-16.71 -19.27,-14.41 -0.01,-44.36 -4.77,-68.03 -27.22,-6.74 -22.82,18.87 -41.7,22.68 -4.82,19.15 -32.43,-19.44 -34.56,-29.84 -5.4,-26.41 9.66,-45.69 8.34,-69.23 -3.8,-67.74 -15.94,-67.18 42.9,-108.61 129.27,-51.84 -55.87,-265.5 185.9,-313.92l393.25 -78.77c61.61,-12.33 200.39,-54.54 181.14,-143.23 -19.2,-88.44 -153.62,-229.38 9.53,-232.75l172.8 -3.58c62.17,-1.28 145.45,-67.9 207.35,-46.55 58.95,20.32 217.06,27.64 275.28,-3.58 31.1,-3.91 134.34,15.31 156.11,-4.78 24.38,-22.48 31.49,-14.38 59.58,-1.19 30.56,14.36 131.01,13.13 166.83,13.13 34.66,0 54.52,-18.44 84.61,-21.48 37.9,-3.84 52.27,31.17 98.91,16.71 83.38,-25.84 72.57,29.81 132.28,46.55 34.74,9.73 60.53,3.95 90.57,-3.59 22.07,-89.03 -63.88,-154.14 -17.88,-243.49 16.98,-30.28 58.05,-64.28 92.95,-69.22 4.54,-32.21 53.63,-32.93 53.63,-76.39 -1.44,-0.48 -3.09,-2.79 -3.58,-4.78 -80.96,-20.07 -173.01,-138.18 -255.02,-176.65 -76.17,-35.74 -143.54,-147.98 -177.56,-216.03 -32.42,-64.84 26.87,-94.97 14.3,-159.94 -17.62,-91.11 -107.43,-164.77 -131.08,-264.98 -15.36,-50.03 7.55,-165.49 30.98,-211.26 33.95,-66.35 -21.6,-101.91 -59.58,-144.43 -38.32,-42.92 -8.34,-307.1 9.53,-368.81 26.52,-91.6 -31.27,-168.92 -17.87,-247.07 -14.13,-53.2 -32.18,-126.06 -32.18,-180.23 0,-36.13 23.84,-116.13 0,-142.04 -104.64,-113.68 -59.37,-108.08 1.19,-217.23 30.32,-54.67 -106.21,-43.99 -125.12,-79.97 -14.88,-28.33 -38.57,-64.36 -64.35,-83.55 -29.82,-22.18 -91.56,-33.2 -102.49,-71.62 -16.57,-58.29 -67.51,-43.7 -98.91,-96.68l-12.61 -62.46 0 0c57.49,12.29 134.59,29.45 158,20.69 68.23,-1.8 122.5,-44.67 185.9,-47.75 87.61,-4.25 26.65,-27.17 83.42,-57.29 38.94,-20.67 52.09,-33.56 90.56,-59.68 34.74,-23.58 43.88,-54.97 92.96,-59.68 71.25,-6.85 96.85,-62.85 152.53,-69.22 63.71,-7.3 96.51,-130.12 112.02,-186.2 3.79,-13.7 -0.8,-52.45 15.49,-53.71 49.01,-3.79 45.82,-54.4 66.73,-56.1 40.49,-3.29 43.56,-24.5 70.31,-51.33 40.27,-4.57 53.61,-56.17 88.19,-35.8 52.67,31.04 30.45,-90.99 127.51,-29.84 46.43,29.26 226.21,0.86 233.57,-56.1 14.13,-109.37 51.13,-107.42 152.53,-107.42 0.45,1.37 3.55,3.18 4.77,3.58 0,78.83 17.55,92.6 107.25,105.03 97.44,13.51 187.55,-47.69 199.01,-142.03 5.72,-47.05 51.84,-63.21 76.27,-101.46 23.35,-36.58 76.91,-71.75 92.95,-103.84 66.65,-13.01 100.94,-102.74 131.08,-99.07 109.21,13.29 175.96,-124.64 258.59,-139.64 57.75,-10.49 177.19,-24.3 189.48,-84.75 13.55,-66.67 78.07,-57.77 134.66,-78.78 42.37,-15.72 78.06,-40.28 126.32,-27.45 35.51,9.43 148.33,-40.16 200.2,-50.13 80.8,-15.52 169.02,10.95 250.25,-1.19 201.54,4.86 384.71,-82.36 569.63,-82.36 22.07,89.04 184.96,48.66 243.1,9.55 63.6,-42.8 135.21,-74.59 175.17,-142.04 51.98,-87.75 123.79,-76.73 173.99,-1.19 24.49,36.86 92.74,33.77 126.32,14.32 70.54,-40.88 76.5,-25.06 156.11,-25.06 154.41,-27.84 234.56,-77.22 369.42,-137.26 76.9,-34.23 188.46,-0.36 282.42,-3.58l278.86 -9.55c47.87,-1.64 99.07,17.9 154.92,17.9 145.71,0 242.73,96.01 370.61,127.71l1.19 1.2c8.57,34.59 -4.91,54.73 16.68,91.9 139.38,77.52 214.87,39.81 344.4,7.16l0 -3.58c18.25,-2.58 47.8,-73.88 65.54,-83.55l133.47 -72.81c38.05,-20.76 86.61,35.39 144.19,25.07 79.93,-14.34 170.32,-86.81 256.21,-107.42 103.82,-24.9 11.66,-73.46 70.31,-119.36 24.41,-19.11 198.24,-120.62 221.65,-52.52 40.77,118.55 91.51,120.55 222.85,120.55 45.88,6.72 61.44,-6.22 90.56,33.42 50.76,69.11 217.42,-9.04 281.24,-33.42 73.62,-28.11 1.19,-111.49 1.19,-155.16l1.19 -1.2c14.25,0 48.29,23.06 69.12,26.26 26.43,4.05 55.83,-7.14 79.84,-1.19 14.27,43.07 40.97,22.38 82.23,31.03 49.11,10.29 64.13,78.98 139.42,87.13 21.81,2.36 106.3,6.15 101.3,32.23 -16.37,85.36 97.78,108.9 157.3,94.29 72.07,-17.68 151.6,-73.98 225.23,-101.45 73.36,13.78 61.83,39.39 139.42,39.39 45.64,0 68.98,29.21 109.64,35.81 44.31,7.19 101.69,-19.48 155.11,-45.44l0 0z"/>
  <path class="fil4 str2" d="M3498.89 1808.94c64.97,-28.32 70.28,-89.15 70.28,-155.16 0,-67.27 24.61,-67.73 71.5,-102.65 26.44,-19.69 27.83,-206.62 71.5,-269.75 66.5,-96.11 78.75,-216.77 139.98,-281.38"/>
  <path class="fil4 str2" d="M1639.88 5554.4c20.45,8.49 32.66,38.55 53.58,52.51 88.48,59.04 104.63,53.69 138.23,162.33 31.81,102.86 43.66,227.3 88.19,327.04 11.93,26.74 17.98,59.24 35.75,85.94 21.9,32.91 81.56,54.58 116.78,74 41.33,22.78 32.66,71.59 66.74,102.65 58.49,53.3 93,78.16 176.37,83.55 103.05,6.66 172.45,47.58 240.48,83.94 87.47,46.75 172.72,86.01 324.38,35.42 84.67,-28.25 259.2,-48.01 309.83,-133.68 40.48,-68.5 196.66,-156 276.47,-171.88 17.93,-3.57 182.94,-61.14 195.44,-33.42 1.58,3.5 18.61,16.62 21.45,16.71 80.76,2.66 97.82,-56.29 164.45,-100.26 62.57,-41.29 83.06,-95.49 162.07,-95.49 42.33,0 71.52,32.65 104.87,54.91 26.96,17.99 72.38,2.37 100.1,-4.77 71.33,-18.39 26.81,-62.05 64.35,-112.2 45.56,-60.86 121.32,-76.15 169.22,-124.13"/>
  <path class="fil4 str2" d="M2556 6526.36c-13.41,20.56 -29.81,39.46 -40.24,61.68 -14.53,30.95 -38.18,58.28 -39.33,94.29 -1.64,51.4 27.81,116.62 34.56,169.49 5.33,41.75 1.22,94.08 30.99,127.71 18.89,21.35 47.8,29.87 66.73,51.33 114.67,129.98 168.05,-9.55 291.96,-9.55"/>
  <path class="fil4 str2" d="M1000 7172.89c22.37,2.06 33.93,-6.19 58.34,3.58 37.84,15.15 50.96,-37.68 90.56,-13.13 26.28,16.29 35.99,2.39 61.97,2.39 18.36,0 28.5,14.05 44.09,20.29 62.12,24.87 156.13,-12.08 220.46,-13.13 88.57,-1.45 218.46,7.41 297.92,47.75 20.43,10.37 85.39,26.69 107.25,13.12 16.73,-10.38 44.51,-45.39 65.55,-28.64 92.98,74.03 186.33,-83.07 303.87,-25.07 50.35,24.84 8.94,78.59 51.25,108.62 23.09,16.39 55.16,22.08 82.22,32.23 40.6,15.23 62.43,46.97 91.76,76.38"/>
  <path class="fil4 str2" d="M1475.42 7172.89c29,33.82 58,67.65 87,101.46 34.65,40.41 81.03,80.65 81.03,137.26 0,34.29 38.17,97.87 14.3,118.16 -22.55,19.17 -3.93,74.83 4.77,96.68 11.45,28.74 -3.58,42.68 -3.58,71.62 0,32.42 58.17,77.59 23.84,109.81 -36.69,34.42 -32.33,89.97 -22.65,136.06"/>
  <path class="fil4 str2" d="M3991.06 6350.52c130.92,0 241.39,-130.92 363.46,-168.3 67.4,-20.63 132.44,-29.07 178.75,-87.13 18.8,-23.58 38.4,-58.33 60.77,-76.39 37.03,-29.9 40.32,-30.26 66.74,-7.16 44.96,39.31 44.72,63.75 119.17,39.39 30.32,-9.92 72.37,-1.73 101.29,-9.55 44.55,-12.05 47.35,-71.28 104.87,-32.23 127.74,86.72 355.25,-144 445.68,-217.23 73.27,-59.34 116.16,-118.34 163.26,-196.94 24.29,-40.55 65.59,-41.18 90.57,-70.42 31.73,-37.15 32.47,-87.57 40.52,-132.49 7,-39.1 34.57,-71.37 39.32,-108.62 3.94,-30.93 -0.84,-66.56 3.58,-95.48 9.66,-63.06 63.53,-76.51 76.27,-143.23 7.55,-39.56 10.96,-94.64 13.1,-134.88 3.73,-70.31 70.76,-81.1 97.72,-145.61 33.14,-79.29 27.61,-156.63 86.99,-226.78 37.91,-44.79 51.4,-86.02 79.85,-131.3 23.84,-37.95 59.01,-67.96 86.99,-102.65 54.13,-67.13 86.56,-96.35 152.53,-149.19 43.1,-34.52 3.07,-137.03 58.4,-128.91 52.89,7.76 137.8,-166.72 191.86,-201.71 38.79,-25.11 80.36,-55.17 126.31,-69.23 68.26,-20.9 67.6,-58.93 106.06,-105.04 18.37,-22.03 33.36,-46.68 50.04,-70.03"/>
  <path class="fil4 str2" d="M4580.94 5690.47c-34.16,54.14 -114.06,-8.12 -122.75,-56.1 -10.72,-59.18 235.22,-135.45 256.21,-192.17 14.03,-37.9 21.66,-66.42 53.63,-96.68 37.83,-35.81 112.62,20.62 169.22,-60.87 42.32,-60.93 39.32,-122.97 39.32,-195.75 0,-30.51 -47.48,-62.2 -69.11,-77.58 -18.77,-13.35 -10.46,-42.35 -1.2,-60.87 16.3,-32.62 -22.92,-39.64 -35.75,-62.07 -7.85,-13.73 -28.33,-48.16 -41.7,-52.52 -49.77,-16.27 -60.85,-62.82 -109.64,-82.36 -86.03,-34.44 -24.5,-28.6 -39.32,-79.97 -13.95,-48.38 -40.22,-27.18 -19.07,-88.32 23.67,-68.42 -29.79,-118.29 -97.72,-96.68 -54.2,17.24 -40.26,-12.6 -78.65,-14.32 -26.6,-1.19 -92.83,43.59 -127.51,52.51 -170.34,43.8 -161.34,-183.87 -318.18,-134.87 -42.62,13.31 -91.11,-0.55 -115.59,-34.61 -45.19,-62.87 -33.88,-25.63 -91.76,-51.33 -31.93,-14.18 -20.94,-67.84 -63.16,-85.94 -86.57,-37.13 -94.99,-47.57 -173.98,5.97 -84.46,57.26 -171.36,13.42 -218.08,125.33 -16.42,39.35 -56.52,59.8 -77.46,91.9 -23.99,36.78 -16.22,64.66 -60.77,87.14 -14.95,7.54 -33.37,3.18 -50.06,4.77"/>
  <path class="fil4 str2" d="M8154.77 4327.4c88.38,-6.79 -57.59,-88.1 11.91,-138.46 41.63,-30.16 81.45,-63.8 88.19,-119.36 11.69,-96.32 88.18,-166.96 88.18,-264.97 0,-70.42 -36.22,-158.57 4.77,-222.01 34.94,-54.1 69.92,-108.21 104.87,-162.32 32.99,-51.06 29.07,-88.96 85.8,-126.52 73.39,-48.59 116.84,-45.94 59.58,-143.23 -53.17,-90.33 54.93,-94.65 92.95,-150.39 25.34,-37.15 36.65,-82.16 54.98,-123.24"/>
  <path class="fil4 str2" d="M9137.28 2597.69c30.95,58.55 139.5,73.2 202.02,70.63 27.74,-1.14 64.45,-4.48 102.21,-5.79 55.2,-1.92 112.74,0.43 148.04,20.11 72.84,40.61 195.13,47.25 228.81,-54.9 1.63,-4.94 6.9,-10.5 11.91,-11.94 120.74,-34.76 235.56,-106.14 367.04,-138.45 34.18,-8.4 73.52,-8.15 113,-19.54 109.18,-31.5 227.39,-87.96 313.63,-66.4 127.71,31.94 178.11,82.88 326.52,76.39 80.26,-3.5 186.31,-51.09 245.48,28.64 18.87,25.43 54.85,110.01 64.35,140.85 28.79,93.38 152.26,26.69 143.01,157.55 -2.54,35.95 -36.29,94.9 -4.77,126.52 47.73,47.87 76.27,78.37 76.27,152.78"/>
  <path class="fil4 str2" d="M10310.31 2457.81c2.05,24.01 -1.44,49.18 6.17,72.05 8.62,25.9 40.73,43.51 47.67,64.46 10.85,32.74 -16.74,63.51 -4.77,100.26 20.29,62.3 112.63,55.44 135.85,112.2 9.85,24.1 13.59,50.82 35.75,66.84 16.61,12.01 40.82,10.83 59.59,19.09 21.93,9.65 43.8,20.99 66.73,28.65"/>
  <path class="fil4 str2" d="M9441.51 2662.53c3.27,36.94 3.04,74.36 9.81,110.83 13.26,71.45 -68.95,126.71 -21.45,174.26 181.47,181.66 126.32,320.42 126.32,541.88 0,93.25 9.53,246.1 116.78,279.3 63.32,19.6 102.12,-13.33 164.45,31.03 60.73,43.22 132.12,79.33 171.61,-9.54"/>
  <path class="fil4 str2" d="M12266.07 2522.7c0,-104.78 21.44,-214.54 150.16,-190.97 83.79,15.34 173.06,-13.82 262.17,-9.55 103.68,4.97 210.22,-98.38 281.23,-169.49 37.38,-37.43 51.41,-82.65 100.11,-114.58 70.4,-46.16 165.21,-94.33 245.48,-119.36 24.99,-7.79 50.9,-12.34 76.35,-18.51"/>
  <path class="fil4 str2" d="M15910.24 3231.69c70.98,-31.07 -6.91,-98.82 -23.83,-133.68 -27.25,-56.14 39.88,-271.18 119.17,-286.46 80.98,-15.61 255.95,12.14 314.6,-31.03 64.93,-47.79 17.4,-121.67 85.8,-198.14 66.94,-74.84 130.29,-231.79 201.8,-328.99 23.82,-32.39 48.59,-58.18 74.67,-72.05 80.16,-42.65 258.33,-110.55 340.83,-81.16 79.37,28.27 135.03,108.58 221.65,-21.49 75.12,-112.81 198.39,-146.52 281.24,-243.49 104.19,-121.94 -24.39,-240.61 169.21,-317.49 32.91,-13.07 70.18,-9.52 105.27,-14.28"/>
  <path class="fil4 str2" d="M15571.8 2575.22c91.05,53.01 205.97,-59.67 255.02,-14.32 51.15,47.29 90.07,-48.78 123.94,-74 42.38,-31.57 90.59,-16.41 138.24,-28.65 73.09,-18.78 122.11,-71.59 178.75,-116.97 45.22,-36.24 282.25,-78.29 340.03,-87.89"/>
  <use x="13328.21" y="6823.91" width="105.38" height="105.38" xlink:href="#villes"/>
  <use x="10033.49" y="3278.11" width="105.38" height="105.38" xlink:href="#villes"/>
  <use x="11485.77" y="1779.49" width="256.13" height="256.13" xlink:href="#Capitale"/>
  <use x="11484.99" y="2230.91" width="105.38" height="105.38" xlink:href="#villes"/>
  <use x="10090.31" y="2426.07" width="105.38" height="105.38" xlink:href="#villes"/>
  <use x="11746.79" y="3996.87" width="105.38" height="105.38" xlink:href="#villes"/>
  <use x="13607.95" y="2392.75" width="105.38" height="105.38" xlink:href="#villes"/>
  <use x="13255.71" y="1821.55" width="105.38" height="105.38" xlink:href="#villes"/>
  <use x="14279.11" y="3049.63" width="105.38" height="105.38" xlink:href="#villes"/>
  <use x="13855.47" y="3820.75" width="105.38" height="105.38" xlink:href="#villes"/>
  <use x="14636.11" y="2226.15" width="105.38" height="105.38" xlink:href="#villes"/>
  <use x="14897.91" y="1707.31" width="105.38" height="105.38" xlink:href="#villes"/>
  <use x="15949.87" y="3220.99" width="105.38" height="105.38" xlink:href="#villes"/>
  <use x="15592.87" y="1654.95" width="105.38" height="105.38" xlink:href="#villes"/>
  <use x="8362.43" y="3449.47" width="105.38" height="105.38" xlink:href="#villes"/>
  <use x="7753.15" y="3792.19" width="105.38" height="105.38" xlink:href="#villes"/>
  <use x="8371.95" y="2954.43" width="105.38" height="105.38" xlink:href="#villes"/>
  <use x="11394.55" y="4906.03" width="105.38" height="105.38" xlink:href="#villes"/>
  <use x="12094.27" y="6286.43" width="105.38" height="105.38" xlink:href="#villes"/>
  <use x="14174.39" y="5643.83" width="105.38" height="105.38" xlink:href="#villes"/>
  <use x="1874.55" y="11079.75" width="105.38" height="105.38" xlink:href="#villes"/>
  <use x="13698.39" y="15773.11" width="105.38" height="105.38" xlink:href="#villes"/>
  <use x="6991.55" y="7176.55" width="105.38" height="105.38" xlink:href="#villes"/>
  <polygon class="fil5 str3" points="1560.83,1199.48 4615.17,1199.48 4615.17,2792.38 1560.83,2792.38 "/>
  <path class="fil6" d="M1182.15 2847.26c0,-17.45 4.47,-34.48 13.46,-51.13 8.93,-16.61 21.77,-29.59 38.43,-38.86 16.69,-9.26 34.1,-13.92 52.16,-13.92 17.92,0 35.18,4.56 51.69,13.74 16.56,9.12 29.4,21.92 38.53,38.43 9.17,16.51 13.73,33.77 13.73,51.74 0,18.01 -4.56,35.27 -13.73,51.78 -9.13,16.51 -21.97,29.35 -38.53,38.53 -16.51,9.17 -33.77,13.78 -51.69,13.78 -18.06,0 -35.47,-4.66 -52.16,-13.97 -16.66,-9.36 -29.5,-22.34 -38.43,-38.95 -8.99,-16.65 -13.46,-33.68 -13.46,-51.17zm17.22 0c0,14.62 3.76,28.88 11.24,42.7 7.48,13.83 18.2,24.65 32.13,32.46 13.92,7.81 28.41,11.71 43.46,11.71 15,0 29.35,-3.85 43.08,-11.52 13.74,-7.67 24.46,-18.39 32.13,-32.17 7.67,-13.79 11.52,-28.18 11.52,-43.18 0,-14.96 -3.85,-29.36 -11.52,-43.14 -7.67,-13.78 -18.39,-24.5 -32.13,-32.12 -13.73,-7.62 -28.08,-11.43 -43.08,-11.43 -15.05,0 -29.54,3.9 -43.46,11.66 -13.93,7.76 -24.65,18.58 -32.13,32.46 -7.48,13.87 -11.24,28.08 -11.24,42.57zm103.57 -33.35l5.08 -16.94c11.53,2.78 20.7,8.61 27.52,17.55 6.87,8.98 10.3,19.85 10.3,32.59 0,16.19 -5.22,29.31 -15.71,39.42 -10.49,10.11 -24.98,15.15 -43.55,15.15 -12.14,0 -22.68,-2.31 -31.61,-6.92 -8.99,-4.56 -15.71,-11.15 -20.28,-19.61 -4.56,-8.52 -6.82,-18.25 -6.82,-29.16 0,-12.23 2.92,-22.39 8.8,-30.48 5.88,-8.09 13.88,-13.6 23.94,-16.56l4.23 16.37c-6.91,2.77 -12.23,6.82 -15.89,12.23 -3.72,5.41 -5.55,11.71 -5.55,19 0,10.58 3.76,19.33 11.28,26.2 7.53,6.87 18.35,10.3 32.37,10.3 14.06,0 24.69,-3.24 31.89,-9.74 7.19,-6.49 10.81,-14.86 10.81,-25.16 0,-8.28 -2.39,-15.57 -7.24,-21.83 -4.8,-6.25 -11.33,-10.39 -19.57,-12.41z"/>
  <path id="1" class="fil6" d="M1387.61 2552.1l-18.58 0c14.44,9.27 21.68,22.91 21.68,40.92 0,11.67 -3.19,22.39 -9.64,32.13 -6.4,9.78 -15.38,17.35 -26.86,22.76 -11.52,5.37 -24.74,8.05 -39.69,8.05 -14.59,0 -27.8,-2.45 -39.7,-7.29 -11.86,-4.9 -20.98,-12.19 -27.29,-21.92 -6.35,-9.69 -9.5,-20.61 -9.5,-32.6 0,-8.84 1.88,-16.7 5.6,-23.56 3.72,-6.87 8.61,-12.47 14.58,-16.8l-72.67 0 0 -24.83 202.07 0 0 23.14zm-73.05 78.46c18.72,0 32.69,-3.95 41.96,-11.9 9.26,-7.91 13.87,-17.27 13.87,-28.04 0,-10.86 -4.42,-20.08 -13.26,-27.7 -8.84,-7.57 -22.34,-11.38 -40.5,-11.38 -19.94,0 -34.62,3.85 -43.98,11.61 -9.36,7.72 -14.01,17.27 -14.01,28.6 0,11.06 4.46,20.27 13.45,27.71 8.98,7.38 23.14,11.1 42.47,11.1z"/>
  <polygon id="2" class="fil6" points="1326.93,2499.56 1302.1,2499.56 1302.1,2422.8 1326.93,2422.8 "/>
  <path id="3" class="fil6" d="M1387.61 2395.7l-146.47 0 0 -22.29 20.69 0c-7.15,-4.56 -12.93,-10.68 -17.26,-18.3 -4.37,-7.62 -6.54,-16.27 -6.54,-26.01 0,-10.82 2.26,-19.71 6.73,-26.62 4.52,-6.92 10.77,-11.81 18.86,-14.63 -17.07,-11.67 -25.59,-26.77 -25.59,-45.39 0,-14.58 4,-25.83 12.04,-33.63 8.05,-7.86 20.42,-11.81 37.12,-11.81l100.42 0 0 24.84 -92.19 0c-9.88,0 -17.03,0.84 -21.4,2.44 -4.38,1.6 -7.86,4.52 -10.54,8.8 -2.68,4.23 -4,9.22 -4,14.91 0,10.35 3.44,18.91 10.26,25.73 6.86,6.82 17.82,10.2 32.87,10.2l85 0 0 24.84 -95.06 0c-11.01,0 -19.29,2.02 -24.79,6.07 -5.5,4.04 -8.28,10.67 -8.28,19.85 0,6.96 1.84,13.4 5.51,19.33 3.66,5.93 9.03,10.21 16.13,12.89 7.05,2.63 17.26,3.95 30.57,3.95l75.92 0 0 24.83z"/>
  <path id="4" class="fil6" d="M1369.27 2064.94c7.85,9.22 13.35,18.11 16.6,26.62 3.25,8.52 4.84,17.64 4.84,27.43 0,16.08 -3.9,28.45 -11.75,37.11 -7.81,8.65 -17.83,12.98 -30.01,12.98 -7.15,0 -13.69,-1.65 -19.62,-4.89 -5.93,-3.29 -10.63,-7.57 -14.2,-12.84 -3.58,-5.32 -6.31,-11.24 -8.14,-17.88 -1.27,-4.89 -2.49,-12.27 -3.72,-22.1 -2.35,-20.04 -5.22,-34.86 -8.51,-44.31 -3.39,-0.1 -5.55,-0.14 -6.44,-0.14 -10.07,0 -17.17,2.35 -21.31,7.05 -5.6,6.35 -8.37,15.81 -8.37,28.32 0,11.71 2.07,20.36 6.16,25.92 4.09,5.59 11.38,9.68 21.78,12.37l-3.39 24.27c-10.4,-2.21 -18.82,-5.84 -25.21,-10.92 -6.4,-5.08 -11.29,-12.41 -14.77,-22.01 -3.44,-9.55 -5.18,-20.7 -5.18,-33.3 0,-12.51 1.46,-22.72 4.42,-30.57 2.97,-7.81 6.64,-13.6 11.11,-17.27 4.46,-3.67 10.11,-6.25 16.93,-7.76 4.23,-0.8 11.85,-1.22 22.81,-1.22l32.93 0c23,0 37.53,-0.52 43.69,-1.55 6.17,-0.99 12.05,-3.06 17.69,-6.07l0 25.96c-5.22,2.5 -11.34,4.1 -18.34,4.8zm-55.04 1.98c3.67,9.03 6.78,22.57 9.32,40.64 1.45,10.25 3.1,17.49 4.93,21.73 1.84,4.23 4.52,7.48 8,9.78 3.53,2.31 7.43,3.48 11.76,3.48 6.54,0 12.04,-2.49 16.42,-7.52 4.37,-5.04 6.58,-12.38 6.58,-22.02 0,-9.55 -2.07,-18.06 -6.25,-25.54 -4.14,-7.43 -9.84,-12.93 -17.03,-16.41 -5.6,-2.69 -13.83,-4 -24.7,-4l-9.03 -0.14z"/>
  <path id="5" class="fil6" d="M1443.77 2003.65l-202.63 0 0 -22.57 19.24 0c-7.44,-5.32 -13.03,-11.34 -16.75,-18.07 -3.72,-6.68 -5.6,-14.81 -5.6,-24.36 0,-12.51 3.2,-23.52 9.65,-33.07 6.39,-9.55 15.47,-16.74 27.14,-21.63 11.71,-4.85 24.5,-7.3 38.47,-7.3 14.91,0 28.37,2.69 40.36,8.05 11.95,5.36 21.12,13.17 27.52,23.42 6.35,10.21 9.54,20.98 9.54,32.27 0,8.28 -1.74,15.71 -5.22,22.25 -3.48,6.58 -7.85,11.94 -13.17,16.18l71.45 0 0 24.83zm-128.5 -22.57c18.77,0 32.69,-3.81 41.67,-11.39 8.99,-7.62 13.45,-16.84 13.45,-27.65 0,-11.01 -4.65,-20.42 -13.97,-28.23 -9.31,-7.85 -23.7,-11.76 -43.22,-11.76 -18.63,0 -32.55,3.81 -41.82,11.48 -9.26,7.67 -13.87,16.79 -13.87,27.42 0,10.54 4.94,19.85 14.77,27.94 9.87,8.14 24.17,12.19 42.99,12.19z"/>
  <path id="6" class="fil6" d="M1343.87 1856.57l-3.96 -24.55c9.84,-1.37 17.36,-5.22 22.63,-11.53 5.22,-6.3 7.85,-15.14 7.85,-26.43 0,-11.43 -2.3,-19.9 -6.96,-25.45 -4.61,-5.5 -10.06,-8.28 -16.32,-8.28 -5.6,0 -10.02,2.5 -13.22,7.44 -2.21,3.48 -4.98,11.94 -8.42,25.4 -4.56,18.15 -8.51,30.71 -11.85,37.77 -3.39,7 -7.99,12.32 -13.92,15.94 -5.88,3.62 -12.42,5.46 -19.57,5.46 -6.54,0 -12.56,-1.51 -18.11,-4.47 -5.55,-3.01 -10.16,-7.06 -13.83,-12.18 -2.82,-3.86 -5.22,-9.13 -7.19,-15.76 -1.98,-6.68 -2.97,-13.78 -2.97,-21.4 0,-11.48 1.65,-21.54 4.99,-30.2 3.29,-8.7 7.81,-15.1 13.45,-19.24 5.69,-4.09 13.27,-6.96 22.77,-8.51l3.38 24.27c-7.62,1.08 -13.59,4.28 -17.87,9.55 -4.28,5.27 -6.4,12.7 -6.4,22.34 0,11.34 1.88,19.47 5.65,24.32 3.76,4.84 8.18,7.29 13.21,7.29 3.2,0 6.12,-0.99 8.71,-3.01 2.63,-2.02 4.84,-5.18 6.58,-9.5 0.94,-2.5 3.06,-9.74 6.35,-21.87 4.66,-17.5 8.52,-29.73 11.48,-36.69 2.96,-6.96 7.34,-12.42 12.98,-16.37 5.69,-4 12.75,-5.98 21.21,-5.98 8.24,0 16,2.4 23.29,7.25 7.29,4.84 12.93,11.8 16.93,20.88 4,9.13 5.97,19.43 5.97,30.91 0,19 -3.95,33.53 -11.8,43.5 -7.9,9.98 -19.57,16.33 -35.04,19.1z"/>
  <polygon id="7" class="fil6" points="1387.61,1698.53 1359.39,1698.53 1359.39,1670.31 1387.61,1670.31 "/>
  <path id="8" class="fil6" d="M1333.99 1531.5l3.38 -24.27c16.7,2.68 29.73,9.45 39.19,20.41 9.45,10.96 14.15,24.46 14.15,40.41 0,19.99 -6.53,36.08 -19.61,48.21 -13.08,12.18 -31.8,18.25 -56.16,18.25 -15.81,0 -29.59,-2.63 -41.39,-7.85 -11.86,-5.22 -20.75,-13.17 -26.63,-23.9 -5.92,-10.68 -8.89,-22.29 -8.89,-34.9 0,-15.85 4,-28.88 12.04,-38.95 8.05,-10.11 19.48,-16.6 34.25,-19.42l3.67 23.99c-9.83,2.3 -17.22,6.35 -22.2,12.23 -4.94,5.83 -7.44,12.88 -7.44,21.16 0,12.51 4.47,22.67 13.41,30.53 8.98,7.81 23.09,11.71 42.47,11.71 19.66,0 33.92,-3.76 42.81,-11.29 8.89,-7.57 13.35,-17.4 13.35,-29.49 0,-9.78 -2.96,-17.92 -8.93,-24.41 -5.93,-6.54 -15.1,-10.68 -27.47,-12.42z"/>
  <path id="9" class="fil6" d="M1314.37 1495.38c-27.04,0 -47.08,-7.53 -60.11,-22.63 -10.82,-12.56 -16.23,-27.94 -16.23,-46.05 0,-20.08 6.59,-36.54 19.76,-49.34 13.12,-12.75 31.33,-19.14 54.51,-19.14 18.82,0 33.59,2.82 44.36,8.46 10.77,5.65 19.14,13.88 25.12,24.7 5.97,10.77 8.93,22.58 8.93,35.32 0,20.51 -6.53,37.07 -19.66,49.72 -13.12,12.65 -32.03,18.96 -56.68,18.96zm0.05 -25.4c18.72,0 32.74,-4.1 42,-12.28 9.32,-8.23 13.97,-18.53 13.97,-31 0,-12.32 -4.65,-22.57 -14.01,-30.81 -9.36,-8.18 -23.61,-12.27 -42.76,-12.27 -18.06,0 -31.75,4.14 -41.01,12.37 -9.32,8.23 -13.97,18.48 -13.97,30.71 0,12.47 4.61,22.77 13.87,31 9.27,8.18 23.24,12.28 41.91,12.28z"/>
  <path id="10" class="fil6" d="M1387.61 1329.1l-146.47 0 0 -22.29 20.69 0c-7.15,-4.56 -12.93,-10.68 -17.26,-18.3 -4.37,-7.62 -6.54,-16.27 -6.54,-26.01 0,-10.82 2.26,-19.71 6.73,-26.62 4.52,-6.92 10.77,-11.81 18.86,-14.63 -17.07,-11.67 -25.59,-26.77 -25.59,-45.39 0,-14.58 4,-25.83 12.04,-33.63 8.05,-7.86 20.42,-11.81 37.12,-11.81l100.42 0 0 24.84 -92.19 0c-9.88,0 -17.03,0.84 -21.4,2.44 -4.38,1.6 -7.86,4.52 -10.54,8.8 -2.68,4.23 -4,9.22 -4,14.91 0,10.35 3.44,18.91 10.26,25.73 6.86,6.82 17.82,10.2 32.87,10.2l85 0 0 24.84 -95.06 0c-11.01,0 -19.29,2.02 -24.79,6.07 -5.5,4.04 -8.28,10.67 -8.28,19.85 0,6.96 1.84,13.4 5.51,19.33 3.66,5.93 9.03,10.21 16.13,12.89 7.05,2.63 17.26,3.95 30.57,3.95l75.92 0 0 24.83z"/>
  <rect class="fil4 str4" x="1000" y="1000" width="19000" height="19161.58"/>
  <g id="_2339433202704">
   <polygon class="fil7 str5" points="1714.75,1801.54 2583.39,1801.54 2583.39,1900.7 1714.75,1900.7 "/>
   <polygon class="fil8 str5" points="2583.39,1801.54 3452.03,1801.54 3452.03,1900.7 2583.39,1900.7 "/>
   <polygon class="fil7 str5" points="3452.02,1801.54 4320.66,1801.54 4320.66,1900.7 3452.02,1900.7 "/>
   <polygon class="fil7 str5" points="3107.08,2100.48 4496.38,2100.48 4496.38,2199.64 3107.08,2199.64 "/>
   <polygon class="fil8 str5" points="1717.79,2100.48 3107.09,2100.48 3107.09,2199.64 1717.79,2199.64 "/>
   <path class="fil6" d="M2542.68 1418.04c6.64,-15.76 15.11,-27.93 25.28,-36.51 10.17,-8.59 22.87,-12.88 38.04,-12.88 18.76,0 33.11,6.06 43.1,18.23 7.59,9.05 11.41,18.75 11.41,29.1 0,16.99 -10.7,34.57 -32.11,52.68 14.41,5.65 25.29,13.64 32.7,24.11 7.35,10.41 11.05,22.7 11.05,36.81 0,20.22 -6.47,37.69 -19.34,52.5 -16.76,19.29 -41.1,28.93 -72.97,28.93 -15.76,0 -26.46,-1.94 -32.16,-5.88 -5.71,-3.88 -8.53,-8.11 -8.53,-12.58 0,-3.35 1.35,-6.23 4.06,-8.76 2.7,-2.53 5.94,-3.82 9.76,-3.82 2.88,0 5.82,0.47 8.82,1.41 1.94,0.59 6.35,2.7 13.29,6.35 6.88,3.64 11.7,5.82 14.34,6.52 4.24,1.3 8.82,1.94 13.64,1.94 11.76,0 21.93,-4.52 30.64,-13.64 8.7,-9.05 13.05,-19.81 13.05,-32.22 0,-9.05 -2,-17.93 -6.06,-26.51 -3,-6.47 -6.29,-11.35 -9.82,-14.65 -4.99,-4.58 -11.76,-8.76 -20.4,-12.52 -8.64,-3.7 -17.46,-5.58 -26.46,-5.58l-5.52 0 0 -5.3c9.11,-1.17 18.16,-4.41 27.34,-9.82 9.11,-5.4 15.75,-11.87 19.87,-19.46 4.17,-7.58 6.23,-15.87 6.23,-24.99 0,-11.81 -3.7,-21.34 -11.11,-28.63 -7.47,-7.29 -16.7,-10.94 -27.75,-10.94 -17.82,0 -32.69,9.65 -44.69,28.87l-5.7 -2.76z"/>
   <path id="1" class="fil6" d="M2714.13 1491.54c0,-26.64 4,-49.51 12.05,-68.74 8.06,-19.22 18.7,-33.57 32.05,-42.98 10.29,-7.47 20.99,-11.17 31.98,-11.17 17.94,0 33.99,9.11 48.22,27.34 17.81,22.64 26.69,53.27 26.69,91.96 0,27.05 -3.88,50.09 -11.7,69.03 -7.82,18.93 -17.76,32.63 -29.87,41.21 -12.11,8.53 -23.81,12.82 -35.04,12.82 -22.29,0 -40.81,-13.11 -55.62,-39.39 -12.53,-22.17 -18.76,-48.86 -18.76,-80.08zm33.87 4.23c0,32.1 3.94,58.33 11.82,78.67 6.52,17.11 16.28,25.63 29.22,25.63 6.17,0 12.58,-2.76 19.22,-8.34 6.65,-5.59 11.65,-14.88 15.11,-27.99 5.24,-19.7 7.88,-47.57 7.88,-83.43 0,-26.64 -2.76,-48.86 -8.23,-66.62 -4.11,-13.23 -9.46,-22.58 -15.99,-28.05 -4.65,-3.82 -10.35,-5.7 -16.99,-5.7 -7.76,0 -14.7,3.53 -20.76,10.52 -8.23,9.53 -13.87,24.46 -16.81,44.92 -3,20.41 -4.47,40.52 -4.47,60.39z"/>
   <path id="2" class="fil6" d="M2890.52 1491.54c0,-26.64 4,-49.51 12.05,-68.74 8.06,-19.22 18.7,-33.57 32.05,-42.98 10.29,-7.47 20.99,-11.17 31.98,-11.17 17.94,0 33.99,9.11 48.22,27.34 17.81,22.64 26.69,53.27 26.69,91.96 0,27.05 -3.88,50.09 -11.7,69.03 -7.82,18.93 -17.76,32.63 -29.87,41.21 -12.11,8.53 -23.81,12.82 -35.04,12.82 -22.29,0 -40.81,-13.11 -55.62,-39.39 -12.53,-22.17 -18.76,-48.86 -18.76,-80.08zm33.87 4.23c0,32.1 3.94,58.33 11.82,78.67 6.52,17.11 16.28,25.63 29.22,25.63 6.17,0 12.58,-2.76 19.22,-8.34 6.65,-5.59 11.65,-14.88 15.11,-27.99 5.24,-19.7 7.88,-47.57 7.88,-83.43 0,-26.64 -2.76,-48.86 -8.23,-66.62 -4.11,-13.23 -9.46,-22.58 -15.99,-28.05 -4.65,-3.82 -10.35,-5.7 -16.99,-5.7 -7.76,0 -14.7,3.53 -20.76,10.52 -8.23,9.53 -13.87,24.46 -16.81,44.92 -3,20.41 -4.47,40.52 -4.47,60.39z"/>
   <path id="3" class="fil6" d="M3200.27 1361.95l0 157.16 39.98 -36.63c8.52,-7.82 13.46,-12.76 14.81,-14.82 0.95,-1.41 1.42,-2.76 1.42,-4.17 0,-2.29 -1,-4.23 -2.89,-5.94 -1.88,-1.65 -4.99,-2.59 -9.4,-2.82l0 -5.65 68.61 0 0 5.65c-9.35,0.23 -17.17,1.7 -23.4,4.35 -6.23,2.7 -13.05,7.47 -20.52,14.29l-40.63 37.22 40.34 51.33c11.29,14.05 18.81,23.04 22.58,26.98 5.58,5.24 10.4,8.65 14.58,10.17 2.94,1.12 7.99,1.71 15.17,1.71l0 6.35 -76.73 0 0 -6.35c4.41,-0.12 7.35,-0.76 8.88,-1.94 1.58,-1.24 2.35,-2.88 2.35,-5.06 0,-2.64 -2.3,-6.88 -6.88,-12.7l-48.27 -61.79 0 52.21c0,10.23 0.7,16.93 2.11,20.17 1.47,3.17 3.47,5.46 6.12,6.88 2.64,1.35 8.35,2.11 17.17,2.23l0 6.35 -80.08 0 0 -6.35c7.99,0 14.05,-1 18.05,-2.94 2.41,-1.23 4.23,-3.17 5.46,-5.76 1.71,-3.76 2.59,-10.29 2.59,-19.52l0 -143.94c0,-18.05 -0.41,-29.1 -1.18,-33.16 -0.82,-4.05 -2.11,-6.82 -3.99,-8.35 -1.83,-1.58 -4.24,-2.35 -7.18,-2.35 -2.41,0 -6.05,1 -10.82,2.94l-2.93 -6.35 46.74 -19.4 7.94 0z"/>
   <path id="4" class="fil6" d="M3377.01 1478.25c11.41,-11.53 18.17,-18.17 20.22,-19.93 5.12,-4.36 10.65,-7.77 16.59,-10.18 5.93,-2.41 11.81,-3.64 17.63,-3.64 9.88,0 18.29,2.88 25.4,8.64 7.06,5.76 11.82,14.11 14.17,25.11 11.88,-13.88 21.88,-22.93 30.05,-27.28 8.17,-4.3 16.58,-6.47 25.22,-6.47 8.35,0 15.82,2.17 22.35,6.47 6.46,4.29 11.64,11.34 15.4,21.16 2.53,6.65 3.82,17.11 3.82,31.4l0 67.97c0,9.82 0.71,16.58 2.18,20.23 1.12,2.46 3.23,4.64 6.23,6.4 3.06,1.77 8,2.65 14.88,2.65l0 6.35 -77.26 0 0 -6.35 3.29 0c6.7,0 11.99,-1.29 15.76,-3.94 2.64,-1.82 4.52,-4.76 5.64,-8.76 0.47,-1.94 0.71,-7.47 0.71,-16.58l0 -67.91c0,-12.88 -1.53,-21.93 -4.65,-27.22 -4.52,-7.35 -11.7,-11.06 -21.63,-11.06 -6.06,0 -12.23,1.53 -18.41,4.59 -6.11,3 -13.58,8.7 -22.34,16.93l-0.35 1.94 0.7 7.41 0 75.32c0,10.7 0.59,17.4 1.77,20.05 1.23,2.59 3.46,4.82 6.76,6.58 3.29,1.77 8.93,2.65 16.87,2.65l0 6.35 -79.37 0 0 -6.35c8.64,0 14.58,-1 17.81,-3.06 3.24,-2.06 5.47,-5.17 6.7,-9.29 0.59,-1.94 0.89,-7.58 0.89,-16.93l0 -67.91c0,-12.88 -1.88,-22.17 -5.65,-27.87 -5.05,-7.41 -12.05,-11.11 -21.11,-11.11 -6.17,0 -12.28,1.7 -18.34,5.05 -9.47,5.06 -16.82,10.82 -21.93,17.17l0 84.67c0,10.29 0.7,16.93 2.12,20.05 1.41,3.06 3.52,5.35 6.35,6.94 2.76,1.53 8.4,2.29 16.93,2.29l0 6.35 -77.97 0 0 -6.35c7.24,0 12.29,-0.76 15.17,-2.29 2.89,-1.59 5.06,-4 6.59,-7.41 1.47,-3.35 2.23,-9.88 2.23,-19.58l0 -60.33c0,-17.28 -0.53,-28.45 -1.53,-33.51 -0.82,-3.82 -2.05,-6.41 -3.82,-7.82 -1.7,-1.47 -4.05,-2.18 -6.99,-2.18 -3.24,0 -7.06,0.89 -11.53,2.59l-2.58 -6.35 47.62 -19.4 7.41 0 0 33.75z"/>
   <path class="fil6" d="M2797.26 2531.62l-16.34 45.39 -137.82 0 0 -6.47c40.57,-36.98 69.08,-67.14 85.61,-90.54 16.52,-23.41 24.81,-44.81 24.81,-64.21 0,-14.82 -4.53,-26.99 -13.64,-36.51 -9.06,-9.53 -19.88,-14.29 -32.52,-14.29 -11.52,0 -21.81,3.29 -30.92,9.94 -9.18,6.64 -15.88,16.4 -20.29,29.22l-6.35 0c2.88,-21.11 10.29,-37.34 22.17,-48.69 11.87,-11.28 26.75,-16.93 44.62,-16.93 18.94,0 34.81,6.12 47.51,18.29 12.7,12.17 19.05,26.51 19.05,43.09 0,11.82 -2.76,23.7 -8.29,35.52 -8.47,18.58 -22.28,38.27 -41.33,59.09 -28.64,31.16 -46.28,49.86 -53.04,56.03l60.39 0c12.29,0 20.93,-0.47 25.87,-1.35 4.94,-0.94 9.41,-2.82 13.4,-5.65 4,-2.76 7.47,-6.76 10.41,-11.93l6.7 0z"/>
   <path id="1" class="fil6" d="M2824.78 2461.42c0,-26.64 4,-49.51 12.05,-68.74 8.06,-19.22 18.7,-33.57 32.05,-42.98 10.29,-7.47 20.99,-11.17 31.98,-11.17 17.94,0 33.99,9.11 48.22,27.34 17.81,22.64 26.69,53.27 26.69,91.96 0,27.05 -3.88,50.09 -11.7,69.03 -7.82,18.93 -17.76,32.63 -29.87,41.21 -12.11,8.53 -23.81,12.82 -35.04,12.82 -22.29,0 -40.81,-13.11 -55.62,-39.39 -12.53,-22.17 -18.76,-48.86 -18.76,-80.08zm33.87 4.23c0,32.1 3.94,58.33 11.82,78.67 6.52,17.11 16.28,25.63 29.22,25.63 6.17,0 12.58,-2.76 19.22,-8.34 6.65,-5.59 11.65,-14.88 15.11,-27.99 5.24,-19.7 7.88,-47.57 7.88,-83.43 0,-26.64 -2.76,-48.86 -8.23,-66.62 -4.11,-13.23 -9.46,-22.58 -15.99,-28.05 -4.65,-3.82 -10.35,-5.7 -16.99,-5.7 -7.76,0 -14.7,3.53 -20.76,10.52 -8.23,9.53 -13.87,24.46 -16.81,44.92 -3,20.41 -4.47,40.52 -4.47,60.39z"/>
   <path id="2" class="fil6" d="M3001.17 2461.42c0,-26.64 4,-49.51 12.05,-68.74 8.06,-19.22 18.7,-33.57 32.05,-42.98 10.29,-7.47 20.99,-11.17 31.98,-11.17 17.94,0 33.99,9.11 48.22,27.34 17.81,22.64 26.69,53.27 26.69,91.96 0,27.05 -3.88,50.09 -11.7,69.03 -7.82,18.93 -17.76,32.63 -29.87,41.21 -12.11,8.53 -23.81,12.82 -35.04,12.82 -22.29,0 -40.81,-13.11 -55.62,-39.39 -12.53,-22.17 -18.76,-48.86 -18.76,-80.08zm33.87 4.23c0,32.1 3.94,58.33 11.82,78.67 6.52,17.11 16.28,25.63 29.22,25.63 6.17,0 12.58,-2.76 19.22,-8.34 6.65,-5.59 11.65,-14.88 15.11,-27.99 5.24,-19.7 7.88,-47.57 7.88,-83.43 0,-26.64 -2.76,-48.86 -8.23,-66.62 -4.11,-13.23 -9.46,-22.58 -15.99,-28.05 -4.65,-3.82 -10.35,-5.7 -16.99,-5.7 -7.76,0 -14.7,3.53 -20.76,10.52 -8.23,9.53 -13.87,24.46 -16.81,44.92 -3,20.41 -4.47,40.52 -4.47,60.39z"/>
   <path id="3" class="fil6" d="M3311.27 2448.13c11.41,-11.53 18.17,-18.17 20.22,-19.93 5.12,-4.36 10.65,-7.77 16.59,-10.18 5.93,-2.41 11.81,-3.64 17.63,-3.64 9.88,0 18.29,2.88 25.4,8.64 7.06,5.76 11.82,14.11 14.17,25.11 11.88,-13.88 21.88,-22.93 30.05,-27.28 8.17,-4.3 16.58,-6.47 25.22,-6.47 8.35,0 15.82,2.17 22.35,6.47 6.46,4.29 11.64,11.34 15.4,21.16 2.53,6.65 3.82,17.11 3.82,31.4l0 67.97c0,9.82 0.71,16.58 2.18,20.23 1.12,2.46 3.23,4.64 6.23,6.4 3.06,1.77 8,2.65 14.88,2.65l0 6.35 -77.26 0 0 -6.35 3.29 0c6.7,0 11.99,-1.29 15.76,-3.94 2.64,-1.82 4.52,-4.76 5.64,-8.76 0.47,-1.94 0.71,-7.47 0.71,-16.58l0 -67.91c0,-12.88 -1.53,-21.93 -4.65,-27.22 -4.52,-7.35 -11.7,-11.06 -21.63,-11.06 -6.06,0 -12.23,1.53 -18.41,4.59 -6.11,3 -13.58,8.7 -22.34,16.93l-0.35 1.94 0.7 7.41 0 75.32c0,10.7 0.59,17.4 1.77,20.05 1.23,2.59 3.46,4.82 6.76,6.58 3.29,1.77 8.93,2.65 16.87,2.65l0 6.35 -79.37 0 0 -6.35c8.64,0 14.58,-1 17.81,-3.06 3.24,-2.06 5.47,-5.17 6.7,-9.29 0.59,-1.94 0.89,-7.58 0.89,-16.93l0 -67.91c0,-12.88 -1.88,-22.17 -5.65,-27.87 -5.05,-7.41 -12.05,-11.11 -21.11,-11.11 -6.17,0 -12.28,1.7 -18.34,5.05 -9.47,5.06 -16.82,10.82 -21.93,17.17l0 84.67c0,10.29 0.7,16.93 2.12,20.05 1.41,3.06 3.52,5.35 6.35,6.94 2.76,1.53 8.4,2.29 16.93,2.29l0 6.35 -77.97 0 0 -6.35c7.24,0 12.29,-0.76 15.17,-2.29 2.89,-1.59 5.06,-4 6.59,-7.41 1.47,-3.35 2.23,-9.88 2.23,-19.58l0 -60.33c0,-17.28 -0.53,-28.45 -1.53,-33.51 -0.82,-3.82 -2.05,-6.41 -3.82,-7.82 -1.7,-1.47 -4.05,-2.18 -6.99,-2.18 -3.24,0 -7.06,0.89 -11.53,2.59l-2.58 -6.35 47.62 -19.4 7.41 0 0 33.75z"/>
   <path id="4" class="fil6" d="M3578.91 2331.83c4.76,0 8.88,1.7 12.29,5.05 3.35,3.41 5.05,7.53 5.05,12.29 0,4.82 -1.7,9 -5.05,12.41 -3.41,3.47 -7.53,5.17 -12.29,5.17 -4.82,0 -9,-1.7 -12.41,-5.17 -3.47,-3.41 -5.17,-7.59 -5.17,-12.41 0,-4.76 1.7,-8.88 5.05,-12.29 3.41,-3.35 7.59,-5.05 12.53,-5.05zm14.17 82.55l0 127c0,9.82 0.7,16.34 2.17,19.58 1.41,3.29 3.53,5.7 6.35,7.29 2.82,1.59 8,2.41 15.47,2.41l0 6.35 -76.56 0 0 -6.35c7.65,0 12.82,-0.76 15.41,-2.23 2.64,-1.47 4.7,-3.94 6.29,-7.35 1.53,-3.41 2.29,-10 2.29,-19.7l0 -61.03c0,-16.99 -0.53,-27.99 -1.53,-33.05 -0.82,-3.64 -2.05,-6.17 -3.82,-7.58 -1.7,-1.47 -4.06,-2.18 -7,-2.18 -3.23,0 -7.11,0.89 -11.7,2.59l-2.41 -6.35 47.45 -19.4 7.59 0z"/>
  </g>
 </g>
</svg>
