<?xml version="1.0" encoding="UTF-8"?>
<!DOCTYPE svg PUBLIC "-//W3C//DTD SVG 1.0//EN" "http://www.w3.org/TR/2001/REC-SVG-20010904/DTD/svg10.dtd">
<!-- Creator: CorelDRAW -->
<svg xmlns="http://www.w3.org/2000/svg" xml:space="preserve" width="210mm" height="297mm" version="1.0" style="shape-rendering:geometricPrecision; text-rendering:geometricPrecision; image-rendering:optimizeQuality; fill-rule:evenodd; clip-rule:evenodd"
viewBox="0 0 21000 29700"
 xmlns:xlink="http://www.w3.org/1999/xlink">
 <defs>
  <style type="text/css">
   <![CDATA[
    .str5 {stroke:black;stroke-width:10;stroke-miterlimit:3.864;stroke-opacity:0.501961}
    .str0 {stroke:#2B2A29;stroke-width:75;stroke-miterlimit:22.9256}
    .str7 {stroke:black;stroke-width:50;stroke-miterlimit:22.9256}
    .str4 {stroke:#003399;stroke-width:50;stroke-miterlimit:22.9256}
    .str3 {stroke:#003399;stroke-width:20;stroke-miterlimit:22.9256}
    .str1 {stroke:black;stroke-width:10;stroke-miterlimit:22.9256}
    .str6 {stroke:black;stroke-width:10;stroke-miterlimit:3.864}
    .str2 {stroke:#003399;stroke-width:10;stroke-miterlimit:22.9256}
    .fil4 {fill:none}
    .fil1 {fill:#FEFEFE}
    .fil2 {fill:#EBECEC}
    .fil0 {fill:#2B2A29}
    .fil3 {fill:#A2D9F7}
    .fil8 {fill:#FEFEFE;fill-rule:nonzero}
    .fil7 {fill:#D9DADA;fill-rule:nonzero}
    .fil6 {fill:black;fill-rule:nonzero}
    .fil5 {fill:#FEFEFE;fill-rule:nonzero;fill-opacity:0.501961}
   ]]>
  </style>
 </defs>
<symbol id="villes" viewBox="10447.31 14797.31 105.38 105.38">
 <circle class="fil0" cx="10500" cy="14850" r="52.69"/>
</symbol>
<symbol id="Capitale" viewBox="10371.93 14721.93 256.13 256.13">
 <circle class="fil1 str0" cx="10499.99" cy="14849.99" r="90.56"/>
</symbol>
 <g id="Plan_x0020_1">
  <metadata id="CorelCorpID_0Corel-Layer"/>
  <path class="fil2 str1" d="M8265.62 1398.36l-508.88 -293.63 -88.71 -104.73 0 0 8219.55 0 0 0 -286.01 269.44 -401.68 479.23 -4.17 100.85 -160.88 149.2 -36.26 59.68c-25.42,5.17 -51.23,8.71 -76.26,15.52 -79.73,21.7 -159.85,16.31 -238.34,47.74 -79.32,31.76 -121.07,54.7 -206.16,71.62 -49.81,9.9 -76.44,65.36 -123.93,77.58 -69,17.75 -87.13,-45.36 -148.96,-45.36 -80.61,0 -62.8,-126 -169.22,-103.84 -61.07,12.71 -82.51,-28.89 -132.28,-50.13 -46.15,-19.69 -92.07,-39.19 -139.42,-53.71 -45.87,-14.07 -67.98,9.53 -110.83,2.39 -26.99,-4.49 -46.27,-31.94 -67.93,-45.36 -28.5,-17.66 -70.87,-10.44 -100.1,-25.07 -43.26,-21.66 -33.28,-62.13 -83.41,-15.51 -39.39,36.63 -111.73,55.76 -162.07,75.19 -37.82,14.59 -15.1,59.43 -42.9,68.04 -43.01,13.32 -65.87,-9.82 -112.02,17.9 -90.16,54.16 -187.47,41.67 -287.2,-11.93 -82.81,-44.5 -13.51,-137.49 -89.37,-173.07 -79.77,-37.42 -127.96,-96.68 -221.65,-96.68 -30.14,0 -26.05,-13.67 -42.9,-32.23 -43.34,-47.72 -130.07,60.49 -189.48,52.52 -57.54,-7.72 -67.48,-6.29 -114.4,20.29 -42.89,24.3 -71.46,-10.62 -103.68,-19.1 -38.84,-10.23 -53.01,4.44 -91.76,11.94 -36.29,7.02 -156.62,-29 -190.66,-42.97 -35.33,-14.5 -60.5,-40.01 -86.38,-60.27l0 0c-8.84,-6.84 -18,-13.19 -28.03,-18.51 -20.5,-10.88 -39.42,-8.32 -54.22,-14.32 -3.1,-1.26 -6.21,-2.56 -9.28,-3.9l0 0c-13.33,-5.79 -26.32,-12.28 -38.84,-19.32 -55.09,-30.93 -101.46,-72.59 -130.03,-114.04 -42.7,-61.94 -92.35,16.8 -72.7,-51.33 12.65,-43.85 33.72,-84.44 -27.4,-94.29 -1.17,-0.18 1.17,-3.33 0,-3.58 -15.97,-3.43 -1.67,-43.86 -23.84,-37 -16.84,5.21 -42.9,32.05 -42.9,-7.16 0,-98.97 -7.68,-42.97 -75.07,-42.97 -32.98,0 -30.68,-47.5 -44.1,-64.46 -31.98,-40.39 -48.38,34.05 -84.6,-22.67 -19.04,-29.81 -32.99,5.9 -54.82,7.16 -50.92,2.95 -63.73,-119 -173.99,-69.23 -67.59,30.5 -58.72,-18.5 -110.82,-27.45 -79.54,-13.67 -259.59,-63.86 -294.35,40.58 -20.58,61.85 -213.24,-57.65 -252.63,-75.2 -60.75,-27.07 -135.25,-52.37 -196.63,-14.32 -35.97,22.29 -177.64,36.03 -206.16,-3.58l-1481.24 290.05 0 0z"/>
  <path class="fil2 str1" d="M8265.62 1398.36l-508.88 -293.63 -88.71 -104.73 0 0 -6668.03 0 0 871 0 0c76.27,-40.55 119.24,-60.54 178.7,14.33 118.77,149.55 108.05,-48.06 210.92,-5.97 63.51,25.98 73.08,36.52 139.43,7.16 34.44,-15.24 76.5,-40.59 113.21,20.3 20.24,33.57 74.51,-1.54 104.87,20.29 75.04,53.96 77.64,-53.58 143,11.93 62.92,63.07 125.54,-43.31 197.82,-45.35 46.96,-1.32 59.25,14.92 98.91,25.06 35.91,9.18 23.21,-46.53 58.39,-42.97 29.18,2.95 41.26,41.19 63.16,2.39 30.12,-53.36 101.76,50.94 138.23,64.45 26.72,9.9 150.32,20.45 157.3,27.46 21.42,21.49 8.17,81.3 52.44,72.8 38.19,-7.33 61.27,40.25 90.56,54.91 78.04,39.07 145.04,-21.83 226.42,4.77 43.25,14.13 56.12,64.46 103.68,64.46 36.37,0 44.15,-52.06 70.31,-4.78 4.39,7.94 102.26,48.94 120.36,48.94 97.85,0 84.12,6.51 82.22,-59.68 -0.05,-2.01 -3.25,-2.62 -1.19,-3.58 16.04,-7.49 41.18,-15.63 60.78,-22.68 47.72,-17.16 101.73,-65.65 148.96,-65.65 57.99,0 45.77,8.33 102.48,-16.71 36.58,-16.14 76.96,-6.91 117.98,-25.06 15.14,-6.69 32.12,6.36 46.47,7.16 23.6,1.32 43.09,-23.42 71.5,-25.06 33.13,-1.91 128.64,-10.15 145.39,13.12 20.95,29.09 49.8,51.88 85.8,60.88 35.14,8.79 47.23,2.81 78.65,22.68 34.33,21.71 78.57,-21.48 101.29,29.83 11.63,26.27 76.18,47.94 110.83,66.85l3846.75 -794.92 0 0z"/>
  <path class="fil2 str1" d="M11667.27 1743.9l-25.64 50.72c-28.02,39.55 -24.43,88.22 -33.37,134.87 -4.9,25.54 2.91,56.72 21.45,72.81 27.57,23.91 44.71,42.13 47.67,81.17 1.4,48.15 26.32,108.5 45.28,151.58 18.9,42.93 14.88,52.11 66.74,62.07 48.07,9.24 16.48,42.9 47.66,62.06 59.56,36.62 79.45,39.77 115.6,115.78l132.27 278.1c21.01,44.16 22.44,93.31 50.05,134.88 30.13,45.34 80.04,82.72 107.25,126.52 13.79,62.98 34.38,82.81 94.15,94.29 47.91,9.21 35.47,38.78 54.81,77.58 54.12,108.61 99.99,93.6 187.1,153.98 112.31,77.83 59.9,160.75 76.26,279.29 22.54,163.39 90.77,183.88 207.36,287.66 24.75,21.12 36.77,20.29 66.73,20.29 17.77,71.71 78.56,130.17 90.57,208.87 10.23,67.1 -33.58,74.83 -45.29,127.72 -19.17,86.53 29.04,176.04 100.1,225.58 48.28,33.65 25.67,51.76 39.33,95.49 13.29,42.58 56.33,66.92 61.97,118.16 30.12,56.27 67.39,276.88 120.36,287.66 29.72,6.05 57.93,165.85 64.35,199.33 7.81,40.77 95.65,81.3 133.46,96.68 28.4,11.54 84.66,-8.36 116.79,-8.36 17.47,0 121.69,79.87 128.7,96.68l78.65 188.59c29.18,93.48 254.26,83 318.18,164.71 32.36,41.35 29.02,100.21 56.01,140.84 29.19,43.92 139.27,-18.43 199.01,101.46 29.99,60.18 119.6,38.28 178.75,64.45 51.8,22.93 102.32,10.34 154.92,44.16 90.11,57.96 103.01,65.76 216.88,59.68 103.01,-5.49 120.18,39.18 185.91,105.04 61.04,57.2 213.49,39.29 235.95,119.35 17.25,61.53 25.75,117.92 47.66,177.85 14.71,40.27 47.67,51.9 47.67,99.07 0,63.78 45.8,101.84 29.79,165.9 -17.03,68.17 -20.26,136.88 -20.26,210.07l-2.38 111.01c90.58,-9.81 93.84,-86.69 200.2,-33.42 62.52,31.3 132.76,-49.09 207.36,-27.46 52.2,15.14 90.32,68.24 148.96,29.84 72.03,-47.18 82.24,33.13 126.31,20.29 40.62,-11.84 68.73,-28.82 97.72,8.36 48.3,61.97 59.46,97.46 14.3,170.68 -22.34,36.24 -18.57,101.3 -15.49,145.62 2.59,37.14 60.77,50.77 60.77,82.35 0,26.15 -21.97,44.76 -15.49,74.01 16.71,75.46 -13.41,198.77 -63.16,255.42 1.67,30.24 18.48,56.4 7.15,85.94 -25.56,66.59 32.96,73.92 25.03,108.62 -2.25,9.85 -26.63,31.64 -20.26,42.97 31.62,56.28 -26.32,62.67 -7.15,89.51 42.33,59.29 -18.69,32.48 -21.45,69.23 -3.83,51.08 78.13,139.87 109.63,176.65 20.96,24.49 35.73,23.44 64.36,31.03 50.56,13.42 111.21,132.47 152.53,179.04 20.45,23.04 46.01,97.4 72.69,101.46 44.51,6.79 39.33,78.4 39.33,111 8.31,25.82 25.2,63.75 47.66,79.97 18.72,13.53 17.82,23.77 11.92,42.97 -13.25,43.14 60.91,58.1 51.24,77.58 -5.41,10.88 -56.96,25.8 -17.87,45.36 17.59,8.81 33.01,14.97 22.64,34.61 -8,15.16 -17.34,40.73 -7.15,56.1 9.21,13.9 27.73,-16.88 36.94,7.16 5.67,14.78 13.16,46.57 22.64,58.49l18.2 41.67c12.88,4.59 25.43,8.37 37.81,10.84 55.81,11.17 112.49,-3.47 168.03,9.55 61.47,14.41 96.26,42.09 164.45,34.62 49.06,-5.37 95.68,-23.88 145.39,-23.88 38.31,0 50.17,35.53 84.61,37 70.74,3.04 73.68,15.43 133.46,45.36 67.2,33.65 148.63,114.81 212.12,51.32 31.24,-31.24 54.98,-0.03 84.61,-32.22 31.98,-34.75 64.48,11.57 100.1,14.32 72.77,5.62 47.59,29.99 97.72,53.71 61.08,28.9 172.97,38.14 216.88,89.52 34.71,40.61 67.82,10.6 109.64,52.52 62.14,62.28 195.84,45.35 272.89,45.35 42.38,0 16.91,34.36 40.52,50.13 24.12,16.11 111.18,-0.62 112.02,38.2 1.85,85.6 71.2,26.72 92.95,79.97 17.09,41.85 19.5,71.03 67.92,89.52 28.44,10.86 77.23,6.5 73.89,47.74 -1.3,16 -41.97,75.22 -17.88,85.94 80.38,35.78 74.43,3.61 47.67,90.71 -15.08,49.08 50.45,30.61 64.35,66.84 11.76,30.67 -17.91,25.23 17.88,57.29 39.08,35.01 21.42,74.56 53.62,115.78 34.13,43.67 121.89,116.18 160.73,155.02l0 0c72.81,-15.33 164.28,-59.64 228.95,-57.15 24.98,0.96 35.62,18.88 56.01,20.29 19.13,1.32 34.75,-40.67 50.05,-54.9 13.58,-12.63 32.12,-19.1 51.24,-19.1 30.97,0 55.43,43.58 84.61,1.2 16.76,-24.34 67.48,-34.32 95.34,-19.1 17.6,9.61 38.09,12.14 57.14,18.5l0 0 0 -9447.48 -4112.42 0 0 0 -286.01 269.44 -401.68 479.23 -4.17 100.85 -160.88 149.2 -36.26 59.68c-25.42,5.17 -51.23,8.71 -76.26,15.52 -79.73,21.7 -159.85,16.31 -238.34,47.74 -79.32,31.76 -121.07,54.7 -206.16,71.62 -49.81,9.9 -76.44,65.36 -123.93,77.58 -69,17.75 -87.13,-45.36 -148.96,-45.36 -80.61,0 -62.8,-126 -169.22,-103.84 -61.07,12.71 -82.51,-28.89 -132.28,-50.13 -46.15,-19.69 -92.07,-39.19 -139.42,-53.71 -45.87,-14.07 -67.98,9.53 -110.83,2.39 -26.99,-4.49 -46.27,-31.94 -67.93,-45.36 -28.5,-17.66 -70.87,-10.44 -100.1,-25.07 -43.26,-21.66 -33.28,-62.13 -83.41,-15.51 -39.39,36.63 -111.73,55.76 -162.07,75.19 -37.82,14.59 -15.1,59.43 -42.9,68.04 -43.01,13.32 -65.87,-9.82 -112.02,17.9 -90.16,54.16 -187.47,41.67 -287.2,-11.93 -82.81,-44.5 -13.51,-137.49 -89.37,-173.07 -79.77,-37.42 -127.96,-96.68 -221.65,-96.68 -30.14,0 -26.05,-13.67 -42.9,-32.23 -43.34,-47.72 -130.07,60.49 -189.48,52.52 -57.54,-7.72 -67.48,-6.29 -114.4,20.29 -42.89,24.3 -71.46,-10.62 -103.68,-19.1 -38.84,-10.23 -53.01,4.44 -91.76,11.94 -36.29,7.02 -156.62,-29 -190.66,-42.97 -35.33,-14.5 -60.5,-40.01 -86.38,-60.27l0 0z"/>
  <path class="fil2 str1" d="M19376.66 10557.74c72.81,-15.33 164.28,-59.64 228.95,-57.15 24.98,0.96 35.62,18.88 56.01,20.29 19.13,1.32 34.75,-40.67 50.05,-54.9 13.58,-12.63 32.12,-19.1 51.24,-19.1 30.97,0 55.43,43.58 84.61,1.2 16.76,-24.34 67.48,-34.32 95.34,-19.1 17.6,9.61 38.09,12.14 57.14,18.5l0 0 0 10670.16 -18277.15 0 0 0 -0.39 -5282.4 0 0c16.26,12.77 42.09,21.61 53.43,37.66 9.77,13.81 20.04,38.89 32.77,48.34 10.96,8.13 27.57,3.28 39.33,12.53 8.22,6.46 -3.31,22.77 14.89,27.45 30.39,7.81 36.94,-1.24 36.94,33.42 0,25.73 21.61,24.34 36.35,37 18.6,15.98 9.18,58.95 46.47,44.17 47.67,-18.9 46.89,4.8 66.14,32.82 35.95,52.31 49.4,-29.04 77.3,18.5 18.26,31.12 56.66,17.94 89.38,33.42 54.75,25.91 47.23,100.02 86.99,126.52 30.72,20.48 63.03,46.27 91.76,69.23 15.48,12.37 59.58,31.6 59.58,54.9 0,60.4 21.04,47.73 47.67,93.1 14.89,25.38 5.26,23.85 32.17,41.78 18.82,12.54 11.19,33.25 5.96,54.9 -3.45,14.29 -6.91,54.54 20.26,47.75 10.14,-2.53 18.78,-10.51 27.41,-15.52 9.33,-5.42 12.62,-4.66 16.68,1.19 6.69,9.63 9.74,52.79 -2.38,60.88 -10.34,6.9 -21.83,18.16 -25.03,31.03 -3.1,12.48 13.82,36.31 22.65,44.16 46.99,41.78 70.28,-18.83 53.62,68.03 -14.27,74.4 148.41,56.41 77.46,107.43 -15.9,11.43 -44.02,53.68 -2.38,45.35 50.69,-10.14 18.55,46.52 29.79,87.13 12.49,45.12 26.92,50.54 66.73,71.62 30,15.88 57.2,12.6 57.2,53.71 0,66.24 10.42,93.56 72.7,56.1 68.59,-41.25 28.56,52.5 9.53,77.58 -22.83,30.09 -75.79,54.33 -27.41,91.91 22.01,17.09 152.48,148 77.46,148 -59.42,0 -61.59,116.75 -21.45,88.33 39.78,-28.16 40.25,15 30.98,45.35 -23.06,75.41 36.98,69.63 69.12,121.75 25.24,40.93 5.64,70.13 63.16,101.45 40.07,21.82 -26.22,48.54 -26.22,88.33 0,58.14 62.45,-27.77 76.27,-19.1 14.11,8.85 7.54,34.02 3.57,53.71 -4.37,21.66 -18.31,54.28 1.2,62.07 42.66,17.03 64.77,22.15 30.98,62.06 -57.49,67.9 92.11,115.72 70.31,164.72 -8.66,19.46 -21.74,45.97 -34.56,63.26 -29.19,39.35 49.88,61.02 1.19,109.81 -38.39,38.47 34.56,32.58 34.56,66.84 0,14.6 -46.73,27.56 -35.75,52.51 12.09,27.48 90.51,36.71 75.08,60.88 -29.08,45.54 -78.03,71.16 -84.61,131.29 -3.23,29.52 -5.03,99.41 -21.45,124.13 -19.8,29.81 -63.9,24.27 -73.89,40.58 -25.82,42.14 -47.85,89.21 -90.56,121.75 -38.73,29.51 -18.94,103.78 -45.29,116.97 -27.44,13.74 -35.68,13.38 -44.09,47.74 -18.17,74.16 -87.91,8.07 -102.48,77.59 -15.68,74.81 -2.47,115.82 -4.77,190.97 -1.3,42.58 28.44,77.23 29.79,131.29 0.79,31.42 1.59,62.86 2.38,94.3 0.75,29.78 -9.39,26.98 -21.45,52.51 -15.03,31.82 10.75,62.83 17.88,90.72 4.6,18.02 -15.56,61.48 10.72,82.35 19.35,15.37 -37.89,59.09 -4.76,81.17 32.31,21.53 28.6,19.28 28.6,56.09 0,39.49 49.04,23.92 61.96,74.01 8.18,31.74 7.15,71.74 7.15,106.22 51.01,-28.04 63.83,-115.93 132.28,-89.51 23.44,9.04 69.35,-49.38 96.53,-57.3 47.04,-13.71 46.8,-24.42 85.8,-48.93 156.19,-98.18 213.05,59.05 357.5,66.84 88.41,4.77 188.52,93.49 269.32,40.58 57.12,-37.41 99.36,-63.15 169.22,-51.32 83.91,14.21 34.11,13.95 106.06,-26.26 48.64,-27.18 195.66,-3.84 250.25,9.55 41.48,10.17 53.14,28.21 83.42,50.13 48.61,35.2 37.47,-27.04 63.16,-26.26 0.88,0.02 0.34,2.14 1.19,2.38 19.78,5.65 31.47,28.01 47.67,9.55 52.6,-59.93 79.1,4.4 96.52,25.07 41.16,48.83 104.74,-27.84 127.51,-16.71 54.05,26.41 215.9,-135.15 202.59,-200.52 -22.84,-112.14 -83.24,-168.76 81.03,-202.91 72.01,-14.97 147.39,12.76 221.65,2.39 45.83,-6.4 69.61,-54.91 116.79,-54.91 78.31,0 81.01,-73.41 123.93,-127.71 20.36,-25.77 103.02,-70.87 101.29,-95.49 -0.13,-1.87 56.38,-58.83 52.44,-97.87 -1.34,-13.38 33.51,-21.04 40.51,-40.58 6.56,-18.31 -20.16,-47.71 -5.95,-58.49 61.39,-46.58 -7.4,-89.56 50.05,-103.84 60.04,-14.93 41.62,-53.2 77.46,-82.36 23.22,-18.89 76.35,21.45 107.25,-9.55 18.11,-18.17 16.31,-46.27 48.86,-44.16 50.08,3.26 70.92,5.11 67.92,-51.32 -3.57,-67.22 67.68,-10.03 77.46,-99.07 4.34,-39.57 17.26,-56.93 59.58,-46.55 65.59,16.09 37.6,-90.23 125.13,-29.84 158.16,109.12 109.67,-151.58 162.07,-151.58 61.85,0 15.91,-16.97 60.77,-39.39 49.28,-24.63 21.41,-20.04 13.11,-52.52 -3,-11.77 51.6,-35.7 63.16,-41.78 43.39,-22.81 -24.51,-111.62 4.77,-132.48 29.02,-20.68 101.32,17.53 108.44,-9.55 23.06,-87.62 -7.47,-96.52 54.82,-175.46 33.68,-42.68 -5.12,-31.93 -34.56,-41.77 -66.39,-22.2 -20.66,-37.62 -2.38,-63.26 25.63,-35.95 90.49,-83.54 83.41,-125.33 -3.2,-18.9 -52.33,-25.19 -64.35,-40.58 -20.31,-26.01 35.76,-12.14 42.9,-23.87 23.65,-38.82 -28.32,-104.55 36.95,-115.78 64.82,-11.15 34.52,-37.29 58.39,-78.78 35.5,-61.7 38.36,-53.96 -17.88,-100.26 -33.43,-27.52 109.18,-35.99 77.46,-74 -34.38,-41.2 -75.89,-54.79 -57.2,-95.48 10.07,-21.94 75.59,-66.31 81.03,-93.1 4.88,-24.06 -33.92,-66.63 -16.68,-76.39 26.88,-15.23 52.76,8.96 72.69,2.38 7.04,-2.33 -2.04,-24.6 -1.19,-31.03 8.54,-63.86 21.27,-84.88 76.27,-122.94 45.01,-31.14 73.03,-42.46 76.27,-100.26 4.8,-85.39 23.52,-31.42 61.96,-52.52 35.29,-19.37 8.22,-98.91 70.31,-101.45 16.59,-0.68 45.18,50.5 52.44,66.84 22.88,51.48 44.4,-14.66 54.81,-25.07 18.63,-18.63 70.49,28.3 120.36,-13.12 61.17,-50.81 165.66,-93.07 244.3,-51.33 52.56,27.89 30.64,17.23 89.37,13.13 38.86,-2.71 43.53,37 77.46,44.16 51.46,10.86 51.23,31.91 84.61,-9.55 22.55,-28.02 29.64,-51.69 67.93,-60.87 20.27,-4.85 -10.16,41.45 0,46.55 85.46,42.85 35.04,22.77 50.05,96.68 4.36,21.46 33.54,11.34 45.28,4.78 5.06,-2.82 77.45,12.85 90.57,20.29 5.03,2.85 0.02,27.41 -1.19,33.42 -3.72,18.33 34.75,13.05 39.32,45.35 6.18,43.71 31.11,-13.06 45.29,-16.71 18.95,-4.88 13.16,29.01 16.68,38.2 1.03,2.71 58.92,65.76 63.16,63.26 2.05,-1.2 54.82,-60.75 54.82,-20.29 0,19.4 -35.17,45.35 10.72,45.35 37.32,0 38.33,58.3 63.16,33.42 46.71,-46.8 54.45,-1.71 72.69,32.23 45.16,84.02 51.04,20.91 123.94,75.2 54.29,40.43 -61.56,38.52 30.98,68.03 33.01,10.53 66.07,79.11 96.53,106.23 45.84,40.82 49.85,125.87 122.74,58.48 84.46,-78.09 85.29,36.85 104.87,54.91 25.09,23.15 25.02,-23.87 47.66,-23.87 19.76,0 25.3,26.92 46.48,28.64 11.51,0.93 3.05,-33.83 20.26,-42.97 13.54,-7.19 33.66,31.13 95.33,-5.96 14.36,-8.63 31.69,14.11 42.9,0 4.27,-5.38 29.51,-66.13 47.67,-15.52 10.02,27.94 36.04,-2.81 60.78,10.74 43.78,23.99 59.78,56.94 84.6,99.07 10.4,17.66 18.52,99.52 54.82,66.84 85.2,-76.7 -17.69,89.64 81.04,25.06 28.11,-18.38 25.39,109.29 104.86,91.91 71.33,-15.6 88.17,-58.23 176.37,-40.58 50.3,10.06 87.88,78.23 147.77,60.87 72.21,-20.94 158.63,101.45 251.44,101.45 35.38,0 39.18,-40.02 77.46,-32.22 121.22,24.7 255.78,55.38 368.23,-19.1 115.6,-76.57 190.27,-181.15 331.29,-128.91 35.77,13.25 24.33,61.95 71.5,52.52 44.05,-8.81 62.3,26.14 94.14,19.1 28,-6.2 56.94,-2.57 86.13,7.24l211.79 1.11 187.09 -93.1c36.75,-26.86 62.56,-74 110.83,-74 157.62,0 247.49,-313.06 282.43,-427.3 25.25,-82.53 86.99,-182.97 86.99,-270.94 0,-19.68 4.32,-130.87 14.3,-142.04 40.15,-44.97 64.53,-87.58 84.61,-148l220.46 -597.99c73.65,-124.21 7.15,-139.32 7.15,-255.42 -28.12,-14.06 -30.98,-75.77 -30.98,-106.23 19.93,-4.94 56.26,0 78.65,0 35.56,0 44.79,-19.77 77.46,-25.07 23.21,-3.77 47.18,4.85 70.3,3.59 19.31,-1.06 110.16,-50.76 134.66,-62.07 101.81,-47 228.29,-60.55 337.25,-90.71 87.58,-24.23 208.34,-61.69 296.73,-68.04l75.97 6.17c0.11,-20.17 15,-25.76 46.77,-43.17 34.15,-18.7 42.47,-57.23 57.2,-90.71 12.04,-27.37 6.14,-45.51 32.18,-66.84 38.83,-31.82 26.14,-68.98 42.9,-109.81 7.62,-18.57 31.42,-19.52 47.66,-32.23 25.06,-19.62 36.58,-49.68 60.78,-71.61 36.87,-33.41 71.5,-69.23 107.25,-103.84 19.57,-18.95 65.65,-10.42 72.69,-26.26 26.35,-59.22 55.44,-81.32 94.14,-126.52 33.36,-38.97 90.21,10.64 115.6,-25.07 8.57,-12.06 63.89,-53.42 77.46,-60.87 45.12,-24.77 78.28,-7.14 94.14,-74 4.36,-18.37 -22.15,-28.71 -7.15,-48.94 13.27,-17.89 52.39,-35.8 35.75,-54.9 -19.15,-21.99 -41.95,-16.23 -22.64,-45.36 7.77,-11.72 7.03,-20.76 3.08,-29.07 -6.59,-13.84 -27.14,-26.41 -22.15,-44.93 13.3,-49.36 1.57,-57.75 46.48,-94.29 36.07,-29.35 9.69,-82.56 34.55,-126.52 10.23,-18.09 27.41,-29.79 27.41,-51.33 0,-13.7 -13.76,-51.06 -10.72,-59.68 5.28,-14.96 51.29,-20.02 42.9,-40.58 -11.95,-29.26 -15.38,-82.18 8.34,-105.03 82.26,-79.25 4.78,-45.67 -4.77,-107.42 -4.72,-30.57 61.57,-13.27 44.1,-44.17 -17.83,-31.54 -11.84,-53.67 -2.39,-87.13 11.42,-40.43 7.2,-83.72 10.81,-125.59 13.79,-27.48 36.48,-37.18 58.31,-58.22 20.53,-19.79 -10.95,-116.97 32.18,-116.97 7.43,0 90.77,169.7 123.93,50.13 9.38,-33.85 -21.95,-54.81 -32.18,-79.97 -10.21,-25.11 27.21,-21.59 59.59,-46.55 32.98,-25.42 22.32,-37.49 35.75,-64.45 15.6,-31.32 52.3,18.73 81.03,-3.58 12.14,-9.43 -76.37,-73.67 -20.26,-89.52 8.35,-2.36 139.72,37.81 122.75,-13.13 -2.69,-8.1 -50.85,-57.29 1.19,-57.29 57.87,0 11.74,9.49 95.33,-22.68 118.98,-45.79 77.48,-108.06 148.96,-165.91 26.94,-21.8 29.28,45.39 45.29,52.52 34.21,15.25 39.3,-154.17 82.22,-57.29 6.85,15.45 -1.38,65.88 36.94,48.93 58.07,-25.7 -29.81,-82.25 94.15,-76.39 58,2.74 208.38,-42.96 166.83,-126.52 -10.1,-20.32 18.4,-111.55 35.75,-128.9 18.67,-18.67 43.91,-15.96 35.75,-47.75 -18.41,-71.78 73.87,-10.14 96.53,-21.48 17,-8.51 44.26,-69.35 64.35,-54.9 46.73,33.6 60.55,76.65 110.82,37 13.18,-10.4 -0.52,-34.49 25.03,-54.91 20.41,-16.31 69.07,-46.33 41.71,-72.81 -9.31,-9.01 -41.68,-37.54 -11.92,-44.16 22.46,-4.99 68.2,43.34 77.46,-14.32 7.72,-48.1 76.89,-50.86 126.32,-87.13 26.75,-19.63 92.21,-58.65 94.14,-93.1 2.84,-50.52 -21.89,-145.16 40.52,-157.56 26.54,-5.27 154.15,-85.25 154.92,-111 0.02,-0.88 2.25,-0.31 2.38,-1.19 7.38,-47.08 -28.53,-130.27 25.03,-153.97 47.2,-20.89 186.89,-85.69 190.66,-146.81 3.15,-51.09 23.26,-135.65 66.74,-169.49 39.73,-30.92 80.63,-10.29 114.4,-44.16 36.31,-36.42 10.74,-61.87 78.65,-72.81 27.58,-4.44 57.59,-58.36 84.61,-78.78 35.67,-26.96 200.94,-54.91 241.91,-42.97 26.74,7.79 83.04,83.44 108.44,46.55 67.36,-97.83 105,-17.24 202.59,-32.23 40.95,-6.28 87.87,-53.74 122.74,-76.38 55.75,-36.2 81.92,-64.27 147.77,-62.07 132.43,4.43 80.66,-55.07 165.64,-90.71 40.99,-17.18 58.57,11.3 79.42,13.25 12.51,1.17 26.24,-7.21 46.9,-40.71 31.12,-50.48 65.81,-74.48 69.12,-138.45 1.97,-38.11 -15.39,-95.62 1.19,-125.33 17.64,-31.61 55.18,-43.07 71.5,-72.8 49.75,-90.6 42.91,-131.52 173.98,-113.39 84.41,11.67 106.38,-23.26 165.65,-62.07 33.32,-21.82 228.85,-12.49 255.02,7.16 19.44,14.61 46.77,15.58 78.06,9.93 2.89,-0.52 5.83,-1.1 8.78,-1.72l0 0z"/>
  <path class="fil2 str1" d="M1722.46 15835.24l0 -5678.77 1891.99 0 0 -7390.28 879.48 0 3057.85 -623.05 409.95 -2.38c-6.75,46.85 4.68,50 33.36,78.77 3.7,3.71 -3.66,50.44 -2.38,63.26 1.38,13.82 36.72,25.37 47.67,40.59 9.98,13.87 7.72,29.86 19.06,45.35 22.15,30.25 46.13,55.23 60.78,88.33 11.16,25.22 10.96,53.83 23.83,81.16 10.92,23.19 38.83,18.66 59.59,25.06 33.03,10.18 24.71,46.55 64.35,46.55 43.35,0 44.67,-8.29 57.2,45.36 4.47,19.17 31.7,-0.16 44.09,14.32 38.69,45.2 -18.25,82.8 46.48,124.14 18.91,12.07 0.27,96.81 9.53,114.58 2.67,5.14 10.19,2.74 11.92,7.16 7.24,18.49 3.23,26.1 -1.2,47.74 -7.05,34.37 7.11,35.27 13.11,52.52 2.36,6.78 2.39,51.94 2.39,59.68 0,19.77 88.57,62.38 109.63,53.71 88.43,-36.38 49.01,-120.55 159.68,-120.55 59.11,0 144.62,-113.41 182.33,-152.78 15.35,-16.03 -2.98,-44.9 13.11,-48.93 55.82,-14 54.37,-33.07 82.23,-72.81 12.13,-17.3 85.29,-62.96 116.78,-81.17 53.08,-30.69 -24.28,-97.02 44.09,-101.45 4.77,-0.3 11.48,-64.07 34.56,-38.2 19.19,21.52 87.72,-67.32 123.94,-81.16 43.22,-16.52 33.68,-27.33 45.28,-60.87 4.94,-14.3 85.67,-4.49 107.25,-16.71 11.86,-6.72 76.64,-71.88 79.84,-74 5.6,-3.71 78.39,-89.61 106.06,-103.85 18.19,-9.36 34.48,18.46 60.78,8.36 32.82,-12.61 35.62,-36.85 66.73,-15.52 16.39,11.24 21.54,51.64 38.14,37 16,-14.12 5.02,-23.73 7.15,-47.74 0.19,-2.24 0.22,-1.76 2.38,-2.39 46.52,-13.54 73.43,-38.3 103.67,-74 53.41,-63.06 87.45,-35.02 148.96,-25.06 34.08,5.52 72.46,63.73 94.15,90.71 14.51,18.05 14.97,60.58 25.02,84.74 18.24,43.85 31.68,2.29 63.16,11.94 75.76,23.24 107.48,44.81 145.39,-44.16 17.03,-39.98 52.08,-96.2 83.41,-125.33 28.62,-26.62 83.09,-29.1 104.87,-53.71 19.37,-21.89 36.8,-119.49 77.46,-94.29 24.42,15.14 33.59,5.23 44.09,-15.52 15.85,-31.32 50.62,-20.87 77.46,-44.16 31.56,-27.38 49.77,-25.17 90.57,-29.84 38.55,-4.41 186.13,-131.3 206.16,-112.2 18.48,17.61 -3.87,47.88 7.15,71.62 1.43,3.08 6.68,4.15 8.34,1.19 7.58,-13.47 24.22,-30.04 39.33,-28.65 1.78,0.16 6.16,2.49 7.15,4.78 5.09,11.82 7.14,36.34 17.87,41.77 29.53,14.95 66.81,-83.48 85.8,-48.93 59.08,107.46 110.33,-34.95 182.33,-20.29 54.72,11.15 79.64,-38.5 131.93,-39.71l0 0c-13.33,-5.79 -26.32,-12.28 -38.84,-19.32 -55.09,-30.93 -101.46,-72.59 -130.03,-114.04 -42.7,-61.94 -92.35,16.8 -72.7,-51.33 12.65,-43.85 33.72,-84.44 -27.4,-94.29 -1.17,-0.18 1.17,-3.33 0,-3.58 -15.97,-3.43 -1.67,-43.86 -23.84,-37 -16.84,5.21 -42.9,32.05 -42.9,-7.16 0,-98.97 -7.68,-42.97 -75.07,-42.97 -32.98,0 -30.68,-47.5 -44.1,-64.46 -31.98,-40.39 -48.38,34.05 -84.6,-22.67 -19.04,-29.81 -32.99,5.9 -54.82,7.16 -50.92,2.95 -63.73,-119 -173.99,-69.23 -67.59,30.5 -58.72,-18.5 -110.82,-27.45 -79.54,-13.67 -259.59,-63.86 -294.35,40.58 -20.58,61.85 -213.24,-57.65 -252.63,-75.2 -60.75,-27.07 -135.25,-52.37 -196.63,-14.32 -35.97,22.29 -177.64,36.03 -206.16,-3.58l-1481.24 290.05 0 0 -3846.75 794.92c-34.65,-18.91 -99.2,-40.58 -110.83,-66.85 -22.72,-51.31 -66.96,-8.12 -101.29,-29.83 -31.42,-19.87 -43.51,-13.89 -78.65,-22.68 -36,-9 -64.85,-31.79 -85.8,-60.88 -16.75,-23.27 -112.26,-15.03 -145.39,-13.12 -28.41,1.64 -47.9,26.38 -71.5,25.06 -14.35,-0.8 -31.33,-13.85 -46.47,-7.16 -41.02,18.15 -81.4,8.92 -117.98,25.06 -56.71,25.04 -44.49,16.71 -102.48,16.71 -47.23,0 -101.24,48.49 -148.96,65.65 -19.6,7.05 -44.74,15.19 -60.78,22.68 -2.06,0.96 1.14,1.57 1.19,3.58 1.9,66.19 15.63,59.68 -82.22,59.68 -18.1,0 -115.97,-41 -120.36,-48.94 -26.16,-47.28 -33.94,4.78 -70.31,4.78 -47.56,0 -60.43,-50.33 -103.68,-64.46 -81.38,-26.6 -148.38,34.3 -226.42,-4.77 -29.29,-14.66 -52.37,-62.24 -90.56,-54.91 -44.27,8.5 -31.02,-51.31 -52.44,-72.8 -6.98,-7.01 -130.58,-17.56 -157.3,-27.46 -36.47,-13.51 -108.11,-117.81 -138.23,-64.45 -21.9,38.8 -33.98,0.56 -63.16,-2.39 -35.18,-3.56 -22.48,52.15 -58.39,42.97 -39.66,-10.14 -51.95,-26.38 -98.91,-25.06 -72.28,2.04 -134.9,108.42 -197.82,45.35 -65.36,-65.51 -67.96,42.03 -143,-11.93 -30.36,-21.83 -84.63,13.28 -104.87,-20.29 -36.71,-60.89 -78.77,-35.54 -113.21,-20.3 -66.35,29.36 -75.92,18.82 -139.43,-7.16 -102.87,-42.09 -92.15,155.52 -210.92,5.97 -59.46,-74.87 -102.43,-54.88 -178.7,-14.33l0 0 0 19246.64 722.85 0 0 0 -0.39 -5282.4 0 0z"/>
  <path class="fil1 str1" d="M11667.27 1743.9l-25.64 50.72c-28.02,39.55 -24.43,88.22 -33.37,134.87 -4.9,25.54 2.91,56.72 21.45,72.81 27.57,23.91 44.71,42.13 47.67,81.17 1.4,48.15 26.32,108.5 45.28,151.58 18.9,42.93 14.88,52.11 66.74,62.07 48.07,9.24 16.48,42.9 47.66,62.06 59.56,36.62 79.45,39.77 115.6,115.78l132.27 278.1c21.01,44.16 22.44,93.31 50.05,134.88 30.13,45.34 80.04,82.72 107.25,126.52 13.79,62.98 34.38,82.81 94.15,94.29 47.91,9.21 35.47,38.78 54.81,77.58 54.12,108.61 99.99,93.6 187.1,153.98 112.31,77.83 59.9,160.75 76.26,279.29 22.54,163.39 90.77,183.88 207.36,287.66 24.75,21.12 36.77,20.29 66.73,20.29 17.77,71.71 78.56,130.17 90.57,208.87 10.23,67.1 -33.58,74.83 -45.29,127.72 -19.17,86.53 29.04,176.04 100.1,225.58 48.28,33.65 25.67,51.76 39.33,95.49 13.29,42.58 56.33,66.92 61.97,118.16 30.12,56.27 67.39,276.88 120.36,287.66 29.72,6.05 57.93,165.85 64.35,199.33 7.81,40.77 95.65,81.3 133.46,96.68 28.4,11.54 84.66,-8.36 116.79,-8.36 17.47,0 121.69,79.87 128.7,96.68l78.65 188.59c29.18,93.48 254.26,83 318.18,164.71 32.36,41.35 29.02,100.21 56.01,140.84 29.19,43.92 139.27,-18.43 199.01,101.46 29.99,60.18 119.6,38.28 178.75,64.45 51.8,22.93 102.32,10.34 154.92,44.16 90.11,57.96 103.01,65.76 216.88,59.68 103.01,-5.49 120.18,39.18 185.91,105.04 61.04,57.2 213.49,39.29 235.95,119.35 17.25,61.53 25.75,117.92 47.66,177.85 14.71,40.27 47.67,51.9 47.67,99.07 0,63.78 45.8,101.84 29.79,165.9 -17.03,68.17 -20.26,136.88 -20.26,210.07l-2.38 111.01c90.58,-9.81 93.84,-86.69 200.2,-33.42 62.52,31.3 132.76,-49.09 207.36,-27.46 52.2,15.14 90.32,68.24 148.96,29.84 72.03,-47.18 82.24,33.13 126.31,20.29 40.62,-11.84 68.73,-28.82 97.72,8.36 48.3,61.97 59.46,97.46 14.3,170.68 -22.34,36.24 -18.57,101.3 -15.49,145.62 2.59,37.14 60.77,50.77 60.77,82.35 0,26.15 -21.97,44.76 -15.49,74.01 16.71,75.46 -13.41,198.77 -63.16,255.42 1.67,30.24 18.48,56.4 7.15,85.94 -25.56,66.59 32.96,73.92 25.03,108.62 -2.25,9.85 -26.63,31.64 -20.26,42.97 31.62,56.28 -26.32,62.67 -7.15,89.51 42.33,59.29 -18.69,32.48 -21.45,69.23 -3.83,51.08 78.13,139.87 109.63,176.65 20.96,24.49 35.73,23.44 64.36,31.03 50.56,13.42 111.21,132.47 152.53,179.04 20.45,23.04 46.01,97.4 72.69,101.46 44.51,6.79 39.33,78.4 39.33,111 8.31,25.82 25.2,63.75 47.66,79.97 18.72,13.53 17.82,23.77 11.92,42.97 -13.25,43.14 60.91,58.1 51.24,77.58 -5.41,10.88 -56.96,25.8 -17.87,45.36 17.59,8.81 33.01,14.97 22.64,34.61 -8,15.16 -17.34,40.73 -7.15,56.1 9.21,13.9 27.73,-16.88 36.94,7.16 5.67,14.78 13.16,46.57 22.64,58.49l18.2 41.67c12.88,4.59 25.43,8.37 37.81,10.84 55.81,11.17 112.49,-3.47 168.03,9.55 61.47,14.41 96.26,42.09 164.45,34.62 49.06,-5.37 95.68,-23.88 145.39,-23.88 38.31,0 50.17,35.53 84.61,37 70.74,3.04 73.68,15.43 133.46,45.36 67.2,33.65 148.63,114.81 212.12,51.32 31.24,-31.24 54.98,-0.03 84.61,-32.22 31.98,-34.75 64.48,11.57 100.1,14.32 72.77,5.62 47.59,29.99 97.72,53.71 61.08,28.9 172.97,38.14 216.88,89.52 34.71,40.61 67.82,10.6 109.64,52.52 62.14,62.28 195.84,45.35 272.89,45.35 42.38,0 16.91,34.36 40.52,50.13 24.12,16.11 111.18,-0.62 112.02,38.2 1.85,85.6 71.2,26.72 92.95,79.97 17.09,41.85 19.5,71.03 67.92,89.52 28.44,10.86 77.23,6.5 73.89,47.74 -1.3,16 -41.97,75.22 -17.88,85.94 80.38,35.78 74.43,3.61 47.67,90.71 -15.08,49.08 50.45,30.61 64.35,66.84 11.76,30.67 -17.91,25.23 17.88,57.29 39.08,35.01 21.42,74.56 53.62,115.78 34.13,43.67 121.89,116.18 160.73,155.02l0 0c-2.95,0.62 -5.89,1.2 -8.78,1.72 -31.29,5.65 -58.62,4.68 -78.06,-9.93 -26.17,-19.65 -221.7,-28.98 -255.02,-7.16 -59.27,38.81 -81.24,73.74 -165.65,62.07 -131.07,-18.13 -124.23,22.79 -173.98,113.39 -16.32,29.73 -53.86,41.19 -71.5,72.8 -16.58,29.71 0.78,87.22 -1.19,125.33 -3.31,63.97 -38,87.97 -69.12,138.45 -20.66,33.5 -34.39,41.88 -46.9,40.71 -20.85,-1.95 -38.43,-30.43 -79.42,-13.25 -84.98,35.64 -33.21,95.14 -165.64,90.71 -65.85,-2.2 -92.02,25.87 -147.77,62.07 -34.87,22.64 -81.79,70.1 -122.74,76.38 -97.59,14.99 -135.23,-65.6 -202.59,32.23 -25.4,36.89 -81.7,-38.76 -108.44,-46.55 -40.97,-11.94 -206.24,16.01 -241.91,42.97 -27.02,20.42 -57.03,74.34 -84.61,78.78 -67.91,10.94 -42.34,36.39 -78.65,72.81 -33.77,33.87 -74.67,13.24 -114.4,44.16 -43.48,33.84 -63.59,118.4 -66.74,169.49 -3.77,61.12 -143.46,125.92 -190.66,146.81 -53.56,23.7 -17.65,106.89 -25.03,153.97 -0.13,0.88 -2.36,0.31 -2.38,1.19 -0.77,25.75 -128.38,105.73 -154.92,111 -62.41,12.4 -37.68,107.04 -40.52,157.56 -1.93,34.45 -67.39,73.47 -94.14,93.1 -49.43,36.27 -118.6,39.03 -126.32,87.13 -9.26,57.66 -55,9.33 -77.46,14.32 -29.76,6.62 2.61,35.15 11.92,44.16 27.36,26.48 -21.3,56.5 -41.71,72.81 -25.55,20.42 -11.85,44.51 -25.03,54.91 -50.27,39.65 -64.09,-3.4 -110.82,-37 -20.09,-14.45 -47.35,46.39 -64.35,54.9 -22.66,11.34 -114.94,-50.3 -96.53,21.48 8.16,31.79 -17.08,29.08 -35.75,47.75 -17.35,17.35 -45.85,108.58 -35.75,128.9 41.55,83.56 -108.83,129.26 -166.83,126.52 -123.96,-5.86 -36.08,50.69 -94.15,76.39 -38.32,16.95 -30.09,-33.48 -36.94,-48.93 -42.92,-96.88 -48.01,72.54 -82.22,57.29 -16.01,-7.13 -18.35,-74.32 -45.29,-52.52 -71.48,57.85 -29.98,120.12 -148.96,165.91 -83.59,32.17 -37.46,22.68 -95.33,22.68 -52.04,0 -3.88,49.19 -1.19,57.29 16.97,50.94 -114.4,10.77 -122.75,13.13 -56.11,15.85 32.4,80.09 20.26,89.52 -28.73,22.31 -65.43,-27.74 -81.03,3.58 -13.43,26.96 -2.77,39.03 -35.75,64.45 -32.38,24.96 -69.8,21.44 -59.59,46.55 10.23,25.16 41.56,46.12 32.18,79.97 -33.16,119.57 -116.5,-50.13 -123.93,-50.13 -43.13,0 -11.65,97.18 -32.18,116.97 -21.83,21.04 -44.52,30.74 -58.31,58.22 -3.61,41.87 0.61,85.16 -10.81,125.59 -9.45,33.46 -15.44,55.59 2.39,87.13 17.47,30.9 -48.82,13.6 -44.1,44.17 9.55,61.75 87.03,28.17 4.77,107.42 -23.72,22.85 -20.29,75.77 -8.34,105.03 8.39,20.56 -37.62,25.62 -42.9,40.58 -3.04,8.62 10.72,45.98 10.72,59.68 0,21.54 -17.18,33.24 -27.41,51.33 -24.86,43.96 1.52,97.17 -34.55,126.52 -44.91,36.54 -33.18,44.93 -46.48,94.29 -4.99,18.52 15.56,31.09 22.15,44.93 3.95,8.31 4.69,17.35 -3.08,29.07 -19.31,29.13 3.49,23.37 22.64,45.36 16.64,19.1 -22.48,37.01 -35.75,54.9 -15,20.23 11.51,30.57 7.15,48.94 -15.86,66.86 -49.02,49.23 -94.14,74 -13.57,7.45 -68.89,48.81 -77.46,60.87 -25.39,35.71 -82.24,-13.9 -115.6,25.07 -38.7,45.2 -67.79,67.3 -94.14,126.52 -7.04,15.84 -53.12,7.31 -72.69,26.26 -35.75,34.61 -70.38,70.43 -107.25,103.84 -24.2,21.93 -35.72,51.99 -60.78,71.61 -16.24,12.71 -40.04,13.66 -47.66,32.23 -16.76,40.83 -4.07,77.99 -42.9,109.81 -26.04,21.33 -20.14,39.47 -32.18,66.84 -14.73,33.48 -23.05,72.01 -57.2,90.71 -31.77,17.41 -46.66,23 -46.77,43.17l-75.97 -6.17c-88.39,6.35 -209.15,43.81 -296.73,68.04 -108.96,30.16 -235.44,43.71 -337.25,90.71 -24.5,11.31 -115.35,61.01 -134.66,62.07 -23.12,1.26 -47.09,-7.36 -70.3,-3.59 -32.67,5.3 -41.9,25.07 -77.46,25.07 -22.39,0 -58.72,-4.94 -78.65,0 0,30.46 2.86,92.17 30.98,106.23 0,116.1 66.5,131.21 -7.15,255.42l-220.46 597.99c-20.08,60.42 -44.46,103.03 -84.61,148 -9.98,11.17 -14.3,122.36 -14.3,142.04 0,87.97 -61.74,188.41 -86.99,270.94 -34.94,114.24 -124.81,427.3 -282.43,427.3 -48.27,0 -74.08,47.14 -110.83,74l-187.09 93.1 -211.79 -1.11c-29.19,-9.81 -58.13,-13.44 -86.13,-7.24 -31.84,7.04 -50.09,-27.91 -94.14,-19.1 -47.17,9.43 -35.73,-39.27 -71.5,-52.52 -141.02,-52.24 -215.69,52.34 -331.29,128.91 -112.45,74.48 -247.01,43.8 -368.23,19.1 -38.28,-7.8 -42.08,32.22 -77.46,32.22 -92.81,0 -179.23,-122.39 -251.44,-101.45 -59.89,17.36 -97.47,-50.81 -147.77,-60.87 -88.2,-17.65 -105.04,24.98 -176.37,40.58 -79.47,17.38 -76.75,-110.29 -104.86,-91.91 -98.73,64.58 4.16,-101.76 -81.04,-25.06 -36.3,32.68 -44.42,-49.18 -54.82,-66.84 -24.82,-42.13 -40.82,-75.08 -84.6,-99.07 -24.74,-13.55 -50.76,17.2 -60.78,-10.74 -18.16,-50.61 -43.4,10.14 -47.67,15.52 -11.21,14.11 -28.54,-8.63 -42.9,0 -61.67,37.09 -81.79,-1.23 -95.33,5.96 -17.21,9.14 -8.75,43.9 -20.26,42.97 -21.18,-1.72 -26.72,-28.64 -46.48,-28.64 -22.64,0 -22.57,47.02 -47.66,23.87 -19.58,-18.06 -20.41,-133 -104.87,-54.91 -72.89,67.39 -76.9,-17.66 -122.74,-58.48 -30.46,-27.12 -63.52,-95.7 -96.53,-106.23 -92.54,-29.51 23.31,-27.6 -30.98,-68.03 -72.9,-54.29 -78.78,8.82 -123.94,-75.2 -18.24,-33.94 -25.98,-79.03 -72.69,-32.23 -24.83,24.88 -25.84,-33.42 -63.16,-33.42 -45.89,0 -10.72,-25.95 -10.72,-45.35 0,-40.46 -52.77,19.09 -54.82,20.29 -4.24,2.5 -62.13,-60.55 -63.16,-63.26 -3.52,-9.19 2.27,-43.08 -16.68,-38.2 -14.18,3.65 -39.11,60.42 -45.29,16.71 -4.57,-32.3 -43.04,-27.02 -39.32,-45.35 1.21,-6.01 6.22,-30.57 1.19,-33.42 -13.12,-7.44 -85.51,-23.11 -90.57,-20.29 -11.74,6.56 -40.92,16.68 -45.28,-4.78 -15.01,-73.91 35.41,-53.83 -50.05,-96.68 -10.16,-5.1 20.27,-51.4 0,-46.55 -38.29,9.18 -45.38,32.85 -67.93,60.87 -33.38,41.46 -33.15,20.41 -84.61,9.55 -33.93,-7.16 -38.6,-46.87 -77.46,-44.16 -58.73,4.1 -36.81,14.76 -89.37,-13.13 -78.64,-41.74 -183.13,0.52 -244.3,51.33 -49.87,41.42 -101.73,-5.51 -120.36,13.12 -10.41,10.41 -31.93,76.55 -54.81,25.07 -7.26,-16.34 -35.85,-67.52 -52.44,-66.84 -62.09,2.54 -35.02,82.08 -70.31,101.45 -38.44,21.1 -57.16,-32.87 -61.96,52.52 -3.24,57.8 -31.26,69.12 -76.27,100.26 -55,38.06 -67.73,59.08 -76.27,122.94 -0.85,6.43 8.23,28.7 1.19,31.03 -19.93,6.58 -45.81,-17.61 -72.69,-2.38 -17.24,9.76 21.56,52.33 16.68,76.39 -5.44,26.79 -70.96,71.16 -81.03,93.1 -18.69,40.69 22.82,54.28 57.2,95.48 31.72,38.01 -110.89,46.48 -77.46,74 56.24,46.3 53.38,38.56 17.88,100.26 -23.87,41.49 6.43,67.63 -58.39,78.78 -65.27,11.23 -13.3,76.96 -36.95,115.78 -7.14,11.73 -63.21,-2.14 -42.9,23.87 12.02,15.39 61.15,21.68 64.35,40.58 7.08,41.79 -57.78,89.38 -83.41,125.33 -18.28,25.64 -64.01,41.06 2.38,63.26 29.44,9.84 68.24,-0.91 34.56,41.77 -62.29,78.94 -31.76,87.84 -54.82,175.46 -7.12,27.08 -79.42,-11.13 -108.44,9.55 -29.28,20.86 38.62,109.67 -4.77,132.48 -11.56,6.08 -66.16,30.01 -63.16,41.78 8.3,32.48 36.17,27.89 -13.11,52.52 -44.86,22.42 1.08,39.39 -60.77,39.39 -52.4,0 -3.91,260.7 -162.07,151.58 -87.53,-60.39 -59.54,45.93 -125.13,29.84 -42.32,-10.38 -55.24,6.98 -59.58,46.55 -9.78,89.04 -81.03,31.85 -77.46,99.07 3,56.43 -17.84,54.58 -67.92,51.32 -32.55,-2.11 -30.75,25.99 -48.86,44.16 -30.9,31 -84.03,-9.34 -107.25,9.55 -35.84,29.16 -17.42,67.43 -77.46,82.36 -57.45,14.28 11.34,57.26 -50.05,103.84 -14.21,10.78 12.51,40.18 5.95,58.49 -7,19.54 -41.85,27.2 -40.51,40.58 3.94,39.04 -52.57,96 -52.44,97.87 1.73,24.62 -80.93,69.72 -101.29,95.49 -42.92,54.3 -45.62,127.71 -123.93,127.71 -47.18,0 -70.96,48.51 -116.79,54.91 -74.26,10.37 -149.64,-17.36 -221.65,-2.39 -164.27,34.15 -103.87,90.77 -81.03,202.91 13.31,65.37 -148.54,226.93 -202.59,200.52 -22.77,-11.13 -86.35,65.54 -127.51,16.71 -17.42,-20.67 -43.92,-85 -96.52,-25.07 -16.2,18.46 -27.89,-3.9 -47.67,-9.55 -0.85,-0.24 -0.31,-2.36 -1.19,-2.38 -25.69,-0.78 -14.55,61.46 -63.16,26.26 -30.28,-21.92 -41.94,-39.96 -83.42,-50.13 -54.59,-13.39 -201.61,-36.73 -250.25,-9.55 -71.95,40.21 -22.15,40.47 -106.06,26.26 -69.86,-11.83 -112.1,13.91 -169.22,51.32 -80.8,52.91 -180.91,-35.81 -269.32,-40.58 -144.45,-7.79 -201.31,-165.02 -357.5,-66.84 -39,24.51 -38.76,35.22 -85.8,48.93 -27.18,7.92 -73.09,66.34 -96.53,57.3 -68.45,-26.42 -81.27,61.47 -132.28,89.51 0,-34.48 1.03,-74.48 -7.15,-106.22 -12.92,-50.09 -61.96,-34.52 -61.96,-74.01 0,-36.81 3.71,-34.56 -28.6,-56.09 -33.13,-22.08 24.11,-65.8 4.76,-81.17 -26.28,-20.87 -6.12,-64.33 -10.72,-82.35 -7.13,-27.89 -32.91,-58.9 -17.88,-90.72 12.06,-25.53 22.2,-22.73 21.45,-52.51 -0.79,-31.44 -1.59,-62.88 -2.38,-94.3 -1.35,-54.06 -31.09,-88.71 -29.79,-131.29 2.3,-75.15 -10.91,-116.16 4.77,-190.97 14.57,-69.52 84.31,-3.43 102.48,-77.59 8.41,-34.36 16.65,-34 44.09,-47.74 26.35,-13.19 6.56,-87.46 45.29,-116.97 42.71,-32.54 64.74,-79.61 90.56,-121.75 9.99,-16.31 54.09,-10.77 73.89,-40.58 16.42,-24.72 18.22,-94.61 21.45,-124.13 6.58,-60.13 55.53,-85.75 84.61,-131.29 15.43,-24.17 -62.99,-33.4 -75.08,-60.88 -10.98,-24.95 35.75,-37.91 35.75,-52.51 0,-34.26 -72.95,-28.37 -34.56,-66.84 48.69,-48.79 -30.38,-70.46 -1.19,-109.81 12.82,-17.29 25.9,-43.8 34.56,-63.26 21.8,-49 -127.8,-96.82 -70.31,-164.72 33.79,-39.91 11.68,-45.03 -30.98,-62.06 -19.51,-7.79 -5.57,-40.41 -1.2,-62.07 3.97,-19.69 10.54,-44.86 -3.57,-53.71 -13.82,-8.67 -76.27,77.24 -76.27,19.1 0,-39.79 66.29,-66.51 26.22,-88.33 -57.52,-31.32 -37.92,-60.52 -63.16,-101.45 -32.14,-52.12 -92.18,-46.34 -69.12,-121.75 9.27,-30.35 8.8,-73.51 -30.98,-45.35 -40.14,28.42 -37.97,-88.33 21.45,-88.33 75.02,0 -55.45,-130.91 -77.46,-148 -48.38,-37.58 4.58,-61.82 27.41,-91.91 19.03,-25.08 59.06,-118.83 -9.53,-77.58 -62.28,37.46 -72.7,10.14 -72.7,-56.1 0,-41.11 -27.2,-37.83 -57.2,-53.71 -39.81,-21.08 -54.24,-26.5 -66.73,-71.62 -11.24,-40.61 20.9,-97.27 -29.79,-87.13 -41.64,8.33 -13.52,-33.92 2.38,-45.35 70.95,-51.02 -91.73,-33.03 -77.46,-107.43 16.66,-86.86 -6.63,-26.25 -53.62,-68.03 -8.83,-7.85 -25.75,-31.68 -22.65,-44.16 3.2,-12.87 14.69,-24.13 25.03,-31.03 12.12,-8.09 9.07,-51.25 2.38,-60.88 -4.06,-5.85 -7.35,-6.61 -16.68,-1.19 -8.63,5.01 -17.27,12.99 -27.41,15.52 -27.17,6.79 -23.71,-33.46 -20.26,-47.75 5.23,-21.65 12.86,-42.36 -5.96,-54.9 -26.91,-17.93 -17.28,-16.4 -32.17,-41.78 -26.63,-45.37 -47.67,-32.7 -47.67,-93.1 0,-23.3 -44.1,-42.53 -59.58,-54.9 -28.73,-22.96 -61.04,-48.75 -91.76,-69.23 -39.76,-26.5 -32.24,-100.61 -86.99,-126.52 -32.72,-15.48 -71.12,-2.3 -89.38,-33.42 -27.9,-47.54 -41.35,33.81 -77.3,-18.5 -19.25,-28.02 -18.47,-51.72 -66.14,-32.82 -37.29,14.78 -27.87,-28.19 -46.47,-44.17 -14.74,-12.66 -36.35,-11.27 -36.35,-37 0,-34.66 -6.55,-25.61 -36.94,-33.42 -18.2,-4.68 -6.67,-20.99 -14.89,-27.45 -11.76,-9.25 -28.37,-4.4 -39.33,-12.53 -12.73,-9.45 -23,-34.53 -32.77,-48.34 -11.34,-16.05 -37.17,-24.89 -53.43,-37.66l0 0 0 -5678.77 1891.99 0 0 -7390.28 879.48 0 3057.85 -623.05 409.95 -2.38c-6.75,46.85 4.68,50 33.36,78.77 3.7,3.71 -3.66,50.44 -2.38,63.26 1.38,13.82 36.72,25.37 47.67,40.59 9.98,13.87 7.72,29.86 19.06,45.35 22.15,30.25 46.13,55.23 60.78,88.33 11.16,25.22 10.96,53.83 23.83,81.16 10.92,23.19 38.83,18.66 59.59,25.06 33.03,10.18 24.71,46.55 64.35,46.55 43.35,0 44.67,-8.29 57.2,45.36 4.47,19.17 31.7,-0.16 44.09,14.32 38.69,45.2 -18.25,82.8 46.48,124.14 18.91,12.07 0.27,96.81 9.53,114.58 2.67,5.14 10.19,2.74 11.92,7.16 7.24,18.49 3.23,26.1 -1.2,47.74 -7.05,34.37 7.11,35.27 13.11,52.52 2.36,6.78 2.39,51.94 2.39,59.68 0,19.77 88.57,62.38 109.63,53.71 88.43,-36.38 49.01,-120.55 159.68,-120.55 59.11,0 144.62,-113.41 182.33,-152.78 15.35,-16.03 -2.98,-44.9 13.11,-48.93 55.82,-14 54.37,-33.07 82.23,-72.81 12.13,-17.3 85.29,-62.96 116.78,-81.17 53.08,-30.69 -24.28,-97.02 44.09,-101.45 4.77,-0.3 11.48,-64.07 34.56,-38.2 19.19,21.52 87.72,-67.32 123.94,-81.16 43.22,-16.52 33.68,-27.33 45.28,-60.87 4.94,-14.3 85.67,-4.49 107.25,-16.71 11.86,-6.72 76.64,-71.88 79.84,-74 5.6,-3.71 78.39,-89.61 106.06,-103.85 18.19,-9.36 34.48,18.46 60.78,8.36 32.82,-12.61 35.62,-36.85 66.73,-15.52 16.39,11.24 21.54,51.64 38.14,37 16,-14.12 5.02,-23.73 7.15,-47.74 0.19,-2.24 0.22,-1.76 2.38,-2.39 46.52,-13.54 73.43,-38.3 103.67,-74 53.41,-63.06 87.45,-35.02 148.96,-25.06 34.08,5.52 72.46,63.73 94.15,90.71 14.51,18.05 14.97,60.58 25.02,84.74 18.24,43.85 31.68,2.29 63.16,11.94 75.76,23.24 107.48,44.81 145.39,-44.16 17.03,-39.98 52.08,-96.2 83.41,-125.33 28.62,-26.62 83.09,-29.1 104.87,-53.71 19.37,-21.89 36.8,-119.49 77.46,-94.29 24.42,15.14 33.59,5.23 44.09,-15.52 15.85,-31.32 50.62,-20.87 77.46,-44.16 31.56,-27.38 49.77,-25.17 90.57,-29.84 38.55,-4.41 186.13,-131.3 206.16,-112.2 18.48,17.61 -3.87,47.88 7.15,71.62 1.43,3.08 6.68,4.15 8.34,1.19 7.58,-13.47 24.22,-30.04 39.33,-28.65 1.78,0.16 6.16,2.49 7.15,4.78 5.09,11.82 7.14,36.34 17.87,41.77 29.53,14.95 66.81,-83.48 85.8,-48.93 59.08,107.46 110.33,-34.95 182.33,-20.29 54.72,11.15 79.64,-38.5 131.93,-39.71l0 0c3.07,1.34 6.18,2.64 9.28,3.9 14.8,6 33.72,3.44 54.22,14.32 10.03,5.32 19.19,11.67 28.03,18.51l0 0z"/>
  <path class="fil3 str2" d="M15589.66 1000l-20.26 25.95c-29.77,37.26 69.31,13.13 90.57,13.13 3.24,13.14 38.39,1.35 47.66,2.39 12.21,1.38 -18.44,36.07 -25.02,37 -6.75,27.22 -44.52,32.75 -46.48,65.65 -2.61,43.95 -24.28,52.46 -61.97,66.84 -23.07,8.81 -3.57,23.53 -3.57,40.58 -32.66,8.09 -72.69,12.11 -72.69,54.9 0,45.2 -40.55,47.16 -76.27,56.1 -26.33,6.58 -47.05,26.29 -67.93,32.23 -1.27,9 -11.06,16.3 -17.87,21.48 -13.29,30.45 -46.02,46.09 -58.39,76.39 -6.92,16.93 -39.22,19.82 -40.52,25.07 -16.88,4.18 -13.49,65.32 -57.2,74 -5.2,20.99 -21.22,40.31 -28.6,60.87 -4.29,11.98 -42.49,39.67 -35.75,44.17l1.19 60.87c-1.06,0.35 -21.45,43.42 -21.45,48.94l1.19 1.19c14.06,0 26.42,-9.55 38.14,-9.55 18.62,-56.41 77,30.62 11.91,46.55 -0.85,4.32 -10.27,12.57 -14.3,13.13 -2.31,11.67 -53.49,63.89 -64.35,77.58 -24.05,30.33 -48.65,41.28 -65.54,77.58l-3.58 45.36c6.82,-1.68 94.9,-79.52 103.68,-90.71 23.5,-29.98 55.12,-54.55 83.42,-79.97 35.19,-31.63 37.21,-18.38 66.73,-3.58 30.26,15.18 -15.19,-98.22 -25.02,-105.04 -21.39,-14.82 43.21,-77.6 54.81,-78.77 20.79,-2.09 71.5,6.17 71.5,-23.88 0,-14.73 -35.58,-14.18 -25.02,-33.42 32.51,-59.19 114.09,-147.68 164.45,-198.13 27.59,-17.82 71.9,-102.21 92.95,-107.42 3.2,-12.96 36.11,-40.16 50.05,-41.78 30.14,-3.5 34.35,19.98 50.05,23.87 4.9,19.85 50.53,-5.28 46.48,-35.8 -6.3,-47.37 37.38,-15.49 42.9,1.19 26.66,0 57.67,-26.76 26.21,-47.74 -12.25,-8.16 3.77,-45.34 5.96,-60.88 34.48,-13.77 144.15,-16.21 156.11,-64.45 7.58,-1.87 10.73,-49.57 10.73,-58.48 17.34,-7.5 23,18.07 26.21,31.03 24.93,6.14 30.99,-67.4 30.99,-84.44l-442.11 0zm-3306.35 18655.95c-2.62,2.83 -12.42,12.17 -13.11,14.92 -0.75,0.19 -1.03,0.41 -1.78,0.6l-0.6 1.19c-3.42,0 -6.6,2.39 -10.72,2.39 -20.07,0 -53.23,2.56 -57.8,-25.07 -4.18,-25.32 18.7,-26.54 36.35,-32.22 19.15,-6.15 19.67,-12.62 28.6,-28.05 3.19,-5.53 12.37,-21.62 17.87,-23.87 12.57,-5.14 1.92,20.3 1.79,23.87 -0.54,15.12 -2.39,30.42 -2.39,45.35l1.79 20.89zm4799.52 461.32c-8.45,19.76 8.57,137.2 -10.73,142.04l0 2.38c-11.17,2.81 -66.46,-7.84 -53.62,13.13 21.6,35.24 -92.75,39.11 -57.2,74l59.58 58.49c0,0.6 -57.13,27.65 -28.6,39.39 56.36,23.19 32.76,-102.62 67.93,-99.07 61,6.16 21.77,-32.32 60.77,-57.29 11.16,-7.14 14.35,15.92 21.45,20.29 24.09,14.8 45.07,1.63 11.92,31.03 -8.92,7.9 -59.87,80.13 -19.07,70.42 106.53,-25.34 34.24,-10.97 100.1,23.88 46.87,24.79 -108.83,57.66 -122.74,71.61 -26.02,26.12 -28.23,53.71 11.92,53.71 20.11,0 18.41,70.07 22.64,87.13 21.08,0 28.5,-96.14 64.35,-31.03 27.57,50.05 120.56,39.34 157.3,69.23 22.36,18.2 11.68,23.68 1.19,44.16 -3.29,6.44 61.15,-28.06 5.96,-68.03 -45.95,-33.29 7.25,-36.38 28.6,-42.97 77.27,-23.83 19.15,14.03 67.93,53.71 25,20.34 65.85,54.62 58.39,84.74 -18.18,0 -62.45,20.83 -40.52,26.26 0,17.32 37.13,26.95 39.33,46.55 1.82,16.18 14.61,47.74 34.56,47.74 5.87,-23.69 -13.08,-43.59 -15.5,-64.45 -6.7,-57.79 31.83,-33.49 -7.15,-89.52l-54.81 -78.77c-30.49,-43.84 34.96,-138.68 -75.08,-131.3 -36.88,2.47 -50.54,68.56 -76.27,94.29 -22.85,22.85 -150.64,-43.1 -160.87,-74 -9.61,-29.06 65.55,-34.19 84.61,-51.32 8.4,-7.54 4.29,-72.62 -5.96,-75.2 0,-17.42 -28.38,-22.25 -39.33,-29.84 -36.51,-25.28 22.36,-16.67 25.03,-27.45 28.35,0 -19.09,-71.34 32.17,-75.19 30.87,-2.31 -11.18,63.95 34.56,52.51 36.15,-9.05 33.98,24.06 42.9,48.94 9.77,27.22 39.98,-11.42 52.44,16.71 30.25,68.33 74.11,-10.18 112.01,-17.9 87.86,-17.89 41.36,137.31 61.97,153.97 49.22,39.79 58.17,-36.1 67.33,-39.39 19.53,-7.02 53.03,-6.46 53.03,-34.61 -48.5,-12.22 -69.61,58.48 -102.48,58.48 -8.28,-32.87 17.41,-46.19 -2.39,-85.94 -12.05,-24.18 -63.39,-119.14 -101.29,-57.29 -22.73,37.08 -80.22,-3.58 -110.83,-3.58 0,-3.1 -2.38,-4.47 -2.38,-8.35 -18.3,-4.61 -16.68,-34.36 -16.68,-48.94 -96.79,-23.99 5.58,-37.41 -52.44,-59.68 -72.67,-27.88 -65.03,93.12 -120.36,54.91 -40.42,-27.92 1.52,-50.73 -13.1,-79.97 -18.17,-36.36 -39.77,-49.73 -71.5,-77.59l-19.07 -31.03z"/>
  <g id="_2585094562960">
   <path class="fil4 str3" d="M1000 1871.01c76.27,-40.55 119.23,-60.56 178.7,14.32 118.78,149.56 108.05,-48.06 210.92,-5.97 63.51,25.98 73.08,36.52 139.43,7.16 34.44,-15.24 76.5,-40.59 113.21,20.3 20.24,33.57 74.51,-1.54 104.87,20.29 75.04,53.96 77.64,-53.58 143,11.93 62.92,63.07 125.54,-43.31 197.82,-45.35 46.96,-1.32 59.25,14.92 98.91,25.06 35.91,9.18 23.21,-46.53 58.39,-42.97 29.18,2.95 41.26,41.19 63.16,2.39 30.12,-53.36 101.76,50.94 138.23,64.45 26.72,9.9 150.32,20.45 157.3,27.46 21.42,21.49 8.17,81.3 52.44,72.8 38.19,-7.33 61.27,40.25 90.56,54.91 78.04,39.07 145.04,-21.83 226.42,4.77 43.25,14.13 56.12,64.46 103.68,64.46 36.37,0 44.15,-52.06 70.31,-4.78 4.39,7.94 102.26,48.94 120.36,48.94 97.85,0 84.12,6.51 82.22,-59.68 -0.05,-2.01 -3.25,-2.62 -1.19,-3.58 16.04,-7.49 41.18,-15.63 60.78,-22.68 47.72,-17.16 101.73,-65.65 148.96,-65.65 57.99,0 45.77,8.33 102.48,-16.71 36.58,-16.14 76.96,-6.91 117.98,-25.06 15.14,-6.69 32.12,6.36 46.47,7.16 23.6,1.32 43.09,-23.42 71.5,-25.06 33.13,-1.91 128.64,-10.15 145.39,13.12 20.95,29.09 49.8,51.88 85.8,60.88 35.14,8.79 47.23,2.81 78.65,22.68 34.33,21.71 78.57,-21.48 101.29,29.83 11.63,26.27 76.18,47.94 110.83,66.85 130.44,71.17 153.83,188.58 337.22,188.58 281.68,0 340.8,117.1 464.75,343.75 40.14,73.4 68.48,247.29 164.45,267.36 133.48,27.91 238.77,-5.98 297.93,150.39 58.59,154.87 75.12,314.75 193.05,446.4 97.35,108.67 211.48,123 247.87,288.85 17.56,80.06 37.67,167.68 66.73,238.72 27.03,66.07 87.27,93.49 121.55,148 55.27,87.89 40.46,192.64 145.39,257.81 75.06,46.62 255.04,178.16 269.32,264.98 28.86,175.43 151.91,260.54 209.74,410.59 42.91,111.35 50.86,262.53 131.08,353.3 107.46,121.58 127.27,267.6 188.29,408.2 47.66,109.8 107.32,215.17 143,329.43 31.53,100.97 128.46,173.38 38.13,286.46 -55.78,69.83 -90.35,107.51 -109.63,198.14 -28.57,134.27 -129.3,191.16 -252.64,233.94 -131.42,45.59 -256.33,123.08 -355.12,222"/>
   <path class="fil4 str3" d="M5876.27 3589.76c211.82,0 370.59,254.85 505.27,396.27 122.72,128.86 269.7,243.12 450.46,236.33 127.11,-4.77 254.23,-9.55 381.34,-14.32 183.56,-6.88 211.39,201.91 426.62,167.1 50.02,-8.08 154.53,78.06 224.04,88.32 109.84,16.23 220.39,-31.64 333.67,-35.8 51.74,-1.9 63.72,-5.61 107.25,11.93 122.29,49.3 247.25,2.97 369.42,-21.48"/>
   <path class="fil4 str3" d="M6381.54 3986.03c-46.49,264.25 316.75,286.88 378.96,489.37 46.76,152.21 186.54,390.94 333.67,470.27 110.08,59.35 312.73,91.6 381.34,207.68 85.64,144.88 241.8,239.87 345.59,379.56 75.22,101.24 123.29,145.95 252.63,169.49 64.8,11.79 350.9,-22.43 400.41,-19.1 145.04,9.76 -200,327.74 -274.09,377.18 -76.51,51.06 -202.95,195.64 -150.15,296 16.39,31.15 125.16,1.65 152.53,-2.38 151.96,-22.38 211.33,48.17 331.29,105.03 171,81.05 307.91,91.74 436.16,243.49 120.19,142.21 230.91,57.38 371.8,-64.45 116.44,-100.69 222.7,-98.4 336.06,23.87 48.69,52.52 125.19,108.14 193.05,138.45 37.1,16.57 60.34,27.58 92.95,52.52 45.53,34.82 125.35,-0.39 176.37,47.75 166.44,157.03 -48.97,286.45 -71.5,436.85 -11.8,78.77 -52.43,143.74 -52.43,245.87 0,178.14 -118.5,295.6 -50.05,489.37 45,127.38 184.01,160.41 295.53,224.39 218.18,125.17 350.51,-207.68 562.48,-207.68 201.45,0 331.76,-259.44 436.15,-152.78 78.16,79.86 114.45,177.27 209.74,207.69 159.47,50.92 293.01,-115.95 414.71,-190.98"/>
   <path class="fil4 str3" d="M6832 4222.36c42.16,93.52 131.61,90.19 214.5,124.13 75.42,30.88 117.15,85.94 164.45,148.01 62.58,82.13 269.43,139.06 367.04,179.03 125.46,51.38 337.99,227 378.96,360.47 58.87,191.78 39.08,264.41 240.72,365.23"/>
   <path class="fil4 str3" d="M1557.61 1000c110,11.82 283.52,287.33 359.89,369.7 172.63,186.19 421.44,421.35 676.87,439.24 266.23,18.64 626.94,166.76 673.34,402.24"/>
   <path class="fil4 str4" d="M9698 1000c23.48,33.28 23.27,72.77 48.86,108.31 28.52,39.61 170.19,25.87 206.16,3.58 61.38,-38.05 135.88,-12.75 196.63,14.32 39.39,17.55 232.05,137.05 252.63,75.2 34.76,-104.44 214.81,-54.25 294.35,-40.58 52.1,8.95 43.23,57.95 110.82,27.45 110.26,-49.77 123.07,72.18 173.99,69.23 21.83,-1.26 35.78,-36.97 54.82,-7.16 36.22,56.72 52.62,-17.72 84.6,22.67 13.42,16.96 11.12,64.46 44.1,64.46 67.39,0 75.07,-56 75.07,42.97 0,39.21 26.06,12.37 42.9,7.16 22.17,-6.86 7.87,33.57 23.84,37 1.17,0.25 -1.17,3.4 0,3.58 61.12,9.85 40.05,50.44 27.4,94.29 -19.65,68.13 30,-10.61 72.7,51.33 36.57,53.05 102.31,106.45 178.15,137.26 14.81,6.01 33.72,3.44 54.22,14.32 40.11,21.29 66.29,59.02 114.41,78.78 34.05,13.98 154.37,49.99 190.66,42.97 38.75,-7.5 52.92,-22.17 91.76,-11.94 32.22,8.48 60.79,43.4 103.68,19.1 46.92,-26.58 56.86,-28.01 114.4,-20.29 59.41,7.97 146.14,-100.24 189.48,-52.52 16.85,18.56 12.76,32.23 42.9,32.23 93.69,0 141.88,59.26 221.65,96.68 75.86,35.58 6.56,128.57 89.37,173.07 99.73,53.6 197.04,66.09 287.2,11.93 46.15,-27.72 69.01,-4.58 112.02,-17.9 27.8,-8.61 5.08,-53.45 42.9,-68.04 50.34,-19.43 122.68,-38.56 162.07,-75.19 50.13,-46.62 40.15,-6.15 83.41,15.51 29.23,14.63 71.6,7.41 100.1,25.07 21.66,13.42 40.94,40.87 67.93,45.36 42.85,7.14 64.96,-16.46 110.83,-2.39 47.35,14.52 93.27,34.02 139.42,53.71 49.77,21.24 71.21,62.84 132.28,50.13 106.42,-22.16 88.61,103.84 169.22,103.84 61.83,0 79.96,63.11 148.96,45.36 47.49,-12.22 74.12,-67.68 123.93,-77.58 85.09,-16.92 126.84,-39.86 206.16,-71.62 78.49,-31.43 158.61,-26.04 238.34,-47.74 25.03,-6.81 50.84,-10.35 76.26,-15.52"/>
   <path class="fil4 str3" d="M7543.45 1000c1.64,31.96 39.78,93.32 61.96,114.28 27.41,25.9 76.38,-6.21 90.57,15.52 44.29,67.81 34.43,121.74 133.47,121.74 122.57,0 247.38,24.4 289.58,156.36 17.05,53.32 6.92,128.35 -27.41,170.68 -51.88,63.97 -73.6,137.05 -75.08,216.04 -0.71,37.92 -36.95,118.89 -27.41,168.29 7.62,39.46 -21.85,139.34 -27.4,177.85 -6.75,46.85 4.68,50 33.36,78.77 3.7,3.71 -3.66,50.44 -2.38,63.26 1.38,13.82 36.72,25.37 47.67,40.59 9.98,13.87 7.72,29.86 19.06,45.35 22.15,30.25 46.13,55.23 60.78,88.33 11.16,25.22 10.96,53.83 23.83,81.16 10.92,23.19 38.83,18.66 59.59,25.06 33.03,10.18 24.71,46.55 64.35,46.55 43.35,0 44.67,-8.29 57.2,45.36 4.47,19.17 31.7,-0.16 44.09,14.32 38.69,45.2 -18.25,82.8 46.48,124.14 18.91,12.07 0.27,96.81 9.53,114.58 2.67,5.14 10.19,2.74 11.92,7.16 7.24,18.49 3.23,26.1 -1.2,47.74 -7.05,34.37 7.11,35.27 13.11,52.52 2.36,6.78 2.39,51.94 2.39,59.68 0,19.77 88.57,62.38 109.63,53.71 88.43,-36.38 49.01,-120.55 159.68,-120.55 59.11,0 144.62,-113.41 182.33,-152.78 15.35,-16.03 -2.98,-44.9 13.11,-48.93 55.82,-14 54.37,-33.07 82.23,-72.81 12.13,-17.3 85.29,-62.96 116.78,-81.17 53.08,-30.69 -24.28,-97.02 44.09,-101.45 4.77,-0.3 11.48,-64.07 34.56,-38.2 19.19,21.52 87.72,-67.32 123.94,-81.16 43.22,-16.52 33.68,-27.33 45.28,-60.87 4.94,-14.3 85.67,-4.49 107.25,-16.71 11.86,-6.72 76.64,-71.88 79.84,-74 5.6,-3.71 78.39,-89.61 106.06,-103.85 18.19,-9.36 34.48,18.46 60.78,8.36 32.82,-12.61 35.62,-36.85 66.73,-15.52 16.39,11.24 21.54,51.64 38.14,37 16,-14.12 5.02,-23.73 7.15,-47.74 0.19,-2.24 0.22,-1.76 2.38,-2.39 46.52,-13.54 73.43,-38.3 103.67,-74 53.41,-63.06 87.45,-35.02 148.96,-25.06 34.08,5.52 72.46,63.73 94.15,90.71 14.51,18.05 14.97,60.58 25.02,84.74 18.24,43.85 31.68,2.29 63.16,11.94 75.76,23.24 107.48,44.81 145.39,-44.16 17.03,-39.98 52.08,-96.2 83.41,-125.33 28.62,-26.62 83.09,-29.1 104.87,-53.71 19.37,-21.89 36.8,-119.49 77.46,-94.29 24.42,15.14 33.59,5.23 44.09,-15.52 15.85,-31.32 50.62,-20.87 77.46,-44.16 31.56,-27.38 49.77,-25.17 90.57,-29.84 38.55,-4.41 186.13,-131.3 206.16,-112.2 18.48,17.61 -3.87,47.88 7.15,71.62 1.43,3.08 6.68,4.15 8.34,1.19 7.58,-13.47 24.22,-30.04 39.33,-28.65 1.78,0.16 6.16,2.49 7.15,4.78 5.09,11.82 7.14,36.34 17.87,41.77 29.53,14.95 66.81,-83.48 85.8,-48.93 59.08,107.46 110.32,-34.98 182.33,-20.29 54.75,11.16 88.92,-34.6 141.21,-35.81"/>
   <path class="fil4 str3" d="M1000 15401.43c52.81,0 92.94,84.06 119.11,126.52 29.87,48.45 119.01,35.65 159.69,76.39 68.56,68.67 119.03,102.65 220.46,102.65 34.89,0 88.71,4.28 119.16,21.49 31.47,17.8 74.23,83.34 104.04,106.76 16.26,12.77 42.08,21.61 53.43,37.66 9.77,13.82 20.04,38.89 32.77,48.34 10.96,8.13 27.57,3.28 39.33,12.53 8.22,6.46 -3.31,22.77 14.89,27.45 30.39,7.81 36.94,-1.24 36.94,33.42 0,25.73 21.61,24.34 36.35,37 18.6,15.98 9.18,58.95 46.47,44.17 47.67,-18.9 46.89,4.8 66.14,32.82 35.95,52.31 49.4,-29.04 77.3,18.5 18.26,31.12 56.66,17.94 89.38,33.42 54.75,25.91 47.23,100.02 86.99,126.52 30.72,20.48 63.03,46.27 91.76,69.23 15.48,12.37 59.58,31.6 59.58,54.9 0,60.4 21.04,47.73 47.67,93.1 14.89,25.38 5.26,23.85 32.17,41.78 18.82,12.54 11.19,33.25 5.96,54.9 -3.45,14.29 -6.91,54.54 20.26,47.75 10.14,-2.53 18.78,-10.51 27.41,-15.52 9.33,-5.42 12.62,-4.66 16.68,1.19 6.69,9.63 9.74,52.79 -2.38,60.88 -10.34,6.9 -21.83,18.16 -25.03,31.03 -3.1,12.48 13.82,36.31 22.65,44.16 46.99,41.78 70.28,-18.83 53.62,68.03 -14.27,74.4 148.41,56.41 77.46,107.43 -15.9,11.43 -44.02,53.68 -2.38,45.35 50.69,-10.14 18.55,46.52 29.79,87.13 12.49,45.12 26.92,50.54 66.73,71.62 30,15.88 57.2,12.6 57.2,53.71 0,66.24 10.42,93.56 72.7,56.1 68.59,-41.25 28.56,52.5 9.53,77.58 -22.83,30.09 -75.79,54.33 -27.41,91.91 22.01,17.09 152.48,148 77.46,148 -59.42,0 -61.59,116.75 -21.45,88.33 39.78,-28.16 40.25,15 30.98,45.35 -23.06,75.41 36.98,69.63 69.12,121.75 25.24,40.93 5.64,70.13 63.16,101.45 40.07,21.82 -26.22,48.54 -26.22,88.33 0,58.14 62.45,-27.77 76.27,-19.1 14.11,8.85 7.54,34.02 3.57,53.71 -4.37,21.66 -18.31,54.28 1.2,62.07 42.66,17.03 64.77,22.15 30.98,62.06 -57.49,67.9 92.11,115.72 70.31,164.72 -8.66,19.46 -21.74,45.97 -34.56,63.26 -29.19,39.35 49.88,61.02 1.19,109.81 -38.39,38.47 34.56,32.58 34.56,66.84 0,14.6 -46.73,27.56 -35.75,52.51 12.09,27.48 90.51,36.71 75.08,60.88 -29.08,45.54 -78.03,71.16 -84.61,131.29 -3.23,29.52 -5.03,99.41 -21.45,124.13 -19.8,29.81 -63.9,24.27 -73.89,40.58 -25.82,42.14 -47.85,89.21 -90.56,121.75 -38.73,29.51 -18.94,103.78 -45.29,116.97 -27.44,13.74 -35.68,13.38 -44.09,47.74 -18.17,74.16 -87.91,8.07 -102.48,77.59 -15.68,74.81 -2.47,115.82 -4.77,190.97 -1.3,42.58 28.44,77.23 29.79,131.29 0.79,31.42 1.59,62.86 2.38,94.3 0.75,29.78 -9.39,26.98 -21.45,52.51 -15.03,31.82 10.75,62.83 17.88,90.72 4.6,18.02 -15.56,61.48 10.72,82.35 19.35,15.37 -37.89,59.09 -4.76,81.17 32.31,21.53 28.6,19.28 28.6,56.09 0,39.49 49.04,23.92 61.96,74.01 8.18,31.74 7.15,71.74 7.15,106.22"/>
   <path class="fil4 str3" d="M2389.44 21117.65c18.34,-58.83 90.81,-65.69 132.28,-96.84 76.14,-57.2 144.47,-146.77 147.76,-249.46 1.53,-47.97 -14.23,-122.31 30.99,-152.78 22.93,-15.45 42.26,-15 67.92,-21.48 38.03,-9.61 72.72,-60.7 96.53,-89.52 23.16,-28.03 24.07,-73.7 54.82,-91.91 29.38,-17.4 51.17,-38.75 75.07,-63.26 9.39,-9.63 10.85,-26.94 22.64,-33.42 51.01,-28.04 63.83,-115.93 132.28,-89.51 23.44,9.04 69.35,-49.38 96.53,-57.3 47.04,-13.71 46.8,-24.42 85.8,-48.93 156.19,-98.18 213.05,59.05 357.5,66.84 88.41,4.77 188.52,93.49 269.32,40.58 57.12,-37.41 99.36,-63.15 169.22,-51.32 83.91,14.21 34.11,13.95 106.06,-26.26 48.64,-27.18 195.66,-3.84 250.25,9.55 41.48,10.17 53.14,28.21 83.42,50.13 48.61,35.2 37.47,-27.04 63.16,-26.26 0.88,0.02 0.34,2.14 1.19,2.38 19.78,5.65 31.47,28.01 47.67,9.55 52.6,-59.93 79.1,4.4 96.52,25.07 41.16,48.83 104.74,-27.84 127.51,-16.71 54.05,26.41 215.9,-135.15 202.59,-200.52 -22.84,-112.14 -83.24,-168.76 81.03,-202.91 72.01,-14.97 147.39,12.76 221.65,2.39 45.83,-6.4 69.61,-54.91 116.79,-54.91 78.31,0 81.01,-73.41 123.93,-127.71 20.36,-25.77 103.02,-70.87 101.29,-95.49 -0.13,-1.87 56.38,-58.83 52.44,-97.87 -1.34,-13.38 33.51,-21.04 40.51,-40.58 6.56,-18.31 -20.16,-47.71 -5.95,-58.49 61.39,-46.58 -7.4,-89.56 50.05,-103.84 60.04,-14.93 41.62,-53.2 77.46,-82.36 23.22,-18.89 76.35,21.45 107.25,-9.55 18.11,-18.17 16.31,-46.27 48.86,-44.16 50.08,3.26 70.92,5.11 67.92,-51.32 -3.57,-67.22 67.68,-10.03 77.46,-99.07 4.34,-39.57 17.26,-56.93 59.58,-46.55 65.59,16.09 37.6,-90.23 125.13,-29.84 158.16,109.12 109.67,-151.58 162.07,-151.58 61.85,0 15.91,-16.97 60.77,-39.39 49.28,-24.63 21.41,-20.04 13.11,-52.52 -3,-11.77 51.6,-35.7 63.16,-41.78 43.39,-22.81 -24.51,-111.62 4.77,-132.48 29.02,-20.68 101.32,17.53 108.44,-9.55 23.06,-87.62 -7.47,-96.52 54.82,-175.46 33.68,-42.68 -5.12,-31.93 -34.56,-41.77 -66.39,-22.2 -20.66,-37.62 -2.38,-63.26 25.63,-35.95 90.49,-83.54 83.41,-125.33 -3.2,-18.9 -52.33,-25.19 -64.35,-40.58 -20.31,-26.01 35.76,-12.14 42.9,-23.87 23.65,-38.82 -28.32,-104.55 36.95,-115.78 64.82,-11.15 34.52,-37.29 58.39,-78.78 35.5,-61.7 38.36,-53.96 -17.88,-100.26 -33.43,-27.52 109.18,-35.99 77.46,-74 -34.38,-41.2 -75.89,-54.79 -57.2,-95.48 10.07,-21.94 75.59,-66.31 81.03,-93.1 4.88,-24.06 -33.92,-66.63 -16.68,-76.39 26.88,-15.23 52.76,8.96 72.69,2.38 7.04,-2.33 -2.04,-24.6 -1.19,-31.03 8.54,-63.86 21.27,-84.88 76.27,-122.94 45.01,-31.14 73.03,-42.46 76.27,-100.26 4.8,-85.39 23.52,-31.42 61.96,-52.52 35.29,-19.37 8.22,-98.91 70.31,-101.45 16.59,-0.68 45.18,50.5 52.44,66.84 22.88,51.48 44.4,-14.66 54.81,-25.07 18.63,-18.63 70.49,28.3 120.36,-13.12 61.17,-50.81 165.66,-93.07 244.3,-51.33 52.56,27.89 30.64,17.23 89.37,13.13 38.86,-2.71 43.53,37 77.46,44.16 51.46,10.86 51.23,31.91 84.61,-9.55 22.55,-28.02 29.64,-51.69 67.93,-60.87 20.27,-4.85 -10.16,41.45 0,46.55 85.46,42.85 35.04,22.77 50.05,96.68 4.36,21.46 33.54,11.34 45.28,4.78 5.06,-2.82 77.45,12.85 90.57,20.29 5.03,2.85 0.02,27.41 -1.19,33.42 -3.72,18.33 34.75,13.05 39.32,45.35 6.18,43.71 31.11,-13.06 45.29,-16.71 18.95,-4.88 13.16,29.01 16.68,38.2 1.03,2.71 58.92,65.76 63.16,63.26 2.05,-1.2 54.82,-60.75 54.82,-20.29 0,19.4 -35.17,45.35 10.72,45.35 37.32,0 38.33,58.3 63.16,33.42 46.71,-46.8 54.45,-1.71 72.69,32.23 45.16,84.02 51.04,20.91 123.94,75.2 54.29,40.43 -61.56,38.52 30.98,68.03 33.01,10.53 66.07,79.11 96.53,106.23 45.84,40.82 49.85,125.87 122.74,58.48 84.46,-78.09 85.29,36.85 104.87,54.91 25.09,23.15 25.02,-23.87 47.66,-23.87 19.76,0 25.3,26.92 46.48,28.64 11.51,0.93 3.05,-33.83 20.26,-42.97 13.54,-7.19 33.66,31.13 95.33,-5.96 14.36,-8.63 31.69,14.11 42.9,0 4.27,-5.38 29.51,-66.13 47.67,-15.52 10.02,27.94 36.04,-2.81 60.78,10.74 43.78,23.99 59.78,56.94 84.6,99.07 10.4,17.66 18.52,99.52 54.82,66.84 85.2,-76.7 -17.69,89.64 81.04,25.06 28.11,-18.38 25.39,109.29 104.86,91.91 71.33,-15.6 88.17,-58.23 176.37,-40.58 50.3,10.06 87.88,78.23 147.77,60.87 72.21,-20.94 158.63,101.45 251.44,101.45 35.38,0 39.18,-40.02 77.46,-32.22 121.22,24.7 255.78,55.38 368.23,-19.1 115.6,-76.57 190.27,-181.15 331.29,-128.91 35.77,13.25 24.33,61.95 71.5,52.52 44.05,-8.81 62.3,26.14 94.14,19.1 112.01,-24.79 238.86,107.55 338.44,164.71 72.66,41.71 160.06,4.88 240.72,11.94 87.24,7.63 150.22,38.14 247.87,51.32 109.06,14.72 176.92,10.23 280.05,-16.71 113.93,-29.76 233.48,-7.44 350.35,-21.48"/>
   <path class="fil4 str3" d="M7462.41 16926.83c8.33,-46.94 6.12,-97.07 25.01,-140.84 45.29,-104.92 189.6,-391.5 316.99,-391.5 44.14,0 184.51,83.11 233.57,102.65 154.7,61.65 394.1,4.06 526.73,102.65 100.56,74.76 105.32,173.82 193.05,248.26 77.01,65.34 151.21,21.43 240.72,26.26 85.64,4.62 250.79,74.99 319.37,126.52 139.88,105.1 205.24,4.74 364.66,-16.71 151.92,-20.44 207.77,102.21 367.03,28.65 87.63,-40.47 143.32,-161.73 252.64,-145.62 199.52,29.42 338.95,217.16 552.94,224.39 144.89,4.89 276.26,-94.58 419.47,-100.26 79.9,-3.16 177.84,31.63 247.87,16.71 188.11,-40.09 287.44,-110.38 467.14,-2.38 199.69,120.01 310.95,116.97 550.56,116.97"/>
   <path class="fil4 str3" d="M13166.98 15315.49c-10.57,-89.72 79.91,-116.62 143,-136.06 130.42,-40.2 115.09,-103.77 169.21,-202.91 30.45,-55.8 118.94,-107.59 166.84,-152.78 89.29,-84.25 159.76,-240.15 269.32,-298.39 60.15,-31.97 123.2,-46.39 185.9,-83.55 103.38,-61.28 133.46,-119.03 219.27,-195.75 43.72,-39.09 105.22,-58.02 145.38,-100.26 36.1,-37.98 33.2,-143.2 95.34,-158.75 77.04,-19.28 67.13,-71.27 119.17,-124.13 44.73,-45.44 34.84,-57.41 66.73,-65.65 65,-16.8 83.43,-69.58 104.95,-112.46 13.79,-27.48 36.48,-37.18 58.31,-58.22 20.53,-19.79 -10.95,-116.97 32.18,-116.97 7.43,0 90.77,169.7 123.93,50.13 9.38,-33.85 -21.95,-54.81 -32.18,-79.97 -10.21,-25.11 27.21,-21.59 59.59,-46.55 32.98,-25.42 22.32,-37.49 35.75,-64.45 15.6,-31.32 52.3,18.73 81.03,-3.58 12.14,-9.43 -76.37,-73.67 -20.26,-89.52 8.35,-2.36 139.72,37.81 122.75,-13.13 -2.69,-8.1 -50.85,-57.29 1.19,-57.29 57.87,0 11.74,9.49 95.33,-22.68 118.98,-45.79 77.48,-108.06 148.96,-165.91 26.94,-21.8 29.28,45.39 45.29,52.52 34.21,15.25 39.3,-154.17 82.22,-57.29 6.85,15.45 -1.38,65.88 36.94,48.93 58.07,-25.7 -29.81,-82.25 94.15,-76.39 58,2.74 208.38,-42.96 166.83,-126.52 -10.1,-20.32 18.4,-111.55 35.75,-128.9 18.67,-18.67 43.91,-15.96 35.75,-47.75 -18.41,-71.78 73.87,-10.14 96.53,-21.48 17,-8.51 44.26,-69.35 64.35,-54.9 46.73,33.6 60.55,76.65 110.82,37 13.18,-10.4 -0.52,-34.49 25.03,-54.91 20.41,-16.31 69.07,-46.33 41.71,-72.81 -9.31,-9.01 -41.68,-37.54 -11.92,-44.16 22.46,-4.99 68.2,43.34 77.46,-14.32 7.72,-48.1 76.89,-50.86 126.32,-87.13 26.75,-19.63 92.21,-58.65 94.14,-93.1 2.84,-50.52 -21.89,-145.16 40.52,-157.56 26.54,-5.27 154.15,-85.25 154.92,-111 0.02,-0.88 2.25,-0.31 2.38,-1.19 7.38,-47.08 -28.53,-130.27 25.03,-153.97 47.2,-20.89 186.89,-85.69 190.66,-146.81 3.15,-51.09 23.26,-135.65 66.74,-169.49 39.73,-30.92 80.63,-10.29 114.4,-44.16 36.31,-36.42 10.74,-61.87 78.65,-72.81 27.58,-4.44 57.59,-58.36 84.61,-78.78 35.67,-26.96 200.94,-54.91 241.91,-42.97 26.74,7.79 83.04,83.44 108.44,46.55 67.36,-97.83 105,-17.24 202.59,-32.23 40.95,-6.28 87.87,-53.74 122.74,-76.38 55.75,-36.2 81.92,-64.27 147.77,-62.07 132.43,4.43 80.66,-55.07 165.64,-90.71 40.99,-17.18 58.57,11.3 79.42,13.25 12.51,1.17 26.24,-7.21 46.9,-40.71 31.12,-50.48 65.81,-74.48 69.12,-138.45 1.97,-38.11 -15.39,-95.62 1.19,-125.33 17.64,-31.61 55.18,-43.07 71.5,-72.8 49.75,-90.6 42.91,-131.52 173.98,-113.39 84.41,11.67 106.38,-23.26 165.65,-62.07 33.32,-21.82 228.85,-12.49 255.02,7.16 19.44,14.61 46.77,15.58 78.06,9.93 74.11,-13.38 170.43,-61.47 237.73,-58.87 24.99,0.96 35.62,18.88 56.01,20.29 19.13,1.32 34.75,-40.67 50.05,-54.9 13.58,-12.63 32.12,-19.1 51.24,-19.1 30.97,0 55.43,43.58 84.61,1.2 16.76,-24.34 67.47,-34.33 95.34,-19.1 17.61,9.62 38.09,12.74 57.14,19.1"/>
   <path class="fil4 str3" d="M13593.61 17709.82c85.84,140.73 317.26,53.58 226.42,-109.81 -102.24,-183.89 -28.8,-334.15 -54.82,-529.95 -14.54,-109.44 14.48,-160.69 52.44,-260.2 52.54,-137.71 34.13,-217.6 7.15,-360.46 -1.37,-7.26 3.67,19.24 4.76,11.93 7.36,-49.35 6.04,-83.05 28.6,-126.52 14.73,-28.39 36.77,-48.46 42.9,-81.16 9.17,-48.91 -2.14,-121.03 -11.91,-169.49 -14.96,-74.19 -72.02,-143.21 -61.97,-217.23 7.08,-52.18 16.65,-193.14 1.18,-243.49 -18.53,-60.31 -8.1,-60.61 38.13,-85.94 34.15,-18.71 42.47,-57.23 57.2,-90.71 12.04,-27.37 6.14,-45.51 32.18,-66.84 38.83,-31.82 26.14,-68.98 42.9,-109.81 7.62,-18.57 31.42,-19.52 47.66,-32.23 25.06,-19.62 36.58,-49.68 60.78,-71.61 36.87,-33.41 71.5,-69.23 107.25,-103.84 19.57,-18.95 65.65,-10.42 72.69,-26.26 26.35,-59.22 55.44,-81.32 94.14,-126.52 33.36,-38.97 90.21,10.64 115.6,-25.07 8.57,-12.06 63.89,-53.42 77.46,-60.87 45.12,-24.77 78.28,-7.14 94.14,-74 4.36,-18.37 -22.15,-28.71 -7.15,-48.94 13.27,-17.89 52.39,-35.8 35.75,-54.9 -19.15,-21.99 -41.95,-16.23 -22.64,-45.36 7.77,-11.72 7.03,-20.76 3.08,-29.07 -6.59,-13.84 -27.14,-26.41 -22.15,-44.93 13.3,-49.36 1.57,-57.75 46.48,-94.29 36.07,-29.35 9.69,-82.56 34.55,-126.52 10.23,-18.09 27.41,-29.79 27.41,-51.33 0,-13.7 -13.76,-51.06 -10.72,-59.68 5.28,-14.96 51.29,-20.02 42.9,-40.58 -11.95,-29.26 -15.38,-82.18 8.34,-105.03 82.26,-79.25 4.78,-45.67 -4.77,-107.42 -4.72,-30.57 61.57,-13.27 44.1,-44.17 -17.83,-31.54 -11.84,-53.67 -2.39,-87.13 11.42,-40.43 7.2,-83.72 10.81,-125.59"/>
   <path class="fil4 str3" d="M15500.3 7335.22c-6.55,92.06 -78.5,84.74 -112.01,145.62 -25.58,46.48 -11.46,73.53 -52.44,119.35 -69.92,78.17 -12.15,170.28 42.9,238.72 46.45,57.74 205.46,247.77 173.99,329.43 -21.91,56.85 -0.58,102.57 16.68,152.78 6.46,18.8 -0.58,59.23 2.38,83.55 5.08,41.67 65.24,55.01 73.89,90.71 32.1,132.4 32.44,411.15 173.98,522.79 89.54,70.62 185.12,79.02 202.59,121.74 8.2,20.06 62.66,100.56 119.17,116.97 82.02,23.82 256.93,-54.32 305.07,-19.09 36.25,26.52 161.16,2.38 224.04,2.38 66.14,0 136.51,50.05 202.55,63.26 55.82,11.17 112.49,-3.47 168.03,9.55 61.47,14.41 96.26,42.09 164.45,34.62 49.06,-5.37 95.68,-23.88 145.39,-23.88 38.31,0 50.17,35.53 84.61,37 70.74,3.04 73.68,15.43 133.46,45.36 67.2,33.65 148.63,114.81 212.12,51.32 31.24,-31.24 54.98,-0.03 84.61,-32.22 31.98,-34.75 64.48,11.57 100.1,14.32 72.77,5.62 47.59,29.99 97.72,53.71 61.08,28.9 172.97,38.14 216.88,89.52 34.71,40.61 67.82,10.6 109.64,52.52 62.14,62.28 195.84,45.35 272.89,45.35 42.38,0 16.91,34.36 40.52,50.13 24.12,16.11 111.18,-0.62 112.02,38.2 1.85,85.6 71.2,26.72 92.95,79.97 17.09,41.85 19.5,71.03 67.92,89.52 28.44,10.86 77.23,6.5 73.89,47.74 -1.3,16 -41.97,75.22 -17.88,85.94 80.38,35.78 74.43,3.61 47.67,90.71 -15.08,49.08 50.45,30.61 64.35,66.84 11.76,30.67 -17.91,25.23 17.88,57.29 39.08,35.01 21.42,74.56 53.62,115.78 34.13,43.67 113.11,117.9 151.95,156.74"/>
   <path class="fil4 str3" d="M17275.91 1000c28.94,104.29 -6.78,110.41 -45.28,202.6 -25.76,61.71 76.1,54.6 95.33,107.43 26.63,73.13 -56.01,163.88 -78.65,233.94 -13.95,43.19 -23.83,100.2 -23.83,145.61 0,65.15 -22.17,173.61 -23.84,236.33 -5.91,221.37 62.15,298.1 -61.96,503.69 -249.58,413.41 -48.18,532.34 371.8,532.34 228.29,0 433.17,-40.5 660.19,16.71 146.84,37 395.92,34.51 459.99,181.43"/>
   <path class="fil4 str3" d="M19330.33 1000c42.33,11.36 79.3,82.03 66.74,128.6 -13.92,51.6 -92.95,76.2 -92.95,149.2 0,48.6 15.56,94.3 16.68,143.23 1.62,70.94 -95.09,155.53 -61.97,207.68 33.98,53.5 -29.86,147.88 -51.24,200.52 -23.55,57.98 -78.43,110.36 -98.87,182.62 -37.87,133.85 13.64,286.4 90.57,396.27 67.93,97.01 140.95,201.86 250.25,255.43 104.63,51.28 346.51,106.17 314.61,257.81 -28.53,135.64 -53.64,312.9 107.25,393.88 46.44,23.37 85.73,58.88 128.6,88.33"/>
   <path class="fil4 str3" d="M14683.98 2121.66c-3.56,89.12 -19.05,178.57 -10.7,267.36 7.42,78.92 -10.37,265.89 71.5,317.49 63.73,40.17 196.46,54.06 235.95,116.98 91.72,146.13 124.85,257.49 328.9,264.97 92.39,3.39 150.46,9.28 233.57,52.52 78.38,40.78 82.15,138.81 154.92,183.81 149.63,92.52 259.96,209.1 443.31,274.52 302.91,108.09 562.34,198.14 893.76,198.14 143.81,0 320.13,-0.8 452.84,-54.91 135.76,-55.35 236.97,-107.91 388.49,-109.81 273.63,-3.44 601.67,490.7 807.96,656.47 121.19,97.39 205.62,281.72 338.44,353.3 175.06,94.35 221.92,162.9 374.19,291.24 72.76,61.33 182.44,87.95 269.32,126.51 95.07,42.2 174.04,100.85 216.89,195.75 19.94,44.17 42.9,87.89 42.9,138.46 0,91.65 -75.8,62.74 -143.01,42.97"/>
   <path class="fil4 str3" d="M18506.46 11095.12c-16.13,62.82 -50.45,123.64 -48.4,188.46 4.16,131.78 -240.83,31.49 -178.75,193.36 15.94,41.59 -18.42,71.18 -23.83,112.2 -9.86,74.74 50.78,183.6 2.38,248.26 -37.72,50.39 -119.5,10.71 -173.99,42.97 -78.77,46.64 -17.55,178.37 -16.68,245.88 1.58,123.32 5.54,246.67 4.77,370.01 -0.94,149.75 1.34,349.33 -85.8,472.66 -98.28,139.09 50.86,174.78 -47.67,288.84 -70.35,81.44 49.93,130.56 16.68,210.07 -26.69,63.82 -15.39,116.93 9.54,176.65 49.67,118.93 -90.3,186.36 88.18,272.14 117.36,56.41 231.44,108.98 288.39,241.1 71.87,166.72 261.36,295.16 295.53,484.6 6.25,34.68 -112.27,274.27 -143,293.62 -82.74,52.09 -189.89,69.85 -207.35,188.58 -19.57,133.1 -95.83,345.6 -243.1,389.11 -92.25,27.25 -182.55,11.72 -266.94,59.68 -95.23,54.12 -182.85,98.39 -297.92,105.03 -119.29,6.89 -238.34,17.5 -357.51,26.26"/>
   <path class="fil4 str3" d="M17793.1 17736.08c143.89,-10.25 62.24,-502.48 50.05,-601.57 -19.16,-155.7 -24.27,-189.35 -121.55,-305.55 -85.65,-102.31 -81.5,-158.8 35.75,-238.72 43.05,-29.34 80.9,-18.56 128.7,-23.87 156.36,-17.36 272.89,-224.39 457.61,-224.39 237.18,0 379.98,58.48 588.69,-128.91 98.1,-88.08 141.13,-195.92 293.16,-236.33 51.07,-13.58 80.26,-56.87 119.16,-88.33 78.4,-63.4 150.84,-25.55 176.37,-150.39 15.91,-77.82 -46.9,-123.77 -35.75,-190.97 18.5,-111.51 136.62,-163.89 200.21,-243.49 40.72,-50.98 53.46,-201.19 152.53,-198.13 58.07,1.79 107.98,-42.97 161.97,-64.46"/>
   <path class="fil4 str3" d="M19344.67 15888.41c82.23,107.11 58.18,89.23 38.14,210.07 -11.46,69.16 -7.6,137.51 23.83,200.53 50.13,100.5 83.93,134.51 78.65,255.42 -4.89,112.05 -9.63,189.85 -73.88,288.85 -37.82,58.27 -99.42,95.35 -143,150.39 -60.42,76.3 -131.89,253.25 -128.71,350.91 4.13,126.76 109.9,132.6 178.76,210.07 68.56,77.14 72.83,87.17 185.9,102.65 122.39,16.76 203.7,24.63 257.4,138.46 48.33,102.45 31.26,121.16 116.79,210.07 42.14,43.8 80.96,90.7 121.45,136.05"/>
   <path class="fil4 str3" d="M14677.53 14571.47c58.16,18.84 121.39,26.23 174.48,56.53 174.55,99.63 137.76,227.9 240.72,384.33 86.73,131.78 178.4,202.53 300.3,296 77.4,59.35 202.55,82.36 266.94,150.39 84.06,88.81 -3.8,231.04 73.88,334.2 68.39,90.82 202.78,212.5 169.22,331.81 -41.68,148.17 -75.77,106.87 23.83,231.56 63.3,79.25 -0.45,118.27 -16.68,188.58 -26.67,115.53 26.54,300.99 92.95,398.65 62.75,92.3 125.52,184.61 188.28,276.91 40.2,59.13 128.92,66.87 143,136.07 10.18,50.07 -29.6,81.62 16.69,131.29 128.17,137.52 280.54,194.86 257.4,420.14 -7.24,70.5 -61.16,119.58 -78.65,188.58 -30.03,118.48 -19.07,213.99 -19.07,334.2"/>
  </g>
  <use x="12738.61" y="15459.56" width="256.13" height="256.13" xlink:href="#Capitale"/>
  <use x="12389.75" y="16750.01" width="105.38" height="105.38" xlink:href="#villes"/>
  <use x="11717.64" y="16248.7" width="105.38" height="105.38" xlink:href="#villes"/>
  <use x="12089.44" y="15040.8" width="105.38" height="105.38" xlink:href="#villes"/>
  <use x="13293.04" y="14978.73" width="105.38" height="105.38" xlink:href="#villes"/>
  <use x="14536.15" y="12383.99" width="105.38" height="105.38" xlink:href="#villes"/>
  <use x="14331.47" y="10898.87" width="105.38" height="105.38" xlink:href="#villes"/>
  <use x="15140.67" y="11227.31" width="105.38" height="105.38" xlink:href="#villes"/>
  <use x="16482.99" y="10051.59" width="105.38" height="105.38" xlink:href="#villes"/>
  <use x="17563.51" y="10046.83" width="105.38" height="105.38" xlink:href="#villes"/>
  <use x="15735.67" y="8971.07" width="105.38" height="105.38" xlink:href="#villes"/>
  <use x="15811.83" y="8414.15" width="105.38" height="105.38" xlink:href="#villes"/>
  <use x="14959.79" y="7067.07" width="105.38" height="105.38" xlink:href="#villes"/>
  <use x="12165.67" y="8909.19" width="105.38" height="105.38" xlink:href="#villes"/>
  <use x="8114.91" y="6034.15" width="105.38" height="105.38" xlink:href="#villes"/>
  <path class="fil5 str5" d="M16303.77 1231.11l3110.61 0 0 1592.89 -3110.61 0 0 -1592.89z"/>
  <path class="fil6" d="M19583.11 2958.2c0,-17.45 4.47,-34.48 13.46,-51.13 8.93,-16.61 21.77,-29.59 38.43,-38.86 16.69,-9.26 34.1,-13.92 52.16,-13.92 17.92,0 35.18,4.56 51.69,13.74 16.56,9.12 29.4,21.92 38.53,38.43 9.17,16.51 13.73,33.77 13.73,51.74 0,18.01 -4.56,35.27 -13.73,51.78 -9.13,16.51 -21.97,29.35 -38.53,38.53 -16.51,9.17 -33.77,13.78 -51.69,13.78 -18.06,0 -35.47,-4.66 -52.16,-13.97 -16.66,-9.36 -29.5,-22.34 -38.43,-38.95 -8.99,-16.65 -13.46,-33.68 -13.46,-51.17zm17.22 0c0,14.62 3.76,28.88 11.24,42.7 7.48,13.83 18.2,24.65 32.13,32.46 13.92,7.81 28.41,11.71 43.46,11.71 15,0 29.35,-3.85 43.08,-11.52 13.74,-7.67 24.46,-18.39 32.13,-32.17 7.67,-13.79 11.52,-28.18 11.52,-43.18 0,-14.96 -3.85,-29.36 -11.52,-43.14 -7.67,-13.78 -18.39,-24.5 -32.13,-32.12 -13.73,-7.62 -28.08,-11.43 -43.08,-11.43 -15.05,0 -29.54,3.9 -43.46,11.66 -13.93,7.76 -24.65,18.58 -32.13,32.46 -7.48,13.87 -11.24,28.08 -11.24,42.57zm103.57 -33.35l5.08 -16.94c11.53,2.78 20.7,8.61 27.52,17.55 6.87,8.98 10.3,19.85 10.3,32.59 0,16.19 -5.22,29.31 -15.71,39.42 -10.49,10.11 -24.98,15.15 -43.55,15.15 -12.14,0 -22.68,-2.31 -31.61,-6.92 -8.99,-4.56 -15.71,-11.15 -20.28,-19.61 -4.56,-8.52 -6.82,-18.25 -6.82,-29.16 0,-12.23 2.92,-22.39 8.8,-30.48 5.88,-8.09 13.88,-13.6 23.94,-16.56l4.23 16.37c-6.91,2.77 -12.23,6.82 -15.89,12.23 -3.72,5.41 -5.55,11.71 -5.55,19 0,10.58 3.76,19.33 11.28,26.2 7.53,6.87 18.35,10.3 32.37,10.3 14.06,0 24.69,-3.24 31.89,-9.74 7.19,-6.49 10.81,-14.86 10.81,-25.16 0,-8.28 -2.39,-15.57 -7.24,-21.83 -4.8,-6.25 -11.33,-10.39 -19.57,-12.41z"/>
  <path id="1" class="fil6" d="M19788.57 2663.04l-18.58 0c14.44,9.27 21.68,22.91 21.68,40.92 0,11.67 -3.19,22.39 -9.64,32.13 -6.4,9.78 -15.38,17.35 -26.86,22.76 -11.52,5.37 -24.74,8.05 -39.69,8.05 -14.59,0 -27.8,-2.45 -39.7,-7.29 -11.86,-4.9 -20.98,-12.19 -27.29,-21.92 -6.35,-9.69 -9.5,-20.61 -9.5,-32.6 0,-8.84 1.88,-16.7 5.6,-23.56 3.72,-6.87 8.61,-12.47 14.58,-16.8l-72.67 0 0 -24.83 202.07 0 0 23.14zm-73.05 78.46c18.72,0 32.69,-3.95 41.96,-11.9 9.26,-7.91 13.87,-17.27 13.87,-28.04 0,-10.86 -4.42,-20.08 -13.26,-27.7 -8.84,-7.57 -22.34,-11.38 -40.5,-11.38 -19.94,0 -34.62,3.85 -43.98,11.61 -9.36,7.72 -14.01,17.27 -14.01,28.6 0,11.06 4.46,20.27 13.45,27.71 8.98,7.38 23.14,11.1 42.47,11.1z"/>
  <path id="2" class="fil6" d="M19727.89 2610.5l-24.83 0 0 -76.76 24.83 0 0 76.76z"/>
  <path id="3" class="fil6" d="M19788.57 2506.64l-146.47 0 0 -22.29 20.69 0c-7.15,-4.56 -12.93,-10.68 -17.26,-18.3 -4.37,-7.62 -6.54,-16.27 -6.54,-26.01 0,-10.82 2.26,-19.71 6.73,-26.62 4.52,-6.92 10.77,-11.81 18.86,-14.63 -17.07,-11.67 -25.59,-26.77 -25.59,-45.39 0,-14.58 4,-25.83 12.04,-33.63 8.05,-7.86 20.42,-11.81 37.12,-11.81l100.42 0 0 24.84 -92.19 0c-9.88,0 -17.03,0.84 -21.4,2.44 -4.38,1.6 -7.86,4.52 -10.54,8.8 -2.68,4.23 -4,9.22 -4,14.91 0,10.35 3.44,18.91 10.26,25.73 6.86,6.82 17.82,10.2 32.87,10.2l85 0 0 24.84 -95.06 0c-11.01,0 -19.29,2.02 -24.79,6.07 -5.5,4.04 -8.28,10.67 -8.28,19.85 0,6.96 1.84,13.4 5.51,19.33 3.66,5.93 9.03,10.21 16.13,12.89 7.05,2.63 17.26,3.95 30.57,3.95l75.92 0 0 24.83z"/>
  <path id="4" class="fil6" d="M19770.23 2175.88c7.85,9.22 13.35,18.11 16.6,26.62 3.25,8.52 4.84,17.64 4.84,27.43 0,16.08 -3.9,28.45 -11.75,37.11 -7.81,8.65 -17.83,12.98 -30.01,12.98 -7.15,0 -13.69,-1.65 -19.62,-4.89 -5.93,-3.29 -10.63,-7.57 -14.2,-12.84 -3.58,-5.32 -6.31,-11.24 -8.14,-17.88 -1.27,-4.89 -2.49,-12.27 -3.72,-22.1 -2.35,-20.04 -5.22,-34.86 -8.51,-44.31 -3.39,-0.1 -5.55,-0.14 -6.44,-0.14 -10.07,0 -17.17,2.35 -21.31,7.05 -5.6,6.35 -8.37,15.81 -8.37,28.32 0,11.71 2.07,20.36 6.16,25.92 4.09,5.59 11.38,9.68 21.78,12.37l-3.39 24.27c-10.4,-2.21 -18.82,-5.84 -25.21,-10.92 -6.4,-5.08 -11.29,-12.41 -14.77,-22.01 -3.44,-9.55 -5.18,-20.7 -5.18,-33.3 0,-12.51 1.46,-22.72 4.42,-30.57 2.97,-7.81 6.64,-13.6 11.11,-17.27 4.46,-3.67 10.11,-6.25 16.93,-7.76 4.23,-0.8 11.85,-1.22 22.81,-1.22l32.93 0c23,0 37.53,-0.52 43.69,-1.55 6.17,-0.99 12.05,-3.06 17.69,-6.07l0 25.96c-5.22,2.5 -11.34,4.1 -18.34,4.8zm-55.04 1.98c3.67,9.03 6.78,22.57 9.32,40.64 1.45,10.25 3.1,17.49 4.93,21.73 1.84,4.23 4.52,7.48 8,9.78 3.53,2.31 7.43,3.48 11.76,3.48 6.54,0 12.04,-2.49 16.42,-7.52 4.37,-5.04 6.58,-12.38 6.58,-22.02 0,-9.55 -2.07,-18.06 -6.25,-25.54 -4.14,-7.43 -9.84,-12.93 -17.03,-16.41 -5.6,-2.69 -13.83,-4 -24.7,-4l-9.03 -0.14z"/>
  <path id="5" class="fil6" d="M19844.73 2114.59l-202.63 0 0 -22.57 19.24 0c-7.44,-5.32 -13.03,-11.34 -16.75,-18.07 -3.72,-6.68 -5.6,-14.81 -5.6,-24.36 0,-12.51 3.2,-23.52 9.65,-33.07 6.39,-9.55 15.47,-16.74 27.14,-21.63 11.71,-4.85 24.5,-7.3 38.47,-7.3 14.91,0 28.37,2.69 40.36,8.05 11.95,5.36 21.12,13.17 27.52,23.42 6.35,10.21 9.54,20.98 9.54,32.27 0,8.28 -1.74,15.71 -5.22,22.25 -3.48,6.58 -7.85,11.94 -13.17,16.18l71.45 0 0 24.83zm-128.5 -22.57c18.77,0 32.69,-3.81 41.67,-11.39 8.99,-7.62 13.45,-16.84 13.45,-27.65 0,-11.01 -4.65,-20.42 -13.97,-28.23 -9.31,-7.85 -23.7,-11.76 -43.22,-11.76 -18.63,0 -32.55,3.81 -41.82,11.48 -9.26,7.67 -13.87,16.79 -13.87,27.42 0,10.54 4.94,19.85 14.77,27.94 9.87,8.14 24.17,12.19 42.99,12.19z"/>
  <path id="6" class="fil6" d="M19744.83 1967.51l-3.96 -24.55c9.84,-1.37 17.36,-5.22 22.63,-11.53 5.22,-6.3 7.85,-15.14 7.85,-26.43 0,-11.43 -2.3,-19.9 -6.96,-25.45 -4.61,-5.5 -10.06,-8.28 -16.32,-8.28 -5.6,0 -10.02,2.5 -13.22,7.44 -2.21,3.48 -4.98,11.94 -8.42,25.4 -4.56,18.15 -8.51,30.71 -11.85,37.77 -3.39,7 -7.99,12.32 -13.92,15.94 -5.88,3.62 -12.42,5.46 -19.57,5.46 -6.54,0 -12.56,-1.51 -18.11,-4.47 -5.55,-3.01 -10.16,-7.06 -13.83,-12.18 -2.82,-3.86 -5.22,-9.13 -7.19,-15.76 -1.98,-6.68 -2.97,-13.78 -2.97,-21.4 0,-11.48 1.65,-21.54 4.99,-30.2 3.29,-8.7 7.81,-15.1 13.45,-19.24 5.69,-4.09 13.27,-6.96 22.77,-8.51l3.38 24.27c-7.62,1.08 -13.59,4.28 -17.87,9.55 -4.28,5.27 -6.4,12.7 -6.4,22.34 0,11.34 1.88,19.47 5.65,24.32 3.76,4.84 8.18,7.29 13.21,7.29 3.2,0 6.12,-0.99 8.71,-3.01 2.63,-2.02 4.84,-5.18 6.58,-9.5 0.94,-2.5 3.06,-9.74 6.35,-21.87 4.66,-17.5 8.52,-29.73 11.48,-36.69 2.96,-6.96 7.34,-12.42 12.98,-16.37 5.69,-4 12.75,-5.98 21.21,-5.98 8.24,0 16,2.4 23.29,7.25 7.29,4.84 12.93,11.8 16.93,20.88 4,9.13 5.97,19.43 5.97,30.91 0,19 -3.95,33.53 -11.8,43.5 -7.9,9.98 -19.57,16.33 -35.04,19.1z"/>
  <path id="7" class="fil6" d="M19788.57 1809.47l-28.22 0 0 -28.22 28.22 0 0 28.22z"/>
  <path id="8" class="fil6" d="M19734.95 1642.44l3.38 -24.27c16.7,2.68 29.73,9.45 39.19,20.41 9.45,10.96 14.15,24.46 14.15,40.41 0,19.99 -6.53,36.08 -19.61,48.21 -13.08,12.18 -31.8,18.25 -56.16,18.25 -15.81,0 -29.59,-2.63 -41.39,-7.85 -11.86,-5.22 -20.75,-13.17 -26.63,-23.9 -5.92,-10.68 -8.89,-22.29 -8.89,-34.9 0,-15.85 4,-28.88 12.04,-38.95 8.05,-10.11 19.48,-16.6 34.25,-19.42l3.67 23.99c-9.83,2.3 -17.22,6.35 -22.2,12.23 -4.94,5.83 -7.44,12.88 -7.44,21.16 0,12.51 4.47,22.67 13.41,30.53 8.98,7.81 23.09,11.71 42.47,11.71 19.66,0 33.92,-3.76 42.81,-11.29 8.89,-7.57 13.35,-17.4 13.35,-29.49 0,-9.78 -2.96,-17.92 -8.93,-24.41 -5.93,-6.54 -15.1,-10.68 -27.47,-12.42z"/>
  <path id="9" class="fil6" d="M19715.33 1606.32c-27.04,0 -47.08,-7.53 -60.11,-22.63 -10.82,-12.56 -16.23,-27.94 -16.23,-46.05 0,-20.08 6.59,-36.54 19.76,-49.34 13.12,-12.75 31.33,-19.14 54.51,-19.14 18.82,0 33.59,2.82 44.36,8.46 10.77,5.65 19.14,13.88 25.12,24.7 5.97,10.77 8.93,22.58 8.93,35.32 0,20.51 -6.53,37.07 -19.66,49.72 -13.12,12.65 -32.03,18.96 -56.68,18.96zm0.05 -25.4c18.72,0 32.74,-4.1 42,-12.28 9.32,-8.23 13.97,-18.53 13.97,-31 0,-12.32 -4.65,-22.57 -14.01,-30.81 -9.36,-8.18 -23.61,-12.27 -42.76,-12.27 -18.06,0 -31.75,4.14 -41.01,12.37 -9.32,8.23 -13.97,18.48 -13.97,30.71 0,12.47 4.61,22.77 13.87,31 9.27,8.18 23.24,12.28 41.91,12.28z"/>
  <path id="10" class="fil6" d="M19788.57 1440.04l-146.47 0 0 -22.29 20.69 0c-7.15,-4.56 -12.93,-10.68 -17.26,-18.3 -4.37,-7.62 -6.54,-16.27 -6.54,-26.01 0,-10.82 2.26,-19.71 6.73,-26.62 4.52,-6.92 10.77,-11.81 18.86,-14.63 -17.07,-11.67 -25.59,-26.77 -25.59,-45.39 0,-14.58 4,-25.83 12.04,-33.63 8.05,-7.86 20.42,-11.81 37.12,-11.81l100.42 0 0 24.84 -92.19 0c-9.88,0 -17.03,0.84 -21.4,2.44 -4.38,1.6 -7.86,4.52 -10.54,8.8 -2.68,4.23 -4,9.22 -4,14.91 0,10.35 3.44,18.91 10.26,25.73 6.86,6.82 17.82,10.2 32.87,10.2l85 0 0 24.84 -95.06 0c-11.01,0 -19.29,2.02 -24.79,6.07 -5.5,4.04 -8.28,10.67 -8.28,19.85 0,6.96 1.84,13.4 5.51,19.33 3.66,5.93 9.03,10.21 16.13,12.89 7.05,2.63 17.26,3.95 30.57,3.95l75.92 0 0 24.83z"/>
  <g id="_2584604988320">
   <g>
    <path class="fil7 str6" d="M16411.66 1833.38l900.24 0 0 99.16 -900.24 0 0 -99.16z"/>
    <path class="fil8 str6" d="M17311.9 1833.38l900.25 0 0 99.16 -900.25 0 0 -99.16z"/>
    <path class="fil7 str6" d="M18212.14 1833.38l900.25 0 0 99.16 -900.25 0 0 -99.16z"/>
    <path class="fil7 str6" d="M17854.65 2132.32l1439.85 0 0 99.16 -1439.85 0 0 -99.16z"/>
    <path class="fil8 str6" d="M16414.81 2132.32l1439.85 0 0 99.16 -1439.85 0 0 -99.16z"/>
   </g>
   <path class="fil6" d="M17266.1 1444.6l57.09 -27.52 5.71 0 0 197.2c0,13.12 0.53,21.35 1.64,24.58 1.12,3.18 3.36,5.71 6.82,7.41 3.47,1.71 10.53,2.7 21.17,2.94l0 6.35 -88.19 0 0 -6.35c11.05,-0.24 18.16,-1.18 21.34,-2.88 3.23,-1.65 5.47,-3.88 6.76,-6.7 1.24,-2.83 1.88,-11.29 1.88,-25.35l0 -126.29c0,-16.99 -0.59,-27.93 -1.7,-32.75 -0.83,-3.7 -2.3,-6.41 -4.41,-8.11 -2.18,-1.71 -4.71,-2.59 -7.71,-2.59 -4.29,0 -10.23,1.76 -17.81,5.35l-2.59 -5.29z"/>
   <path id="1" class="fil6" d="M17900.41 1410.38l0 157.16 39.98 -36.63c8.52,-7.82 13.46,-12.76 14.81,-14.82 0.95,-1.41 1.42,-2.76 1.42,-4.17 0,-2.29 -1,-4.23 -2.89,-5.94 -1.88,-1.65 -4.99,-2.59 -9.4,-2.82l0 -5.65 68.61 0 0 5.65c-9.35,0.23 -17.17,1.7 -23.4,4.35 -6.23,2.7 -13.05,7.47 -20.52,14.29l-40.63 37.22 40.34 51.33c11.29,14.05 18.81,23.04 22.58,26.98 5.58,5.24 10.4,8.65 14.58,10.17 2.94,1.12 7.99,1.71 15.17,1.71l0 6.35 -76.73 0 0 -6.35c4.41,-0.12 7.35,-0.76 8.88,-1.94 1.58,-1.24 2.35,-2.88 2.35,-5.06 0,-2.64 -2.3,-6.88 -6.88,-12.7l-48.27 -61.79 0 52.21c0,10.23 0.7,16.93 2.11,20.17 1.47,3.17 3.47,5.46 6.12,6.88 2.64,1.35 8.35,2.11 17.17,2.23l0 6.35 -80.08 0 0 -6.35c7.99,0 14.05,-1 18.05,-2.94 2.41,-1.23 4.23,-3.17 5.46,-5.76 1.71,-3.76 2.59,-10.29 2.59,-19.52l0 -143.94c0,-18.05 -0.41,-29.1 -1.18,-33.16 -0.82,-4.05 -2.11,-6.82 -3.99,-8.35 -1.83,-1.58 -4.24,-2.35 -7.18,-2.35 -2.41,0 -6.05,1 -10.82,2.94l-2.93 -6.35 46.74 -19.4 7.94 0z"/>
   <path id="2" class="fil6" d="M18077.15 1526.68c11.41,-11.53 18.17,-18.17 20.22,-19.93 5.12,-4.36 10.65,-7.77 16.59,-10.18 5.93,-2.41 11.81,-3.64 17.63,-3.64 9.88,0 18.29,2.88 25.4,8.64 7.06,5.76 11.82,14.11 14.17,25.11 11.88,-13.88 21.88,-22.93 30.05,-27.28 8.17,-4.3 16.58,-6.47 25.22,-6.47 8.35,0 15.82,2.17 22.35,6.47 6.46,4.29 11.64,11.34 15.4,21.16 2.53,6.65 3.82,17.11 3.82,31.4l0 67.97c0,9.82 0.71,16.58 2.18,20.23 1.12,2.46 3.23,4.64 6.23,6.4 3.06,1.77 8,2.65 14.88,2.65l0 6.35 -77.26 0 0 -6.35 3.29 0c6.7,0 11.99,-1.29 15.76,-3.94 2.64,-1.82 4.52,-4.76 5.64,-8.76 0.47,-1.94 0.71,-7.47 0.71,-16.58l0 -67.91c0,-12.88 -1.53,-21.93 -4.65,-27.22 -4.52,-7.35 -11.7,-11.06 -21.63,-11.06 -6.06,0 -12.23,1.53 -18.41,4.59 -6.11,3 -13.58,8.7 -22.34,16.93l-0.35 1.94 0.7 7.41 0 75.32c0,10.7 0.59,17.4 1.77,20.05 1.23,2.59 3.46,4.82 6.76,6.58 3.29,1.77 8.93,2.65 16.87,2.65l0 6.35 -79.37 0 0 -6.35c8.64,0 14.58,-1 17.81,-3.06 3.24,-2.06 5.47,-5.17 6.7,-9.29 0.59,-1.94 0.89,-7.58 0.89,-16.93l0 -67.91c0,-12.88 -1.88,-22.17 -5.65,-27.87 -5.05,-7.41 -12.05,-11.11 -21.11,-11.11 -6.17,0 -12.28,1.7 -18.34,5.05 -9.47,5.06 -16.82,10.82 -21.93,17.17l0 84.67c0,10.29 0.7,16.93 2.12,20.05 1.41,3.06 3.52,5.35 6.35,6.94 2.76,1.53 8.4,2.29 16.93,2.29l0 6.35 -77.97 0 0 -6.35c7.24,0 12.29,-0.76 15.17,-2.29 2.89,-1.59 5.06,-4 6.59,-7.41 1.47,-3.35 2.23,-9.88 2.23,-19.58l0 -60.33c0,-17.28 -0.53,-28.45 -1.53,-33.51 -0.82,-3.82 -2.05,-6.41 -3.82,-7.82 -1.7,-1.47 -4.05,-2.18 -6.99,-2.18 -3.24,0 -7.06,0.89 -11.53,2.59l-2.58 -6.35 47.62 -19.4 7.41 0 0 33.75z"/>
   <path id="3" class="fil6" d="M17554.68 1421.67l-13.47 29.28 -70.55 0 -15.47 31.28c30.81,4.52 55.04,15.81 72.79,33.98 15.23,15.64 22.82,33.99 22.82,55.15 0,12.29 -2.47,23.7 -7.47,34.11 -5,10.46 -11.29,19.4 -18.87,26.75 -7.53,7.35 -16,13.29 -25.29,17.75 -13.17,6.3 -26.69,9.47 -40.57,9.47 -13.99,0 -24.16,-2.35 -30.57,-7.11 -6.35,-4.71 -9.53,-9.94 -9.53,-15.64 0,-3.18 1.3,-6 3.94,-8.47 2.65,-2.47 6,-3.65 10,-3.65 2.94,0 5.58,0.42 7.82,1.36 2.23,0.88 6,3.23 11.4,6.99 8.59,5.94 17.35,8.88 26.17,8.88 13.4,0 25.22,-5.11 35.39,-15.29 10.12,-10.17 15.23,-22.57 15.23,-37.21 0,-14.12 -4.52,-27.34 -13.58,-39.57 -9.11,-12.29 -21.58,-21.76 -37.57,-28.4 -12.46,-5.18 -29.52,-8.18 -51.09,-9l44.8 -90.66 83.67 0z"/>
   <path id="4" class="fil6" d="M17590.66 1539.97c0,-26.64 4,-49.51 12.05,-68.74 8.06,-19.22 18.7,-33.57 32.05,-42.98 10.29,-7.47 20.99,-11.17 31.98,-11.17 17.94,0 33.99,9.11 48.22,27.34 17.81,22.64 26.69,53.27 26.69,91.96 0,27.05 -3.88,50.09 -11.7,69.03 -7.82,18.93 -17.76,32.63 -29.87,41.21 -12.11,8.53 -23.81,12.82 -35.04,12.82 -22.29,0 -40.81,-13.11 -55.62,-39.39 -12.53,-22.17 -18.76,-48.86 -18.76,-80.08zm33.87 4.23c0,32.1 3.94,58.33 11.82,78.67 6.52,17.11 16.28,25.63 29.22,25.63 6.17,0 12.58,-2.76 19.22,-8.34 6.65,-5.59 11.65,-14.88 15.11,-27.99 5.24,-19.7 7.88,-47.57 7.88,-83.43 0,-26.64 -2.76,-48.86 -8.23,-66.62 -4.11,-13.23 -9.46,-22.58 -15.99,-28.05 -4.65,-3.82 -10.35,-5.7 -16.99,-5.7 -7.76,0 -14.7,3.53 -20.76,10.52 -8.23,9.53 -13.87,24.46 -16.81,44.92 -3,20.41 -4.47,40.52 -4.47,60.39z"/>
   <path class="fil6" d="M17424.77 2414.03l57.09 -27.52 5.71 0 0 197.2c0,13.12 0.53,21.35 1.64,24.58 1.12,3.18 3.36,5.71 6.82,7.41 3.47,1.71 10.53,2.7 21.17,2.94l0 6.35 -88.19 0 0 -6.35c11.05,-0.24 18.16,-1.18 21.34,-2.88 3.23,-1.65 5.47,-3.88 6.76,-6.7 1.24,-2.83 1.88,-11.29 1.88,-25.35l0 -126.29c0,-16.99 -0.59,-27.93 -1.7,-32.75 -0.83,-3.7 -2.3,-6.41 -4.41,-8.11 -2.18,-1.71 -4.71,-2.59 -7.71,-2.59 -4.29,0 -10.23,1.76 -17.81,5.35l-2.59 -5.29z"/>
   <path id="1" class="fil6" d="M18059.43 2496.11c11.41,-11.53 18.17,-18.17 20.22,-19.93 5.12,-4.36 10.65,-7.77 16.59,-10.18 5.93,-2.41 11.81,-3.64 17.63,-3.64 9.88,0 18.29,2.88 25.4,8.64 7.06,5.76 11.82,14.11 14.17,25.11 11.88,-13.88 21.88,-22.93 30.05,-27.28 8.17,-4.3 16.58,-6.47 25.22,-6.47 8.35,0 15.82,2.17 22.35,6.47 6.46,4.29 11.64,11.34 15.4,21.16 2.53,6.65 3.82,17.11 3.82,31.4l0 67.97c0,9.82 0.71,16.58 2.18,20.23 1.12,2.46 3.23,4.64 6.23,6.4 3.06,1.77 8,2.65 14.88,2.65l0 6.35 -77.26 0 0 -6.35 3.29 0c6.7,0 11.99,-1.29 15.76,-3.94 2.64,-1.82 4.52,-4.76 5.64,-8.76 0.47,-1.94 0.71,-7.47 0.71,-16.58l0 -67.91c0,-12.88 -1.53,-21.93 -4.65,-27.22 -4.52,-7.35 -11.7,-11.06 -21.63,-11.06 -6.06,0 -12.23,1.53 -18.41,4.59 -6.11,3 -13.58,8.7 -22.34,16.93l-0.35 1.94 0.7 7.41 0 75.32c0,10.7 0.59,17.4 1.77,20.05 1.23,2.59 3.46,4.82 6.76,6.58 3.29,1.77 8.93,2.65 16.87,2.65l0 6.35 -79.37 0 0 -6.35c8.64,0 14.58,-1 17.81,-3.06 3.24,-2.06 5.47,-5.17 6.7,-9.29 0.59,-1.94 0.89,-7.58 0.89,-16.93l0 -67.91c0,-12.88 -1.88,-22.17 -5.65,-27.87 -5.05,-7.41 -12.05,-11.11 -21.11,-11.11 -6.17,0 -12.28,1.7 -18.34,5.05 -9.47,5.06 -16.82,10.82 -21.93,17.17l0 84.67c0,10.29 0.7,16.93 2.12,20.05 1.41,3.06 3.52,5.35 6.35,6.94 2.76,1.53 8.4,2.29 16.93,2.29l0 6.35 -77.97 0 0 -6.35c7.24,0 12.29,-0.76 15.17,-2.29 2.89,-1.59 5.06,-4 6.59,-7.41 1.47,-3.35 2.23,-9.88 2.23,-19.58l0 -60.33c0,-17.28 -0.53,-28.45 -1.53,-33.51 -0.82,-3.82 -2.05,-6.41 -3.82,-7.82 -1.7,-1.47 -4.05,-2.18 -6.99,-2.18 -3.24,0 -7.06,0.89 -11.53,2.59l-2.58 -6.35 47.62 -19.4 7.41 0 0 33.75z"/>
   <path id="2" class="fil6" d="M18327.07 2379.81c4.76,0 8.88,1.7 12.29,5.05 3.35,3.41 5.05,7.53 5.05,12.29 0,4.82 -1.7,9 -5.05,12.41 -3.41,3.47 -7.53,5.17 -12.29,5.17 -4.82,0 -9,-1.7 -12.41,-5.17 -3.47,-3.41 -5.17,-7.59 -5.17,-12.41 0,-4.76 1.7,-8.88 5.05,-12.29 3.41,-3.35 7.59,-5.05 12.53,-5.05zm14.17 82.55l0 127c0,9.82 0.7,16.34 2.17,19.58 1.41,3.29 3.53,5.7 6.35,7.29 2.82,1.59 8,2.41 15.47,2.41l0 6.35 -76.56 0 0 -6.35c7.65,0 12.82,-0.76 15.41,-2.23 2.64,-1.47 4.7,-3.94 6.29,-7.35 1.53,-3.41 2.29,-10 2.29,-19.7l0 -61.03c0,-16.99 -0.53,-27.99 -1.53,-33.05 -0.82,-3.64 -2.05,-6.17 -3.82,-7.58 -1.7,-1.47 -4.06,-2.18 -7,-2.18 -3.23,0 -7.11,0.89 -11.7,2.59l-2.41 -6.35 47.45 -19.4 7.59 0z"/>
   <path id="3" class="fil6" d="M17572.94 2509.4c0,-26.64 4,-49.51 12.05,-68.74 8.06,-19.22 18.7,-33.57 32.05,-42.98 10.29,-7.47 20.99,-11.17 31.98,-11.17 17.94,0 33.99,9.11 48.22,27.34 17.81,22.64 26.69,53.27 26.69,91.96 0,27.05 -3.88,50.09 -11.7,69.03 -7.82,18.93 -17.76,32.63 -29.87,41.21 -12.11,8.53 -23.81,12.82 -35.04,12.82 -22.29,0 -40.81,-13.11 -55.62,-39.39 -12.53,-22.17 -18.76,-48.86 -18.76,-80.08zm33.87 4.23c0,32.1 3.94,58.33 11.82,78.67 6.52,17.11 16.28,25.63 29.22,25.63 6.17,0 12.58,-2.76 19.22,-8.34 6.65,-5.59 11.65,-14.88 15.11,-27.99 5.24,-19.7 7.88,-47.57 7.88,-83.43 0,-26.64 -2.76,-48.86 -8.23,-66.62 -4.11,-13.23 -9.46,-22.58 -15.99,-28.05 -4.65,-3.82 -10.35,-5.7 -16.99,-5.7 -7.76,0 -14.7,3.53 -20.76,10.52 -8.23,9.53 -13.87,24.46 -16.81,44.92 -3,20.41 -4.47,40.52 -4.47,60.39z"/>
   <path id="4" class="fil6" d="M17749.33 2509.4c0,-26.64 4,-49.51 12.05,-68.74 8.06,-19.22 18.7,-33.57 32.05,-42.98 10.29,-7.47 20.99,-11.17 31.98,-11.17 17.94,0 33.99,9.11 48.22,27.34 17.81,22.64 26.69,53.27 26.69,91.96 0,27.05 -3.88,50.09 -11.7,69.03 -7.82,18.93 -17.76,32.63 -29.87,41.21 -12.11,8.53 -23.81,12.82 -35.04,12.82 -22.29,0 -40.81,-13.11 -55.62,-39.39 -12.53,-22.17 -18.76,-48.86 -18.76,-80.08zm33.87 4.23c0,32.1 3.94,58.33 11.82,78.67 6.52,17.11 16.28,25.63 29.22,25.63 6.17,0 12.58,-2.76 19.22,-8.34 6.65,-5.59 11.65,-14.88 15.11,-27.99 5.24,-19.7 7.88,-47.57 7.88,-83.43 0,-26.64 -2.76,-48.86 -8.23,-66.62 -4.11,-13.23 -9.46,-22.58 -15.99,-28.05 -4.65,-3.82 -10.35,-5.7 -16.99,-5.7 -7.76,0 -14.7,3.53 -20.76,10.52 -8.23,9.53 -13.87,24.46 -16.81,44.92 -3,20.41 -4.47,40.52 -4.47,60.39z"/>
  </g>
  <rect class="fil4 str7" x="1000" y="1000" width="19000" height="20117.64"/>
 </g>
</svg>
