<?xml version="1.0" encoding="UTF-8"?>
<!DOCTYPE svg PUBLIC "-//W3C//DTD SVG 1.0//EN" "http://www.w3.org/TR/2001/REC-SVG-20010904/DTD/svg10.dtd">
<!-- Creator: CorelDRAW -->
<svg xmlns="http://www.w3.org/2000/svg" xml:space="preserve" width="297mm" height="210mm" version="1.0" style="shape-rendering:geometricPrecision; text-rendering:geometricPrecision; image-rendering:optimizeQuality; fill-rule:evenodd; clip-rule:evenodd"
viewBox="0 0 29700 21000"
 xmlns:xlink="http://www.w3.org/1999/xlink">
 <defs>
  <style type="text/css">
   <![CDATA[
    .str2 {stroke:black;stroke-width:10;stroke-miterlimit:3.864;stroke-opacity:0.501961}
    .str0 {stroke:#2B2A29;stroke-width:75;stroke-miterlimit:22.9256}
    .str4 {stroke:black;stroke-width:50;stroke-miterlimit:3.864}
    .str3 {stroke:#3F3E3F;stroke-width:10;stroke-miterlimit:3.864}
    .str1 {stroke:black;stroke-width:10;stroke-miterlimit:22.9256}
    .fil8 {fill:none;fill-rule:nonzero}
    .fil0 {fill:#FEFEFE}
    .fil1 {fill:#2B2A29}
    .fil2 {fill:#A2D9F7}
    .fil3 {fill:#FEFEFE;fill-rule:nonzero}
    .fil6 {fill:#D9DADA;fill-rule:nonzero}
    .fil7 {fill:#2B2A29;fill-rule:nonzero}
    .fil5 {fill:black;fill-rule:nonzero}
    .fil4 {fill:#FEFEFE;fill-rule:nonzero;fill-opacity:0.501961}
   ]]>
  </style>
 </defs>
<symbol id="Symbole1" viewBox="14721.93 10371.93 256.13 256.13">
 <circle class="fil0 str0" cx="14849.99" cy="10499.99" r="90.56"/>
</symbol>
<symbol id="Symbole2" viewBox="14797.31 10447.31 105.38 105.38">
 <circle class="fil1" cx="14850" cy="10500" r="52.69"/>
</symbol>
 <g id="Plan_x0020_1">
  <metadata id="CorelCorpID_0Corel-Layer"/>
  <rect class="fil2" x="1000" y="1000" width="25525.04" height="19000"/>
  <path class="fil3 str1" d="M7741.09 11246.95c70.57,-5.48 117.16,-15.07 172.65,-57.55 33.57,-25.35 56.86,-39.73 98.65,-46.59 26.04,-4.11 57.55,-11.65 57.55,-38.36 0,-16.44 -21.92,-19.18 -21.92,-35.62 0,-8.23 2.06,-13.71 2.74,-21.93l27.4 -2.74 49.33 10.96c39.05,-22.61 90.43,-10.96 101.39,-54.81 22.62,-55.49 49.33,-90.43 49.33,-150.72 0,-22.61 -35.62,-23.98 -35.62,-46.59 0,-23.98 8.91,-52.06 32.88,-52.06 8.91,0 13.02,8.22 21.92,8.22 39.74,0 42.48,-46.59 60.29,-82.21 13.7,-27.41 40.43,-29.47 68.51,-41.11 24.66,-10.28 50.02,-1.37 65.77,-21.92 13.03,-17.14 0,-38.37 13.7,-54.81 15.77,-19.18 43.85,-23.99 43.85,-49.33 0,-59.61 -117.84,-38.36 -117.84,-97.97l0 -78.11c0,-48.63 -9.59,-82.89 -43.84,-117.14 -47.27,-47.28 -106.19,-31.51 -150.73,-82.21 -25.34,-29.47 -21.23,-58.92 -27.4,-98.66 -26.03,2.05 -39.74,10.96 -65.77,10.96 -13.7,0 -27.4,-8.22 -27.4,-21.92 0,-30.84 30.14,-41.1 57.54,-54.81 -25.34,-25.35 -34.93,-48.64 -68.51,-63.03 -37.67,-16.44 -73.3,-21.92 -87.69,-60.29 -22.6,-60.98 -10.27,-103.45 -32.88,-164.42 -17.13,-46.59 -63.03,-56.18 -76.74,-104.13 -13.7,-47.28 -9.58,-82.91 -41.1,-120.58 -13.01,-15.77 -32.2,-13.7 -43.85,-30.15 -19.18,-26.72 -34.93,-52.07 -68.51,-52.07 -6.16,0 -6.85,6.86 -10.96,10.97 -5.48,-16.45 -10.96,-26.04 -10.96,-43.17l0 -34.26c0,-52.06 -29.47,-78.78 -60.29,-119.88 -12.33,-16.45 0,-35.63 -8.22,-54.81 -3.43,-8.22 -16.44,-9.59 -16.44,-19.18 0,-13.7 10.96,-19.19 10.96,-32.89 0,-80.16 -43.17,-117.84 -73.99,-191.83 -11.65,-28.77 -21.25,-60.29 -52.76,-60.29 -8.22,0 -13.01,1.37 -21.23,2.75 10.27,-8.92 24.66,-10.97 24.66,-24.67 0,-26.03 1.37,-63.03 -24.66,-63.03 -4.81,0 -6.18,5.48 -10.96,5.48 -4.8,0 -6.17,-4.8 -10.97,-5.48 58.23,-58.24 76.73,-111.67 76.73,-191.83 0,-34.25 -27.4,-50.02 -27.4,-84.27l0 -110.99c0,-24.66 -12.33,-40.41 -32.88,-54.11l21.92 -158.95c-10.96,-17.13 -33.57,-15.76 -38.37,-35.62 -21.92,-80.84 -28.09,-129.49 -57.54,-208.27 -26.04,-69.88 -42.48,-110.99 -87.7,-169.91 -23.98,-31.51 -63.03,-41.1 -63.03,-81.53l0 -67.14c0,-21.23 3.42,-34.25 -2.74,-54.12 -11.65,-38.36 -60.29,-29.46 -84.95,-60.28 -21.24,-26.73 -5.48,-58.92 -24.66,-87.7 -28.78,-43.17 -57.55,-70.57 -57.55,-123.32 0,-23.98 10.96,-36.31 10.96,-60.29 0,-20.55 -23.98,-21.92 -35.63,-38.36 -37.68,-52.07 -106.87,-61.66 -106.87,-126.06 0,-39.06 13.7,-59.61 13.7,-98.65 0,-14.4 -23.29,-8.92 -32.88,-19.19 -8.22,-8.91 -10.97,-18.5 -21.93,-24.66 -31.51,-15.77 -58.92,-19.87 -76.73,-49.33 -22.61,-36.99 -35.62,-79.47 -79.47,-79.47 0,-32.21 -17.13,-65.77 -49.33,-65.77 -8.91,0 -13.02,8.22 -21.92,8.22 -32.21,0 -19.87,-47.96 -38.37,-73.99 -25.35,-34.95 -25.35,-63.72 -38.36,-104.13 -13.71,-41.11 -41.11,-60.29 -41.11,-104.14 0,-43.17 46.59,-58.24 46.59,-101.39 0,-60.98 -63.03,-81.54 -63.03,-142.51 0,-10.96 5.48,-16.44 5.48,-27.4 0,-63.03 -10.28,-99.35 -30.14,-158.94 -9.6,-30.15 -30.15,-44.54 -30.15,-76.74 0,-51.38 51.38,-65.09 95.92,-90.43 -21.25,-52.07 -57.55,-77.42 -57.55,-134.28 0,-121.27 25.34,-188.41 54.81,-306.92 15.75,-65.09 -1.37,-110.31 32.88,-167.17 15.75,-26.72 43.16,-33.57 52.07,-63.03 4.79,-15.76 -5.48,-31.51 5.48,-43.84 9.59,-10.96 32.88,-6.85 32.88,-21.93 0,-10.96 -4.8,-17.81 -8.22,-27.4 0,-17.13 -4.11,-24.66 -4.11,-41.8 0,-23.29 9.59,-36.3 9.59,-59.59 0,-82.91 -38.36,-125.38 -38.36,-208.28 0,-60.97 35.62,-92.49 35.62,-153.46 0,-28.09 -10.96,-43.16 -10.96,-71.25 0,-52.07 12.33,-80.84 24.66,-131.54 4.12,-17.81 27.41,-19.87 27.41,-38.36 0,-82.91 -42.48,-152.79 -123.32,-172.65 3.42,-15.07 6.16,-23.29 10.96,-38.37l-26.03 -104.13 0 -66.46c0,-19.86 -1.37,-30.83 -1.37,-50.7 0,-69.19 14.38,-116.46 60.29,-167.84 21.23,-23.99 54.12,-19.88 65.77,-49.33l10.96 -27.4c-5.48,-35.63 27.4,-52.07 27.4,-87.7 0,-17.81 -13.7,-26.03 -13.7,-43.84 0,-86.33 39.73,-132.23 39.73,-218.56l0 -47.26c23.3,-2.74 35.63,-5.48 58.92,-2.74 6.17,-60.98 10.97,-95.24 10.97,-156.21 0,-26.03 13.7,-39.73 13.7,-65.77 0,-19.87 -19.87,-26.03 -27.41,-43.84 -19.18,-43.17 -19.18,-72.62 -19.18,-119.9l0 -89.06c0,-70.56 -6.85,-130.17 -65.77,-169.22 -95.91,-71.94 -115.79,-157.57 -161.68,-268.56 -39.06,-93.86 -49.33,-155.52 -49.33,-257.6 0,-43.16 -44.54,-58.23 -84.95,-71.24 -56.87,-18.51 -90.43,-32.89 -150.72,-32.89 -23.3,0 -26.04,35.63 -49.33,35.63 -113.73,0 -176.76,-44.54 -279.52,-95.92l-10.96 5.48 -32.89 -16.44 -120.58 0 -93.17 -16.44c-108.25,35.62 -152.78,123.99 -265.82,115.09 -52.76,-4.11 -82.21,14.38 -131.54,32.89 -24.66,8.9 -47.28,3.42 -65.77,21.92 -19.18,19.18 -27.4,43.85 -54.81,43.85 -30.14,0 -53.44,13.01 -76.73,-5.48 -21.92,-17.82 -30.14,-42.48 -57.55,-49.33 -22.61,5.48 -45.9,3.42 -54.81,24.67 -14.39,32.88 6.86,66.44 -19.18,90.43 -10.28,9.59 -24.66,5.48 -32.88,16.44 -49.33,61.66 -110.99,63.03 -147.98,137.02 -12.33,-4.11 -19.19,-8.22 -30.15,-13.7 -19.18,47.27 -72.62,39.04 -109.61,73.99 -19.19,17.81 -10.97,40.41 -19.19,65.77 -12.33,38.36 -21.92,59.6 -32.88,98.65 -20.55,69.88 -71.25,97.97 -71.25,169.91 0,79.47 -21.93,123.32 -21.93,202.79 0,34.25 -35.62,47.26 -35.62,81.52l0 58.92c0,80.16 -57.55,116.46 -57.55,196.63 0,45.21 34.94,60.97 54.81,101.39 17.12,34.26 -6.85,63.71 8.22,98.66 6.85,17.12 26.03,19.18 38.37,32.88 22.6,25.34 12.33,53.44 12.33,87.69 0,51.38 -0.69,80.15 0,131.55l-6.85 24.66c54.81,109.61 120.57,165.79 120.57,287.05l0 56.18c0,165.11 -71.25,250.06 -134.28,402.16 -60.29,145.24 -65.77,242.52 -65.77,400.1 0,125.36 54.81,191.13 54.81,316.51 0,143.18 -32.2,223.35 -82.21,357.63 -25.35,68.51 -54.81,107.55 -54.81,180.86 0,28.09 -2.06,48.64 0,76.73 2.74,39.74 16.45,60.97 16.45,100.71l0 69.88c0,41.1 -16.45,63.72 -16.45,104.82l34.26 226.09 0 82.89c0,20.55 -23.3,27.4 -23.3,47.96l0 56.18c0,47.27 -15.76,85.64 16.44,119.89 25.35,27.41 54.81,41.11 54.81,78.78l0 55.5 8.22 65.77c-10.96,32.89 -10.96,53.44 -8.22,87.7 -71.25,17.81 -88.38,76.04 -131.54,134.27 -61.66,82.22 -112.35,137.7 -112.35,241.16 0,32.19 13.7,50.01 13.7,82.21 0,21.24 -7.54,37 -24.66,49.33 -7.55,-22.61 -13.02,-35.63 -27.41,-54.81 -17.13,69.88 -80.16,84.95 -101.39,153.46 -16.44,54.12 -4.11,95.92 -35.63,142.5 -56.87,83.59 -137.02,106.88 -161.68,205.53 0,47.96 1.37,78.78 24.66,120.58 10.27,18.49 32.89,22.61 32.89,43.85 0,21.23 -24.67,28.08 -24.67,49.33 0,17.81 13.7,25.34 13.7,43.15 0,13.71 -2.74,20.55 -2.74,34.26 0,84.27 44.53,174.7 128.81,174.7 -9.6,28.78 -13.71,46.59 -13.71,76.73 0,59.6 35.63,88.38 35.63,147.99 0,23.97 -27.41,30.82 -27.41,54.8 0,41.11 2.74,77.41 38.37,98.66 37.67,22.6 69.88,4.11 109.62,21.92 47.26,21.24 58.22,58.23 90.43,98.66 24.66,31.51 53.44,33.56 87.69,54.81 61.66,38.36 57.55,101.39 68.51,172.64 15.07,95.91 14.38,156.88 57.55,243.9 51.38,102.76 65.77,171.27 134.28,263.08 32.88,44.52 78.1,43.15 120.58,79.47 151.4,130.84 260.34,178.12 441.2,268.56 91.81,37.67 155.51,30.14 255.54,30.14 52.07,0 80.84,2.74 132.91,2.74 137.02,0 206.22,-73.99 343.24,-73.99 19.18,0 26.71,16.44 43.85,24.66 39.04,19.19 66.45,24.67 110.29,24.67l75.36 0c17.14,0 30.15,4.11 47.28,5.48 56.86,37.68 106.88,43.85 142.5,101.39 84.26,134.96 73.99,250.75 194.57,356.26 95.91,83.58 134.28,146.61 230.2,230.19 44.52,38.37 64.39,71.93 117.83,95.92 36.31,16.44 62.34,10.95 98.66,27.4 12.33,5.48 30.14,2.74 30.14,16.44 0,5.48 -8.22,5.48 -8.22,10.96 0,34.94 50.01,32.89 65.77,63.03 44.52,82.89 59.6,145.24 134.28,202.79 100.7,77.41 168.53,105.51 279.52,169.91 53.44,30.83 91.8,41.1 153.46,41.1 17.12,0 39.05,-4.79 54.81,-10.96zm5310.9 7141.49c39.06,0 59.61,-13.7 98.66,-13.7 54.81,0 82.21,26.03 137.02,32.89 3.43,27.4 16.44,54.8 43.84,54.8 15.08,0 21.93,-17.81 21.93,-32.88 32.2,3.43 50.01,-1.37 82.21,-1.37 27.4,0 13.7,45.91 35.63,61.66 48.64,35.62 93.86,20.55 153.46,32.88 34.94,6.85 51.39,26.04 87.69,30.15 38.37,4.8 64.4,-11.65 98.66,5.48 15.07,7.54 15.76,30.14 32.88,30.14 30.14,0 46.59,-16.44 76.73,-16.44 70.57,0 134.28,26.03 156.2,93.17 30.15,-9.59 76.74,4.11 76.74,-27.4 0,-32.2 -32.89,-44.53 -32.89,-76.73 0,-28.09 13.7,-43.16 13.7,-71.25 0,-23.3 -6.16,-39.05 2.74,-60.29 11.65,-27.41 41.11,-35.63 41.11,-65.77 0,-30.84 -19.18,-45.91 -19.18,-76.73 0,-15.07 8.22,-23.3 8.22,-38.37 0,-28.77 -1.37,-49.33 -19.19,-71.25 -23.29,-28.09 -65.77,-18.5 -79.47,-52.07 -14.38,-34.94 -30.82,-52.76 -46.59,-87.69 -10.95,-24.66 -16.44,-54.81 -43.84,-54.81 -9.59,0 -14.38,8.9 -21.92,13.7l-10.97 -21.92c4.12,-8.22 6.86,-15.07 13.71,-21.92 -31.52,-43.85 -50.01,-69.2 -74,-117.84 -17.81,8.9 -29.45,13.7 -49.32,13.7 -75.36,0 -109.62,-46.58 -164.42,-101.39 -30.15,-40.43 -50.7,-67.83 -95.92,-90.44 -36.31,-17.81 -66.45,-13.02 -98.66,-38.36 -55.48,-43.85 -104.13,-41.11 -169.9,-68.51 -33.56,-13.7 -47.96,-43.85 -84.95,-43.85 -30.15,0 -32.89,43.85 -63.03,43.85 -64.4,0 -81.52,-58.92 -131.54,-98.66 -73.31,-58.24 -96.61,-132.91 -189.09,-147.98 -47.96,-7.54 -65.77,-41.79 -112.35,-54.81 -32.89,-9.59 -57.55,-13.02 -76.74,-41.1 -43.16,-63.03 -41.79,-112.36 -60.29,-186.35l-123.31 19.18c-25.36,-0.69 -39.74,-2.74 -65.09,-2.74 -57.55,0 -69.19,-58.92 -118.52,-87.69 -96.61,-56.18 -158.26,-85.64 -235.68,-167.16 -14.39,-15.77 -10.96,-34.26 -16.44,-54.81 -8.22,-32.89 -42.47,-41.11 -76.73,-41.11 -40.43,0 -58.24,32.89 -98.65,32.89 -131.54,0 -222.67,-19.88 -317.89,-115.1l-164.43 -109.62c-28.09,16.44 -28.09,44.53 -35.62,76.73 -41.8,-20.55 -47.96,-62.35 -90.43,-79.47 -56.87,-23.29 -98.66,-10.96 -153.47,-38.36 -29.46,-14.39 -30.83,-54.81 -63.72,-54.81l-54.11 0c-10.29,20.55 -13.71,34.25 -13.71,57.55l-37.68 0c-34.94,0 -63.03,6.85 -88.37,-16.44 -21.93,-20.56 -2.06,-52.07 -19.19,-76.74 -15.07,-21.92 -38.36,-24.66 -65.77,-24.66 -17.81,0 -19.18,21.92 -24.66,38.37 -37,-2.74 -50.7,-38.37 -87.69,-38.37 -21.25,0 -21.92,25.34 -35.63,41.11 -35.62,41.1 -52.07,93.17 -106.87,93.17 -52.07,0 -82.21,-8.22 -131.54,-24.66 -26.04,79.47 -115.1,95.22 -115.1,178.12 0,11.65 10.96,15.75 10.96,27.41 0,25.34 -27.4,34.93 -27.4,60.28 0,10.97 8.22,16.45 8.22,27.41 0,17.81 -13.7,26.03 -13.7,43.85 0,34.25 13.7,53.43 13.7,87.69 0,20.55 -19.18,28.77 -19.18,49.33 0,69.88 61.65,91.11 98.65,150.72 26.03,41.78 48.64,63.03 63.03,109.62 6.85,23.97 -7.54,44.52 5.48,65.76 19.18,30.15 52.07,42.48 52.07,78.79l0 33.57c0,23.97 16.44,36.31 16.44,60.29 0,36.99 -32.89,49.33 -49.33,82.21 4.79,1.37 5.49,8.22 10.97,8.22 26.03,0 39.73,-16.44 65.76,-16.44 35.63,0 52.75,24.66 88.38,24.66 31.51,0 49.32,-2.74 80.84,-2.74 34.94,0 50.02,24.67 74.68,49.33 35.62,35.63 58.23,55.49 84.95,98.66 36.31,58.91 41.11,101.39 63.03,167.16 13.01,39.74 32.89,61.66 32.89,104.14 0,16.44 -17.82,20.55 -27.41,32.88 -21.24,26.71 -28.77,47.96 -52.06,73.99 44.52,44.53 11.64,110.99 63.03,145.24 17.81,-43.84 43.15,-82.21 91.11,-82.21l21.24 0c7.53,62.34 33.57,128.8 95.92,128.8 34.93,0 54.81,-14.39 87.69,-24.66 43.84,-13.71 33.56,-82.21 79.47,-87.7l175.39 43.85c10.96,-5.48 15.75,-16.44 28.08,-16.44 21.24,0 38.36,-2.74 59.61,-2.74 61.66,0 99.33,46.58 120.58,104.13 14.38,38.37 21.92,84.95 63.03,84.95 22.6,0 29.45,-23.29 38.36,-43.84 21.24,-47.28 41.79,-95.92 93.85,-95.92 30.15,0 47.96,-2.74 78.11,-2.74 78.79,0 131.54,32.89 178.81,95.92 28.09,28.08 48.64,37.67 76.74,65.77 52.06,-78.8 56.85,-189.09 150.72,-189.09 60.28,0 75.36,58.23 115.09,104.14 32.2,36.99 58.23,50 93.18,84.95 57.54,57.55 79.47,106.19 153.46,137.02 2.05,-6.16 5.48,-10.27 5.48,-17.12 0,-15.77 -2.74,-23.99 -2.74,-39.74 0,-67.15 20.55,-102.09 35.63,-167.85 4.79,0 6.16,-5.49 10.96,-5.49 25.34,0 23.29,32.89 38.36,52.07 30.83,37.68 59.6,53.44 106.88,63.03 63.03,13.02 100.02,6.16 164.42,10.96zm11038.35 -54.81c-0.69,-6.17 -2.74,-9.59 -2.74,-15.76 0,-69.88 35.62,-106.18 35.62,-176.07 0,-48.64 -23.29,-73.3 -32.88,-120.57 -10.28,-50.02 -4.11,-95.24 -46.59,-123.32 -30.14,-19.87 -54.81,-19.18 -87.69,-32.88 -87.69,-36.32 -135.65,-81.54 -178.13,-167.17 -28.09,-25.35 -48.65,-43.17 -82.21,-60.29 -18.5,-9.59 -43.85,-11.65 -43.85,-32.88 0,-10.97 5.48,-16.44 5.48,-27.41 0,-23.98 -29.46,-25.35 -49.32,-38.36 -23.99,-16.44 -39.74,-25.36 -65.77,-38.37 -27.41,-13.7 -45.91,-20.55 -65.77,-43.85 -15.76,-18.5 -21.93,-43.84 -46.59,-43.84 -32.89,0 -49.33,21.92 -82.21,21.92 -60.98,0 -93.87,-30.83 -137.02,-73.99 -28.77,-28.77 -63.03,-30.83 -76.73,-68.51 -28.78,-78.1 -10.28,-136.34 -52.07,-208.27 -25.35,-43.85 -65.77,-46.59 -112.36,-65.77 -43.84,-17.81 -64.4,-52.07 -112.35,-52.07 -13.7,0 -19.19,10.96 -32.89,10.96 -23.29,0 -32.88,-15.76 -54.81,-21.92 -90.43,-26.03 -151.41,-80.84 -167.16,-175.38 -17.13,-52.76 -34.95,-100.72 -90.44,-109.62 8.91,-27.4 38.37,-34.26 38.37,-63.03 0,-66.46 -59.61,-89.75 -112.35,-128.8 -103.46,-77.42 -173.34,-110.31 -295.97,-150.72 -139.76,-46.59 -212.38,-91.12 -350.77,-142.5 -34.95,-13.02 -50.02,-41.11 -87.69,-41.11 -83.59,0 -127.43,35.63 -211.01,35.63 -124.01,0 -193.2,-37.69 -304.19,-93.18 -117.16,-58.24 -193.2,-80.84 -287.74,-175.38 -12.33,-2.74 -20.56,-2.74 -33.58,-2.74 -17.12,0 -26.03,2.74 -43.15,2.74 -34.95,0 -36.32,-54.81 -71.25,-54.81 -17.14,0 -26.73,10.96 -43.85,10.96 -53.44,0 -60.29,-60.29 -104.14,-90.43 -65.77,-45.22 -119.2,-43.85 -183.6,-90.44 -73.99,-54.12 -121.95,-77.42 -205.53,-115.09 -38.37,-17.13 -56.87,-39.74 -98.66,-46.59 -55.49,-8.91 -72.62,-50.7 -115.09,-87.69 -61.66,-53.44 -108.25,-69.2 -178.13,-109.62 -82.9,-47.96 -131.54,-76.73 -197.31,-147.98 -30.83,-33.58 -90.43,-26.03 -90.43,-71.25 0,-13.02 8.22,-19.87 8.22,-32.88 0,-19.88 -13.7,-29.47 -16.44,-49.33 12.33,6.85 19.86,11.64 32.88,16.44 34.25,-27.4 62.34,-46.59 106.88,-46.59 38.36,0 60.29,8.22 98.65,8.22 13.01,0 19.86,-5.48 32.89,-5.48 39.04,0 59.59,16.45 98.65,19.19 43.85,3.41 77.41,-9.6 112.36,16.44 25.34,18.49 23.97,46.58 32.88,76.73 15.75,50.7 37.68,80.15 82.22,109.62 59.59,39.73 108.92,35.62 180.86,35.62 26.71,0 41.79,-13.7 68.51,-13.7 20.55,0 21.92,27.4 41.11,32.88 74.67,21.24 121.94,21.93 200.05,21.93 33.56,0 45.21,-28.78 71.25,-49.33 3.42,14.38 9.59,30.14 24.66,30.14 16.44,0 21.92,-17.13 38.37,-19.18 34.25,-4.11 54.8,2.74 87.69,-8.22l-5.48 21.92c11.64,21.93 32.88,29.46 35.62,54.81l-19.18 49.33c6.85,17.12 15.07,27.4 30.14,38.37 4.8,-11.66 9.6,-19.19 19.19,-27.41 72.62,72.62 141.13,87.69 241.15,87.69 39.05,0 43.85,-43.84 65.77,-76.73 10.97,13.71 20.55,24.66 38.37,24.66 34.25,0 39.73,-35.62 60.29,-63.02 32.19,32.19 32.88,84.95 77.41,84.95 16.44,0 26.03,-2.74 42.47,-2.74 26.04,0 37,-21.25 55.5,-38.37 44.53,-41.8 79.48,-52.06 123.32,-95.91 25.34,34.25 64.4,24.66 107.56,24.66 52.06,0 81.53,-4.8 133.6,-5.48 16.44,5.48 26.71,8.22 43.84,8.22 37.68,0 50.01,-36.99 87.7,-41.1 95.22,-11.66 156.2,4.11 241.15,-38.37 71.25,-35.62 102.77,-72.62 158.95,-128.8 50,-50.02 123.31,-60.98 123.31,-131.54 0,-9.59 -7.54,-13.7 -10.96,-21.92 4.11,0 6.16,2.74 10.27,2.74 98.66,0 96.61,-161.68 195.26,-161.68 34.94,0 52.75,19.18 87.7,19.18 24.66,0 30.82,-30.15 55.48,-30.15l54.13 0c26.72,-23.98 30.83,-50.69 41.11,-84.95 21.92,-70.57 46.58,-109.61 46.58,-183.61 0,-36.99 -16.44,-56.17 -16.44,-93.17 0,-38.36 23.97,-60.98 57.55,-79.47 26.71,-14.39 14.38,-52.76 41.11,-68.51 17.81,-10.28 37.67,3.42 54.8,-8.22 34.94,-24.67 27.41,-63.72 27.41,-106.88 0,-120.58 -98.65,-171.96 -194.57,-243.89l-13.7 -54.81 0 -54.13c0,-72.62 71.25,-101.39 139.76,-124 99.33,-32.88 157.57,-58.24 241.15,-120.57 35.63,-26.73 66.45,-27.41 98.66,-57.55 24.66,-23.3 14.38,-55.5 41.1,-76.74 72.63,-57.54 134.96,-68.51 227.46,-68.51 88.37,0 131.54,62.34 186.35,131.54 32.19,40.42 55.48,60.97 82.21,104.14 68.51,110.3 156.2,165.79 156.2,295.96 0,52.75 -15.07,86.32 -49.33,126.06 -27.4,31.52 -63.03,45.9 -63.03,87.7 0,58.22 50.7,79.47 98.66,112.35 19.87,13.01 46.58,17.12 46.58,41.11 0,6.85 -12.33,6.85 -12.33,13.7l0 43.84c0,13.71 15.07,19.19 15.07,32.89 0,13.7 -10.26,18.49 -19.18,28.77l60.29 0c0,45.9 19.18,70.57 19.18,116.47 0,25.34 -13.7,37.68 -13.7,63.03 0,41.11 17.13,61.66 35.63,98.66 6.17,13.01 27.4,12.33 27.4,27.4 0,13.7 -6.85,25.34 -10.96,38.36l-5.48 21.93c11.65,23.29 16.44,39.73 16.44,65.77 0,67.14 26.73,102.76 52.07,164.42 33.58,81.52 63.72,141.81 145.24,175.39 -1.37,11.64 -2.74,17.81 -2.74,29.45 0,66.46 47.28,94.55 60.29,159.64 3.43,19.18 27.4,23.97 27.4,43.84 0,16.45 -21.92,19.18 -21.92,35.63 0,18.49 28.09,11.64 41.11,24.66 31.51,31.52 13.7,69.88 13.7,115.1 0,15.75 -24.67,16.44 -24.67,32.19l0 56.18c0,44.54 35.63,63.72 35.63,108.25l0 56.18c0,18.5 23.98,18.5 38.37,29.46 17.13,13.01 3.43,37.68 16.44,54.81 17.81,23.29 60.29,18.49 60.29,48.63l0 33.58c-10.97,5.48 -19.19,4.11 -31.52,2.74l0 33.57c0,31.51 15.07,46.58 26.04,76.05 18.5,49.33 8.22,85.63 32.88,131.54 7.54,14.38 32.89,10.96 32.89,27.4 0,38.37 -10.97,60.29 -10.97,98.65 0,43.16 -14.38,66.45 -19.18,109.62l10.96 5.48c4.11,-0.69 6.17,-5.48 10.96,-5.48 18.51,0 24.67,17.81 41.11,24.67 19.18,8.21 33.58,-0.7 54.81,2.74l8.22 10.96c-28.08,6.85 -39.74,22.6 -65.77,32.88l-32.88 -8.22c-9.6,28.77 9.59,58.23 -13.71,76.73 -11.64,8.9 -29.45,9.59 -32.88,24.67 -10.96,45.89 16.44,84.26 -13.7,120.57 -8.9,10.96 -24.67,4.79 -32.89,16.44 -15.75,22.61 -11.64,45.9 -21.92,71.26 -13.7,13.7 -27.41,23.97 -27.41,43.84 0,102.08 50.7,152.77 71.25,252.12 13.03,63.03 -21.23,110.29 13.71,164.42 16.44,25.35 52.06,27.41 52.06,57.55 0,26.04 -16.44,39.05 -16.44,65.08l0 121.95c0,67.83 -30.14,104.13 -30.14,171.97 0,54.8 23.29,85.63 57.55,128.79 19.87,25.35 54.81,32.89 54.81,65.77 0,41.11 -43.85,54.81 -43.85,95.92 0,19.18 -18.5,26.03 -24.67,43.84 -16.44,43.85 -16.44,73.3 -16.44,120.58 0,30.15 8.22,46.59 8.22,76.73 0,159.64 -141.81,276.78 -301.44,276.78 -76.73,0 -117.15,-28.08 -191.83,-46.58 -37,-8.9 -52.07,-33.57 -87.69,-46.59 -30.83,-10.96 -76.73,-2.74 -76.73,-35.63 0,-24.66 8.22,-47.26 13.7,-71.25z"/>
  <use x="4030.3" y="7805.56" width="256.13" height="256.13" xlink:href="#Symbole1"/>
  <use x="4707.23" y="2497.55" width="105.38" height="105.38" xlink:href="#Symbole2"/>
  <use x="6647.35" y="3010.79" width="105.38" height="105.38" xlink:href="#Symbole2"/>
  <use x="6101.35" y="4099.15" width="105.38" height="105.38" xlink:href="#Symbole2"/>
  <use x="4765.47" y="4907.23" width="105.38" height="105.38" xlink:href="#Symbole2"/>
  <use x="6596.39" y="10177.95" width="105.38" height="105.38" xlink:href="#Symbole2"/>
  <use x="7426.31" y="9533.67" width="105.38" height="105.38" xlink:href="#Symbole2"/>
  <use x="11987.23" y="16875.55" width="105.38" height="105.38" xlink:href="#Symbole2"/>
  <use x="11004.43" y="17854.71" width="105.38" height="105.38" xlink:href="#Symbole2"/>
  <use x="22910.87" y="14738.87" width="105.38" height="105.38" xlink:href="#Symbole2"/>
  <use x="24665.35" y="16395.07" width="105.38" height="105.38" xlink:href="#Symbole2"/>
  <path class="fil4 str2" d="M22832.55 1231.11l3106.71 0 0 1592.89 -3106.71 0 0 -1592.89z"/>
  <path class="fil5" d="M26107.99 2958.2c0,-17.45 4.47,-34.48 13.46,-51.13 8.93,-16.61 21.77,-29.59 38.43,-38.86 16.69,-9.26 34.1,-13.92 52.16,-13.92 17.92,0 35.18,4.56 51.69,13.74 16.56,9.12 29.4,21.92 38.53,38.43 9.17,16.51 13.73,33.77 13.73,51.74 0,18.01 -4.56,35.27 -13.73,51.78 -9.13,16.51 -21.97,29.35 -38.53,38.53 -16.51,9.17 -33.77,13.78 -51.69,13.78 -18.06,0 -35.47,-4.66 -52.16,-13.97 -16.66,-9.36 -29.5,-22.34 -38.43,-38.95 -8.99,-16.65 -13.46,-33.68 -13.46,-51.17zm17.22 0c0,14.62 3.76,28.88 11.24,42.7 7.48,13.83 18.2,24.65 32.13,32.46 13.92,7.81 28.41,11.71 43.46,11.71 15,0 29.35,-3.85 43.08,-11.52 13.74,-7.67 24.46,-18.39 32.13,-32.17 7.67,-13.79 11.52,-28.18 11.52,-43.18 0,-14.96 -3.85,-29.36 -11.52,-43.14 -7.67,-13.78 -18.39,-24.5 -32.13,-32.12 -13.73,-7.62 -28.08,-11.43 -43.08,-11.43 -15.05,0 -29.54,3.9 -43.46,11.66 -13.93,7.76 -24.65,18.58 -32.13,32.46 -7.48,13.87 -11.24,28.08 -11.24,42.57zm103.57 -33.35l5.08 -16.94c11.53,2.78 20.7,8.61 27.52,17.55 6.87,8.98 10.3,19.85 10.3,32.59 0,16.19 -5.22,29.31 -15.71,39.42 -10.49,10.11 -24.98,15.15 -43.55,15.15 -12.14,0 -22.68,-2.31 -31.61,-6.92 -8.99,-4.56 -15.71,-11.15 -20.28,-19.61 -4.56,-8.52 -6.82,-18.25 -6.82,-29.16 0,-12.23 2.92,-22.39 8.8,-30.48 5.88,-8.09 13.88,-13.6 23.94,-16.56l4.23 16.37c-6.91,2.77 -12.23,6.82 -15.89,12.23 -3.72,5.41 -5.55,11.71 -5.55,19 0,10.58 3.76,19.33 11.28,26.2 7.53,6.87 18.35,10.3 32.37,10.3 14.06,0 24.69,-3.24 31.89,-9.74 7.19,-6.49 10.81,-14.86 10.81,-25.16 0,-8.28 -2.39,-15.57 -7.24,-21.83 -4.8,-6.25 -11.33,-10.39 -19.57,-12.41z"/>
  <path id="1" class="fil5" d="M26313.45 2663.04l-18.58 0c14.44,9.27 21.68,22.91 21.68,40.92 0,11.67 -3.19,22.39 -9.64,32.13 -6.4,9.78 -15.38,17.35 -26.86,22.76 -11.52,5.37 -24.74,8.05 -39.69,8.05 -14.59,0 -27.8,-2.45 -39.7,-7.29 -11.86,-4.9 -20.98,-12.19 -27.29,-21.92 -6.35,-9.69 -9.5,-20.61 -9.5,-32.6 0,-8.84 1.88,-16.7 5.6,-23.56 3.72,-6.87 8.61,-12.47 14.58,-16.8l-72.67 0 0 -24.83 202.07 0 0 23.14zm-73.05 78.46c18.72,0 32.69,-3.95 41.96,-11.9 9.26,-7.91 13.87,-17.27 13.87,-28.04 0,-10.86 -4.42,-20.08 -13.26,-27.7 -8.84,-7.57 -22.34,-11.38 -40.5,-11.38 -19.94,0 -34.62,3.85 -43.98,11.61 -9.36,7.72 -14.01,17.27 -14.01,28.6 0,11.06 4.46,20.27 13.45,27.71 8.98,7.38 23.14,11.1 42.47,11.1z"/>
  <path id="2" class="fil5" d="M26252.77 2610.5l-24.83 0 0 -76.76 24.83 0 0 76.76z"/>
  <path id="3" class="fil5" d="M26313.45 2506.64l-146.47 0 0 -22.29 20.69 0c-7.15,-4.56 -12.93,-10.68 -17.26,-18.3 -4.37,-7.62 -6.54,-16.27 -6.54,-26.01 0,-10.82 2.26,-19.71 6.73,-26.62 4.52,-6.92 10.77,-11.81 18.86,-14.63 -17.07,-11.67 -25.59,-26.77 -25.59,-45.39 0,-14.58 4,-25.83 12.04,-33.63 8.05,-7.86 20.42,-11.81 37.12,-11.81l100.42 0 0 24.84 -92.19 0c-9.88,0 -17.03,0.84 -21.4,2.44 -4.38,1.6 -7.86,4.52 -10.54,8.8 -2.68,4.23 -4,9.22 -4,14.91 0,10.35 3.44,18.91 10.26,25.73 6.86,6.82 17.82,10.2 32.87,10.2l85 0 0 24.84 -95.06 0c-11.01,0 -19.29,2.02 -24.79,6.07 -5.5,4.04 -8.28,10.67 -8.28,19.85 0,6.96 1.84,13.4 5.51,19.33 3.66,5.93 9.03,10.21 16.13,12.89 7.05,2.63 17.26,3.95 30.57,3.95l75.92 0 0 24.83z"/>
  <path id="4" class="fil5" d="M26295.11 2175.88c7.85,9.22 13.35,18.11 16.6,26.62 3.25,8.52 4.84,17.64 4.84,27.43 0,16.08 -3.9,28.45 -11.75,37.11 -7.81,8.65 -17.83,12.98 -30.01,12.98 -7.15,0 -13.69,-1.65 -19.62,-4.89 -5.93,-3.29 -10.63,-7.57 -14.2,-12.84 -3.58,-5.32 -6.31,-11.24 -8.14,-17.88 -1.27,-4.89 -2.49,-12.27 -3.72,-22.1 -2.35,-20.04 -5.22,-34.86 -8.51,-44.31 -3.39,-0.1 -5.55,-0.14 -6.44,-0.14 -10.07,0 -17.17,2.35 -21.31,7.05 -5.6,6.35 -8.37,15.81 -8.37,28.32 0,11.71 2.07,20.36 6.16,25.92 4.09,5.59 11.38,9.68 21.78,12.37l-3.39 24.27c-10.4,-2.21 -18.82,-5.84 -25.21,-10.92 -6.4,-5.08 -11.29,-12.41 -14.77,-22.01 -3.44,-9.55 -5.18,-20.7 -5.18,-33.3 0,-12.51 1.46,-22.72 4.42,-30.57 2.97,-7.81 6.64,-13.6 11.11,-17.27 4.46,-3.67 10.11,-6.25 16.93,-7.76 4.23,-0.8 11.85,-1.22 22.81,-1.22l32.93 0c23,0 37.53,-0.52 43.69,-1.55 6.17,-0.99 12.05,-3.06 17.69,-6.07l0 25.96c-5.22,2.5 -11.34,4.1 -18.34,4.8zm-55.04 1.98c3.67,9.03 6.78,22.57 9.32,40.64 1.45,10.25 3.1,17.49 4.93,21.73 1.84,4.23 4.52,7.48 8,9.78 3.53,2.31 7.43,3.48 11.76,3.48 6.54,0 12.04,-2.49 16.42,-7.52 4.37,-5.04 6.58,-12.38 6.58,-22.02 0,-9.55 -2.07,-18.06 -6.25,-25.54 -4.14,-7.43 -9.84,-12.93 -17.03,-16.41 -5.6,-2.69 -13.83,-4 -24.7,-4l-9.03 -0.14z"/>
  <path id="5" class="fil5" d="M26369.61 2114.59l-202.63 0 0 -22.57 19.24 0c-7.44,-5.32 -13.03,-11.34 -16.75,-18.07 -3.72,-6.68 -5.6,-14.81 -5.6,-24.36 0,-12.51 3.2,-23.52 9.65,-33.07 6.39,-9.55 15.47,-16.74 27.14,-21.63 11.71,-4.85 24.5,-7.3 38.47,-7.3 14.91,0 28.37,2.69 40.36,8.05 11.95,5.36 21.12,13.17 27.52,23.42 6.35,10.21 9.54,20.98 9.54,32.27 0,8.28 -1.74,15.71 -5.22,22.25 -3.48,6.58 -7.85,11.94 -13.17,16.18l71.45 0 0 24.83zm-128.5 -22.57c18.77,0 32.69,-3.81 41.67,-11.39 8.99,-7.62 13.45,-16.84 13.45,-27.65 0,-11.01 -4.65,-20.42 -13.97,-28.23 -9.31,-7.85 -23.7,-11.76 -43.22,-11.76 -18.63,0 -32.55,3.81 -41.82,11.48 -9.26,7.67 -13.87,16.79 -13.87,27.42 0,10.54 4.94,19.85 14.77,27.94 9.87,8.14 24.17,12.19 42.99,12.19z"/>
  <path id="6" class="fil5" d="M26269.71 1967.51l-3.96 -24.55c9.84,-1.37 17.36,-5.22 22.63,-11.53 5.22,-6.3 7.85,-15.14 7.85,-26.43 0,-11.43 -2.3,-19.9 -6.96,-25.45 -4.61,-5.5 -10.06,-8.28 -16.32,-8.28 -5.6,0 -10.02,2.5 -13.22,7.44 -2.21,3.48 -4.98,11.94 -8.42,25.4 -4.56,18.15 -8.51,30.71 -11.85,37.77 -3.39,7 -7.99,12.32 -13.92,15.94 -5.88,3.62 -12.42,5.46 -19.57,5.46 -6.54,0 -12.56,-1.51 -18.11,-4.47 -5.55,-3.01 -10.16,-7.06 -13.83,-12.18 -2.82,-3.86 -5.22,-9.13 -7.19,-15.76 -1.98,-6.68 -2.97,-13.78 -2.97,-21.4 0,-11.48 1.65,-21.54 4.99,-30.2 3.29,-8.7 7.81,-15.1 13.45,-19.24 5.69,-4.09 13.27,-6.96 22.77,-8.51l3.38 24.27c-7.62,1.08 -13.59,4.28 -17.87,9.55 -4.28,5.27 -6.4,12.7 -6.4,22.34 0,11.34 1.88,19.47 5.65,24.32 3.76,4.84 8.18,7.29 13.21,7.29 3.2,0 6.12,-0.99 8.71,-3.01 2.63,-2.02 4.84,-5.18 6.58,-9.5 0.94,-2.5 3.06,-9.74 6.35,-21.87 4.66,-17.5 8.52,-29.73 11.48,-36.69 2.96,-6.96 7.34,-12.42 12.98,-16.37 5.69,-4 12.75,-5.98 21.21,-5.98 8.24,0 16,2.4 23.29,7.25 7.29,4.84 12.93,11.8 16.93,20.88 4,9.13 5.97,19.43 5.97,30.91 0,19 -3.95,33.53 -11.8,43.5 -7.9,9.98 -19.57,16.33 -35.04,19.1z"/>
  <path id="7" class="fil5" d="M26313.45 1809.47l-28.22 0 0 -28.22 28.22 0 0 28.22z"/>
  <path id="8" class="fil5" d="M26259.83 1642.44l3.38 -24.27c16.7,2.68 29.73,9.45 39.19,20.41 9.45,10.96 14.15,24.46 14.15,40.41 0,19.99 -6.53,36.08 -19.61,48.21 -13.08,12.18 -31.8,18.25 -56.16,18.25 -15.81,0 -29.59,-2.63 -41.39,-7.85 -11.86,-5.22 -20.75,-13.17 -26.63,-23.9 -5.92,-10.68 -8.89,-22.29 -8.89,-34.9 0,-15.85 4,-28.88 12.04,-38.95 8.05,-10.11 19.48,-16.6 34.25,-19.42l3.67 23.99c-9.83,2.3 -17.22,6.35 -22.2,12.23 -4.94,5.83 -7.44,12.88 -7.44,21.16 0,12.51 4.47,22.67 13.41,30.53 8.98,7.81 23.09,11.71 42.47,11.71 19.66,0 33.92,-3.76 42.81,-11.29 8.89,-7.57 13.35,-17.4 13.35,-29.49 0,-9.78 -2.96,-17.92 -8.93,-24.41 -5.93,-6.54 -15.1,-10.68 -27.47,-12.42z"/>
  <path id="9" class="fil5" d="M26240.21 1606.32c-27.04,0 -47.08,-7.53 -60.11,-22.63 -10.82,-12.56 -16.23,-27.94 -16.23,-46.05 0,-20.08 6.59,-36.54 19.76,-49.34 13.12,-12.75 31.33,-19.14 54.51,-19.14 18.82,0 33.59,2.82 44.36,8.46 10.77,5.65 19.14,13.88 25.12,24.7 5.97,10.77 8.93,22.58 8.93,35.32 0,20.51 -6.53,37.07 -19.66,49.72 -13.12,12.65 -32.03,18.96 -56.68,18.96zm0.05 -25.4c18.72,0 32.74,-4.1 42,-12.28 9.32,-8.23 13.97,-18.53 13.97,-31 0,-12.32 -4.65,-22.57 -14.01,-30.81 -9.36,-8.18 -23.61,-12.27 -42.76,-12.27 -18.06,0 -31.75,4.14 -41.01,12.37 -9.32,8.23 -13.97,18.48 -13.97,30.71 0,12.47 4.61,22.77 13.87,31 9.27,8.18 23.24,12.28 41.91,12.28z"/>
  <path id="10" class="fil5" d="M26313.45 1440.04l-146.47 0 0 -22.29 20.69 0c-7.15,-4.56 -12.93,-10.68 -17.26,-18.3 -4.37,-7.62 -6.54,-16.27 -6.54,-26.01 0,-10.82 2.26,-19.71 6.73,-26.62 4.52,-6.92 10.77,-11.81 18.86,-14.63 -17.07,-11.67 -25.59,-26.77 -25.59,-45.39 0,-14.58 4,-25.83 12.04,-33.63 8.05,-7.86 20.42,-11.81 37.12,-11.81l100.42 0 0 24.84 -92.19 0c-9.88,0 -17.03,0.84 -21.4,2.44 -4.38,1.6 -7.86,4.52 -10.54,8.8 -2.68,4.23 -4,9.22 -4,14.91 0,10.35 3.44,18.91 10.26,25.73 6.86,6.82 17.82,10.2 32.87,10.2l85 0 0 24.84 -95.06 0c-11.01,0 -19.29,2.02 -24.79,6.07 -5.5,4.04 -8.28,10.67 -8.28,19.85 0,6.96 1.84,13.4 5.51,19.33 3.66,5.93 9.03,10.21 16.13,12.89 7.05,2.63 17.26,3.95 30.57,3.95l75.92 0 0 24.83z"/>
  <g id="_1799685932000">
   <path class="fil6 str3" d="M22966.44 1834.84l713.63 0 0 99.16 -713.63 0 0 -99.16z"/>
   <path class="fil3 str3" d="M23680.07 1834.84l713.63 0 0 99.16 -713.63 0 0 -99.16z"/>
   <path class="fil6 str3" d="M24393.7 1834.84l713.63 0 0 99.16 -713.63 0 0 -99.16z"/>
   <path class="fil3 str3" d="M25107.5 1834.84l713.63 0 0 99.16 -713.63 0 0 -99.16z"/>
   <path class="fil6 str3" d="M24110.31 2133.78l1141.39 0 0 99.16 -1141.39 0 0 -99.16z"/>
   <path class="fil3 str3" d="M22968.94 2133.78l1141.38 0 0 99.16 -1141.38 0 0 -99.16z"/>
   <path class="fil7" d="M24066.88 1622.84l-16.34 45.39 -137.82 0 0 -6.47c40.57,-36.98 69.08,-67.14 85.61,-90.54 16.52,-23.41 24.81,-44.81 24.81,-64.21 0,-14.82 -4.53,-26.99 -13.64,-36.51 -9.06,-9.53 -19.88,-14.29 -32.52,-14.29 -11.52,0 -21.81,3.29 -30.92,9.94 -9.18,6.64 -15.88,16.4 -20.29,29.22l-6.35 0c2.88,-21.11 10.29,-37.34 22.17,-48.69 11.87,-11.28 26.75,-16.93 44.62,-16.93 18.94,0 34.81,6.12 47.51,18.29 12.7,12.17 19.05,26.51 19.05,43.09 0,11.82 -2.76,23.7 -8.29,35.52 -8.47,18.58 -22.28,38.27 -41.33,59.09 -28.64,31.16 -46.28,49.86 -53.04,56.03l60.39 0c12.29,0 20.93,-0.47 25.87,-1.35 4.94,-0.94 9.41,-2.82 13.4,-5.65 4,-2.76 7.47,-6.76 10.41,-11.93l6.7 0z"/>
   <path id="1" class="fil7" d="M24094.4 1552.64c0,-26.64 4,-49.51 12.05,-68.74 8.06,-19.22 18.7,-33.57 32.05,-42.98 10.29,-7.47 20.99,-11.17 31.98,-11.17 17.94,0 33.99,9.11 48.22,27.34 17.81,22.64 26.69,53.27 26.69,91.96 0,27.05 -3.88,50.09 -11.7,69.03 -7.82,18.93 -17.76,32.63 -29.87,41.21 -12.11,8.53 -23.81,12.82 -35.04,12.82 -22.29,0 -40.81,-13.11 -55.62,-39.39 -12.53,-22.17 -18.76,-48.86 -18.76,-80.08zm33.87 4.23c0,32.1 3.94,58.33 11.82,78.67 6.52,17.11 16.28,25.63 29.22,25.63 6.17,0 12.58,-2.76 19.22,-8.34 6.65,-5.59 11.65,-14.88 15.11,-27.99 5.24,-19.7 7.88,-47.57 7.88,-83.43 0,-26.64 -2.76,-48.86 -8.23,-66.62 -4.11,-13.23 -9.46,-22.58 -15.99,-28.05 -4.65,-3.82 -10.35,-5.7 -16.99,-5.7 -7.76,0 -14.7,3.53 -20.76,10.52 -8.23,9.53 -13.87,24.46 -16.81,44.92 -3,20.41 -4.47,40.52 -4.47,60.39z"/>
   <path id="2" class="fil7" d="M24404.15 1423.05l0 157.16 39.98 -36.63c8.52,-7.82 13.46,-12.76 14.81,-14.82 0.95,-1.41 1.42,-2.76 1.42,-4.17 0,-2.29 -1,-4.23 -2.89,-5.94 -1.88,-1.65 -4.99,-2.59 -9.4,-2.82l0 -5.65 68.61 0 0 5.65c-9.35,0.23 -17.17,1.7 -23.4,4.35 -6.23,2.7 -13.05,7.47 -20.52,14.29l-40.63 37.22 40.34 51.33c11.29,14.05 18.81,23.04 22.58,26.98 5.58,5.24 10.4,8.65 14.58,10.17 2.94,1.12 7.99,1.71 15.17,1.71l0 6.35 -76.73 0 0 -6.35c4.41,-0.12 7.35,-0.76 8.88,-1.94 1.58,-1.24 2.35,-2.88 2.35,-5.06 0,-2.64 -2.3,-6.88 -6.88,-12.7l-48.27 -61.79 0 52.21c0,10.23 0.7,16.93 2.11,20.17 1.47,3.17 3.47,5.46 6.12,6.88 2.64,1.35 8.35,2.11 17.17,2.23l0 6.35 -80.08 0 0 -6.35c7.99,0 14.05,-1 18.05,-2.94 2.41,-1.23 4.23,-3.17 5.46,-5.76 1.71,-3.76 2.59,-10.29 2.59,-19.52l0 -143.94c0,-18.05 -0.41,-29.1 -1.18,-33.16 -0.82,-4.05 -2.11,-6.82 -3.99,-8.35 -1.83,-1.58 -4.24,-2.35 -7.18,-2.35 -2.41,0 -6.05,1 -10.82,2.94l-2.93 -6.35 46.74 -19.4 7.94 0z"/>
   <path id="3" class="fil7" d="M24580.89 1539.35c11.41,-11.53 18.17,-18.17 20.22,-19.93 5.12,-4.36 10.65,-7.77 16.59,-10.18 5.93,-2.41 11.81,-3.64 17.63,-3.64 9.88,0 18.29,2.88 25.4,8.64 7.06,5.76 11.82,14.11 14.17,25.11 11.88,-13.88 21.88,-22.93 30.05,-27.28 8.17,-4.3 16.58,-6.47 25.22,-6.47 8.35,0 15.82,2.17 22.35,6.47 6.46,4.29 11.64,11.34 15.4,21.16 2.53,6.65 3.82,17.11 3.82,31.4l0 67.97c0,9.82 0.71,16.58 2.18,20.23 1.12,2.46 3.23,4.64 6.23,6.4 3.06,1.77 8,2.65 14.88,2.65l0 6.35 -77.26 0 0 -6.35 3.29 0c6.7,0 11.99,-1.29 15.76,-3.94 2.64,-1.82 4.52,-4.76 5.64,-8.76 0.47,-1.94 0.71,-7.47 0.71,-16.58l0 -67.91c0,-12.88 -1.53,-21.93 -4.65,-27.22 -4.52,-7.35 -11.7,-11.06 -21.63,-11.06 -6.06,0 -12.23,1.53 -18.41,4.59 -6.11,3 -13.58,8.7 -22.34,16.93l-0.35 1.94 0.7 7.41 0 75.32c0,10.7 0.59,17.4 1.77,20.05 1.23,2.59 3.46,4.82 6.76,6.58 3.29,1.77 8.93,2.65 16.87,2.65l0 6.35 -79.37 0 0 -6.35c8.64,0 14.58,-1 17.81,-3.06 3.24,-2.06 5.47,-5.17 6.7,-9.29 0.59,-1.94 0.89,-7.58 0.89,-16.93l0 -67.91c0,-12.88 -1.88,-22.17 -5.65,-27.87 -5.05,-7.41 -12.05,-11.11 -21.11,-11.11 -6.17,0 -12.28,1.7 -18.34,5.05 -9.47,5.06 -16.82,10.82 -21.93,17.17l0 84.67c0,10.29 0.7,16.93 2.12,20.05 1.41,3.06 3.52,5.35 6.35,6.94 2.76,1.53 8.4,2.29 16.93,2.29l0 6.35 -77.97 0 0 -6.35c7.24,0 12.29,-0.76 15.17,-2.29 2.89,-1.59 5.06,-4 6.59,-7.41 1.47,-3.35 2.23,-9.88 2.23,-19.58l0 -60.33c0,-17.28 -0.53,-28.45 -1.53,-33.51 -0.82,-3.82 -2.05,-6.41 -3.82,-7.82 -1.7,-1.47 -4.05,-2.18 -6.99,-2.18 -3.24,0 -7.06,0.89 -11.53,2.59l-2.58 -6.35 47.62 -19.4 7.41 0 0 33.75z"/>
   <path class="fil7" d="M23724.9 2426.7l57.09 -27.52 5.71 0 0 197.2c0,13.12 0.53,21.35 1.64,24.58 1.12,3.18 3.36,5.71 6.82,7.41 3.47,1.71 10.53,2.7 21.17,2.94l0 6.35 -88.19 0 0 -6.35c11.05,-0.24 18.16,-1.18 21.34,-2.88 3.23,-1.65 5.47,-3.88 6.76,-6.7 1.24,-2.83 1.88,-11.29 1.88,-25.35l0 -126.29c0,-16.99 -0.59,-27.93 -1.7,-32.75 -0.83,-3.7 -2.3,-6.41 -4.41,-8.11 -2.18,-1.71 -4.71,-2.59 -7.71,-2.59 -4.29,0 -10.23,1.76 -17.81,5.35l-2.59 -5.29z"/>
   <path id="1" class="fil7" d="M24183.17 2508.78c11.41,-11.53 18.17,-18.17 20.22,-19.93 5.12,-4.36 10.65,-7.77 16.59,-10.18 5.93,-2.41 11.81,-3.64 17.63,-3.64 9.88,0 18.29,2.88 25.4,8.64 7.06,5.76 11.82,14.11 14.17,25.11 11.88,-13.88 21.88,-22.93 30.05,-27.28 8.17,-4.3 16.58,-6.47 25.22,-6.47 8.35,0 15.82,2.17 22.35,6.47 6.46,4.29 11.64,11.34 15.4,21.16 2.53,6.65 3.82,17.11 3.82,31.4l0 67.97c0,9.82 0.71,16.58 2.18,20.23 1.12,2.46 3.23,4.64 6.23,6.4 3.06,1.77 8,2.65 14.88,2.65l0 6.35 -77.26 0 0 -6.35 3.29 0c6.7,0 11.99,-1.29 15.76,-3.94 2.64,-1.82 4.52,-4.76 5.64,-8.76 0.47,-1.94 0.71,-7.47 0.71,-16.58l0 -67.91c0,-12.88 -1.53,-21.93 -4.65,-27.22 -4.52,-7.35 -11.7,-11.06 -21.63,-11.06 -6.06,0 -12.23,1.53 -18.41,4.59 -6.11,3 -13.58,8.7 -22.34,16.93l-0.35 1.94 0.7 7.41 0 75.32c0,10.7 0.59,17.4 1.77,20.05 1.23,2.59 3.46,4.82 6.76,6.58 3.29,1.77 8.93,2.65 16.87,2.65l0 6.35 -79.37 0 0 -6.35c8.64,0 14.58,-1 17.81,-3.06 3.24,-2.06 5.47,-5.17 6.7,-9.29 0.59,-1.94 0.89,-7.58 0.89,-16.93l0 -67.91c0,-12.88 -1.88,-22.17 -5.65,-27.87 -5.05,-7.41 -12.05,-11.11 -21.11,-11.11 -6.17,0 -12.28,1.7 -18.34,5.05 -9.47,5.06 -16.82,10.82 -21.93,17.17l0 84.67c0,10.29 0.7,16.93 2.12,20.05 1.41,3.06 3.52,5.35 6.35,6.94 2.76,1.53 8.4,2.29 16.93,2.29l0 6.35 -77.97 0 0 -6.35c7.24,0 12.29,-0.76 15.17,-2.29 2.89,-1.59 5.06,-4 6.59,-7.41 1.47,-3.35 2.23,-9.88 2.23,-19.58l0 -60.33c0,-17.28 -0.53,-28.45 -1.53,-33.51 -0.82,-3.82 -2.05,-6.41 -3.82,-7.82 -1.7,-1.47 -4.05,-2.18 -6.99,-2.18 -3.24,0 -7.06,0.89 -11.53,2.59l-2.58 -6.35 47.62 -19.4 7.41 0 0 33.75z"/>
   <path id="2" class="fil7" d="M24450.81 2392.48c4.76,0 8.88,1.7 12.29,5.05 3.35,3.41 5.05,7.53 5.05,12.29 0,4.82 -1.7,9 -5.05,12.41 -3.41,3.47 -7.53,5.17 -12.29,5.17 -4.82,0 -9,-1.7 -12.41,-5.17 -3.47,-3.41 -5.17,-7.59 -5.17,-12.41 0,-4.76 1.7,-8.88 5.05,-12.29 3.41,-3.35 7.59,-5.05 12.53,-5.05zm14.17 82.55l0 127c0,9.82 0.7,16.34 2.17,19.58 1.41,3.29 3.53,5.7 6.35,7.29 2.82,1.59 8,2.41 15.47,2.41l0 6.35 -76.56 0 0 -6.35c7.65,0 12.82,-0.76 15.41,-2.23 2.64,-1.47 4.7,-3.94 6.29,-7.35 1.53,-3.41 2.29,-10 2.29,-19.7l0 -61.03c0,-16.99 -0.53,-27.99 -1.53,-33.05 -0.82,-3.64 -2.05,-6.17 -3.82,-7.58 -1.7,-1.47 -4.06,-2.18 -7,-2.18 -3.23,0 -7.11,0.89 -11.7,2.59l-2.41 -6.35 47.45 -19.4 7.59 0z"/>
   <path id="3" class="fil7" d="M23873.07 2522.07c0,-26.64 4,-49.51 12.05,-68.74 8.06,-19.22 18.7,-33.57 32.05,-42.98 10.29,-7.47 20.99,-11.17 31.98,-11.17 17.94,0 33.99,9.11 48.22,27.34 17.81,22.64 26.69,53.27 26.69,91.96 0,27.05 -3.88,50.09 -11.7,69.03 -7.82,18.93 -17.76,32.63 -29.87,41.21 -12.11,8.53 -23.81,12.82 -35.04,12.82 -22.29,0 -40.81,-13.11 -55.62,-39.39 -12.53,-22.17 -18.76,-48.86 -18.76,-80.08zm33.87 4.23c0,32.1 3.94,58.33 11.82,78.67 6.52,17.11 16.28,25.63 29.22,25.63 6.17,0 12.58,-2.76 19.22,-8.34 6.65,-5.59 11.65,-14.88 15.11,-27.99 5.24,-19.7 7.88,-47.57 7.88,-83.43 0,-26.64 -2.76,-48.86 -8.23,-66.62 -4.11,-13.23 -9.46,-22.58 -15.99,-28.05 -4.65,-3.82 -10.35,-5.7 -16.99,-5.7 -7.76,0 -14.7,3.53 -20.76,10.52 -8.23,9.53 -13.87,24.46 -16.81,44.92 -3,20.41 -4.47,40.52 -4.47,60.39z"/>
  </g>
  <path class="fil8 str4" d="M1000 1000l25526.55 0 -4.71 19000.01 -25521.84 0 0 -19000.01z"/>
 </g>
</svg>
