<?xml version="1.0" encoding="UTF-8"?>
<!DOCTYPE svg PUBLIC "-//W3C//DTD SVG 1.1//EN" "http://www.w3.org/Graphics/SVG/1.1/DTD/svg11.dtd">
<!-- Creator: CorelDRAW -->
<svg xmlns="http://www.w3.org/2000/svg" xml:space="preserve" width="297mm" height="210mm" version="1.1" style="shape-rendering:geometricPrecision; text-rendering:geometricPrecision; image-rendering:optimizeQuality; fill-rule:evenodd; clip-rule:evenodd"
viewBox="0 0 29700 21000"
 xmlns:xlink="http://www.w3.org/1999/xlink">
 <defs>
  <font id="FontID1" horiz-adv-x="722" font-variant="normal" style="fill-rule:nonzero" font-weight="400">
	<font-face 
		font-family="Times New Roman">
		<font-face-src>
			<font-face-name name="Times New Roman"/>
		</font-face-src>
	</font-face>
   <missing-glyph><path d="M0 0z"/></missing-glyph>
   <glyph unicode="k" horiz-adv-x="500" d="M164.012 694.994l0 -445.49 113.328 103.832c24.151,22.1668 38.1541,36.1699 41.9808,42.0092 2.6929,3.99683 4.02517,7.82357 4.02517,11.8204 0,6.4913 -2.83463,11.9905 -8.19207,16.8377 -5.3291,4.67714 -14.1448,7.34169 -26.6455,7.99365l0 16.0156 194.484 0 0 -16.0156c-26.5038,-0.651964 -48.6706,-4.81887 -66.3303,-12.3306 -17.6597,-7.6535 -36.9919,-21.1747 -58.1666,-40.5068l-115.171 -105.505 114.349 -145.501c32.0029,-39.8265 53.3193,-65.3098 64.0059,-76.4783 15.8172,-14.8534 29.4801,-24.5195 41.3289,-28.8282 8.33381,-3.17478 22.6487,-4.84721 43.0013,-4.84721l0 -17.9999 -217.501 0 0 17.9999c12.5007,0.340155 20.8345,2.15432 25.1715,5.49918 4.47871,3.51494 6.66138,8.16373 6.66138,14.3432 0,7.48342 -6.51964,19.5022 -19.5022,35.9998l-136.827 175.152 0 -147.996c0,-28.9982 1.98424,-47.9902 5.98106,-57.1744 4.1669,-8.98577 9.83616,-15.4771 17.3479,-19.5022 7.48342,-3.82675 23.6691,-5.98106 48.6706,-6.32122l0 -17.9999 -226.997 0 0 17.9999c22.6487,0 39.8265,2.83463 51.165,8.33381 6.83145,3.48659 11.9905,8.98577 15.4771,16.3275 4.84721,10.6582 7.34169,29.1683 7.34169,55.3319l0 408.016c0,51.165 -1.1622,82.4877 -3.34486,93.9963 -2.32439,11.4802 -5.98106,19.3322 -11.3102,23.6691 -5.18737,4.47871 -12.0188,6.66138 -20.3526,6.66138 -6.83145,0 -17.1495,-2.83463 -30.6707,-8.33381l-8.30546 17.9999 132.491 54.9918 22.5069 0z"/>
   <glyph unicode="8" horiz-adv-x="500" d="M191.819 333.834c-52.8091,43.0013 -86.8246,77.4987 -101.99,103.492 -15.1653,25.9935 -22.8188,53.0075 -22.8188,81.0137 0,43.0013 16.6676,79.9932 50.0028,111.004 33.3069,31.1526 77.4987,46.658 132.661,46.658 53.6595,0 96.6608,-14.5133 129.316,-43.5115 32.6833,-28.8282 49.0107,-61.8232 49.0107,-98.9852 0,-24.6613 -8.84404,-50.0028 -26.3337,-75.6846 -17.6597,-25.6534 -54.3398,-55.9839 -110.012,-90.6514 57.5146,-44.3336 95.4986,-79.1712 114.179,-104.513 24.8313,-33.1651 37.162,-68.1445 37.162,-104.825 0,-46.4879 -17.8298,-86.3428 -53.3193,-119.338 -35.688,-32.9951 -82.3459,-49.4926 -140.172,-49.4926 -63.0138,0 -112.166,19.6723 -147.344,58.9886 -28.1479,31.5211 -42.1509,66.0185 -42.1509,103.521 0,29.1683 9.83616,58.1666 29.6502,86.9947 19.6723,28.8282 53.8296,60.491 102.16,95.3285zm76.8468 52.3272c39.3446,35.3478 64.176,63.1839 74.6641,83.6782 10.5165,20.3243 15.6755,43.4832 15.6755,69.335 0,34.3273 -9.66608,61.1713 -28.9982,80.6452 -19.3322,19.5022 -45.6659,29.1683 -79.0011,29.1683 -33.5053,0 -60.661,-9.66608 -81.4955,-28.9982 -21.0046,-19.1621 -31.5211,-41.8108 -31.5211,-67.6626 0,-17.0078 4.33698,-33.9872 13.0109,-50.995 8.67396,-17.0078 21.0046,-33.1651 37.162,-48.5005l80.5034 -66.6704zm-53.8296 -71.0074c-27.1557,-22.6487 -47.1682,-47.3099 -60.3492,-74.1539 -12.9826,-26.6738 -19.4739,-55.6721 -19.4739,-86.8246 0,-41.8391 11.4802,-75.3444 34.4974,-100.516 22.9888,-25.1715 52.3272,-37.6722 87.9868,-37.6722 35.1777,0 63.4957,9.83616 84.6703,29.6786 21.1747,19.8424 31.8329,43.8233 31.8329,71.9995 0,23.329 -6.17949,44.3336 -18.6802,62.8437 -23.1589,34.3273 -69.987,79.3129 -140.484,134.645z"/>
   <glyph unicode="m" horiz-adv-x="777" d="M165.004 365.327c32.3431,32.6833 51.5052,51.5052 57.3162,56.4941 14.5133,12.359 30.1888,22.0251 47.0265,28.8565 16.8093,6.83145 33.477,10.318 49.9745,10.318 28.0061,0 51.8453,-8.16373 71.9995,-24.4912 20.0125,-16.3275 33.5053,-39.9966 40.1667,-71.1775 33.6754,39.3446 62.0217,64.998 85.1806,77.3286 23.1589,12.1889 46.9981,18.34 71.4893,18.34 23.6691,0 44.8438,-6.15114 63.3539,-18.34 18.3117,-12.1606 32.9951,-32.1447 43.6533,-59.9807 7.17161,-18.8503 10.8283,-48.5005 10.8283,-89.0073l0 -192.67c0,-27.836 2.01259,-46.9981 6.17949,-57.3445 3.17478,-6.97318 9.15585,-13.1527 17.6597,-18.1416 8.67396,-5.01729 22.677,-7.51176 42.1793,-7.51176l0 -17.9999 -219.003 0 0 17.9999 9.32593 0c18.992,0 33.9872,3.65667 44.6737,11.1684 7.48342,5.15902 12.8125,13.4928 15.9873,24.8313 1.33228,5.49918 2.01259,21.1747 2.01259,46.9981l0 192.5c0,36.51 -4.33698,62.1634 -13.181,77.1586 -12.8125,20.8345 -33.1651,31.351 -61.313,31.351 -17.1778,0 -34.6675,-4.33698 -52.1855,-13.0109 -17.3196,-8.50388 -38.4942,-24.6613 -63.3256,-47.9902l-0.99212 -5.49918 1.98424 -21.0046 0 -213.504c0,-30.3305 1.67243,-49.3225 5.01729,-56.8343 3.48659,-7.34169 9.80781,-13.6629 19.1621,-18.6519 9.32593,-5.01729 25.3132,-7.51176 47.8202,-7.51176l0 -17.9999 -224.984 0 0 17.9999c24.4912,0 41.3289,2.83463 50.4847,8.67396 9.18419,5.83933 15.5054,14.655 18.992,26.3337 1.67243,5.49918 2.52282,21.4865 2.52282,47.9902l0 192.5c0,36.51 -5.3291,62.8437 -16.0156,79.0011 -14.3149,21.0046 -34.1573,31.4927 -59.839,31.4927 -17.4897,0 -34.8092,-4.81887 -51.9871,-14.3149 -26.8439,-14.3432 -47.6784,-30.6707 -62.1634,-48.6706l0 -240.008c0,-29.1683 1.98424,-47.9902 6.00941,-56.8343 3.99683,-8.67396 9.97789,-15.1653 17.9999,-19.6723 7.82357,-4.33698 23.8109,-6.4913 47.9902,-6.4913l0 -17.9999 -221.016 0 0 17.9999c20.5227,0 34.8376,2.15432 43.0013,6.4913 8.19207,4.50706 14.3432,11.3385 18.6802,21.0046 4.1669,9.496 6.32122,28.0061 6.32122,55.502l0 171.013c0,48.9824 -1.50235,80.6452 -4.33698,94.9884 -2.32439,10.8283 -5.81099,18.17 -10.8283,22.1668 -4.81887,4.1669 -11.4802,6.17949 -19.814,6.17949 -9.18419,0 -20.0125,-2.52282 -32.6833,-7.34169l-7.31334 17.9999 134.985 54.9918 21.0046 0 0 -95.6687z"/>
   <glyph unicode="4" horiz-adv-x="500" d="M464.992 244.005l0 -68.9948 -88.979 0 0 -175.01 -81.0137 0 0 175.01 -279.012 0 0 62.1634 306.026 438.829 53.9997 0 0 -431.997 88.979 0zm-169.993 0l0 328.987 -231.334 -328.987 231.334 0z"/>
   <glyph unicode=" " horiz-adv-x="250" d=""/>
   <glyph unicode="i" horiz-adv-x="277" d="M145.842 694.994c13.4928,0 25.1715,-4.81887 34.8376,-14.3149 9.496,-9.66608 14.3149,-21.3447 14.3149,-34.8376 0,-13.6629 -4.81887,-25.5117 -14.3149,-35.1777 -9.66608,-9.83616 -21.3447,-14.655 -34.8376,-14.655 -13.6629,0 -25.5117,4.81887 -35.1777,14.655 -9.83616,9.66608 -14.655,21.5148 -14.655,35.1777 0,13.4928 4.81887,25.1715 14.3149,34.8376 9.66608,9.496 21.5148,14.3149 35.5179,14.3149zm40.1667 -233.999l0 -359.998c0,-27.836 1.98424,-46.3178 6.15114,-55.502 3.99683,-9.32593 10.0062,-16.1574 17.9999,-20.6644 7.99365,-4.50706 22.677,-6.83145 43.8517,-6.83145l0 -17.9999 -217.019 0 0 17.9999c21.6849,0 36.3399,2.15432 43.6816,6.32122 7.48342,4.1669 13.3228,11.1684 17.8298,20.8345 4.33698,9.66608 6.4913,28.3463 6.4913,55.8422l0 172.997c0,48.1603 -1.50235,79.3412 -4.33698,93.6844 -2.32439,10.318 -5.81099,17.4897 -10.8283,21.4865 -4.81887,4.1669 -11.5086,6.17949 -19.8424,6.17949 -9.15585,0 -20.1542,-2.52282 -33.1651,-7.34169l-6.83145 17.9999 134.503 54.9918 21.5148 0z"/>
  </font>
  <font id="FontID0" horiz-adv-x="666" font-variant="normal" style="fill-rule:nonzero" font-weight="400">
	<font-face 
		font-family="Arial">
		<font-face-src>
			<font-face-name name="Arial"/>
		</font-face-src>
	</font-face>
   <missing-glyph><path d="M0 0z"/></missing-glyph>
   <glyph unicode="c" horiz-adv-x="500" d="M405.003 189.994l85.9967 -11.9765c-9.49614,-59.1737 -33.4845,-105.343 -72.3195,-138.863 -38.835,-33.4845 -86.67,-50.1382 -143.186,-50.1382 -70.8313,0 -127.844,23.138 -170.824,69.4848 -43.1578,46.3468 -64.6659,112.678 -64.6659,198.994 0,56.0201 9.31897,104.847 27.8152,146.836 18.4962,41.8468 46.6657,73.347 84.6857,94.1818 37.8428,20.9765 78.9809,31.5002 123.662,31.5002 56.1619,0 102.332,-14.1733 138.013,-42.6618 35.8231,-28.5238 58.8194,-69.0242 68.8116,-121.359l-85.0046 -13.004c-8.14967,34.831 -22.5002,61.0162 -43.335,78.662 -20.6576,17.5041 -45.6382,26.3624 -74.977,26.3624 -44.3271,0 -80.3274,-15.8387 -108.178,-47.5161 -27.6734,-31.8191 -41.4925,-81.8156 -41.4925,-150.485 0,-69.662 13.3229,-120.19 40.0043,-151.69 26.823,-31.5002 61.654,-47.3035 104.493,-47.3035 34.6538,0 63.4966,10.4883 86.4928,31.642 23.1734,21.012 37.8428,53.5044 44.0082,97.3354z"/>
   <glyph unicode="-" horiz-adv-x="333" d="M31.0042 215.01l0 87.981 271.986 0 0 -87.981 -271.986 0z"/>
   <glyph unicode="©" horiz-adv-x="736" d="M369.818 728.014c61.8312,0 122.174,-15.8387 181.171,-47.6933 58.8548,-31.642 104.847,-77.1384 137.694,-136.17 32.8113,-59.1383 49.3232,-120.828 49.3232,-184.82 0,-63.4966 -16.1576,-124.655 -48.6854,-183.155 -32.3152,-58.6776 -77.6699,-104.174 -136.17,-136.525 -58.5005,-32.4924 -119.658,-48.65 -183.332,-48.65 -63.8155,0 -124.973,16.1576 -183.474,48.65 -58.5005,32.3506 -103.997,77.8471 -136.525,136.525 -32.4924,58.5005 -48.8272,119.658 -48.8272,183.155 0,63.9926 16.5119,125.682 49.5004,184.82 33.1656,59.032 79.1581,104.528 138.013,136.17 58.9965,31.8546 119.34,47.6933 181.312,47.6933zm0 -61.0162c-51.8036,0 -102.332,-13.3229 -151.3,-39.8271 -49.0043,-26.5041 -87.3432,-64.4887 -115.017,-113.847 -27.6734,-49.3232 -41.4925,-100.666 -41.4925,-153.993 0,-53.15 13.6418,-103.997 40.8192,-152.647 27.1774,-48.6854 65.1619,-86.67 113.989,-113.847 48.8626,-27.1774 99.8512,-40.8192 153.001,-40.8192 53.0083,0 104.032,13.6418 152.859,40.8192 48.8272,27.1774 86.8117,65.1619 113.812,113.847 27.0002,48.65 40.5003,99.4968 40.5003,152.647 0,53.3272 -13.819,104.67 -41.3153,153.993 -27.4963,49.3587 -65.8352,87.3432 -115.017,113.847 -49.1461,26.5041 -99.4968,39.8271 -150.84,39.8271zm118.17 -366.983l60.0241 -18.0001c-9.85047,-40.6775 -30.5081,-73.347 -62.1855,-97.5126 -31.8191,-24.3427 -70.3352,-36.4964 -115.477,-36.4964 -57.3666,0 -103.855,18.4962 -139.678,55.6658 -35.8231,37.1696 -53.6815,88.5125 -53.6815,154.312 0,43.0161 8.1851,80.3628 24.5199,112.005 16.1576,31.8546 39.5082,55.6658 69.4848,71.8588 30.1892,16.1576 64.6659,24.1655 103.324,24.1655 43.335,0 79.3353,-10.3465 108.001,-31.1813 28.6656,-20.8348 48.1894,-49.1815 58.6776,-84.8274l-58.0044 -14.9883c-9.81504,24.4844 -24.1655,43.335 -43.335,56.3036 -19.1694,13.1812 -41.4925,19.6655 -67.3234,19.6655 -37.4885,0 -68.4927,-13.3229 -92.8354,-39.9688 -24.3427,-26.6813 -36.4964,-65.0202 -36.4964,-114.698 0,-49.8193 11.4804,-87.4849 34.5121,-112.997 22.9962,-25.4766 52.654,-38.3035 89.1503,-38.3035 29.3388,0 55.1697,8.46857 77.351,25.6537 22.1458,17.008 36.8153,40.146 43.9728,69.3431z"/>
   <glyph unicode="s" horiz-adv-x="500" d="M31.0042 154.985l86.9889 14.0316c4.85437,-34.8664 18.4962,-61.5123 40.8547,-80.1857 22.323,-18.4962 53.6461,-27.8152 93.6503,-27.8152 40.5003,0 70.5124,8.14967 90.1779,24.6616 19.4883,16.3348 29.3388,35.6459 29.3388,57.8272 0,19.8427 -8.85834,35.5042 -26.3624,46.8429 -12.3308,7.83077 -42.3074,17.6458 -90.0007,29.8349 -64.3115,16.1576 -108.816,30.1538 -133.832,41.9885 -24.8033,12.0119 -43.6539,28.3112 -56.4808,49.3232 -12.8269,20.8348 -19.3466,44.0082 -19.3466,69.3431 0,23.1734 5.35044,44.5043 15.8387,64.1698 10.6654,19.6655 25.0159,36.0003 43.1578,49.0043 13.6773,9.9922 32.3506,18.4962 55.843,25.4766 23.6695,7.0158 48.8272,10.5237 75.8274,10.5237 40.6775,0 76.3234,-5.8465 107.009,-17.6812 30.827,-11.6576 53.5044,-27.6734 68.1738,-47.6579 14.4922,-20.1616 24.6616,-47.0201 30.1538,-80.6817l-85.9967 -11.9765c-3.8268,27.0002 -15.1655,48.1539 -33.8388,63.3194 -18.6734,15.1655 -45.0004,22.6773 -79.1581,22.6773 -40.1814,0 -68.9887,-6.66147 -86.1739,-20.0198 -17.1497,-13.3229 -25.8309,-28.9845 -25.8309,-46.8075 0,-11.3387 3.5079,-21.6852 10.6654,-30.8624 7.15754,-9.31897 18.3545,-17.1497 33.6617,-23.3151 8.85834,-3.33073 34.5121,-10.8426 77.4927,-22.5002 62.0084,-16.5119 105.343,-30.1892 130.005,-40.6775 24.6616,-10.4883 44.0082,-26.0081 58.0044,-45.9925 14.1733,-20.1616 21.1891,-45.1775 21.1891,-75.1541 0,-29.1971 -8.504,-56.6934 -25.6892,-82.5243 -17.1497,-25.8309 -41.8114,-45.8153 -73.9848,-59.9887 -32.3506,-14.1733 -68.847,-21.1537 -109.524,-21.1537 -67.3234,0 -118.808,13.9962 -154.135,41.8114 -35.3625,27.9923 -57.8627,69.3431 -67.6777,124.158z"/>
   <glyph unicode="p" horiz-adv-x="556" d="M66.0123 -198.994l0 717.986 79.9731 0 0 -68.1738c18.8505,26.3624 40.1814,46.1697 64.0281,59.3509 23.6695,13.1812 52.4768,19.8427 86.3156,19.8427 44.3271,0 83.3392,-11.3387 117.178,-34.1932 33.8388,-22.6419 59.3154,-54.8154 76.6423,-96.1661 17.1852,-41.4925 25.8663,-86.8117 25.8663,-136.312 0,-52.8311 -9.53157,-100.524 -28.5238,-143.009 -18.9923,-42.3429 -46.6657,-74.8352 -82.9849,-97.5126 -36.1775,-22.5002 -74.3392,-33.8034 -114.343,-33.8034 -29.3388,0 -55.6658,6.1654 -78.8392,18.4962 -23.3151,12.3308 -42.3074,27.8152 -57.3312,46.6657l0 -253.171 -87.981 0zm79.9731 455.319c0,-66.5084 13.5001,-115.654 40.3586,-147.509 27.0002,-31.8191 59.6698,-47.7996 97.9732,-47.7996 39.0121,0 72.3549,16.4765 100.028,49.5004 27.8152,32.9884 41.6696,83.977 41.6696,153.143 0,66.0123 -13.5001,115.336 -40.6775,148.182 -27.1774,32.8113 -59.4926,49.1461 -97.1582,49.1461 -37.3468,0 -70.3352,-17.5041 -99.0008,-52.3351 -28.8427,-34.9727 -43.1933,-85.6424 -43.1933,-152.328z"/>
   <glyph unicode="m" horiz-adv-x="833" d="M66.0123 0l0 518.992 78.9809 0 0 -73.3116c16.1576,25.3348 37.8428,45.8153 64.843,61.158 27.0002,15.4844 57.6501,23.1734 92.1621,23.1734 38.3389,0 69.8391,-8.00794 94.3236,-23.8466 24.5199,-16.0159 41.8468,-38.1617 51.839,-66.8273 41.3507,60.4847 94.8551,90.6739 160.832,90.6739 51.6618,0 91.5243,-14.1733 119.162,-42.6618 27.8506,-28.5238 41.8468,-72.3549 41.8468,-131.529l0 -355.822 -88.0164 0 0 326.66c0,35.0081 -2.9764,60.343 -8.64574,75.8274 -5.66934,15.5198 -16.0159,27.8506 -31.1813,37.3468 -14.9883,9.49614 -32.6695,14.1733 -52.8311,14.1733 -36.6735,0 -67.0045,-12.1891 -91.17,-36.3546 -24.1655,-24.3073 -36.142,-63.1422 -36.142,-116.469l0 -301.183 -88.0164 0 0 336.829c0,39.0121 -7.15754,68.3509 -21.508,87.8393 -14.3151,19.4883 -37.8074,29.3388 -70.3352,29.3388 -24.6616,0 -47.4807,-6.51974 -68.4927,-19.5238 -21.012,-12.9686 -36.1775,-31.9963 -45.6736,-57.154 -9.31897,-24.9805 -13.9962,-61.158 -13.9962,-108.32l0 -269.01 -87.981 0z"/>
   <glyph unicode="d" horiz-adv-x="556" d="M400.999 0l0 65.8352c-32.8467,-51.1658 -81.1778,-76.8195 -144.993,-76.8195 -41.3507,0 -79.3353,11.3032 -113.847,34.1577 -34.6538,22.6773 -61.4769,54.4965 -80.6463,95.174 -19.0277,40.8192 -28.5238,87.6621 -28.5238,140.635 0,51.6973 8.68117,98.5047 25.8309,140.67 17.3623,42.024 43.1933,74.3392 77.6699,96.6976 34.3349,22.5002 73.0281,33.6617 115.513,33.6617 31.3231,0 59.1737,-6.66147 83.481,-19.8427 24.3427,-13.1812 44.1854,-30.5081 59.528,-51.6618l0 257.494 87.981 0 0 -716.002 -81.9928 0zm-278.01 258.841c0,-66.3312 13.9962,-115.832 42.1657,-148.678 28.0278,-32.8113 61.1934,-49.1461 99.3551,-49.1461 38.4806,0 71.1502,15.6615 98.1504,46.9846 26.823,31.3231 40.3232,79.1581 40.3232,143.505 0,70.6541 -13.6418,122.67 -41.1381,155.836 -27.3545,33.1656 -61.1934,49.6421 -101.339,49.6421 -39.1893,0 -71.8234,-15.8033 -98.1858,-47.6579 -26.1498,-31.8191 -39.331,-81.9928 -39.331,-150.485z"/>
   <glyph unicode=" " horiz-adv-x="277" d=""/>
   <glyph unicode="." horiz-adv-x="277" d="M90.9928 0l0 99.9929 99.9929 0 0 -99.9929 -99.9929 0z"/>
   <glyph unicode="a" horiz-adv-x="556" d="M405.003 64.9848c-32.6695,-27.8152 -64.1698,-47.3035 -94.3236,-58.8194 -30.1892,-11.5158 -62.5044,-17.1497 -97.1937,-17.1497 -56.9768,0 -100.808,13.819 -131.493,41.6342 -30.6498,27.6734 -45.9925,63.1777 -45.9925,106.335 0,25.3348 5.8465,48.5083 17.3269,69.5202 11.6576,21.012 26.823,37.6657 45.4964,50.3154 18.8505,12.6851 39.8271,22.3584 63.3548,28.8427 17.3269,4.50004 43.4767,8.8229 78.3077,13.1812 71.0084,8.32684 123.521,18.4962 157.005,30.1538 0.354333,12.0119 0.496067,19.6655 0.496067,22.8191 0,35.6814 -8.32684,60.8391 -24.9805,75.5085 -22.5002,19.8427 -56.0201,29.6577 -100.347,29.6577 -41.4925,0 -72.1423,-7.3347 -91.8432,-21.8269 -19.8072,-14.4922 -34.2995,-40.146 -43.8311,-77.1738l-85.9967 12.0119c7.83077,36.8507 20.6931,66.6856 38.6932,89.3275 18.0001,22.6773 43.9728,40.0043 77.9888,52.3351 33.8388,12.1891 73.347,18.3545 117.993,18.3545 44.3271,0 80.5046,-5.17327 108.32,-15.6615 27.6734,-10.5237 48.1894,-23.5277 61.1934,-39.3665 13.004,-15.8033 22.1458,-35.8231 27.4963,-59.9887 2.83467,-14.9883 4.32287,-41.9885 4.32287,-80.8235l0 -116.682c0,-81.4967 1.84253,-132.981 5.49217,-154.808 3.5079,-21.8624 10.8426,-42.6972 21.508,-62.6816l-91.985 0c-8.85834,18.4962 -14.5277,40.1814 -17.008,64.9848zm-7.0158 195.025c-31.9963,-13.004 -79.9731,-24.0238 -144.001,-33.0239 -36.3192,-5.13784 -61.9729,-10.9843 -76.9967,-17.4686 -14.9883,-6.51974 -26.5041,-16.0159 -34.6538,-28.3467 -8.1851,-12.508 -12.3308,-26.327 -12.3308,-41.6696 0,-23.1734 8.8229,-42.6618 26.6459,-58.1816 17.8584,-15.4844 43.8665,-23.3151 78.0242,-23.3151 33.8388,0 63.9926,7.3347 90.4968,22.1458 26.327,14.6694 45.8153,34.8664 58.1461,60.343 9.53157,19.8427 14.1733,49.0043 14.1733,87.5204l0.496067 31.9963z"/>
   <glyph unicode="o" horiz-adv-x="556" d="M32.9884 259.514c0,95.8118 26.6813,166.82 80.1857,212.99 44.5043,38.3389 99.0008,57.5083 163.171,57.5083 71.1502,0 129.473,-23.3506 174.828,-70.0163 45.1775,-46.4886 67.8194,-111.013 67.8194,-193.147 0,-66.6856 -9.9922,-119.021 -29.9766,-157.182 -20.0198,-38.1617 -49.1815,-67.8194 -87.5204,-89.0086 -38.1617,-21.1537 -80.0085,-31.642 -125.151,-31.642 -72.6738,0 -131.351,23.138 -176.175,69.662 -44.8232,46.4886 -67.1816,113.493 -67.1816,200.836zm90.0007 -0.177167c0,-66.3312 14.5277,-116.009 43.5122,-148.82 29.1616,-33.0239 65.658,-49.5004 109.843,-49.5004 43.6539,0 79.9731,16.4765 109.17,49.6421 28.9845,33.1656 43.4767,83.6581 43.4767,151.513 0,63.9926 -14.6694,112.501 -43.8311,145.312 -29.1616,33.0239 -65.4808,49.5004 -108.816,49.5004 -44.1854,0 -80.6817,-16.3348 -109.843,-49.1461 -28.9845,-32.8467 -43.5122,-82.3471 -43.5122,-148.501z"/>
  </font>
  <style type="text/css">
   <![CDATA[
    @font-face { font-family:"Times New Roman";font-variant:normal;font-weight:normal;src:url("#FontID1") format(svg)}
    @font-face { font-family:"Arial";font-variant:normal;font-weight:normal;src:url("#FontID0") format(svg)}
    .str3 {stroke:black;stroke-width:10;stroke-miterlimit:3.864;stroke-opacity:0.501961}
    .str0 {stroke:#2B2A29;stroke-width:75;stroke-miterlimit:22.9256}
    .str4 {stroke:black;stroke-width:50;stroke-miterlimit:22.9256}
    .str2 {stroke:#003399;stroke-width:20;stroke-miterlimit:22.9256}
    .str1 {stroke:black;stroke-width:10;stroke-miterlimit:22.9256}
    .str5 {stroke:black;stroke-width:10;stroke-miterlimit:3.864}
    .fil3 {fill:none}
    .fil0 {fill:#FEFEFE}
    .fil1 {fill:#2B2A29}
    .fil2 {fill:#A2D9F7}
    .fil5 {fill:black}
    .fil7 {fill:#FEFEFE;fill-rule:nonzero}
    .fil6 {fill:#D9DADA;fill-rule:nonzero}
    .fil4 {fill:#FEFEFE;fill-rule:nonzero;fill-opacity:0.501961}
    .fnt0 {font-weight:normal;font-size:282.22px;font-family:'Arial'}
    .fnt1 {font-weight:normal;font-size:352.78px;font-family:'Times New Roman'}
   ]]>
  </style>
 </defs>
<symbol id="Capitale" viewBox="14721.93 10371.93 256.13 256.13">
 <circle class="fil0 str0" cx="14849.99" cy="10499.99" r="90.56"/>
</symbol>
<symbol id="villes" viewBox="14797.31 10447.31 105.38 105.38">
 <circle class="fil1" cx="14850" cy="10500" r="52.69"/>
</symbol>
 <g id="Plan_x0020_1">
  <metadata id="CorelCorpID_0Corel-Layer"/>
  <rect class="fil2" x="999.99" y="1000" width="24510.63" height="19000"/>
  <path class="fil0 str1" d="M7387.26 15810.49c20.76,9.77 49.93,25.26 72.99,16.45 6.22,-2.37 26.8,-14.9 31.02,-10.97 11.08,10.29 68.59,83.68 54.75,18.28 -7.07,-33.45 -31.84,-160.88 -20.07,-186.43 22.14,-48.08 75.67,-65.08 108.57,-101.44 57.7,-63.74 92.38,-40.73 144.17,19.19 37.03,42.86 37.91,-8.22 52.92,-8.22 16.6,0 31.24,4.52 46.53,-5.49 43.31,-28.34 41.99,15.65 75.73,35.64 21.69,12.86 339.86,58.24 212.6,-17.36 -11.48,-6.82 -102.93,-128.27 -99.45,-133.42 15.74,-23.35 67.65,-40.21 95.8,-42.04 117.45,-7.63 81.95,-1.81 118.62,-107.84 17.54,-50.7 42.59,-64.03 83.94,-96.87 50.2,-34.52 53.54,-8.01 70.26,-73.11 10.53,-40.98 30.2,-53.09 58.39,-81.33 52.05,-52.17 -43.25,-142.67 50.18,-95.96 33.21,16.6 23.2,65.09 75.74,34.73 17.71,-10.24 -1.58,-49.58 -3.65,-65.8 -4.98,-39.03 130.81,67.36 152.37,71.28 20.02,3.65 -87.51,-116.45 6.39,-162.67 72.08,-35.49 101.09,-17.13 172.45,-7.31 88.83,12.22 89.62,-76.1 154.2,-65.8 15.44,2.46 72.08,42.65 72.08,21.02 0,-35.47 -20.45,-62.06 -21.9,-94.13 -6.8,-149.44 140.96,-90.47 178.84,-144.39 38.01,-12.21 102.12,-33.15 141.42,-13.7 31.6,15.65 59.34,51.17 99.46,51.17 70.25,0 109.22,-63.78 172.45,-47.52 46.75,12.03 97.79,-44.48 132.3,-73.11 60.75,-50.42 38.68,-61.91 36.5,-131.6 -0.74,-23.62 21.7,-90.64 13.68,-105.09 -16.26,-29.25 -68.7,-24.3 -19.16,-78.59 52.12,-41.76 42.24,-61.92 34.67,-120.63 -9.47,-73.52 -3.5,-44.26 -72.08,-53.01 -35.66,-4.55 -50.42,-27.27 -71.17,-53 -72.31,-89.63 -264.25,-166.75 -215.33,-314.37 27.68,-83.51 166.18,-71.63 233.58,-77.68 48.69,-4.37 97.97,25.45 143.25,4.57 101.6,-46.87 31.59,-54.49 11.86,-99.61 -43.77,-47.96 -85.19,-118.42 -23.72,-169.98 14.08,-11.82 117.31,-42.93 137.78,-42.04 40.44,1.75 51.7,19.17 83.94,-27.42 48.47,-70.06 68.93,-23.66 115.88,-68.54 58.96,-56.38 88.66,-94.52 176.1,-105.09 96.03,-11.6 132.41,-119.86 222.63,-149.88 27.79,-9.25 123.34,-22.85 33.76,-39.29 -61.84,-11.35 -51.29,12.86 -106.75,28.33 -57.49,16.03 -122.64,-99.25 -107.67,-136.17 0,-49.89 52.94,-256.3 134.13,-227.55 41.54,14.7 191.41,133.2 204.38,48.43 10.56,-68.96 -23.58,-48.86 -83.03,-69.45 -82.66,-28.64 12.85,-149 51.09,-174.55 82.33,-54.99 112.26,-44.54 199.83,2.74l140.51 75.85c7.78,-31.49 -43.3,-185.86 -42.88,-186.43 17.09,-22.75 62.02,-20.15 22.81,-55.74 -48.95,-44.45 -38.88,-68.18 -55.66,-127.03 -31.28,-44.36 -52.88,-96.52 -2.74,-143.48 43.57,-40.79 78.89,21.93 125.92,21.93 53.03,0 59.35,11.49 98.54,42.04 77.96,60.8 56.45,-33.2 77.55,-57.57 35.8,-41.32 155.37,-7.81 124.09,-102.35 -24.75,-74.77 -188.64,-124.86 -159.67,-184.61 22.98,-47.37 79.23,-82.7 112.23,-124.28 56.55,-71.28 52.96,21.93 107.66,21.93 21.14,0 68.74,-76.29 88.51,-95.04 48.3,-45.78 -8.75,-78.83 73.91,-129.77 20.52,-6.84 211.03,20.08 127.74,-53.92 -82.17,-73.02 62.42,-28.04 -8.22,-112.4 -31.36,-37.44 52.09,-68.67 70.26,-93.22 28.69,-38.75 96.03,-81.1 78.47,-122.46 -50.44,-118.73 -31.98,-129.9 79.38,-185.51 75.04,-37.48 37.37,-39.6 77.56,-89.56 39.65,-49.31 61.99,-52.11 115.88,-76.77 69.47,2.26 192.47,62.93 223.54,-42.95 24.12,-82.17 77.12,-45.28 134.13,-85.9 9.68,-108 126.24,3.84 150.55,-2.74 67.44,-94.66 112.71,-212.03 95.8,-326.25 -20.53,-138.61 269.17,37.61 269.17,-141.65 -1.98,-2.66 -2.35,-6.37 -4.56,-9.14l-1.83 -0.92c-30.81,0 -84.27,46.24 -110.4,20.11 0,-30.58 14.57,-47.32 31.02,-71.28 29.49,-42.94 77.37,-54.68 113.14,-92.3 32.27,-33.92 79.34,-73.18 129.57,-67.63 32.64,3.6 58.46,-2.06 52.92,-41.12 -4.85,-34.22 -13.66,-77.35 -3.65,-111.5 15.77,-53.85 38.02,-98.79 64.78,-148.04 49.48,-91.08 101.1,-130.96 193.43,-173.64 74.03,-14.05 252.07,-113.55 130.48,-185.51 -30.56,-18.09 23.72,-53.54 23.72,-82.25 0,-77.85 55.71,-31.72 107.67,-55.75 26.34,-12.19 33.46,-47.27 55.66,-65.8 29.46,-24.57 57.6,-19.07 63.87,-66.71 3.78,-28.69 -6.22,-155.89 -51.1,-150.79 -13.48,1.53 -24.39,29.71 -36.49,32.9 -54.11,14.27 -64.95,-123.01 -65.7,-149.87 -10.94,-35.73 -74.71,-63.64 -11.86,-96.87 60.84,-32.18 9.45,-32.02 -29.2,-39.3 -67.7,-12.74 21.9,-188.83 21.9,-212.02 0,-54.55 -101.14,-73.47 -78.47,-148.04 6.34,-20.84 85.65,-28.57 107.67,-34.73 63.46,-17.75 47.19,-37.6 68.43,-86.82 24.47,-56.73 -15.74,-63.48 -46.53,-116.06 6,-97.38 141.69,-8.36 161.5,-93.21 10.33,-44.28 -4.8,-124.39 -51.1,-139.82 -64.03,-21.33 -63.83,-18.53 -78.47,-87.74 -7.03,-33.22 -36.67,-56.12 -57.48,-80.42 -40.08,-46.77 42.57,-168.72 69.34,-215.67 27.4,-48.03 82.5,-54.9 106.76,-95.04 118.17,-65.78 -14.25,-174.17 62.04,-263.2 8.13,-9.5 59.68,0.92 73.91,0.92 29.57,0 46.87,13.5 73.91,21.02 30.89,8.6 133.32,40.2 158.76,25.59 24.56,-14.09 16,-39.17 22.81,-59.41 12.25,-36.42 40.55,-47.96 64.78,-72.19 -5.02,-11.81 -23.23,-20.04 -31.93,-32.9 -22.84,-97 55.65,-144.47 55.65,-230.3 -38.09,-21.8 -95.66,-1.98 -139.6,-8.22 -64.86,-9.21 -81.83,-93.35 -129.56,-127.94 -34.1,-24.7 -83.58,-28.69 -98.54,-74.03 -8.89,-26.92 -4.51,-145.95 -17.34,-149.87 -37.74,-11.53 -42.93,-33.14 -73.91,-50.26 -47.78,-53.52 -74.68,-132.64 -45.62,-202.88 28.92,-69.93 -19.46,-89.27 -57.48,-144.39l-61.13 -88.65c-36.17,9.09 -54.98,67.48 -85.77,0.92 -30.14,-65.13 -66.18,-96.82 -118.62,-143.48 -72.47,-84.66 -3.99,-191.98 15.51,-276.9 23.07,-100.52 6.09,-215.53 41.98,-310.72l-0.92 -2.74 -0.91 -0.91c-28.07,0 -70.59,-4.81 -96.72,-15.54 -2.42,-46.77 -19.01,-95.91 0.92,-142.56 14.85,-34.79 39.23,-96.13 39.23,-133.43 0,-44.6 -17.57,-227.69 -53.83,-249.48 -65.71,-39.47 -68.42,-24.25 -88.51,-104.18 -13.76,-54.71 -46.86,57.17 -83.03,81.33 -38.48,25.71 -14.01,57.87 -20.07,95.04 -5.64,34.65 -35.16,111.99 -54.75,140.74 -89.34,131.05 -315.79,-86.04 -400.55,-132.51 -60.22,-95.38 -148.3,-146.81 -124.09,-280.56 19.24,-106.34 95.49,-169.01 150.55,-254.97 31.96,-49.91 48.06,-53.57 10.95,-99.61 -37.78,-46.85 -85.87,-98.09 -134.13,-134.34 -58.04,-43.58 -73.65,140.77 -169.71,95.04l-166.98 -79.5c-54.6,-79.24 -87.37,-160.71 -89.42,-258.63 -1.08,-51.51 2.39,-177.47 63.87,-192.83 50.17,-12.54 82.3,-8.55 115.88,-52.09 23.42,-30.38 57.71,-103.93 104.02,-98.69 103.67,11.73 104.04,22.15 60.22,-74.03 -28.57,-30.98 -47.66,-153.08 -77.56,-162.67 -82,-26.33 -175.85,56.82 -241.79,-44.78 -16.39,-25.27 -57.63,-109.52 -90.33,-105.09 -62.74,8.52 -145.64,157.08 -193.43,56.66 -67.19,-141.15 -136.29,82.29 -193.44,-57.57 -25.72,-62.97 -70.84,-88.12 -108.58,-138 -53.48,-29.43 -113.54,-29.07 -155.11,-78.59 -31.44,-37.44 -54.99,-89.14 -63.87,-137.08l-60.22 -325.34c-22.36,-120.81 -54.77,-104.72 -144.16,-156.27l-231.76 -43.87c-69.89,-13.22 -125.51,-52.79 -187.96,-80.42 -40.86,-18.08 -92.12,-16.93 -135.95,-26.5 -74.9,-16.35 -125.99,-45.33 -208.04,-51.17 -98.69,-7.03 -100.99,-61.99 -169.71,-107.84 -140.7,0 -234.64,-124.29 -364.97,-124.29 -124.49,0 -259.57,51.12 -387.78,63.06 -85.75,7.99 -126.06,77.16 -187.96,128.85 -58.67,39.35 -115.76,70.37 -179.75,27.42 -96.79,-64.95 -100.77,-1.42 -125.91,80.42 -14.05,45.71 -95.07,9.07 -125.92,0.92 -71.09,-18.8 -132.17,-52.15 -200.73,-71.29 -90.7,-25.31 -137.8,-5.35 -213.51,-74.02 -11.18,-10.15 -74.67,52.34 -93.98,58.49 -68.9,38.22 -125.26,64.57 -205.3,48.43 -69.08,-13.92 -103.74,78.06 -164.23,22.85 -74.56,-68.07 -217.18,114.07 -231.76,-4.57 -12.51,-3.09 -54.5,41.43 -72.99,49.35 -35.67,15.27 17.21,34.75 24.63,53 6.23,15.3 -76.01,161.42 -91.24,177.29 -38.45,40.09 -56.97,82.2 -76.65,134.34 -8.37,56.26 -15.94,114.24 -86.68,104.18 -43.01,-6.12 -84.76,4.79 -83.03,58.49 1.17,36.13 -19.17,44.42 -40.14,69.46 -34.5,41.17 -46.96,53.94 -103.11,47.52 -79.92,-9.15 -40.78,73.44 -62.96,104.18 -21.36,29.62 -61.53,13.15 -93.06,22.84 -93.26,28.69 -99.75,140.74 -212.6,168.16 -53.62,13.02 -58.32,83.37 -96.72,106.92 -61.84,168.28 -255.2,184.44 -353.1,326.25 -82.36,119.32 -146.39,330.24 -290.16,389.31 -41.19,24.69 -64.25,32.47 -111.31,43.86 -49.28,11.94 -69.57,41.87 -108.58,68.54l-229.93 157.19c-60.72,41.51 -93.49,1.03 -153.29,9.14 -150.95,-28.53 -459.59,-148.7 -592.17,-28.33 -20.54,18.64 -13.29,48.09 -27.37,60.31 -16.1,13.98 -49.4,1.1 -66.61,19.19 -53.09,55.83 -59.29,185.29 -91.24,254.06 -23.14,75.52 -26.97,134.34 -125,153.53 -75.54,14.79 -151.16,35.46 -217.16,76.76 -126.66,79.28 -239.57,249.66 -272.82,396.62 -10.25,51.51 -61.01,135.42 -91.24,179.12 -41.83,60.44 -78.98,42.41 -140.51,39.3 -145.45,-7.35 -255.41,-29.53 -390.52,53.92 -57.04,35.24 -27.03,135.81 -104.02,190.99 -116.03,83.18 -158.99,169.82 -305.66,198.31l-148.73 62.15c-43.13,18.02 -103.92,3.07 -131.39,45.69 -19.53,30.28 -41.26,30.23 -73.9,33.81l-139.6 238.52c-62.78,107.26 25.72,239.99 -10.04,344.53 -8.77,115.85 -40.3,241.96 -62.05,355.5 -13.63,71.2 -63.25,208.35 -106.75,265.02 -30.12,56.82 -45.75,93.4 -54.75,158.1 -12.73,91.55 -84.84,142.56 -103.1,235.77 -8.03,41.03 -9.74,82.89 -20.99,123.38 -14.56,52.44 -42.81,102.15 -60.22,154.44 -22.68,41.88 -17.52,90.12 -65.69,110.58 -57.43,24.38 -143.86,-15.56 -216.25,15.53 -100.39,43.1 -156.57,172.43 -225.36,250.4 -98.91,112.13 -46.81,241.1 -95.81,360.07 -35.84,85.35 -15.83,155.81 -36.5,237.6 -8.41,33.32 -37.52,28.62 -57.48,51.18 -35.59,40.25 -72.51,77.44 -75.73,134.34 -1.6,28.32 -3.76,76.85 -15.51,102.35 -15.41,33.47 -90.83,31.76 -48.36,97.79 36.18,56.27 30.11,68.67 30.11,134.34 1.65,60.52 88.32,93.57 119.53,139.82 61.04,90.48 14.96,166.32 -10.04,255.88 -12.28,43.97 -40.26,67.63 -47.45,117.89 -7.3,51.08 1.83,105.69 1.83,157.18 -4.66,36.44 31.02,69.83 31.02,106.01 0,42.52 -13.42,45.83 30.11,60.32 45.96,15.29 21.85,95.06 7.3,130.68 -8.52,20.84 -87.58,59.17 -50.18,75.85 67.39,30.04 33.5,124.21 43.79,180.95 7.17,39.49 50.27,36.28 64.79,63.97 12.45,23.72 9.12,70.31 9.12,97.78 -4.34,85.03 7.15,172.86 16.42,256.8 6.18,55.96 -123.88,177.86 -75.73,201.97 90.86,45.48 159.17,140.44 93.07,236.69 -40.33,78.34 -79.98,36.57 -3.65,106.92 39.45,36.35 41.75,89.81 66.61,134.34 43.61,78.14 94.31,138.09 141.42,220.24l179.75 313.46c13.04,43.81 59.68,74.43 75.73,121.54 21.37,62.75 20.78,127.23 14.6,191.91 -2.62,27.38 -20.01,88.9 3.65,107.84 25.93,20.77 53.56,42.43 64.78,74.94 16.39,47.5 10.32,90.34 26.46,138.91 16.56,49.86 0.28,147.36 -24.63,190.99 -6.82,27.35 -31.83,52.21 -10.04,74.03 77.89,78.04 -38.9,202.26 -21.9,222.98 34.84,42.49 -10.02,65.76 60.22,49.35 48.97,-11.45 45.49,16.1 68.44,46.61 15.31,20.34 57.68,23.43 80.29,38.38 12.4,8.21 48.25,105.17 57.48,127.03 17,40.21 11.45,83.02 66.61,67.62 90.35,-25.22 64.74,3.53 87.59,84.08 28.11,99.04 -75.77,46.86 -127.74,54.83 -15.36,25.68 -66.72,59.87 -52,87.73 28.64,54.24 35.4,64.84 95.8,78.6 46.42,10.57 50.54,43.28 75.73,78.59 29.43,41.24 49.07,19.7 76.65,1.83 57.01,-36.92 224.29,183.31 249.09,233.03 26.94,53.98 41.58,88.77 -0.91,133.43 -17.35,18.25 -5.4,32.75 6.38,48.43 10.44,13.91 -9.62,67.64 -13.68,84.99 -4.23,84.08 -7.96,93.4 -37.41,167.24 -30.21,75.71 -53.49,-7.27 -93.98,2.74 -14.17,56.37 -56.57,39.19 -56.57,105.1 0,76.7 14.54,67.68 76.64,20.1 84.26,-64.54 188.82,9.47 229.02,85.91 28.62,54.44 8.59,36.94 58.39,33.81 80,-5.03 -34.97,64.69 22.82,83.16 47.97,15.32 91.41,63.16 145.07,49.35 56.89,-14.63 54.02,-61.04 123.18,-38.38 65.83,21.58 166.28,-57.81 203.47,-13.71 55.72,66.05 100.16,111.54 125,196.48 35.59,93.01 73,130.95 73,238.52 0,34.5 2.97,128.09 -45.62,129.77 -63.85,2.22 -27.99,1.21 -33.76,55.75 -4.19,39.64 -59.36,116.89 -3.65,136.16 65.62,22.69 101.71,69.9 123.17,138.91 12.27,54.23 -9.83,78.71 -54.74,115.15 -35.02,28.4 109.7,178.34 111.31,221.15 1.1,29.11 -30.92,47.42 -42.88,75.86 -24.96,59.31 -74.95,89.98 -62.96,161.75 19.67,117.77 -116.4,12.3 -104.93,98.7 5.61,42.23 59.74,2.25 95.81,28.33 39.04,28.22 -6.39,95.34 -6.39,132.51 -0.39,13.59 18.55,56.75 5.48,65.8 -52.5,36.32 -49.74,28.42 -10.04,80.42 24.18,31.69 27.23,56.48 1.82,90.47 -27.8,37.21 -36.11,22.2 -72.08,40.21 -40.57,20.3 1.89,31.67 17.34,44.78 27.52,23.34 -12.4,84.8 17.33,128.86 42.01,62.28 -11.31,145.96 -62.95,181.86 -35.87,24.95 -76.47,-16.54 -111.32,-24.68 -20.61,-4.82 -80.85,0.43 -102.19,3.66 -20.31,19.62 -62.29,23.49 -44.71,63.05 18.29,41.17 28.72,34.08 -1.82,74.94 -11.89,15.92 -32.76,42.88 -35.59,63.06 25.38,16.98 68.54,-27.57 93.98,11.88 78.48,121.74 195.06,276.26 204.38,427.69 -3.77,51.92 -0.51,39.34 -28.28,79.5 -16.88,24.43 -15.61,56.15 7.3,74.94 26.4,21.67 -1.61,20.98 -10.95,46.61 -16.07,44.13 5.6,79.36 -10.04,122.46 -13.2,36.35 -38.75,65.29 -23.72,106.92 8.21,22.76 21.9,40.05 21.9,65.8 0,43.02 -23.18,76.43 0,119.72 23.55,43.96 71.03,32.52 114.05,44.77 54.77,43.51 62.1,57.15 79.38,127.03 71.55,10.28 42.99,-141.67 86.68,-194.65 28.92,-35.06 60.12,-44.78 104.02,-44.78 97.97,0 68.18,49.98 156.94,-32.9 31.82,-29.7 103.03,-71.45 145.07,-38.38 83.2,65.43 85.43,0.86 145.08,-55.75 72.84,-69.11 85.77,-55.6 85.77,-162.67 11.2,-78.77 60.14,-63.97 132.3,-63.97 1.16,-2.05 0.69,-2.24 2.74,-2.74 25.48,-59.97 -83.06,-131.54 -106.76,-177.29 -13.33,-25.73 6.41,-131.13 18.25,-159.01 8.96,-21.08 44.06,-45.79 41.06,-49.35 -44.85,-53.04 -228.11,-117.28 -228.11,-189.17 22.36,-11.21 122.12,60.42 154.2,63.97 43.18,4.77 105.01,-85.98 137.78,-110.58 48.02,-5.99 104.69,-67.5 145.99,-6.4 19.68,29.11 20.06,69.89 39.23,99.61 11.85,18.39 38.85,25.54 52.01,42.04 28.13,35.24 2.92,67.91 54.75,99.61 38.07,23.27 73.3,74.32 83.94,116.98 4.74,29.01 33.49,57.53 31.94,81.33 -1.48,22.6 -46.24,24.52 -35.59,56.66 4.33,13.09 85.49,97.52 92.16,89.56 29.52,-35.27 11.19,-99.19 55.65,-130.68 40.18,-28.45 49.5,45.36 74.82,30.16 75.03,-45.03 101.22,-93.17 157.85,4.57 36.34,62.7 31.29,32.9 98.55,32.9 118.52,0 -34.51,-94.5 51.09,-166.33 27.67,-23.23 45.33,-65.36 24.64,-95.95 -40.41,-59.71 -72.31,-49.22 -65.7,-138.91 36.78,-34.02 44.69,-99.2 48.36,-147.14 5.48,-71.68 48.85,-146 120.44,-173.63 67.85,-26.18 52.74,12.79 103.11,12.79 0,-70.85 -38.1,-140.29 45.62,-190.99 26.82,-16.25 78.05,-14.37 43.79,-42.96 -32.42,-27.06 -57.41,-101 -63.87,-141.65 16.87,-30 23.68,-93.94 35.59,-130.68 16.21,-50.03 50.94,-123.31 24.63,-174.55 -38.75,-75.43 -84.4,-72.77 -55.65,-173.63 10.23,-35.87 10.21,-72.2 20.07,-106.93 10.41,-36.71 38.57,-68.18 58.39,-100.52 22.5,-45.04 108.28,-120.63 106.76,-165.41 -1.76,-52.14 -100.75,-54.54 -6.39,-114.24 48.67,-30.78 87.63,-79.56 139.6,-103.26 60.87,-27.75 228.68,-40.9 293.8,-26.5 85.77,18.98 -3.78,83.9 19.16,105.09 11.04,10.21 81.71,63.54 92.16,54.83 22.66,-18.86 20.5,-65.95 51.1,-79.5 28.98,-12.84 26.23,23.76 46.53,23.76 121.33,0 41.02,64.75 100.37,138.9 27.58,34.9 25.97,34.51 70.25,45.7 21.98,5.56 10.29,25.73 8.22,42.95 -2.99,24.89 -28.53,21.78 -44.71,31.07 -33.59,19.27 56.6,63.33 70.25,70.37 31.76,16.37 56.92,27.87 79.38,-10.97 15.6,-27 -5.35,-67.54 23.73,-87.73 42.66,-29.64 53.86,-23.51 99.45,-10.05 32.99,9.73 62.65,5.83 78.47,43.86l17.34 12.8zm5033.86 -14118.35c13.99,-10.26 17.31,-35.62 31.93,-50.27 25.67,-25.7 69.27,-9.29 82.12,-46.6 10.92,-31.74 35.04,-52.66 63.87,-69.46 9.64,-5.62 48.56,-38.55 55.66,-24.67 5.21,10.21 -22.77,109.78 -35.58,115.15 -33.18,13.9 -57.1,-2.86 -65.7,41.12 -4.58,23.39 -10.1,41.34 -32.85,52.09 -24.42,11.55 -45.74,41.84 -72.99,47.52 -33.49,6.99 -79.15,10.31 -41.06,-37.47l14.6 -27.41zm3978.17 12583.96c-85.53,-30.54 -274.41,-149.09 -293.8,-246.74 -23.08,-116.18 -1.82,-256.24 107.67,-308.89 47.8,-22.99 103.37,-34.47 153.28,-54.83 62.34,-25.42 116.37,85.91 164.24,124.29 97.85,78.43 122.27,208.49 122.27,330.82 0,95.81 -106.16,186.74 -200.74,171.8l-52.92 -16.45zm475.39 690.89c-11.06,-1.52 -19.24,-6.28 -28.29,-12.8 -11.14,-8.04 -15.84,-13.54 -20.98,-26.5 -2.65,-6.71 -8.68,-16.79 -5.48,-24.67 2.27,-5.57 36.39,-5.26 42.88,-5.49 14.51,-0.52 28.64,-4.95 42.89,-5.48 5.21,-0.19 11.83,-1.23 12.77,5.48 3.73,26.56 -11.14,54.31 -29.2,74.03l-14.59 -4.57zm-409.68 897.42c9.27,-66.73 -58.4,-111.69 -58.4,-169.07 0,-55.7 20.01,-126.4 23.72,-185.51 3.71,-59.24 85.3,-81.05 125.92,-116.07 51.5,-44.42 67.52,-37.93 132.3,-19.19 64.74,18.74 62.16,-5.48 111.32,45.7 118.79,123.65 104.94,303.78 91.24,461.5 -6.99,80.46 -145.22,52.7 -195.26,48.44 -58.92,-5.01 -158.4,20.64 -194.35,-31.99l-36.49 -33.81zm730.85 863.6c-15.97,1.17 -18.75,-47.21 -16.42,-59.4 6.98,-36.52 56.29,-60.97 83.94,-83.16 8.16,-6.54 25.09,-16.24 35.58,-10.05 11.09,6.56 -9.79,35.07 -1.82,50.26 8.49,16.2 24.64,23.75 24.64,43.86 0,24.91 -29.87,45.29 -41.98,65.8 -4.27,7.24 -5.32,21.33 -15.51,21.94 -17.73,1.06 -38.46,-4.35 -56.57,-5.49l-11.86 -23.76zm4718.16 -15278.05c-5.04,-32.22 4.53,-82.96 13.69,-114.23 7.92,-27 30.01,-51.84 48.36,-73.11 24,-27.8 89.58,-29.97 112.23,0.91 18.96,25.83 4.4,83.62 -9.13,108.75l-37.41 69.46c-15.85,29.44 -36.29,54.54 -55.66,81.33 -6.94,9.61 -12.04,19.97 -26.46,16.45 -36.27,-8.88 -27.47,-49.38 -39.23,-71.28l-6.39 -18.28zm-1483.6 6416.27c71.97,34.72 172.68,68.89 254.56,52.09 50.41,-10.35 80.2,-125.48 108.58,-118.8 25.87,6.08 68.27,49.83 85.77,69.45 46.91,52.62 84.69,94.06 141.43,137.08 14.45,61.12 -4.77,202.12 50.18,233.95 58.72,34.03 8.13,133.62 73.91,121.55 48.17,-8.84 47.94,-3.22 60.22,39.29 18.2,63.05 -94.93,62.24 -19.16,116.07 40.44,28.74 95.21,-109.4 99.45,-138 22.14,-149.28 197.15,-104.52 301.1,-137.08l179.75 14.62c40.12,3.26 50.47,137.92 32.85,173.64 -28.78,58.36 -21.38,49.86 11.86,94.13 26.71,35.58 18.95,123.49 41.06,169.06 34.44,71.01 129.64,69.53 177.92,11.88 61.4,-73.33 60.5,-176.62 100.37,-261.36 34.22,-72.74 25.61,-69.69 -31.03,-95.05 -22.66,-10.15 16.79,-40.6 24.64,-47.52 53.12,-46.79 -15.98,-90.09 -27.37,-136.16 -25.53,0 -45.96,76.43 -88.51,56.66 -23.24,-10.79 -60.61,-97.94 -67.52,-122.46 -3.42,-65.97 -22.52,-81.7 -62.04,-124.29 -20.28,-21.87 66.67,-32.69 77.55,-37.47 19.57,-8.62 25.68,-33.78 47.45,-39.29 39.74,-10.05 63.45,12.05 55.66,-42.95 -11.85,-83.6 17.59,-52.82 62.96,-107.84 53.1,-64.37 126.13,-111.21 177.92,-179.12 103.57,-135.83 170.34,-60.12 303.84,-106.01 99.1,53.02 174.54,250.29 308.4,197.4 125.44,-49.57 155.8,-255.33 28.28,-320.77 -41.32,-37.99 -83.94,-36.88 -83.94,-106.92 0,-35.82 -4.34,-93.3 43.8,-90.48 168.68,9.88 -2.05,-105.56 61.13,-169.06 46.4,-46.65 71.5,-31.49 115.88,10.96 76.23,72.9 85.81,-21.63 78.47,-81.33 -38.61,-21.96 -126.47,-34.81 -110.41,-100.53 15.11,-61.79 88.21,-92.82 90.33,-161.75 20.74,-88.56 -0.29,-171.48 8.21,-257.71 4.51,-45.85 63.39,-166.37 11.87,-198.31 -51.71,-32.07 -47.45,-52.81 -47.45,-113.32 0,-17.05 -126.74,-124.13 -148.73,-148.05 -39.11,-50.97 -41.06,-83.31 -52.92,-142.56 -8.8,-43.94 49.6,-60.4 39.24,-114.23 -11.39,-59.15 8.01,-256.62 111.31,-211.11 33.05,14.55 88.58,134.34 118.62,134.34 56.7,-71.03 83.58,-70.95 10.95,-139.82 -45.33,-42.97 65.4,-126.47 94.89,-163.58 43.05,-54.15 104.73,-64.33 156.03,-103.27 104.89,-30.85 45.24,-85.66 85.76,-159.01 31.8,-57.58 43.71,-109.67 114.06,-109.67 149.95,0 317.72,-36.22 415.15,100.53 21.62,0 184.53,-143.75 185.22,-166.33 27.35,-71.8 58.99,-128.44 124.09,-172.72 45.89,-31.21 122.49,-60.59 159.68,-97.78 32.72,-32.72 58.71,-38.34 31.02,-80.42 -27.13,-41.25 -34.13,-95.58 -25.55,-144.39 21.73,-123.68 -44.45,-43.59 -99.45,-103.27 -21.58,-102.95 31.98,-137.99 -94.89,-137.99 -61.9,0 2.31,195.97 -112.23,119.71 -53.59,-35.67 -65.76,-57.56 -31.94,-112.4 40.46,-65.63 61.14,-115.6 61.14,-193.74 0,-11.4 -6.48,-83.53 -22.81,-75.85 -44.49,20.95 -62.61,73.73 -118.62,81.33 -85.71,11.64 -10.81,-70.21 -87.59,-73.11 -63.4,-2.4 -62.32,79.05 -120.44,106.92 -65.1,31.21 -103.73,-122.45 -121.36,-122.45 -41.62,0 -37.52,52.87 -82.11,-5.49l-92.16 -120.63c-45.34,-79.6 2.32,-120.3 -44.71,-197.39 -45.02,-73.82 -98.53,83.62 -135.04,94.12 -75.89,21.82 -157.87,-2.09 -229.02,13.71 -64.94,14.41 -184.17,98.11 -216.24,157.19 -15.9,29.31 -17.3,95.69 -57.49,84.07 -32.56,-9.42 -77.95,-42.91 -109.49,-59.4 -61.54,-32.16 -21.85,-48.49 17.34,-89.56 27.42,-28.72 53.3,-95.32 80.29,-129.77l113.14 -144.39c24.07,-30.72 58.67,-4.69 80.3,-31.98 22.27,-28.12 27.68,-76.54 41.06,-110.58 16.16,-43.22 24.11,-109.34 55.65,-142.56 29.98,-31.56 72.55,-56.38 105.85,-84.99 77.38,-66.46 143.24,-68.1 242.7,-59.41 42.77,3.74 117.66,23.6 156.94,14.63 86.69,15.47 120.93,13.39 178.84,-50.27 29.04,-31.91 125,-42.36 125,-62.14 0,-19.51 8.48,-53.85 -0.91,-70.37 -107.24,-26.37 -237.32,19.19 -196.18,-161.75 13.31,-58.54 220.95,-269.18 269.17,-253.14 108.63,36.16 161.91,108.76 248.18,175.46 74.92,57.91 227.19,160.02 227.19,-16.45 -10.8,-13.96 -12.13,-31.9 -24.63,-46.61 -15.77,-27.61 -135.6,-159.81 -68.43,-168.15 84.66,-10.52 122.21,-19.54 113.14,-113.32 -4.6,-47.56 -3.65,-99.41 -3.65,-147.13 -46.15,-26.39 -120.46,12.78 -178.84,-16.45 -20.35,-10.18 -49.01,-8.54 -71.17,-9.14 -108.99,12.04 -236.41,-41.31 -295.62,-136.17 -55.35,-88.69 -39.38,-160.4 -162.42,-113.32 -54.22,20.75 -41.32,-51.55 -60.22,-79.5 -14.87,-21.97 -57.73,-11.92 -79.38,-24.68 -58.58,-34.51 -38.54,-174.51 -113.14,-76.76 -30.79,40.34 -11.86,76.9 -21.9,121.54 -23.43,125.94 -76.19,135.27 -182.48,189.17 -106.11,53.82 -131.97,-13.83 -174.28,-90.47 -8.09,-14.65 -124.31,25.99 -145.07,32.9 -65.34,21.73 -52.52,120.82 -132.3,67.63 -75.09,-50.05 -103.89,-156.44 -199.83,-134.34 -74.43,17.15 -81.26,-4.38 -115.87,-59.4 -36.46,-57.98 -63.44,-58.2 -127.74,-56.66 -37.58,66.76 -110.35,104.86 -141.43,14.62 -31.26,-90.74 -147.85,-24.44 -210.77,-36.56 -67.95,-13.1 -61.34,-70.97 -110.4,-91.38l-70.26 -29.25c-70.34,-29.27 -56.86,113.07 -110.4,128.86 -23.07,6.81 -79.53,-14.99 -84.86,-40.21 -13.91,-65.72 -25.55,-44.87 -87.59,-48.44 -21.57,14.16 -81.47,69.52 -72.08,96.87 5.55,16.15 21.49,28.83 26.46,47.52 8.61,32.32 22.83,64.38 31.93,96.87 6.98,24.9 -0.9,33.73 -15.51,51.18 -19.72,23.54 -22.36,60.46 -62.96,53.92 -50.45,-8.12 -56.37,11.86 -67.52,56.66 10.93,22.86 60.43,78.71 56.57,98.7 -18.76,96.91 -67.63,81.43 -123.18,14.62 -51.11,-61.48 -44.74,2.77 -106.75,10.05 -36.29,4.25 -59.85,-43.22 -90.33,-32.9 -27.73,9.38 -51.14,26.33 -82.12,21.93 -70.52,-10.01 -71.51,37.59 -126.83,53.92 -64.8,19.14 -115.8,-45.63 -177.92,-59.4 -51.01,10.21 -85.46,24.93 -123.18,-20.1 -15.88,-18.97 -20.41,-84.24 -42.88,-83.17 -40.31,1.91 -162.12,85.25 -188.87,116.98 -67.13,79.59 41.16,336.55 -63.87,365.55 -70.45,19.46 -89.6,87.13 -43.8,147.13 36.74,48.15 115.34,62.9 122.27,132.51 -19.91,54.46 -10.23,144.06 -27.38,203.79l-38.32 133.43c-16.79,58.48 76.53,146.49 110.4,190.08 54.75,70.49 83.95,111.92 83.95,203.79 -7.5,38.58 -17.72,158.73 -79.38,127.03 -54.42,-27.99 -47.34,-18.76 -90.33,21.94 -56.43,53.41 -122.72,111.66 -152.38,186.42 -33.32,84.02 -26.45,172.69 -22.81,261.37 2.76,126.33 75.35,24.83 111.32,106.01 18.8,42.41 36.52,92.93 47.44,137.99 18.32,75.53 -7.51,132.06 39.24,206.54 12.43,19.79 47,41.28 50.18,63.05 4.63,31.6 -14.21,86.9 -25.55,116.07 -10.78,64.92 -41.49,151.94 -94.89,196.48 -22.84,19.06 -102.71,58.27 -111.32,77.68 -20.6,46.44 -41.86,165.7 -25.54,214.76 21.74,65.33 33.57,85.93 -12.78,150.78 -70.27,8.88 -116.15,-27.39 -187.05,17.37 -41.61,46.73 -44.35,70.84 -72.99,120.63 -41.38,71.96 -128.52,-44 -191.61,19.19 -51.83,51.93 -90.24,24.87 -144.16,-10.05 -40.54,-26.26 -67.83,-72.94 -120.44,-41.13 -51.94,31.42 -114.32,86.86 -178.84,38.39 -20.66,-15.51 -14.19,-46.59 -17.33,-69.46 -6.21,-45.32 -22.93,-66.28 -47.45,-103.27 -79.74,-36.01 -176.49,-124.34 -265.52,-132.51 -115.01,-10.55 -316.61,155.09 -316.61,271.42 0,107.39 -14.23,119.34 72.99,191.91 60.28,50.14 143.12,98.04 217.16,121.55 133.97,65.18 -10.61,199.37 -16.42,298.83 -4.17,71.53 18.33,131.33 34.67,199.23 19.33,80.27 76.09,130.46 104.93,202.88 17.56,93.88 41.69,204.62 72.08,295.18 14.33,42.69 8.06,114.21 50.19,143.47 62.6,43.46 114.71,99.71 30.11,154.45 -71.76,46.42 -95.31,109.07 -100.37,196.48 11.01,182.49 281.43,567.28 377.74,218.41 22.95,-83.14 -15.7,-107.75 82.12,-95.95 33.67,4.06 41.87,-48.75 85.77,-59.41 35.09,-8.51 201.87,20.75 236.32,37.47 90.91,44.15 95.34,81.81 135.04,166.33 34.91,56.84 77.63,102.39 124.09,148.96 40.97,41.05 76.49,91.02 121.35,127.03l35.59 15.53zm-16409.03 11671.93c-6.03,-12.06 -17.26,-32.14 -20.07,-42.04l-7.3 -1.83c-21.14,-37.01 -153.39,17.99 -162.41,-18.28 -14.24,-4.72 28.26,-62.53 31.02,-74.93 4.28,-19.28 -13.78,-62.97 -12.78,-89.56 2.13,-56.73 125.66,-83.69 166.06,-102.35 48.32,-22.33 78.19,-85.11 125.92,-102.36 32.54,-11.75 73.17,2.94 107.66,1.83 64.68,-2.1 47.44,-74.94 118.62,-74.94 49.21,0 115.9,-83.15 147.81,-69.45 28.77,144.52 -168.21,149.91 -58.39,265.02 92.34,96.77 91.28,109.08 25.54,215.67 -33.49,54.32 -53.43,110.68 -85.76,166.33 -104.67,180.11 -149.62,-48.01 -215.33,12.79 -24.74,22.9 -84.13,55.35 -116.79,58.49 -77.77,7.48 -71.17,-14.89 -71.17,-82.25l27.37 -62.14z"/>
  <path class="fil3 str2" d="M5441.07 3670.11c29.39,76.72 40.18,84.26 40.18,169.62 0,102.26 42.39,229.01 111.32,305.23 44.72,49.46 90.96,127.01 166.06,113.32 142.38,-25.96 186.13,64.85 186.13,191.91 0,73.8 48.58,65.6 104.02,91.39 67.48,31.38 51.02,84.5 74.82,148.05 33.12,88.43 161.5,91.94 190.6,168.37 51.15,134.32 -72.57,265.95 61.88,400.4 185.54,185.54 133.03,442.67 207.48,666.12 19.27,57.86 12.03,130.99 50.96,182 115.46,151.28 250.1,169.21 269.36,400.4"/>
  <path class="fil3 str2" d="M5111.66 3798.6c124.4,88.23 118.99,194.35 154.26,331.74 18.21,70.95 45.77,128.54 41.97,204.7 -5.89,118.1 -113.14,161.37 -113.14,290.61 0,204.35 209.63,138.43 293.8,252.23 53.74,72.64 95.51,46.42 89.42,118.81 -1.54,18.4 13,125.17 21.9,135.25 11.6,13.16 37.1,-2.15 45.62,21.93 31.96,90.32 35.39,163.21 114.97,222.98 62.74,47.11 68.32,121.64 100.36,190.09 47.14,100.73 134.35,131.84 186.14,215.67 24.19,39.14 20.5,106.04 47.44,155.36 37.19,68.1 -45,99.07 -25.55,153.53 13.72,38.45 56.57,28.34 56.57,73.11 0,54.85 17.58,64.9 62.05,89.56 55.09,30.56 113.06,82.5 104.01,142.56 -21.07,139.8 -49.5,106.73 51.84,197.55 160.91,144.21 29.97,173.58 -58.24,291.2 -70.89,94.52 16.77,136.81 50.96,225.68 62.57,162.63 -61.41,188.54 -116.48,313.04 -31.09,70.3 17.29,107.09 21.84,171.08 5.33,74.92 -85.99,160.41 -145.6,192.92"/>
  <path class="fil3 str2" d="M1889.92 7893.65c95.85,17.75 174.67,-25.79 264.57,19.19 33.63,16.83 53.28,46.61 93.98,46.61 33.62,0 53.86,5.72 81.2,24.67 48.21,33.4 113.23,-8.03 170.63,17.36 58.66,25.96 126.62,79.24 163.32,130.69 14.95,20.95 150.67,27.34 181.57,31.98 27.45,4.13 51.38,40.99 76.65,29.25 62.28,-28.93 88.26,-74.75 120.44,17.36 30.48,87.28 88.95,47.83 158.76,54.83 115.52,11.58 95.36,177.94 241.79,150.79 50.04,-9.28 52.22,4.43 83.95,34.73 51.75,49.4 76.18,-73.81 118.61,25.59 17.88,41.88 188.56,110.88 198.91,70.36 22.48,-88.01 37.94,-6.64 82.12,-36.55 20.21,-13.69 18.59,-113.57 42.88,-135.25 22.41,-20.01 51.59,-35.16 82.12,-21.94 75.22,32.57 164.76,10.2 224.38,57.32 46.65,36.86 119.87,80.99 167.44,25.48 59.87,-69.86 302.62,2.69 385.84,10.92 150.61,14.9 532.4,-68.92 476.84,-291.2 -41.42,-165.71 -51.72,-270.12 -182,-400.4"/>
  <path class="fil3 str2" d="M1764.88 8383.48c27.56,67.94 114.61,174.55 192.52,174.55 105.47,0 162.16,-113.37 257.31,-116.06 57.61,-1.63 32.97,99.75 65.69,132.51 29.18,29.23 58.4,58.49 87.59,87.73 37.67,37.72 5.88,133.58 71.17,144.39 73.43,12.17 86.44,35.27 72.09,112.41"/>
  <path class="fil3 str2" d="M2512.08 8914.43c-21.53,121.93 117.94,100.04 153.37,196.49 10.01,27.24 46.73,51.75 68.43,70.37 57.87,49.63 47.5,89.2 129.56,127.94 46.29,21.86 79.93,44.31 98.54,94.13 49.99,133.82 108.57,-2.19 157.85,63.05 19.43,25.71 12.77,53.49 22.82,80.43 12.18,32.61 48.86,44.98 76.64,59.4 29.76,15.46 33.61,29.56 73.91,20.1 150.98,-35.45 121.26,120.39 171.53,209.28 23.08,40.8 222.16,132.22 249.09,74.02 115.53,-249.65 192.33,-7.3 351.29,-63.97 47.83,-17.05 131.63,-69.48 147.81,-120.63 20.7,-65.46 -50.96,-115.7 15.51,-169.98 43.73,-35.7 49.64,-66.73 84.86,-110.58 89.45,-111.38 210.32,-167.53 366.55,-127.48 117.95,30.24 208.45,-20.81 309.4,-65.52 138.41,-61.31 111.27,-213.05 258.44,-262.08 152.41,-50.78 246.27,-112.31 273,-283.92 1.19,-7.66 12.13,-9.7 18.2,-14.56"/>
  <path class="fil3 str2" d="M3130.28 13763.16c60.08,-11.56 105.34,-55.67 172.95,-47.26 42.62,5.3 85.13,63.62 116.79,42.04 107.87,-73.5 33.74,115.63 42.89,146.22 36.37,121.6 142.97,-20.9 171.53,-67.63 29.39,-48.07 95.7,-37.8 125.01,-104.18 9.97,-22.58 30.77,-123.59 73.9,-105.09 27.33,11.73 25.69,47.49 66.61,48.43 44.65,1.02 62.35,-69.29 121.35,-51.17 57.79,17.76 76.68,-63.09 120.44,-81.34 63.79,-26.6 42.78,-137.63 77.56,-182.77 27.68,-35.91 100.26,-100.94 138.69,-124.29 37.33,-22.67 87.39,-13.65 127.74,-36.55 33.64,-19.08 42.77,-33.89 50.18,-70.37 10.26,-50.52 81.17,-31.56 93.98,-76.77 11.88,-41.97 -27.02,-81.5 16.43,-120.63 45.94,-41.39 83.49,-63.77 145.07,-77.68 30.32,-6.85 72.82,-18.01 92.16,-43.86 16.76,-22.38 14.19,-46.44 23.72,-70.37 15.95,-40 62.42,-52.39 89.42,-81.33 28.38,-30.44 7.72,-102.75 41.06,-124.29 107.62,-69.53 190.27,-26 271.8,-134.19 44.71,-59.33 7.41,-110.7 69.16,-178.36 114.47,-125.41 -4.64,-176.43 18.2,-302.12 16.62,-91.47 -20.92,-200.69 10.92,-276.64 65.39,-155.97 206.18,-182.38 123.76,-378.56 -40.68,-96.85 -91.24,-134.39 -10.92,-229.32 83.68,-98.89 69.16,-55.33 69.16,-200.2"/>
  <path class="fil3 str2" d="M9172.89 14591.4c-13.09,-19.2 -27.93,-37.32 -39.25,-57.59 -21.73,-38.87 -53.43,-66.37 -62.95,-112.4 -11.03,-53.38 0.83,-117.48 6.38,-170.89 3.9,-37.6 -4.56,-68.74 -4.56,-105.1 0,-74.88 -14.89,-207.08 -103.1,-226.64 -135.75,-30.1 -171.98,114.43 -252.75,-78.59 -21.92,-52.38 -65.66,-100.37 -83.03,-150.79 -9.29,-26.96 0.49,-57.12 -9.12,-81.33 -12.02,-30.29 -44.65,-40.46 -57.48,-74.03 -12.76,-33.42 -3.88,-98.8 -2.74,-135.25 4.12,-131.11 -53.55,-155.1 -135.04,-236.69 -21.19,-21.22 -33.9,-59.6 -52.92,-84.99 -90.68,-120.99 -296.49,-143.95 -329.39,-324.42 -5.77,-31.68 -17.04,-62.86 -17.33,-95.05 -0.83,-89.7 -30.78,-173.83 -104.93,-227.55 -110,-79.71 -25.51,-140.02 -8.22,-243.09 10.37,-61.88 -12.8,-123.09 -6.38,-186.43 2.28,-22.46 11.19,-42.29 23.09,-60.89 30.42,-47.57 80.54,-87.38 90.05,-143.81 12.06,-71.49 18.86,-143.8 28.28,-215.68 9.09,-69.42 80.38,-103 104.02,-164.49 16.08,-41.85 7.3,-99.08 7.3,-143.48 0,-66.98 44.58,-109.41 61.13,-169.98 12.6,-46.15 -6.94,-63.85 -7.3,-106.92 -0.42,-50.1 -31.38,-104.31 -8.21,-152.62 25.71,-53.62 26.16,-81.49 -31.02,-113.32 -110.94,-61.75 -123.72,-205.19 -198,-298.83 -48.57,-61.24 -61.36,-141.59 -62.96,-219.33 -1.16,-56.2 5.1,-108.01 -1.82,-165.41 -7.69,-63.84 -3.54,-94.58 52.01,-134.34 84.63,-60.56 244.67,-134.16 293.8,-225.73 43.44,-80.99 -40.07,-123.68 -89.42,-168.15 -18.08,-16.3 -24.19,-41.02 -39.23,-60.31 -83.35,-106.97 -265.22,-93.71 -301.1,-251.32 -8.26,-36.29 4.49,-78.61 -22.81,-107.83 -46.88,-50.15 -77.02,-26.62 -103.11,-106.01 -35.89,-109.23 -128.35,-59.4 -192.52,-114.24 -64.12,-54.8 -200.39,-146.84 -244.48,-218.41 -90.5,-146.89 -24.8,-360.46 -246.36,-403.93 -83.81,-16.44 -182.17,2.92 -198.91,-109.66 -16.81,-113.05 -144.1,-115.81 -195.25,-206.54"/>
  <path class="fil3 str2" d="M13341.76 9532.21c-10.34,-12.49 -26.09,-22.04 -31.02,-37.47 -8.2,-25.7 11,-52.09 6.38,-77.67 -3.95,-21.87 -23.53,-39.03 -43.79,-45.7 -19.22,-6.33 -33.76,-3.87 -41.06,-26.5 -8.74,-27.05 -17.5,-45.83 -43.8,-59.4 -64.79,-33.42 -159.17,-1.25 -193.43,-81.34 -26.24,-61.34 -90.07,-81.04 -135.96,-127.02 -50.22,-50.3 -73,10.56 -114.96,-0.92 -27.97,-7.66 -30.87,-32.81 -52.92,-43.86 -59.92,-30.02 -119.17,-55.75 -187.05,-55.75 -57.1,0 -87.67,-43.86 -144.16,-43.86 -58.07,0 -118.43,30.13 -175.19,41.12 -111.61,21.61 -223.25,43.26 -334.86,64.88 -74.42,14.41 -132.09,-4.87 -192.52,25.59 -134.11,67.58 -111.75,-116.12 -155.12,-117.89 -50.35,-2.05 -77.18,76.78 -114.96,42.04 -29.8,-27.41 -62.43,-52.09 -89.42,-82.25 -25.62,-28.64 -85.12,-55.69 -121.35,-65.79 -69.37,-19.36 -80.5,28.58 -127.74,50.26 -66.44,30.48 -240.9,-21.34 -296.54,-63.97 -51.42,-39.41 12.31,-117.97 -109.49,-69.46 -58.37,23.25 -50,10.31 -76.65,-33.81 -31.55,-52.26 -65.13,4.67 -98.54,-7.31 -19.03,-6.83 -18.85,-20.8 -45.62,-15.54 -54.9,10.78 -67.17,76.18 -123.18,45.7 -66.12,-35.97 -28.33,-63.21 -126.82,-74.03 -46.76,-5.13 -119.74,-41.52 -164.24,-22.84 -72.05,30.23 -59.72,-36.93 -96.72,-25.59 -26.82,8.23 -26.23,53.08 -51.09,47.52 -31.06,-6.94 -27.06,-55.83 -75.74,-30.16 -75.58,39.84 -43.58,-37.29 -79.38,-77.68 -18.66,-21.04 -56.25,-9.39 -74.82,-22.84 -23.58,-17.06 -14.58,-62.07 -40.14,-71.29 -34.94,-12.62 -112.36,-4.55 -145.08,12.8 -118.32,62.75 -266.97,100.62 -379.57,7.31 -33.65,-27.88 -59.05,-66.78 -80.29,-105.1 -20.31,-36.62 -12.92,-72.56 -28.29,-108.75 -24.67,-58.04 -188.57,18.21 -259.13,-20.1 -61.93,-33.61 -74.82,-88.72 -120.44,-118.8 -73.56,-48.52 -157.7,-7.15 -198.91,-99.62 -21.92,-49.18 -81.67,-33.91 -114.96,-71.28 -35.89,-40.29 -37.04,-147.67 -110.79,-101.2 -272.14,171.51 -389.72,-289.72 -571.48,-404.04 -90.05,-56.64 -243.79,19.05 -320.32,76.44 -90.13,67.59 -200.23,43.74 -258.44,160.16"/>
  <path class="fil3 str2" d="M14165.12 6265.23c-22.63,3.63 -45.01,9.72 -67.87,10.87 -49.01,2.46 -133.07,-20.87 -102.19,66.71 28.62,81.2 -32.4,74.27 -84.86,42.95 -34.37,-20.51 -58.86,-31.9 -96.72,-9.13 -29.25,17.58 -105.49,76.37 -123.18,104.18 -41.43,65.09 -126.98,-14.99 -146.9,58.48 -29.23,107.85 -33.96,78.7 -68.43,11.89 -22.78,-44.13 -92.38,71.23 -145.99,68.54 -33.93,-1.7 -83.21,-17.33 -72.08,37.46 9.87,48.56 -34.16,95.38 -70.25,46.61 -33.39,-45.1 -91.48,-136.47 -142.34,-44.78 -79.76,143.81 -159.53,-29.17 -277.38,48.44 -61.11,40.25 -105.08,37.17 -167.89,68.54 -52.3,26.11 -155.39,-72.73 -156.02,27.41 -0.77,122.93 -208.23,-59.03 -170.14,165.8 8.46,49.93 -146.45,93.48 -178.36,189.28 -96.1,288.44 -355.49,62.86 -527.8,21.84 -65.63,-15.62 -137.51,-8.92 -203.84,-3.64 -125.17,9.98 -245.05,-123.5 -360.36,-40.04 -79.17,57.3 -332.31,241.78 -425.88,218.4 -83.07,-20.76 -120.29,-126.31 -203.84,-112.84 -134.85,21.75 -235.35,1.33 -374.92,18.2 -372.26,45.01 -439.92,-309.4 -768.04,-309.4 -82.46,0 -148.56,-20.27 -225.68,-40.04 -63.64,-16.31 -80.24,17.04 -131.04,25.48 -146.24,24.32 -198.12,-177.5 -382.2,-112.84 -272.14,95.59 -504,-61.64 -775.32,-25.48 -216.22,28.82 -553.28,-255.18 -553.28,211.12"/>
  <path class="fil3 str2" d="M5877.24 12322.25c89.78,95.88 127.11,-21.36 197.09,21.94 179.26,110.92 324.77,54.97 518.25,118.8 60.52,19.97 125.82,64.52 177.01,102.35 117.24,86.65 255.58,28.85 348.55,182.78 49.77,82.4 70.98,186.47 195.26,160.84 148.19,-30.57 106.84,191.24 255.47,186.43 68.83,-2.23 100.84,-36.65 158.77,14.62 40.37,35.73 52.77,106.13 96.71,122.46 82.15,30.53 123.2,86.76 140.52,169.98 10.92,52.47 -13.35,114.59 58.39,140.73 55.92,20.37 122.07,3.13 180.66,14.62 91.76,18 124.75,32.57 195.26,89.56 49.17,39.73 172.57,42.04 234.45,42.04"/>
  <path class="fil3 str2" d="M11034.23 1686.65c-90.02,48.74 -192.09,79.91 -270.05,146.22 -115.32,98.07 68.41,211.91 -91.25,296.1 -30.61,16.14 4.87,54.45 3.65,80.42 -2.16,45.85 -96.23,81.3 -127.74,104.18 -40.65,29.5 27.32,81.32 -32.84,133.42 -44.58,38.62 -167.95,107.04 -224.46,126.12 -37.69,12.73 -71.75,-20.73 -111.31,-14.63 -72.36,11.15 -53.82,69.35 -74.82,116.98 -28.02,63.58 -43.69,69.5 -80.3,122.46 -32.2,46.56 -11.94,164.39 -74.81,201.05 -15.94,9.29 85.97,130.45 43.94,140.95 -70.57,17.63 -147.69,-85.1 -218.4,29.12 -33.25,53.71 38.66,117.13 -54.6,134.68 -140.76,26.5 -157.6,137.87 -211.12,251.16 -40.11,84.89 -118.39,125.67 -182,189.28 -67.42,67.42 -48.45,151.13 -65.52,236.6 -20.67,103.44 -173.86,102.29 -120.12,251.16 17.3,47.94 -121.14,178.89 -116.48,265.72 6.3,117.31 -218.68,439.18 -309.4,520.52 -124.97,112.06 -165.67,271.98 -353.08,320.32 -116.94,30.16 -195,160.53 -291.2,225.68 -82.13,55.62 -81.44,171.24 -192.92,232.96 -183.39,101.53 -126.42,192.2 -196.56,367.64 -81.22,203.17 -2.53,288.67 131.04,422.24"/>
  <path class="fil3 str2" d="M6021.41 7961.27c56.19,41.5 55.6,122.76 105.84,153.53 74.08,45.37 177.7,123.05 80.29,210.19 -48.73,43.59 -132.56,72.69 -151.46,142.57 -32.49,120.09 56.57,187.23 56.57,297.92 0,146.26 88.64,146.49 140.51,272.33 111.01,269.29 -128.11,121.63 -153.28,323.51 -20.28,162.66 66.55,234.18 191.6,301.58 58.52,31.54 45.28,147.3 65.7,204.7 52.69,148.07 223.7,122.43 321.17,224.81 98.38,103.34 264.65,193.38 403.29,219.33 71.61,13.4 142.91,18.11 195.26,74.94 44.02,47.79 63.22,103.7 100.37,153.53 33.01,44.28 78.3,54.77 105.84,113.32 63.82,135.65 110.38,120.17 222.63,204.71 133.78,100.76 103.32,229.68 138.69,374.68 13.52,55.46 -8.84,98.28 -1.83,146.22 7.64,52.23 32.4,87.5 38.32,144.39 14.48,139.04 34.83,277.43 52.25,416.15"/>
  <path class="fil3 str2" d="M21572.72 6396.73c61.11,-33.97 115.67,-103.96 129.57,-173.63 21.75,-108.99 151.83,-148.21 182.48,-283.3 17.42,-76.8 5.48,-169.53 5.48,-248.58 0,-143.08 133.65,-89.46 215.33,-166.32 57.84,-54.43 70.35,-96.46 93.06,-169.98 24.01,-77.73 114.62,-68.3 135.04,-155.36 11.89,-50.73 50.89,-98 38.32,-151.7 -7.95,-34 -29.89,-64.69 3.65,-91.39 19.75,-15.73 90.07,-34.06 69.35,-71.28 -48.91,-87.85 -86.93,-80.22 14.6,-166.32 91.96,-77.99 73.96,-185.05 85.76,-292.44 6.01,-54.76 57.65,-79.55 71.17,-131.6 15.2,-58.47 32.31,-116.51 45.62,-175.46 14.42,-63.87 57.01,-124.18 119.58,-147.13 23.98,-8.79 37.74,-12.05 63.87,-12.8 30.7,-0.89 42.37,-31.49 61.13,-52.09 11.34,-12.46 20.76,-26.56 31.14,-39.85"/>
  <use x="22648.97" y="3806.42" width="105.38" height="105.38" xlink:href="#villes"/>
  <use x="9258.81" y="2623.45" width="105.38" height="105.38" xlink:href="#villes"/>
  <use x="10372.34" y="2891.63" width="105.38" height="105.38" xlink:href="#villes"/>
  <use x="11404.25" y="3416.33" width="105.38" height="105.38" xlink:href="#villes"/>
  <use x="11404.25" y="1836.4" width="105.38" height="105.38" xlink:href="#villes"/>
  <use x="13241.07" y="4455.56" width="256.13" height="256.13" xlink:href="#Capitale"/>
  <use x="10448.13" y="5031.24" width="105.38" height="105.38" xlink:href="#villes"/>
  <use x="11025.3" y="6348.82" width="105.38" height="105.38" xlink:href="#villes"/>
  <use x="13223.21" y="5765.82" width="105.38" height="105.38" xlink:href="#villes"/>
  <use x="13836.35" y="5675.27" width="105.38" height="105.38" xlink:href="#villes"/>
  <use x="13777.06" y="6115.62" width="105.38" height="105.38" xlink:href="#villes"/>
  <use x="13730.42" y="8156.12" width="105.38" height="105.38" xlink:href="#villes"/>
  <use x="9748.53" y="13321.5" width="105.38" height="105.38" xlink:href="#villes"/>
  <use x="2245.32" y="7514.82" width="105.38" height="105.38" xlink:href="#villes"/>
  <use x="5597.57" y="3754.47" width="105.38" height="105.38" xlink:href="#villes"/>
  <use x="9212.17" y="4593.99" width="105.38" height="105.38" xlink:href="#villes"/>
  <polygon class="fil4 str3" points="21585.96,18176.66 24915.01,18176.66 24915.01,19769.56 21585.96,19769.56 "/>
  <g transform="matrix(2.64845E-14 -1 1 2.64845E-14 14799.2 34631)">
   <text x="14850" y="10500"  class="fil5 fnt0">© </text>
   <text x="15136.36" y="10500"  class="fil5 fnt0">d-maps.com</text>
  </g>
  <path class="fil3 str4" d="M1000 1000l24510.63 0 0 19000 -24510.63 0 0 -19000zm14346.23 0l0 19004.39"/>
  <g id="_2101695882672">
   <g>
    <polygon class="fil6 str5" points="21721.04,18774.39 22489.11,18774.39 22489.11,18873.55 21721.04,18873.55 "/>
    <polygon class="fil7 str5" points="22489.11,18774.39 23257.18,18774.39 23257.18,18873.55 22489.11,18873.55 "/>
    <polygon class="fil6 str5" points="23257.18,18774.39 24025.25,18774.39 24025.25,18873.55 23257.18,18873.55 "/>
    <polygon class="fil7 str5" points="24025.43,18774.39 24793.5,18774.39 24793.5,18873.55 24025.43,18873.55 "/>
    <polygon class="fil6 str5" points="22952.17,19073.33 24180.63,19073.33 24180.63,19172.49 22952.17,19172.49 "/>
    <polygon class="fil7 str5" points="21723.73,19073.33 22952.18,19073.33 22952.18,19172.49 21723.73,19172.49 "/>
   </g>
   <g transform="matrix(1 0 0 1 8049.98 8078.98)">
    <text x="14850" y="10500"  class="fil5 fnt1">8</text>
    <text x="15026.39" y="10500"  class="fil5 fnt1"> km</text>
   </g>
   <text x="22630.63" y="19548.86"  class="fil5 fnt1">4</text>
   <text x="22807.02" y="19548.86"  class="fil5 fnt1"> mi</text>
  </g>
 </g>
</svg>
