<?xml version="1.0" encoding="UTF-8"?>
<!DOCTYPE svg PUBLIC "-//W3C//DTD SVG 1.0//EN" "http://www.w3.org/TR/2001/REC-SVG-20010904/DTD/svg10.dtd">
<!-- Creator: CorelDRAW -->
<svg xmlns="http://www.w3.org/2000/svg" xml:space="preserve" width="210mm" height="297mm" version="1.0" style="shape-rendering:geometricPrecision; text-rendering:geometricPrecision; image-rendering:optimizeQuality; fill-rule:evenodd; clip-rule:evenodd"
viewBox="0 0 21000 29700"
 xmlns:xlink="http://www.w3.org/1999/xlink">
 <defs>
  <style type="text/css">
   <![CDATA[
    .str2 {stroke:black;stroke-width:10;stroke-miterlimit:3.864;stroke-opacity:0.501961}
    .str0 {stroke:#2B2A29;stroke-width:75;stroke-miterlimit:22.9256}
    .str4 {stroke:black;stroke-width:50;stroke-miterlimit:22.9256}
    .str1 {stroke:black;stroke-width:10;stroke-miterlimit:22.9256}
    .str3 {stroke:black;stroke-width:10;stroke-miterlimit:3.864}
    .fil7 {fill:none;fill-rule:nonzero}
    .fil1 {fill:#FEFEFE}
    .fil0 {fill:#2B2A29}
    .fil2 {fill:#A2D9F7}
    .fil4 {fill:#FEFEFE;fill-rule:nonzero}
    .fil3 {fill:#EBECEC;fill-rule:nonzero}
    .fil6 {fill:#D9DADA;fill-rule:nonzero}
    .fil8 {fill:black;fill-rule:nonzero}
    .fil5 {fill:#FEFEFE;fill-rule:nonzero;fill-opacity:0.501961}
   ]]>
  </style>
 </defs>
<symbol id="villes" viewBox="10447.31 14797.31 105.38 105.38">
 <circle class="fil0" cx="10500" cy="14850" r="52.69"/>
</symbol>
<symbol id="Capitale" viewBox="10371.93 14721.93 256.13 256.13">
 <circle class="fil1 str0" cx="10499.99" cy="14849.99" r="90.56"/>
</symbol>
 <g id="Plan_x0020_1">
  <metadata id="CorelCorpID_0Corel-Layer"/>
  <rect class="fil2" x="995.56" y="999.99" width="18900.84" height="19427.77"/>
  <path class="fil3 str1" d="M2824.14 18234.11c-10.22,-1.66 -20.61,-2.51 -30.95,-2.51 -51.99,57.79 -79.61,90.53 -128.4,151.52 -19.68,24.8 -27.54,57.8 -42.65,79.62l0 0c-6.42,-6.42 -13.85,-13.5 -18.98,-20.55 -46.23,-52.01 -87.32,-73.84 -118.13,-136.11 -32.74,-66.13 -26.32,-112.99 -41.09,-184.9 -4.49,-24.4 -17.98,-36.6 -17.98,-61.63 0,-89.89 56.5,-133.54 56.5,-223.42 0,-87.96 -33.38,-136.76 -82.18,-210.58l10.27 -215.72 -385.2 -1027.22 5.13 -115.56 -449.4 -1250.64 -59.07 -285.05c-61.63,-30.82 -98.22,-53.93 -156.65,-89.89 -66.12,-41.08 -125.84,-76.4 -125.84,-154.08 0,-74.47 15.41,-117.49 41.09,-187.47 11.56,-30.81 41.09,-41.73 41.09,-74.47 0,-32.1 -44.29,-26.33 -66.77,-48.79 -60.35,-60.35 -107.86,-106.58 -107.86,-191.97l0 -142.53c0,-76.39 -18.61,-119.41 -30.81,-194.52 -28.25,-170.14 -55.22,-280.29 -120.7,-438.87l0 0 0 -3772.41c97.58,-147.02 140.6,-231.44 233.69,-380.39 62.28,-100.15 98.87,-154.08 156.65,-256.81 96.95,-173.34 146.38,-271.56 225.99,-454.54 14.77,-34.67 37.24,-47.51 51.36,-82.18 45.59,-109.78 54.58,-181.05 107.86,-287.62 29.53,-59.7 48.79,-92.45 74.47,-154.08 81.54,-136.75 73.84,-241.4 123.27,-390.35 32.1,-96.3 83.46,-137.39 115.56,-233.69 45.59,-138.03 39.81,-226.62 100.15,-359.52 48.16,-105.93 50.08,-176.55 82.18,-287.63 23.11,-79.6 41.09,-124.55 51.37,-208.01 24.39,-197.09 115.56,-303.67 115.56,-500.77 28.89,-69.33 31.46,-115.56 43.65,-190.03 25.68,-157.29 46.23,-245.25 84.75,-400.62 39.8,-159.22 49.44,-250.38 69.34,-413.45 8.35,-69.34 35.95,-104.65 35.95,-173.98l0 -52.65c0,-55.86 -16.05,-96.95 15.41,-143.17 12.2,-17.98 29.53,-19.9 43.65,-35.96 32.75,-37.23 7.71,-77.04 15.41,-125.83 18.62,-112.35 46.23,-173.98 46.23,-287.62 0,-44.3 -3.86,-72.54 -20.55,-113 43.66,-14.12 64.85,-43.65 110.43,-43.65 17.34,0 21.83,19.26 30.82,33.38 13.48,20.55 37.23,18.62 51.36,38.52 11.55,16.06 16.05,35.96 35.95,35.96 85.39,0 119.41,-71.91 164.35,-143.82 53.29,-85.38 82.18,-145.09 82.18,-245.88l0 -52.64c0,-21.83 -7.7,-35.32 -23.11,-50.73 -7.06,6.42 -8.34,17.98 -17.98,17.98 -4.49,0 -5.77,-5.14 -10.27,-5.14 10.92,-132.25 55.86,-199.02 71.91,-331.28 7.06,-60.98 6.42,-96.3 25.68,-154.08 21.82,-66.12 44.3,-104.01 44.3,-173.98 0,-28.25 1.28,-44.3 -0.65,-72.55l0 -15.38 0 0 163.07 -0.03c184.9,0 291.48,-6.42 473.81,-35.95 71.9,-11.56 111.71,-41.09 184.9,-41.09 10.27,0 7.7,15.41 15.41,20.54 16.05,39.16 59.06,43.66 71.9,84.75 10.27,34.67 23.11,53.93 48.8,79.61 14.12,14.12 17.97,35.95 38.52,35.95 78.32,0 120.06,-21.18 195.17,-46.22 49.44,-16.05 77.68,-32.11 115.56,-66.77 20.54,-18.62 25.68,-48.8 53.93,-48.8 35.32,0 55.86,7.71 91.16,7.71 23.76,0 48.8,-1.29 57.79,-23.11 10.91,-26.97 -6.43,-52.65 12.84,-74.48 17.97,-20.54 41.08,-15.41 61.63,-33.38 24.4,-21.19 25.68,-43.66 33.38,-74.48 23.76,-96.3 61.64,-148.31 61.64,-247.17l0 -83.47c0,-96.3 26.32,-156.65 87.31,-231.76 30.82,-38.52 34.03,-72.55 69.34,-107.86 27.61,84.1 67.41,128.4 141.24,177.2l10.27 5.13c-4.49,-17.34 -6.42,-28.89 -6.42,-46.87 0,-14.76 -0.64,-23.11 0,-37.87 86.68,0 129.05,-51.36 204.16,-95.02 44.94,-32.1 64.2,-61.63 95.02,-107.86 20.54,-31.46 23.76,-74.47 61.63,-74.47 18.63,0 28.9,7.7 47.51,7.7 49.44,0 75.76,-18.62 121.98,-35.95 39.81,-14.77 66.14,-12.84 102.73,-33.38 61.63,-34.67 71.26,-90.53 87.31,-159.22 8.99,-39.81 -0.64,-73.84 28.25,-102.72 30.18,-30.18 66.13,-22.48 100.15,-48.8 64.2,-49.44 102.72,-77.04 177.2,-107.86l0 0c12.2,12.21 23.11,23.76 23.11,41.09 0,71.91 -37.24,109.79 -84.75,164.36 -59.06,68.05 -79.6,127.76 -79.6,217.64l0 65.49c0,39.81 15.4,61.64 15.4,101.44l0 73.19c0,62.92 53.93,81.53 82.18,138.03 17.33,34.66 15.41,60.99 15.41,100.15 0,54.58 -1.29,87.31 -20.54,138.67 -12.21,34.04 -35.96,50.73 -35.96,87.32 0,28.89 35.96,28.25 61.63,41.09 37.89,18.62 66.14,28.89 84.75,66.77 26.97,53.92 48.79,86.03 48.79,146.37 0,23.76 -25.68,29.54 -38.52,48.8 -36.59,53.93 -59.7,80.89 -84.74,141.24 -11.56,17.98 -37.89,-0.64 -53.93,12.84 -11.56,9.64 -10.28,24.4 -10.28,40.45l0 247.17 43.66 208.01 0 52.01c0,44.94 6.42,73.19 28.25,112.35 20.54,36.6 56.5,50.08 56.5,92.45 0,76.4 -44.29,111.71 -82.18,177.19 -40.45,69.99 -44.3,122.63 -92.45,187.47 -53.29,71.27 -94.38,104.01 -141.24,179.76 -38.52,61.64 -46.23,109.15 -100.16,156.66l0 0c-5.78,-12.21 -7.06,-28.25 -20.54,-28.25 -71.27,0 -129.69,25.68 -159.22,89.88 -16.69,36.6 -48.79,41.09 -77.04,69.34 -67.42,67.41 -122.63,98.87 -215.72,118.13 -102.08,21.19 -169.49,30.81 -249.1,100.15 -36.6,31.47 -7.7,82.82 -41.09,118.13 -26.32,28.25 -51.36,33.39 -84.74,53.93 -11.56,7.07 -28.25,8.99 -28.25,23.11 0,26.33 15.41,39.81 15.41,66.14 0,17.97 -2.57,28.88 -2.57,46.86 0,22.47 35.95,23.76 35.95,46.22 0,28.9 -7.7,45.59 -7.7,74.48 0,35.31 23.11,52 23.11,87.31 0,25.04 -25.68,34.03 -28.25,59.06 -21.83,2.57 -37.24,0 -53.93,12.84 7.71,10.92 11.56,20.55 20.55,30.82 2.57,7.7 7.7,12.2 7.7,20.54 0,8.99 -12.84,11.56 -12.84,20.55 0,30.18 -7.7,53.29 10.27,77.04 11.56,15.41 30.82,21.19 30.82,41.09 0,41.09 -51.36,51.36 -51.36,92.45 0,32.75 30.82,46.87 30.82,79.61 0,25.04 -19.91,35.95 -28.25,59.06 -17.98,49.44 -19.91,80.9 -23.12,133.54 -0.64,19.26 -28.24,21.83 -28.24,41.09 0,20.54 15.4,30.82 15.4,51.36 0,14.13 -25.68,11.56 -25.68,25.68 0,63.57 35.96,95.67 35.96,159.22 0,37.24 -15.41,57.14 -15.41,94.38l0 52.65c0,10.27 7.7,14.76 7.7,25.03 0,28.25 -7.06,43.66 -10.27,71.91l23.11 95.01c0,28.25 -0.64,43.66 -2.57,71.91 0.64,10.92 1.93,17.34 2.57,28.25l-12.84 46.22c0,56.5 1.29,87.96 1.29,144.46 0,19.9 6.42,30.82 6.42,50.71 0,22.48 -25.68,26.97 -30.82,48.8 -4.5,19.26 7.71,35.31 -2.57,51.36 -9.63,14.77 -28.24,17.97 -28.24,35.95 0,30.18 7.7,46.87 7.7,77.04 0,23.11 -20.55,32.75 -20.55,55.86 0,22.47 2.57,35.31 2.57,57.78 0,36.59 -43.65,47.51 -43.65,84.1 0,26.33 15.4,40.45 15.4,66.77 0,103.37 -74.47,150.88 -74.47,254.24 0,129.68 82.18,193.25 82.18,322.93 0,17.98 -1.29,28.25 -1.29,46.23l0 86.03c0,27.6 -30.18,35.3 -55.21,45.58 1.28,7.7 5.14,12.84 5.14,20.54 0,21.19 -17.98,30.18 -17.98,51.36 0,17.98 28.25,16.69 33.38,33.39 5.78,18.62 -3.21,33.38 5.14,51.36 14.76,32.1 35.95,48.79 35.95,84.11 0,14.76 -2.56,22.46 -2.56,37.23 0,32.1 15.4,49.43 15.4,81.53 0,12.21 1.29,19.26 1.29,31.47 0,12.19 -8.99,17.97 -8.99,30.17 0,40.45 17.98,62.28 17.98,102.72 0,42.37 -7.71,65.48 -7.71,107.86 0,26.32 -0.24,45.48 6.18,71.17l0 -0.01c-4.34,0.46 -8.93,0.74 -13.88,0.74 -53.93,0 -82.18,-25.68 -136.11,-25.68 -30.81,61.63 -63.56,87.31 -87.31,151.52 -8.35,23.75 -10.92,39.8 -23.12,61.63 -8.98,15.41 -7.7,38.52 -25.67,38.52 -16.06,0 -25.69,-3.85 -41.09,-7.7 -15.41,47.51 -51.36,68.05 -51.36,118.13 0,14.76 12.84,21.18 12.84,35.95 0,30.17 -19.27,43.66 -28.25,71.9 -14.78,44.3 -25.68,70.63 -56.5,105.29 5.13,6.43 15.41,7.06 15.41,15.41 0,45.58 -59.07,54.57 -59.07,100.16 0,4.49 5.14,5.77 5.14,10.27 0,17.98 -25.68,20.54 -25.68,38.52 0,49.43 33.38,73.82 33.38,123.27 0,61.63 -77.04,77.04 -77.04,138.67 0,8.34 7.71,12.19 7.71,20.54 0,24.4 -15.41,37.24 -15.41,61.64 0,14.12 8.34,25.03 20.54,30.81 -7.7,18.62 -15.41,30.17 -15.41,50.72l0 52.64c0,12.21 10.28,17.98 10.28,30.18 0,4.49 -3.22,5.78 -3.86,10.27l0 108.5c0,57.14 -34.67,86.03 -34.67,143.17 0,28.89 33.39,37.88 33.39,66.77 0,10.28 -7.7,15.41 -7.7,25.68 0,30.17 25.03,40.44 43.65,64.2 30.82,39.16 12.19,77.04 23.11,125.84 0,22.47 12.84,34.03 12.84,56.5 0,25.68 -29.53,28.25 -41.08,51.36 -12.84,25.68 -10.92,43.65 -17.98,71.9l2.57 10.27c26.31,-8.34 37.87,-19.89 61.63,-33.38 2.57,12.2 7.71,25.68 20.55,25.68 0.64,0 1.28,-0.01 1.91,-0.02l0 0c-25.04,76.41 -48.79,114.94 -86.66,184.92 -19.91,37.24 -48.79,55.21 -48.79,97.58 0,26.33 3.85,46.23 10.27,71.91l0 0c-50.71,16.69 -130.97,-10.27 -130.97,43.66 0,25.04 10.27,37.88 17.98,61.63l-5.14 20.55c7.07,3.85 17.97,4.49 17.97,12.84 0,14.12 -7.7,21.82 -7.7,35.95 0,29.53 23.11,42.37 23.11,71.91 0,16.05 -10.27,25.04 -10.27,41.08 0,21.83 7.71,34.67 5.14,56.5 78.32,6.42 74.47,105.29 87.31,182.33 13.49,80.9 48.79,123.27 48.79,205.44 0,20.55 -24.39,22.48 -35.95,38.52 -25.03,34.04 -17.98,68.06 -46.22,100.16 -16.7,19.26 -35.96,30.18 -35.96,56.5 0,17.34 17.98,23.76 17.98,41.09 0,66.13 -43.66,98.23 -43.66,164.35 0,24.4 26.97,35.95 51.36,35.95 48.16,0 75.13,-15.41 123.27,-15.41l0 0c0,44.31 7.7,77.05 -12.84,115.57 -44.94,85.39 -143.81,67.41 -205.44,141.24 -37.24,44.3 -37.24,82.82 -59.07,136.1 -12.84,31.47 -33.38,47.51 -33.38,82.18 0,48.8 15.41,75.76 15.41,124.55 0,100.8 -91.82,129.05 -141.25,217 -19.91,35.96 -11.55,64.21 -17.97,105.29 -10.27,68.06 -7.07,109.15 -17.98,177.2 -10.27,62.28 -36.6,90.53 -56.5,151.51 -46.22,19.26 -43.65,66.14 -66.77,110.43 -25.68,50.08 -60.99,67.42 -79.61,120.7 -37.23,107.22 -120.69,152.8 -120.69,266.44l0 78.32c0,64.84 -39.81,93.74 -64.21,153.44 -25.68,62.28 -14.12,106.57 -33.38,172.06 -25.68,89.24 -69.34,134.82 -69.34,227.27 0,93.1 46.86,141.89 82.18,227.27 17.33,43.02 41.09,66.13 41.09,113 0,92.45 -105.29,120.06 -105.29,212.51l0 68.05c0,81.53 -53.93,120.7 -53.93,202.23 0,194.54 95.02,295.97 95.02,490.5 0,95.02 -70.62,131.61 -123.27,210.58 -82.18,123.26 -135.47,190.03 -187.47,328.71 -25.68,69.34 -51.36,108.5 -51.36,182.33 0,34.03 7.71,55.86 12.84,89.88 4.49,87.96 12.84,138.04 12.84,225.99 0,145.74 -147.66,197.74 -147.66,343.48l0 112.35 -62.92 407.03c3.86,86.03 10.28,134.83 10.28,220.86 0,55.86 -51.36,73.19 -95.02,107.85 -83.46,66.77 -125.06,130.28 -133.41,236.21l0 -0.01z"/>
  <path class="fil3 str1" d="M2622.14 18462.74c-9.54,13.78 -21.97,23.1 -42.1,23.1 -4.49,0 -5.77,-5.13 -10.27,-5.13 -30.81,0 -44.29,21.19 -71.9,33.38 -30.82,14.12 -52.65,19.91 -74.48,46.22 -25.68,30.82 -7.05,64.21 -17.97,102.73 -11.56,41.73 -38.52,77.04 -82.18,77.04 -1.29,7.06 -2.57,12.84 -2.57,20.54 0,39.81 -64.2,39.81 -64.2,79.61 0,12.21 0.65,18.63 0,30.82 -7.06,0.65 -10.91,1.28 -17.98,2.57 3.22,8.98 7.71,15.4 7.71,25.68 0,39.16 -14.13,75.75 -51.36,87.31 -30.17,8.99 -61.63,21.83 -61.63,53.93 0,6.42 5.13,8.99 5.13,15.41 0,28.89 -1.29,50.07 -20.54,71.9 -13.48,15.41 -35.96,4.5 -51.36,17.98 -25.04,22.47 -21.83,50.72 -43.66,77.04 -14.76,17.98 -48.79,14.77 -48.79,38.52 0,28.9 17.97,43.02 17.97,71.91 0,19.26 -17.97,26.96 -17.97,46.22 0,14.77 10.27,21.19 10.27,35.96 0,25.04 -2.57,42.37 -17.98,61.63 -7.7,10.27 -25.68,9.63 -25.68,23.11 0,49.44 30.82,73.84 30.82,123.27 0,66.77 -29.53,102.08 -64.21,159.22 -14.12,23.76 6.43,51.36 -12.83,71.9 -16.7,17.98 -39.16,10.27 -61.64,20.55 -41.09,18.62 -32.1,64.84 -46.22,107.85 -22.47,67.42 -24.4,110.43 -56.5,174.63 12.2,9.64 20.55,19.91 20.55,35.95 0,29.54 -30.82,39.17 -30.82,68.7 0,35.3 0,44.5 0,70.62 0,25.69 -25.68,35.31 -25.68,60.99 0,14.12 9.25,21.68 15.67,33.88l-714.18 0 0 -7219.01 0 0c65.48,158.58 92.45,268.73 120.7,438.87 12.2,75.11 30.81,118.13 30.81,194.52l0 142.53c0,85.39 47.51,131.62 107.86,191.97 22.48,22.46 66.77,16.69 66.77,48.79 0,32.74 -29.53,43.66 -41.09,74.47 -25.68,69.98 -41.09,113 -41.09,187.47 0,77.68 59.72,113 125.84,154.08 58.43,35.96 95.02,59.07 156.65,89.89l59.07 285.05 449.4 1250.64 -5.13 115.56 385.2 1027.22 -10.27 215.72c48.8,73.82 82.18,122.62 82.18,210.58 0,89.88 -56.5,133.53 -56.5,223.42 0,25.03 13.49,37.23 17.98,61.63 14.77,71.91 8.35,118.77 41.09,184.9 30.81,62.27 71.9,84.1 118.13,136.11 5.13,7.05 12.56,14.13 18.98,20.55l0 0z"/>
  <path class="fil3 str1" d="M5975 4233.18c-3.21,19.26 -7.7,29.53 -3.85,48.79 10.27,0 16.69,-2.57 26.97,-2.57 29.53,0 34.66,41.09 64.2,41.09 64.85,0 99.52,-25.68 164.35,-25.68 23.11,0 14.77,35.95 33.39,48.79 40.45,27.61 77.04,10.27 126.48,10.27l63.55 0c8.99,37.24 9.64,68.71 41.09,89.89 51.36,34.66 128.4,32.1 128.4,94.38l0 18.61c-16.04,-1.28 -25.03,0 -41.09,0 11.56,26.33 29.54,35.32 48.8,56.5l60.99 0c65.49,0 136.75,31.46 136.75,96.94l0 57.14 -17.98 120.7c48.79,36.6 70.62,63.56 115.56,105.29 17.98,16.69 37.89,21.19 48.8,43.65 34.03,68.06 29.53,119.42 41.09,195.18l7.7 30.81c62.92,-15.4 100.15,-23.11 165,-23.11l52.65 0c34.02,0 50.71,20.54 82.81,30.82l141.24 -43.66 472.52 362.09 261.94 274.79c85.4,42.37 145.75,26.32 238.83,41.08 42.38,6.42 74.48,2.57 105.29,33.39 45.59,45.59 89.89,46.23 151.52,59.06 73.83,14.78 117.49,23.12 193.25,23.12l96.3 0c21.83,0 33.39,7.7 55.21,7.7l50.08 0c77.68,0 132.26,-5.13 195.81,38.52 29.53,20.55 30.18,66.77 66.77,66.77 49.44,0 76.4,-17.97 125.83,-17.97 116.21,0 171.43,82.17 287.62,82.17 100.16,0 131.62,-87.95 215.72,-143.81l369.8 -279.92 2013.35 -1281.45 5218.27 -3266.56 0 0 382.7 -225.99 0 0 -11428.37 0 0 0c-62.92,84.1 -145.23,96.3 -194.67,195.17l0 0c12.2,12.21 23.11,23.76 23.11,41.09 0,71.91 -37.24,109.79 -84.75,164.36 -59.06,68.05 -79.6,127.76 -79.6,217.64l0 65.49c0,39.81 15.4,61.64 15.4,101.44l0 73.19c0,62.92 53.93,81.53 82.18,138.03 17.33,34.66 15.41,60.99 15.41,100.15 0,54.58 -1.29,87.31 -20.54,138.67 -12.21,34.04 -35.96,50.73 -35.96,87.32 0,28.89 35.96,28.25 61.63,41.09 37.89,18.62 66.14,28.89 84.75,66.77 26.97,53.92 48.79,86.03 48.79,146.37 0,23.76 -25.68,29.54 -38.52,48.8 -36.59,53.93 -59.7,80.89 -84.74,141.24 -11.56,17.98 -37.89,-0.64 -53.93,12.84 -11.56,9.64 -10.28,24.4 -10.28,40.45l0 247.17 43.66 208.01 0 52.01c0,44.94 6.42,73.19 28.25,112.35 20.54,36.6 56.5,50.08 56.5,92.45 0,76.4 -44.29,111.71 -82.18,177.19 -40.45,69.99 -44.3,122.63 -92.45,187.47 -53.29,71.27 -94.38,104.01 -141.24,179.76 -38.52,61.64 -46.23,109.15 -100.16,156.66l0 0z"/>
  <path class="fil3 str1" d="M19896.39 7133.65l0 13294.13 -17506.77 0c17.98,-43.66 23.5,-77.53 56.89,-110.92 4.5,-12.19 17.97,-19.9 17.97,-33.38 0,-7.71 -5.13,-12.85 -5.13,-20.55 0,-49.43 30.81,-73.83 30.81,-123.27 0,-9.62 -17.97,-8.34 -17.97,-17.97 0,-42.38 18.62,-62.92 33.38,-102.72 6.42,-18.62 -5.77,-35.31 5.14,-51.36 25.04,-37.24 51.36,-59.71 51.36,-105.29 0,-10.91 -15.41,-12.2 -15.41,-23.12 0,-39.15 43.02,-49.43 51.36,-87.31 5.14,-24.4 19.91,-35.3 35.95,-53.93l-23.11 -46.22c0.65,-9.63 5.14,-15.41 5.14,-25.04 0,-4.5 -2.57,-6.42 -2.57,-10.92 43.66,-14.12 105.29,-7.7 105.29,-53.28 0,-8.35 -1.92,-12.84 -2.57,-21.19l-17.98 0c5.79,-14.76 10.28,-25.03 10.28,-41.09 0,-59.07 -30.82,-89.88 -30.82,-148.95 0,-32.73 28.89,-46.86 59.07,-59.06l20.54 15.41 5.14 -20.55c-10.91,-32.73 -20.55,-52.64 -20.55,-87.31 0,-18.61 12.84,-27.6 12.84,-46.23 0,-5.13 -7.7,-5.13 -7.7,-10.27 0,-23.11 23.11,-28.88 33.38,-48.79 7.91,-15.38 11.01,-28.95 18.76,-40.93l0.31 0.15 4159.15 734.15 1576.78 -1312.27 952.74 -1597.33 2812.02 -570.11 626.6 -1440.67 1235.23 -760.14 -3726.24 -4283.51 7478.16 -2239.33 790.96 -698.51 0 0 1191.57 247.68 0 0z"/>
  <path class="fil3 str1" d="M3332.48 2741.17l163.07 -0.03c184.9,0 291.48,-6.42 473.81,-35.95 71.9,-11.56 111.71,-41.09 184.9,-41.09 10.27,0 7.7,15.41 15.41,20.54 16.05,39.16 59.06,43.66 71.9,84.75 10.27,34.67 23.11,53.93 48.8,79.61 14.12,14.12 17.97,35.95 38.52,35.95 78.32,0 120.06,-21.18 195.17,-46.22 49.44,-16.05 77.68,-32.11 115.56,-66.77 20.54,-18.62 25.68,-48.8 53.93,-48.8 35.32,0 55.86,7.71 91.16,7.71 23.76,0 48.8,-1.29 57.79,-23.11 10.91,-26.97 -6.43,-52.65 12.84,-74.48 17.97,-20.54 41.08,-15.41 61.63,-33.38 24.4,-21.19 25.68,-43.66 33.38,-74.48 23.76,-96.3 61.64,-148.31 61.64,-247.17l0 -83.47c0,-96.3 26.32,-156.65 87.31,-231.76 30.82,-38.52 34.03,-72.55 69.34,-107.86 27.61,84.1 67.41,128.4 141.24,177.2l10.27 5.13c-4.49,-17.34 -6.42,-28.89 -6.42,-46.87 0,-14.76 -0.64,-23.11 0,-37.87 86.68,0 129.05,-51.36 204.16,-95.02 44.94,-32.1 64.2,-61.63 95.02,-107.86 20.54,-31.46 23.76,-74.47 61.63,-74.47 18.63,0 28.9,7.7 47.51,7.7 49.44,0 75.76,-18.62 121.98,-35.95 39.81,-14.77 66.14,-12.84 102.73,-33.38 61.63,-34.67 71.26,-90.53 87.31,-159.22 8.99,-39.81 -0.64,-73.84 28.25,-102.72 30.18,-30.18 66.13,-22.48 100.15,-48.8 64.2,-49.44 102.72,-77.04 177.2,-107.86l0 0c49.44,-98.87 131.75,-111.07 194.67,-195.17l0 0 -2403.2 0c-30.81,43.02 -75.75,41.74 -115.56,77.04 -68.69,61.64 -33.38,143.18 -74.47,225.99 -26.32,53.29 -61.63,80.9 -61.63,140.61l0 62.91c0,36.59 -23.12,54.57 -23.12,91.17l0 52.64c0,13.48 -12.19,17.34 -20.54,27.61 -27.6,34.03 -40.44,58.42 -53.93,100.15 -7.06,21.19 -17.33,30.82 -25.68,51.36 -10.91,26.97 -3.85,63.57 -33.38,69.34l-20.55 5.14c-15.41,-3.86 -25.03,-6.42 -41.09,-7.71 2.57,16.06 -5.77,28.25 2.57,41.09 12.2,18.62 35.95,10.27 51.36,25.68 24.4,24.4 20.55,52.64 20.55,87.31 0,62.92 -1.29,100.16 -23.12,159.22 -8.34,22.48 -33.38,29.53 -33.38,53.93 0,68.7 -44.3,136.11 -112.99,136.11 -5.78,34.67 -23.12,50.72 -35.96,82.18 -9.62,24.39 -8.98,46.22 -30.81,61.63 -75.76,55.21 -166.93,80.25 -166.93,173.99l0 23.78 0 0z"/>
  <path class="fil3 str1" d="M17580.01 1225.99l1027.22 3831.53 -369.8 102.72 223.42 772.98 798.67 -223.42 151.51 562.4 -706.21 613.77 0 0 1191.57 247.68 0 0 0 -6133.65 -1933.68 0 0 0 -382.7 225.99 0 0z"/>
  <path class="fil4 str1" d="M2799.42 19053.69l4159.15 734.15 1576.78 -1312.27 952.74 -1597.33 2812.02 -570.11 626.6 -1440.67 1235.23 -760.14 -3726.24 -4283.51 7478.16 -2239.33 790.96 -698.51 0 0 706.21 -613.77 -151.51 -562.4 -798.67 223.42 -223.42 -772.98 369.8 -102.72 -1027.22 -3831.53 0 0 -5218.27 3266.56 -2013.35 1281.45 -369.8 279.92c-84.1,55.86 -115.56,143.81 -215.72,143.81 -116.19,0 -171.41,-82.17 -287.62,-82.17 -49.43,0 -76.39,17.97 -125.83,17.97 -36.59,0 -37.24,-46.22 -66.77,-66.77 -63.55,-43.65 -118.13,-38.52 -195.81,-38.52l-50.08 0c-21.82,0 -33.38,-7.7 -55.21,-7.7l-96.3 0c-75.76,0 -119.42,-8.34 -193.25,-23.12 -61.63,-12.83 -105.93,-13.47 -151.52,-59.06 -30.81,-30.82 -62.91,-26.97 -105.29,-33.39 -93.08,-14.76 -153.43,1.29 -238.83,-41.08l-261.94 -274.79 -472.52 -362.09 -141.24 43.66c-32.1,-10.28 -48.79,-30.82 -82.81,-30.82l-52.65 0c-64.85,0 -102.08,7.71 -165,23.11l-7.7 -30.81c-11.56,-75.76 -7.06,-127.12 -41.09,-195.18 -10.91,-22.46 -30.82,-26.96 -48.8,-43.65 -44.94,-41.73 -66.77,-68.69 -115.56,-105.29l17.98 -120.7 0 -57.14c0,-65.48 -71.26,-96.94 -136.75,-96.94l-60.99 0c-19.26,-21.18 -37.24,-30.17 -48.8,-56.5 16.06,0 25.05,-1.28 41.09,0l0 -18.61c0,-62.28 -77.04,-59.72 -128.4,-94.38 -31.45,-21.18 -32.1,-52.65 -41.09,-89.89l-63.55 0c-49.44,0 -86.03,17.34 -126.48,-10.27 -18.62,-12.84 -10.28,-48.79 -33.39,-48.79 -64.83,0 -99.5,25.68 -164.35,25.68 -29.54,0 -34.67,-41.09 -64.2,-41.09 -10.28,0 -16.7,2.57 -26.97,2.57 -3.85,-19.26 0.64,-29.53 3.85,-48.79l0 0c-5.78,-12.21 -7.06,-28.25 -20.54,-28.25 -71.27,0 -129.69,25.68 -159.22,89.88 -16.69,36.6 -48.79,41.09 -77.04,69.34 -67.42,67.41 -122.63,98.87 -215.72,118.13 -102.08,21.19 -169.49,30.81 -249.1,100.15 -36.6,31.47 -7.7,82.82 -41.09,118.13 -26.32,28.25 -51.36,33.39 -84.74,53.93 -11.56,7.07 -28.25,8.99 -28.25,23.11 0,26.33 15.41,39.81 15.41,66.14 0,17.97 -2.57,28.88 -2.57,46.86 0,22.47 35.95,23.76 35.95,46.22 0,28.9 -7.7,45.59 -7.7,74.48 0,35.31 23.11,52 23.11,87.31 0,25.04 -25.68,34.03 -28.25,59.06 -21.83,2.57 -37.24,0 -53.93,12.84 7.71,10.92 11.56,20.55 20.55,30.82 2.57,7.7 7.7,12.2 7.7,20.54 0,8.99 -12.84,11.56 -12.84,20.55 0,30.18 -7.7,53.29 10.27,77.04 11.56,15.41 30.82,21.19 30.82,41.09 0,41.09 -51.36,51.36 -51.36,92.45 0,32.75 30.82,46.87 30.82,79.61 0,25.04 -19.91,35.95 -28.25,59.06 -17.98,49.44 -19.91,80.9 -23.12,133.54 -0.64,19.26 -28.24,21.83 -28.24,41.09 0,20.54 15.4,30.82 15.4,51.36 0,14.13 -25.68,11.56 -25.68,25.68 0,63.57 35.96,95.67 35.96,159.22 0,37.24 -15.41,57.14 -15.41,94.38l0 52.65c0,10.27 7.7,14.76 7.7,25.03 0,28.25 -7.06,43.66 -10.27,71.91l23.11 95.01c0,28.25 -0.64,43.66 -2.57,71.91 0.64,10.92 1.93,17.34 2.57,28.25l-12.84 46.22c0,56.5 1.29,87.96 1.29,144.46 0,19.9 6.42,30.82 6.42,50.71 0,22.48 -25.68,26.97 -30.82,48.8 -4.5,19.26 7.71,35.31 -2.57,51.36 -9.63,14.77 -28.24,17.97 -28.24,35.95 0,30.18 7.7,46.87 7.7,77.04 0,23.11 -20.55,32.75 -20.55,55.86 0,22.47 2.57,35.31 2.57,57.78 0,36.59 -43.65,47.51 -43.65,84.1 0,26.33 15.4,40.45 15.4,66.77 0,103.37 -74.47,150.88 -74.47,254.24 0,129.68 82.18,193.25 82.18,322.93 0,17.98 -1.29,28.25 -1.29,46.23l0 86.03c0,27.6 -30.18,35.3 -55.21,45.58 1.28,7.7 5.14,12.84 5.14,20.54 0,21.19 -17.98,30.18 -17.98,51.36 0,17.98 28.25,16.69 33.38,33.39 5.78,18.62 -3.21,33.38 5.14,51.36 14.76,32.1 35.95,48.79 35.95,84.11 0,14.76 -2.56,22.46 -2.56,37.23 0,32.1 15.4,49.43 15.4,81.53 0,12.21 1.29,19.26 1.29,31.47 0,12.19 -8.99,17.97 -8.99,30.17 0,40.45 17.98,62.28 17.98,102.72 0,42.37 -7.71,65.48 -7.71,107.86 0,26.32 -0.24,45.48 6.18,71.17l0 -0.01c22.13,-2.35 37.94,-9.53 63.16,-9.53 50.08,0 100.15,29.53 100.15,79.61 0,138.67 -70.62,209.93 -70.62,348.61l0 109.14c0,109.14 -74.47,161.78 -74.47,270.93l0 155.37c0,76.4 -2.57,122.62 24.4,194.53 17.97,49.43 52.64,70.62 56.49,123.27 -14.12,3.2 -30.82,8.34 -30.82,23.11 0,12.19 9.64,17.33 17.98,25.68 -12.84,19.26 -19.26,31.45 -30.82,51.36l10.28 46.22c-3.21,21.83 -15.41,32.1 -15.41,53.93 0,32.1 6.42,57.14 -12.84,82.18 -22.47,28.89 -48.79,43.01 -48.79,79.61 0,13.48 15.41,17.33 15.41,30.82 0,12.19 -10.28,17.97 -10.28,30.17l0 72.55c-16.69,50.72 -5.13,97.58 -30.82,143.81 -29.53,53.29 -71.9,63.56 -123.26,97.58 -4.5,-27.6 -7.71,-43.65 -7.71,-71.25l0 -52.65c0,-55.21 43.66,-80.25 43.66,-135.47 0,-24.39 -16.69,-35.31 -28.25,-56.49 -7.7,-14.78 -13.48,-33.39 -30.81,-33.39 -19.26,0 -41.09,8.99 -41.09,28.25 0,14.12 5.77,21.83 7.7,35.95l-10.27 5.14 -20.54 -5.14c-30.82,10.27 -55.22,21.18 -66.78,51.36 -13.48,34.04 3.21,61.64 -15.4,92.45 -8.99,15.41 -25.05,14.13 -38.52,25.68 -30.34,25.92 -48.23,55.56 -87.97,56.48l0 0c-25.04,76.41 -48.79,114.94 -86.66,184.92 -19.91,37.24 -48.79,55.21 -48.79,97.58 0,26.33 3.85,46.23 10.27,71.91l0 0c30.18,-9.63 37.88,-40.45 69.34,-46.22 28.24,-5.14 46.22,8.99 69.33,25.68 19.26,13.47 42.38,1.92 61.64,15.41 78.97,57.14 102.72,151.51 200.31,151.51 8.35,0 12.2,-7.7 20.54,-7.7 20.54,0 21.83,25.68 30.81,43.65 17.98,35.95 35.96,57.15 35.96,97.59 0,86.03 -107.86,106.57 -107.86,192.6 0,27.61 26.33,44.31 53.93,46.23l0 19.9c0,33.39 -37.24,37.88 -56.5,64.84 -14.12,19.91 -4.49,43.02 -20.54,61.63 -26.32,29.54 -57.78,28.25 -97.59,28.25 -19.9,0 -31.45,-5.13 -51.36,-5.13 -75.11,0 -76.39,93.09 -100.15,164.35 -20.55,61.64 -30.82,99.52 -30.82,165l0 135.46 0 0c0,44.31 7.7,77.05 -12.84,115.57 -44.94,85.39 -143.81,67.41 -205.44,141.24 -37.24,44.3 -37.24,82.82 -59.07,136.1 -12.84,31.47 -33.38,47.51 -33.38,82.18 0,48.8 15.41,75.76 15.41,124.55 0,100.8 -91.82,129.05 -141.25,217 -19.91,35.96 -11.55,64.21 -17.97,105.29 -10.27,68.06 -7.07,109.15 -17.98,177.2 -10.27,62.28 -36.6,90.53 -56.5,151.51 -46.22,19.26 -43.65,66.14 -66.77,110.43 -25.68,50.08 -60.99,67.42 -79.61,120.7 -37.23,107.22 -120.69,152.8 -120.69,266.44l0 78.32c0,64.84 -39.81,93.74 -64.21,153.44 -25.68,62.28 -14.12,106.57 -33.38,172.06 -25.68,89.24 -69.34,134.82 -69.34,227.27 0,93.1 46.86,141.89 82.18,227.27 17.33,43.02 41.09,66.13 41.09,113 0,92.45 -105.29,120.06 -105.29,212.51l0 68.05c0,81.53 -53.93,120.7 -53.93,202.23 0,194.54 95.02,295.97 95.02,490.5 0,95.02 -70.62,131.61 -123.27,210.58 -82.18,123.26 -135.47,190.03 -187.47,328.71 -25.68,69.34 -51.36,108.5 -51.36,182.33 0,34.03 7.71,55.86 12.84,89.88 4.49,87.96 12.84,138.04 12.84,225.99 0,145.74 -147.66,197.74 -147.66,343.48l0 112.35 -62.92 407.03c3.86,86.03 10.28,134.83 10.28,220.86 0,55.86 -51.36,73.19 -95.02,107.85 -83.46,66.77 -125.06,130.28 -133.41,236.21l0 -0.01c62.13,10.08 118,50.21 118,113.06l-112.99 354.39c8.35,52.64 25.68,80.89 25.68,133.54 0,25.68 -38.52,28.25 -38.52,53.92 0,10.28 17.97,10.28 17.97,20.55 0,24.4 -28.25,32.1 -28.25,56.5 0,10.27 7.71,15.4 7.71,25.68 0,12.84 -15.41,15.41 -15.41,28.24 0,8.99 10.27,10.92 15.41,17.98 -6.49,4.86 -11.05,10.05 -14.63,15.57l0.31 0.15z"/>
  <use x="6310.73" y="7656.01" width="256.13" height="256.13" xlink:href="#Capitale"/>
  <use x="5704.01" y="6156.68" width="105.38" height="105.38" xlink:href="#villes"/>
  <use x="6069.21" y="5052.76" width="105.38" height="105.38" xlink:href="#villes"/>
  <use x="6741.26" y="5057.81" width="105.38" height="105.38" xlink:href="#villes"/>
  <use x="7448.51" y="5919.91" width="105.38" height="105.38" xlink:href="#villes"/>
  <use x="5620.67" y="7328.87" width="105.38" height="105.38" xlink:href="#villes"/>
  <use x="6943.95" y="7328.87" width="105.38" height="105.38" xlink:href="#villes"/>
  <use x="5863.43" y="8747.35" width="105.38" height="105.38" xlink:href="#villes"/>
  <use x="4934.6" y="10820.44" width="105.38" height="105.38" xlink:href="#villes"/>
  <use x="5618.08" y="11094.02" width="105.38" height="105.38" xlink:href="#villes"/>
  <use x="5168.47" y="12612.47" width="105.38" height="105.38" xlink:href="#villes"/>
  <use x="6189.81" y="13306.71" width="105.38" height="105.38" xlink:href="#villes"/>
  <use x="5596.55" y="15406.59" width="105.38" height="105.38" xlink:href="#villes"/>
  <use x="6720.23" y="19205.07" width="105.38" height="105.38" xlink:href="#villes"/>
  <use x="3051.11" y="18204.33" width="105.38" height="105.38" xlink:href="#villes"/>
  <path class="fil5 str2" d="M17064.04 18604.44l2236.73 0 0 1592.9 -2236.73 0 0 -1592.9z"/>
  <g id="_1883476479088">
   <path class="fil6 str3" d="M17179.76 19204.68l400.6 0 0 99.16 -400.6 0 0 -99.16z"/>
   <path class="fil4 str3" d="M17580.36 19204.68l400.6 0 0 99.16 -400.6 0 0 -99.16z"/>
   <path class="fil6 str3" d="M17980.96 19204.68l400.6 0 0 99.16 -400.6 0 0 -99.16z"/>
   <path class="fil4 str3" d="M18381.66 19204.68l400.6 0 0 99.16 -400.6 0 0 -99.16z"/>
   <path class="fil6 str3" d="M18782.27 19204.68l400.6 0 0 99.16 -400.6 0 0 -99.16z"/>
   <path class="fil4 str3" d="M18462.6 19503.62l640.72 0 0 99.16 -640.72 0 0 -99.16z"/>
   <path class="fil6 str3" d="M17821.88 19503.62l640.72 0 0 99.16 -640.72 0 0 -99.16z"/>
   <path class="fil4 str3" d="M17181.16 19503.62l640.73 0 0 99.16 -640.73 0 0 -99.16z"/>
  </g>
  <path class="fil7 str4" d="M995.56 1000l18900.83 0 0 19427.78 -18900.83 0 0 -19427.78z"/>
  <path class="fil8" d="M17862.79 18775.54l-13.47 29.28 -70.55 0 -15.47 31.28c30.81,4.52 55.04,15.81 72.79,33.98 15.23,15.64 22.82,33.99 22.82,55.15 0,12.29 -2.47,23.7 -7.47,34.11 -5,10.46 -11.29,19.4 -18.87,26.75 -7.53,7.35 -16,13.29 -25.29,17.75 -13.17,6.3 -26.69,9.47 -40.57,9.47 -13.99,0 -24.16,-2.35 -30.57,-7.11 -6.35,-4.71 -9.53,-9.94 -9.53,-15.64 0,-3.18 1.3,-6 3.94,-8.47 2.65,-2.47 6,-3.65 10,-3.65 2.94,0 5.58,0.42 7.82,1.36 2.23,0.88 6,3.23 11.4,6.99 8.59,5.94 17.35,8.88 26.17,8.88 13.4,0 25.22,-5.11 35.39,-15.29 10.12,-10.17 15.23,-22.57 15.23,-37.21 0,-14.12 -4.52,-27.34 -13.58,-39.57 -9.11,-12.29 -21.58,-21.76 -37.57,-28.4 -12.46,-5.18 -29.52,-8.18 -51.09,-9l44.8 -90.66 83.67 0z"/>
  <path id="1" class="fil8" d="M17898.77 18893.84c0,-26.64 4,-49.51 12.05,-68.74 8.06,-19.22 18.7,-33.57 32.05,-42.98 10.29,-7.47 20.99,-11.17 31.98,-11.17 17.94,0 33.99,9.11 48.22,27.34 17.81,22.64 26.69,53.27 26.69,91.96 0,27.05 -3.88,50.09 -11.7,69.03 -7.82,18.93 -17.76,32.63 -29.87,41.21 -12.11,8.53 -23.81,12.82 -35.04,12.82 -22.29,0 -40.81,-13.11 -55.62,-39.39 -12.53,-22.17 -18.76,-48.86 -18.76,-80.08zm33.87 4.23c0,32.1 3.94,58.33 11.82,78.67 6.52,17.11 16.28,25.63 29.22,25.63 6.17,0 12.58,-2.76 19.22,-8.34 6.65,-5.59 11.65,-14.88 15.11,-27.99 5.24,-19.7 7.88,-47.57 7.88,-83.43 0,-26.64 -2.76,-48.86 -8.23,-66.62 -4.11,-13.23 -9.46,-22.58 -15.99,-28.05 -4.65,-3.82 -10.35,-5.7 -16.99,-5.7 -7.76,0 -14.7,3.53 -20.76,10.52 -8.23,9.53 -13.87,24.46 -16.81,44.92 -3,20.41 -4.47,40.52 -4.47,60.39z"/>
  <path id="2" class="fil8" d="M18208.52 18764.25l0 157.16 39.98 -36.63c8.52,-7.82 13.46,-12.76 14.81,-14.82 0.95,-1.41 1.42,-2.76 1.42,-4.17 0,-2.29 -1,-4.23 -2.89,-5.94 -1.88,-1.65 -4.99,-2.59 -9.4,-2.82l0 -5.65 68.61 0 0 5.65c-9.35,0.23 -17.17,1.7 -23.4,4.35 -6.23,2.7 -13.05,7.47 -20.52,14.29l-40.63 37.22 40.34 51.33c11.29,14.05 18.81,23.04 22.58,26.98 5.58,5.24 10.4,8.65 14.58,10.17 2.94,1.12 7.99,1.71 15.17,1.71l0 6.35 -76.73 0 0 -6.35c4.41,-0.12 7.35,-0.76 8.88,-1.94 1.58,-1.24 2.35,-2.88 2.35,-5.06 0,-2.64 -2.3,-6.88 -6.88,-12.7l-48.27 -61.79 0 52.21c0,10.23 0.7,16.93 2.11,20.17 1.47,3.17 3.47,5.46 6.12,6.88 2.64,1.35 8.35,2.11 17.17,2.23l0 6.35 -80.08 0 0 -6.35c7.99,0 14.05,-1 18.05,-2.94 2.41,-1.23 4.23,-3.17 5.46,-5.76 1.71,-3.76 2.59,-10.29 2.59,-19.52l0 -143.94c0,-18.05 -0.41,-29.1 -1.18,-33.16 -0.82,-4.05 -2.11,-6.82 -3.99,-8.35 -1.83,-1.58 -4.24,-2.35 -7.18,-2.35 -2.41,0 -6.05,1 -10.82,2.94l-2.93 -6.35 46.74 -19.4 7.94 0z"/>
  <path id="3" class="fil8" d="M18385.26 18880.55c11.41,-11.53 18.17,-18.17 20.22,-19.93 5.12,-4.36 10.65,-7.77 16.59,-10.18 5.93,-2.41 11.81,-3.64 17.63,-3.64 9.88,0 18.29,2.88 25.4,8.64 7.06,5.76 11.82,14.11 14.17,25.11 11.88,-13.88 21.88,-22.93 30.05,-27.28 8.17,-4.3 16.58,-6.47 25.22,-6.47 8.35,0 15.82,2.17 22.35,6.47 6.46,4.29 11.64,11.34 15.4,21.16 2.53,6.65 3.82,17.11 3.82,31.4l0 67.97c0,9.82 0.71,16.58 2.18,20.23 1.12,2.46 3.23,4.64 6.23,6.4 3.06,1.77 8,2.65 14.88,2.65l0 6.35 -77.26 0 0 -6.35 3.29 0c6.7,0 11.99,-1.29 15.76,-3.94 2.64,-1.82 4.52,-4.76 5.64,-8.76 0.47,-1.94 0.71,-7.47 0.71,-16.58l0 -67.91c0,-12.88 -1.53,-21.93 -4.65,-27.22 -4.52,-7.35 -11.7,-11.06 -21.63,-11.06 -6.06,0 -12.23,1.53 -18.41,4.59 -6.11,3 -13.58,8.7 -22.34,16.93l-0.35 1.94 0.7 7.41 0 75.32c0,10.7 0.59,17.4 1.77,20.05 1.23,2.59 3.46,4.82 6.76,6.58 3.29,1.77 8.93,2.65 16.87,2.65l0 6.35 -79.37 0 0 -6.35c8.64,0 14.58,-1 17.81,-3.06 3.24,-2.06 5.47,-5.17 6.7,-9.29 0.59,-1.94 0.89,-7.58 0.89,-16.93l0 -67.91c0,-12.88 -1.88,-22.17 -5.65,-27.87 -5.05,-7.41 -12.05,-11.11 -21.11,-11.11 -6.17,0 -12.28,1.7 -18.34,5.05 -9.47,5.06 -16.82,10.82 -21.93,17.17l0 84.67c0,10.29 0.7,16.93 2.12,20.05 1.41,3.06 3.52,5.35 6.35,6.94 2.76,1.53 8.4,2.29 16.93,2.29l0 6.35 -77.97 0 0 -6.35c7.24,0 12.29,-0.76 15.17,-2.29 2.89,-1.59 5.06,-4 6.59,-7.41 1.47,-3.35 2.23,-9.88 2.23,-19.58l0 -60.33c0,-17.28 -0.53,-28.45 -1.53,-33.51 -0.82,-3.82 -2.05,-6.41 -3.82,-7.82 -1.7,-1.47 -4.05,-2.18 -6.99,-2.18 -3.24,0 -7.06,0.89 -11.53,2.59l-2.58 -6.35 47.62 -19.4 7.41 0 0 33.75z"/>
  <path class="fil8" d="M17757.97 19790.22c6.64,-15.76 15.11,-27.93 25.28,-36.51 10.17,-8.59 22.87,-12.88 38.04,-12.88 18.76,0 33.11,6.06 43.1,18.23 7.59,9.05 11.41,18.75 11.41,29.1 0,16.99 -10.7,34.57 -32.11,52.68 14.41,5.65 25.29,13.64 32.7,24.11 7.35,10.41 11.05,22.7 11.05,36.81 0,20.22 -6.47,37.69 -19.34,52.5 -16.76,19.29 -41.1,28.93 -72.97,28.93 -15.76,0 -26.46,-1.94 -32.16,-5.88 -5.71,-3.88 -8.53,-8.11 -8.53,-12.58 0,-3.35 1.35,-6.23 4.06,-8.76 2.7,-2.53 5.94,-3.82 9.76,-3.82 2.88,0 5.82,0.47 8.82,1.41 1.94,0.59 6.35,2.7 13.29,6.35 6.88,3.64 11.7,5.82 14.34,6.52 4.24,1.3 8.82,1.94 13.64,1.94 11.76,0 21.93,-4.52 30.64,-13.64 8.7,-9.05 13.05,-19.81 13.05,-32.22 0,-9.05 -2,-17.93 -6.06,-26.51 -3,-6.47 -6.29,-11.35 -9.82,-14.65 -4.99,-4.58 -11.76,-8.76 -20.4,-12.52 -8.64,-3.7 -17.46,-5.58 -26.46,-5.58l-5.52 0 0 -5.3c9.11,-1.17 18.16,-4.41 27.34,-9.82 9.11,-5.4 15.75,-11.87 19.87,-19.46 4.17,-7.58 6.23,-15.87 6.23,-24.99 0,-11.81 -3.7,-21.34 -11.11,-28.63 -7.47,-7.29 -16.7,-10.94 -27.75,-10.94 -17.82,0 -32.69,9.65 -44.69,28.87l-5.7 -2.76z"/>
  <path id="1" class="fil8" d="M17929.42 19863.72c0,-26.64 4,-49.51 12.05,-68.74 8.06,-19.22 18.7,-33.57 32.05,-42.98 10.29,-7.47 20.99,-11.17 31.98,-11.17 17.94,0 33.99,9.11 48.22,27.34 17.81,22.64 26.69,53.27 26.69,91.96 0,27.05 -3.88,50.09 -11.7,69.03 -7.82,18.93 -17.76,32.63 -29.87,41.21 -12.11,8.53 -23.81,12.82 -35.04,12.82 -22.29,0 -40.81,-13.11 -55.62,-39.39 -12.53,-22.17 -18.76,-48.86 -18.76,-80.08zm33.87 4.23c0,32.1 3.94,58.33 11.82,78.67 6.52,17.11 16.28,25.63 29.22,25.63 6.17,0 12.58,-2.76 19.22,-8.34 6.65,-5.59 11.65,-14.88 15.11,-27.99 5.24,-19.7 7.88,-47.57 7.88,-83.43 0,-26.64 -2.76,-48.86 -8.23,-66.62 -4.11,-13.23 -9.46,-22.58 -15.99,-28.05 -4.65,-3.82 -10.35,-5.7 -16.99,-5.7 -7.76,0 -14.7,3.53 -20.76,10.52 -8.23,9.53 -13.87,24.46 -16.81,44.92 -3,20.41 -4.47,40.52 -4.47,60.39z"/>
  <path id="2" class="fil8" d="M18239.52 19850.43c11.41,-11.53 18.17,-18.17 20.22,-19.93 5.12,-4.36 10.65,-7.77 16.59,-10.18 5.93,-2.41 11.81,-3.64 17.63,-3.64 9.88,0 18.29,2.88 25.4,8.64 7.06,5.76 11.82,14.11 14.17,25.11 11.88,-13.88 21.88,-22.93 30.05,-27.28 8.17,-4.3 16.58,-6.47 25.22,-6.47 8.35,0 15.82,2.17 22.35,6.47 6.46,4.29 11.64,11.34 15.4,21.16 2.53,6.65 3.82,17.11 3.82,31.4l0 67.97c0,9.82 0.71,16.58 2.18,20.23 1.12,2.46 3.23,4.64 6.23,6.4 3.06,1.77 8,2.65 14.88,2.65l0 6.35 -77.26 0 0 -6.35 3.29 0c6.7,0 11.99,-1.29 15.76,-3.94 2.64,-1.82 4.52,-4.76 5.64,-8.76 0.47,-1.94 0.71,-7.47 0.71,-16.58l0 -67.91c0,-12.88 -1.53,-21.93 -4.65,-27.22 -4.52,-7.35 -11.7,-11.06 -21.63,-11.06 -6.06,0 -12.23,1.53 -18.41,4.59 -6.11,3 -13.58,8.7 -22.34,16.93l-0.35 1.94 0.7 7.41 0 75.32c0,10.7 0.59,17.4 1.77,20.05 1.23,2.59 3.46,4.82 6.76,6.58 3.29,1.77 8.93,2.65 16.87,2.65l0 6.35 -79.37 0 0 -6.35c8.64,0 14.58,-1 17.81,-3.06 3.24,-2.06 5.47,-5.17 6.7,-9.29 0.59,-1.94 0.89,-7.58 0.89,-16.93l0 -67.91c0,-12.88 -1.88,-22.17 -5.65,-27.87 -5.05,-7.41 -12.05,-11.11 -21.11,-11.11 -6.17,0 -12.28,1.7 -18.34,5.05 -9.47,5.06 -16.82,10.82 -21.93,17.17l0 84.67c0,10.29 0.7,16.93 2.12,20.05 1.41,3.06 3.52,5.35 6.35,6.94 2.76,1.53 8.4,2.29 16.93,2.29l0 6.35 -77.97 0 0 -6.35c7.24,0 12.29,-0.76 15.17,-2.29 2.89,-1.59 5.06,-4 6.59,-7.41 1.47,-3.35 2.23,-9.88 2.23,-19.58l0 -60.33c0,-17.28 -0.53,-28.45 -1.53,-33.51 -0.82,-3.82 -2.05,-6.41 -3.82,-7.82 -1.7,-1.47 -4.05,-2.18 -6.99,-2.18 -3.24,0 -7.06,0.89 -11.53,2.59l-2.58 -6.35 47.62 -19.4 7.41 0 0 33.75z"/>
  <path id="3" class="fil8" d="M18507.16 19734.13c4.76,0 8.88,1.7 12.29,5.05 3.35,3.41 5.05,7.53 5.05,12.29 0,4.82 -1.7,9 -5.05,12.41 -3.41,3.47 -7.53,5.17 -12.29,5.17 -4.82,0 -9,-1.7 -12.41,-5.17 -3.47,-3.41 -5.17,-7.59 -5.17,-12.41 0,-4.76 1.7,-8.88 5.05,-12.29 3.41,-3.35 7.59,-5.05 12.53,-5.05zm14.17 82.55l0 127c0,9.82 0.7,16.34 2.17,19.58 1.41,3.29 3.53,5.7 6.35,7.29 2.82,1.59 8,2.41 15.47,2.41l0 6.35 -76.56 0 0 -6.35c7.65,0 12.82,-0.76 15.41,-2.23 2.64,-1.47 4.7,-3.94 6.29,-7.35 1.53,-3.41 2.29,-10 2.29,-19.7l0 -61.03c0,-16.99 -0.53,-27.99 -1.53,-33.05 -0.82,-3.64 -2.05,-6.17 -3.82,-7.58 -1.7,-1.47 -4.06,-2.18 -7,-2.18 -3.23,0 -7.11,0.89 -11.7,2.59l-2.41 -6.35 47.45 -19.4 7.59 0z"/>
  <path class="fil8" d="M19479.5 20104.44c0,-17.45 4.47,-34.48 13.46,-51.13 8.93,-16.61 21.77,-29.59 38.43,-38.86 16.69,-9.26 34.1,-13.92 52.16,-13.92 17.92,0 35.18,4.56 51.69,13.74 16.56,9.12 29.4,21.92 38.53,38.43 9.17,16.51 13.73,33.77 13.73,51.74 0,18.01 -4.56,35.27 -13.73,51.78 -9.13,16.51 -21.97,29.35 -38.53,38.53 -16.51,9.17 -33.77,13.78 -51.69,13.78 -18.06,0 -35.47,-4.66 -52.16,-13.97 -16.66,-9.36 -29.5,-22.34 -38.43,-38.95 -8.99,-16.65 -13.46,-33.68 -13.46,-51.17zm17.22 0c0,14.62 3.76,28.88 11.24,42.7 7.48,13.83 18.2,24.65 32.13,32.46 13.92,7.81 28.41,11.71 43.46,11.71 15,0 29.35,-3.85 43.08,-11.52 13.74,-7.67 24.46,-18.39 32.13,-32.17 7.67,-13.79 11.52,-28.18 11.52,-43.18 0,-14.96 -3.85,-29.36 -11.52,-43.14 -7.67,-13.78 -18.39,-24.5 -32.13,-32.12 -13.73,-7.62 -28.08,-11.43 -43.08,-11.43 -15.05,0 -29.54,3.9 -43.46,11.66 -13.93,7.76 -24.65,18.58 -32.13,32.46 -7.48,13.87 -11.24,28.08 -11.24,42.57zm103.57 -33.35l5.08 -16.94c11.53,2.78 20.7,8.61 27.52,17.55 6.87,8.98 10.3,19.85 10.3,32.59 0,16.19 -5.22,29.31 -15.71,39.42 -10.49,10.11 -24.98,15.15 -43.55,15.15 -12.14,0 -22.68,-2.31 -31.61,-6.92 -8.99,-4.56 -15.71,-11.15 -20.28,-19.61 -4.56,-8.52 -6.82,-18.25 -6.82,-29.16 0,-12.23 2.92,-22.39 8.8,-30.48 5.88,-8.09 13.88,-13.6 23.94,-16.56l4.23 16.37c-6.91,2.77 -12.23,6.82 -15.89,12.23 -3.72,5.41 -5.55,11.71 -5.55,19 0,10.58 3.76,19.33 11.28,26.2 7.53,6.87 18.35,10.3 32.37,10.3 14.06,0 24.69,-3.24 31.89,-9.74 7.19,-6.49 10.81,-14.86 10.81,-25.16 0,-8.28 -2.39,-15.57 -7.24,-21.83 -4.8,-6.25 -11.33,-10.39 -19.57,-12.41z"/>
  <path id="1" class="fil8" d="M19684.96 19809.28l-18.58 0c14.44,9.27 21.68,22.91 21.68,40.92 0,11.67 -3.19,22.39 -9.64,32.13 -6.4,9.78 -15.38,17.35 -26.86,22.76 -11.52,5.37 -24.74,8.05 -39.69,8.05 -14.59,0 -27.8,-2.45 -39.7,-7.29 -11.86,-4.9 -20.98,-12.19 -27.29,-21.92 -6.35,-9.69 -9.5,-20.61 -9.5,-32.6 0,-8.84 1.88,-16.7 5.6,-23.56 3.72,-6.87 8.61,-12.47 14.58,-16.8l-72.67 0 0 -24.83 202.07 0 0 23.14zm-73.05 78.46c18.72,0 32.69,-3.95 41.96,-11.9 9.26,-7.91 13.87,-17.27 13.87,-28.04 0,-10.86 -4.42,-20.08 -13.26,-27.7 -8.84,-7.57 -22.34,-11.38 -40.5,-11.38 -19.94,0 -34.62,3.85 -43.98,11.61 -9.36,7.72 -14.01,17.27 -14.01,28.6 0,11.06 4.46,20.27 13.45,27.71 8.98,7.38 23.14,11.1 42.47,11.1z"/>
  <path id="2" class="fil8" d="M19624.28 19756.74l-24.83 0 0 -76.76 24.83 0 0 76.76z"/>
  <path id="3" class="fil8" d="M19684.96 19652.88l-146.47 0 0 -22.29 20.69 0c-7.15,-4.56 -12.93,-10.68 -17.26,-18.3 -4.37,-7.62 -6.54,-16.27 -6.54,-26.01 0,-10.82 2.26,-19.71 6.73,-26.62 4.52,-6.92 10.77,-11.81 18.86,-14.63 -17.07,-11.67 -25.59,-26.77 -25.59,-45.39 0,-14.58 4,-25.83 12.04,-33.63 8.05,-7.86 20.42,-11.81 37.12,-11.81l100.42 0 0 24.84 -92.19 0c-9.88,0 -17.03,0.84 -21.4,2.44 -4.38,1.6 -7.86,4.52 -10.54,8.8 -2.68,4.23 -4,9.22 -4,14.91 0,10.35 3.44,18.91 10.26,25.73 6.86,6.82 17.82,10.2 32.87,10.2l85 0 0 24.84 -95.06 0c-11.01,0 -19.29,2.02 -24.79,6.07 -5.5,4.04 -8.28,10.67 -8.28,19.85 0,6.96 1.84,13.4 5.51,19.33 3.66,5.93 9.03,10.21 16.13,12.89 7.05,2.63 17.26,3.95 30.57,3.95l75.92 0 0 24.83z"/>
  <path id="4" class="fil8" d="M19666.62 19322.12c7.85,9.22 13.35,18.11 16.6,26.62 3.25,8.52 4.84,17.64 4.84,27.43 0,16.08 -3.9,28.45 -11.75,37.11 -7.81,8.65 -17.83,12.98 -30.01,12.98 -7.15,0 -13.69,-1.65 -19.62,-4.89 -5.93,-3.29 -10.63,-7.57 -14.2,-12.84 -3.58,-5.32 -6.31,-11.24 -8.14,-17.88 -1.27,-4.89 -2.49,-12.27 -3.72,-22.1 -2.35,-20.04 -5.22,-34.86 -8.51,-44.31 -3.39,-0.1 -5.55,-0.14 -6.44,-0.14 -10.07,0 -17.17,2.35 -21.31,7.05 -5.6,6.35 -8.37,15.81 -8.37,28.32 0,11.71 2.07,20.36 6.16,25.92 4.09,5.59 11.38,9.68 21.78,12.37l-3.39 24.27c-10.4,-2.21 -18.82,-5.84 -25.21,-10.92 -6.4,-5.08 -11.29,-12.41 -14.77,-22.01 -3.44,-9.55 -5.18,-20.7 -5.18,-33.3 0,-12.51 1.46,-22.72 4.42,-30.57 2.97,-7.81 6.64,-13.6 11.11,-17.27 4.46,-3.67 10.11,-6.25 16.93,-7.76 4.23,-0.8 11.85,-1.22 22.81,-1.22l32.93 0c23,0 37.53,-0.52 43.69,-1.55 6.17,-0.99 12.05,-3.06 17.69,-6.07l0 25.96c-5.22,2.5 -11.34,4.1 -18.34,4.8zm-55.04 1.98c3.67,9.03 6.78,22.57 9.32,40.64 1.45,10.25 3.1,17.49 4.93,21.73 1.84,4.23 4.52,7.48 8,9.78 3.53,2.31 7.43,3.48 11.76,3.48 6.54,0 12.04,-2.49 16.42,-7.52 4.37,-5.04 6.58,-12.38 6.58,-22.02 0,-9.55 -2.07,-18.06 -6.25,-25.54 -4.14,-7.43 -9.84,-12.93 -17.03,-16.41 -5.6,-2.69 -13.83,-4 -24.7,-4l-9.03 -0.14z"/>
  <path id="5" class="fil8" d="M19741.12 19260.83l-202.63 0 0 -22.57 19.24 0c-7.44,-5.32 -13.03,-11.34 -16.75,-18.07 -3.72,-6.68 -5.6,-14.81 -5.6,-24.36 0,-12.51 3.2,-23.52 9.65,-33.07 6.39,-9.55 15.47,-16.74 27.14,-21.63 11.71,-4.85 24.5,-7.3 38.47,-7.3 14.91,0 28.37,2.69 40.36,8.05 11.95,5.36 21.12,13.17 27.52,23.42 6.35,10.21 9.54,20.98 9.54,32.27 0,8.28 -1.74,15.71 -5.22,22.25 -3.48,6.58 -7.85,11.94 -13.17,16.18l71.45 0 0 24.83zm-128.5 -22.57c18.77,0 32.69,-3.81 41.67,-11.39 8.99,-7.62 13.45,-16.84 13.45,-27.65 0,-11.01 -4.65,-20.42 -13.97,-28.23 -9.31,-7.85 -23.7,-11.76 -43.22,-11.76 -18.63,0 -32.55,3.81 -41.82,11.48 -9.26,7.67 -13.87,16.79 -13.87,27.42 0,10.54 4.94,19.85 14.77,27.94 9.87,8.14 24.17,12.19 42.99,12.19z"/>
  <path id="6" class="fil8" d="M19641.22 19113.75l-3.96 -24.55c9.84,-1.37 17.36,-5.22 22.63,-11.53 5.22,-6.3 7.85,-15.14 7.85,-26.43 0,-11.43 -2.3,-19.9 -6.96,-25.45 -4.61,-5.5 -10.06,-8.28 -16.32,-8.28 -5.6,0 -10.02,2.5 -13.22,7.44 -2.21,3.48 -4.98,11.94 -8.42,25.4 -4.56,18.15 -8.51,30.71 -11.85,37.77 -3.39,7 -7.99,12.32 -13.92,15.94 -5.88,3.62 -12.42,5.46 -19.57,5.46 -6.54,0 -12.56,-1.51 -18.11,-4.47 -5.55,-3.01 -10.16,-7.06 -13.83,-12.18 -2.82,-3.86 -5.22,-9.13 -7.19,-15.76 -1.98,-6.68 -2.97,-13.78 -2.97,-21.4 0,-11.48 1.65,-21.54 4.99,-30.2 3.29,-8.7 7.81,-15.1 13.45,-19.24 5.69,-4.09 13.27,-6.96 22.77,-8.51l3.38 24.27c-7.62,1.08 -13.59,4.28 -17.87,9.55 -4.28,5.27 -6.4,12.7 -6.4,22.34 0,11.34 1.88,19.47 5.65,24.32 3.76,4.84 8.18,7.29 13.21,7.29 3.2,0 6.12,-0.99 8.71,-3.01 2.63,-2.02 4.84,-5.18 6.58,-9.5 0.94,-2.5 3.06,-9.74 6.35,-21.87 4.66,-17.5 8.52,-29.73 11.48,-36.69 2.96,-6.96 7.34,-12.42 12.98,-16.37 5.69,-4 12.75,-5.98 21.21,-5.98 8.24,0 16,2.4 23.29,7.25 7.29,4.84 12.93,11.8 16.93,20.88 4,9.13 5.97,19.43 5.97,30.91 0,19 -3.95,33.53 -11.8,43.5 -7.9,9.98 -19.57,16.33 -35.04,19.1z"/>
  <path id="7" class="fil8" d="M19684.96 18955.71l-28.22 0 0 -28.22 28.22 0 0 28.22z"/>
  <path id="8" class="fil8" d="M19631.34 18788.68l3.38 -24.27c16.7,2.68 29.73,9.45 39.19,20.41 9.45,10.96 14.15,24.46 14.15,40.41 0,19.99 -6.53,36.08 -19.61,48.21 -13.08,12.18 -31.8,18.25 -56.16,18.25 -15.81,0 -29.59,-2.63 -41.39,-7.85 -11.86,-5.22 -20.75,-13.17 -26.63,-23.9 -5.92,-10.68 -8.89,-22.29 -8.89,-34.9 0,-15.85 4,-28.88 12.04,-38.95 8.05,-10.11 19.48,-16.6 34.25,-19.42l3.67 23.99c-9.83,2.3 -17.22,6.35 -22.2,12.23 -4.94,5.83 -7.44,12.88 -7.44,21.16 0,12.51 4.47,22.67 13.41,30.53 8.98,7.81 23.09,11.71 42.47,11.71 19.66,0 33.92,-3.76 42.81,-11.29 8.89,-7.57 13.35,-17.4 13.35,-29.49 0,-9.78 -2.96,-17.92 -8.93,-24.41 -5.93,-6.54 -15.1,-10.68 -27.47,-12.42z"/>
  <path id="9" class="fil8" d="M19611.72 18752.56c-27.04,0 -47.08,-7.53 -60.11,-22.63 -10.82,-12.56 -16.23,-27.94 -16.23,-46.05 0,-20.08 6.59,-36.54 19.76,-49.34 13.12,-12.75 31.33,-19.14 54.51,-19.14 18.82,0 33.59,2.82 44.36,8.46 10.77,5.65 19.14,13.88 25.12,24.7 5.97,10.77 8.93,22.58 8.93,35.32 0,20.51 -6.53,37.07 -19.66,49.72 -13.12,12.65 -32.03,18.96 -56.68,18.96zm0.05 -25.4c18.72,0 32.74,-4.1 42,-12.28 9.32,-8.23 13.97,-18.53 13.97,-31 0,-12.32 -4.65,-22.57 -14.01,-30.81 -9.36,-8.18 -23.61,-12.27 -42.76,-12.27 -18.06,0 -31.75,4.14 -41.01,12.37 -9.32,8.23 -13.97,18.48 -13.97,30.71 0,12.47 4.61,22.77 13.87,31 9.27,8.18 23.24,12.28 41.91,12.28z"/>
  <path id="10" class="fil8" d="M19684.96 18586.28l-146.47 0 0 -22.29 20.69 0c-7.15,-4.56 -12.93,-10.68 -17.26,-18.3 -4.37,-7.62 -6.54,-16.27 -6.54,-26.01 0,-10.82 2.26,-19.71 6.73,-26.62 4.52,-6.92 10.77,-11.81 18.86,-14.63 -17.07,-11.67 -25.59,-26.77 -25.59,-45.39 0,-14.58 4,-25.83 12.04,-33.63 8.05,-7.86 20.42,-11.81 37.12,-11.81l100.42 0 0 24.84 -92.19 0c-9.88,0 -17.03,0.84 -21.4,2.44 -4.38,1.6 -7.86,4.52 -10.54,8.8 -2.68,4.23 -4,9.22 -4,14.91 0,10.35 3.44,18.91 10.26,25.73 6.86,6.82 17.82,10.2 32.87,10.2l85 0 0 24.84 -95.06 0c-11.01,0 -19.29,2.02 -24.79,6.07 -5.5,4.04 -8.28,10.67 -8.28,19.85 0,6.96 1.84,13.4 5.51,19.33 3.66,5.93 9.03,10.21 16.13,12.89 7.05,2.63 17.26,3.95 30.57,3.95l75.92 0 0 24.83z"/>
 </g>
</svg>
