<?xml version="1.0" encoding="UTF-8"?>
<!DOCTYPE svg PUBLIC "-//W3C//DTD SVG 1.0//EN" "http://www.w3.org/TR/2001/REC-SVG-20010904/DTD/svg10.dtd">
<!-- Creator: CorelDRAW -->
<svg xmlns="http://www.w3.org/2000/svg" xml:space="preserve" width="210mm" height="297mm" version="1.0" style="shape-rendering:geometricPrecision; text-rendering:geometricPrecision; image-rendering:optimizeQuality; fill-rule:evenodd; clip-rule:evenodd"
viewBox="0 0 21000 29700"
 xmlns:xlink="http://www.w3.org/1999/xlink">
 <defs>
  <style type="text/css">
   <![CDATA[
    .str1 {stroke:black;stroke-width:10;stroke-miterlimit:3.864;stroke-opacity:0.501961}
    .str3 {stroke:black;stroke-width:50;stroke-miterlimit:22.9256}
    .str0 {stroke:black;stroke-width:10;stroke-miterlimit:22.9256}
    .str2 {stroke:black;stroke-width:10;stroke-miterlimit:3.864}
    .fil7 {fill:none}
    .fil2 {fill:#FEFEFE}
    .fil1 {fill:#EBECEC}
    .fil0 {fill:#A2D9F7}
    .fil6 {fill:#FEFEFE;fill-rule:nonzero}
    .fil5 {fill:#D9DADA;fill-rule:nonzero}
    .fil4 {fill:black;fill-rule:nonzero}
    .fil3 {fill:#FEFEFE;fill-rule:nonzero;fill-opacity:0.501961}
   ]]>
  </style>
 </defs>
 <g id="Plan_x0020_1">
  <metadata id="CorelCorpID_0Corel-Layer"/>
  <rect class="fil0" x="999.99" y="1000" width="18408.45" height="27700"/>
  <path class="fil1 str0" d="M8016.73 20446.07l-949.32 -62.75c3.76,-142.62 2.17,-285.26 17.79,-402.78 29.12,-219.06 17.17,-512.09 -48.63,-723.92 -117.52,-306.17 -233.98,-539.61 -425.63,-804.31 -174.92,-241.6 -411.6,-449.94 -559.4,-709.25 -165.53,-269.48 -456.52,-457.92 -629.94,-728.75 -157.59,-246.13 -393.45,-408.05 -559.4,-636.13 -82.84,-113.84 -201.14,-320.69 -313.75,-397.28 -128.93,-167.81 -194.58,-218.19 -194.58,-428.96 -75.56,-18.96 -178.53,30.67 -209.16,-75.56 -31.33,-108.7 46.21,-159.81 46.21,-238.85 -36.08,-9.03 -128.57,45.24 -150.8,-4.88 -21.68,-48.9 -8.89,-132.62 -4.86,-185.23 3.08,-40.34 41.34,-81.62 41.34,-112.11 -72.55,0 -198.44,86.66 -231.05,-7.32 -32.49,-93.67 -5.73,-143.11 12.16,-236.41 16.51,-86.14 33.07,-51.19 -43.78,-51.19 -102.89,0 18.4,-133.56 46.21,-187.67 146.97,-132.46 -60.89,-117.51 -124.04,-170.61 -149.94,-126.05 -39.54,-140.18 -94.86,-285.16 -106,-277.74 -320.8,-572.89 -544.81,-765.31 -61.2,-52.56 -97.5,6.42 -165.38,31.68 -100.72,37.47 -228.06,58.69 -316.19,124.31 -101.94,31.85 -599.05,192.5 -559.4,319.28l141.07 450.9c33.22,106.22 19.45,128.73 19.45,238.85 0,156.6 143.5,284.42 143.5,426.53 0,160.31 -20.76,62.54 -102.15,197.42 -128.03,115.49 -191.09,205.26 -238.35,365.59 -33.53,113.78 0.21,246.33 -29.19,363.16 -43.32,172.17 -495.03,418.43 -537.51,129.18 -17.56,-119.53 45.29,-429.59 99.72,-538.64 69.04,-277.05 54.47,-565.46 107.01,-840.87 8.29,-43.47 43.83,-136.49 34.05,-175.48 -61.73,-15.49 -326.42,-28.24 -376.98,9.74 -11.91,8.95 -63.04,68.87 -65.67,60.94 -53.61,0 -199.64,-95.89 -250.41,-129.18l0 14434.94 5389.59 0.01 46.21 -140.13 304.03 -638.57c59.89,-125.8 204.58,-306.62 228.62,-438.72 48.15,-264.47 -88.75,-669.44 -116.74,-943.24 0,-268.13 -74.86,-548.4 -89.99,-818.93 -4.45,-79.56 -66.25,-439.85 -41.35,-489.9 47.9,-96.25 87.89,-92.78 104.58,-226.67l65.67 -526.46c83.58,-334.74 24.33,-746.84 24.33,-1091.92 0,-163.36 -41,-517.17 14.59,-662.95 75,-196.64 188.09,-14.35 80.26,-277.85 0,-272.07 46.48,-542.45 7.3,-809.19 -21.69,-147.67 74.01,-375.63 17.02,-489.9 -35.35,-70.86 -75.83,-215.08 -43.78,-290.04 49.5,-105.37 66.66,-240.76 73.71,-381.43l955.11 59.71 -2.43 -87.74zm-161.52 -18819.99c76.03,-57.94 180.77,-124.68 227.19,-139.86 60.47,-19.77 72.51,-158.45 87.56,-216.92 28.11,-109.25 116.86,-161.9 151.15,-269.3l-5373.07 0 72.96 205.93c47.35,88.97 110.12,152.96 138.64,246.17 10.1,33.04 63.89,167.31 89.99,180.36 1.01,7.13 9.68,17.66 17.02,19.5 2.54,10.16 12.16,5.9 12.16,19.5 -10.63,7.09 -49.62,133.39 -53.5,153.55 -15.38,79.93 -13.01,147.47 13.85,223.75l-1157.87 234.45c-3.21,-33.99 -8.69,-67.12 -16.14,-97.48 -39.79,-162.03 -116.27,-306.94 -148.36,-467.96l-262.68 -717.77 -654.11 0 0 11536.99 106.86 -102.37c34.56,-28.31 62.16,-94.49 85.13,-134.05 25.16,-43.35 38.5,-82.21 48.65,-131.61 68.41,-274.8 153.68,-557.8 245.65,-823.81 47.27,-136.75 94,-520.89 192.14,-606.89 74.78,-299.89 185.5,-553.56 294.3,-838.44 102.08,-267.3 88.92,-660.38 252.94,-892.05 39.5,-250.01 72.84,-1338.09 403.75,-1338.09 96.33,0 118.11,-68.97 160.52,-131.61 78.96,-250.53 267.92,-470.39 396.45,-692.2 111.56,-192.54 165.39,-451.96 165.39,-670.26 0,-142.13 -46.22,-304.66 -26.75,-441.15 -49.91,-199.88 -340.04,-1043.79 -552.11,-1096.79 -17.17,-4.29 -102.15,0.09 -102.15,-19.5 0,-50.71 12.16,-99.13 12.16,-148.68 0,-174.62 -85.34,-220.5 -114.32,-365.59 -129.22,-187.22 -178.69,-376.02 -248.08,-584.96 -53.28,-160.46 -65.86,-333.75 -111.88,-492.34 -22.44,-77.31 -62.33,-208.46 -58.37,-287.6 -23.02,-73.71 -85.31,-210.76 -72.97,-287.6 4.21,-26.24 6.55,-54.14 7.16,-82.54l1182.18 -246.5c-27.63,55.39 -21.89,137.25 -21.89,199.86 0,57.81 7.3,108.94 7.3,165.74 0,44.93 -129.91,83.87 -167.82,121.86 -51.9,52.03 -36.88,78.42 -116.75,97.5 -53.08,12.67 -116.88,-2.05 -167.82,14.62 -15.56,5.09 48.61,166.84 41.35,219.36 -5.69,41.1 -43.44,78.41 -53.51,119.43 -16.87,68.76 44.3,125.82 53.51,199.86 10,105.31 54.13,60.51 114.31,114.55 99.45,89.29 174.75,335.43 201.87,465.53 22.36,107.32 25.7,196.93 65.67,304.66 46.92,126.48 134.68,221.1 194.58,341.22 40.09,126.71 121.61,253.8 121.61,387.54 0,43.57 -8.64,50.21 24.32,70.68 80.89,50.22 82.46,69.03 133.77,-14.63 62.78,-102.38 483.25,-709.57 411.04,-792.12l-372.12 -1267.4c-125.31,-432.36 690.95,-524.03 958.28,-524.03 244.54,0 416.26,30.26 642.1,99.93 240.1,74.08 188.72,-53.67 330.78,-236.41 141.99,-307.49 377.01,-582.4 732.09,-623.96 222.37,-26.03 456.61,-23.89 659.12,85.31l-27.55 58.11 0 0 824.32 -103.49 0 0z"/>
  <path class="fil2 str0" d="M8019.16 20533.81l-2.43 1145.54 -14.59 692.19c-3.42,162.24 7.71,337.55 -51.08,485.03 -97.93,48.96 -97.29,242.6 -97.29,333.91 69.26,295.14 -6.33,531.08 31.62,816.5 25.66,192.95 12.16,378.14 12.16,572.77 0,98.02 140.14,262.79 60.81,307.1 -523.36,292.17 -345.42,207.17 -559.41,692.19 -41.95,95.1 251.1,188 306.46,219.36 100.59,57 -43.68,795.27 -111.88,872.56 -74.17,84.07 -186.54,84.66 -233.49,131.61 9.44,38.1 74.1,53.13 80.26,78 49.03,12.2 115.36,229.01 121.61,277.85 39.97,270.59 353.64,117.22 457.25,243.73 88.09,107.58 350.47,185.41 394.02,255.92 68.13,110.28 84.56,146.66 248.08,131.61l449.96 -41.43c230.16,-21.18 81.23,-259.83 321.05,-353.41 225.79,-88.11 81.83,-393.56 503.46,-411.91 291.54,-12.69 72.92,77.94 223.76,229.11 121.11,121.39 287.93,185.67 454.82,70.68 141.9,-59.83 281.34,-163.3 437.8,-163.3 162.57,0 245.68,134.06 411.04,134.06 298.37,0 548.32,198.65 831.81,46.3l435.36 -233.98c65.03,-34.95 100.15,-138.81 150.8,-197.42 99.11,-114.71 94.85,-50.79 94.85,-207.17l0 -260.79c-96.34,-32.29 -92.25,-138.44 -228.62,-160.87 -123.64,-20.33 -269.59,-30.31 -391.59,-14.62 -385.51,49.57 -324.14,-370.02 -240.78,-616.64 231.96,-581.58 462.9,-1190.23 1014.22,-1535.51 238.4,-143.25 117.12,51.9 333.21,158.43 124.24,61.25 398.34,235.58 525.36,192.55 156.07,-52.86 273.37,82.45 435.36,51.18 105.01,-20.26 280.57,-204.32 430.5,-248.6 208.92,-61.69 397.19,-307.74 420.77,-521.59 106.32,-15.26 361.57,-222.89 389.15,-333.91 86.79,-14.52 171.36,127.8 279.7,114.55 298.36,42.75 773.05,328.27 802.63,-192.54 1.68,-29.56 206.83,-133.55 240.78,-148.68 59.08,-26.32 102.92,16.2 158.1,-14.62 45.41,-25.35 -11.83,-397.82 -7.3,-477.72 8.77,-154.44 -35.72,-84.64 -150.8,-134.05l-94.85 -212.05 267.54 -99.93c1.24,-3.74 -0.08,-2.43 4.86,-2.43 0,-16.61 -4.85,-41.3 -14.59,-53.62 -14.69,-18.6 -21.22,-55.47 -26.75,-78 -5.06,-20.64 -11.83,-41.38 -21.89,-58.49 -11.78,-20.01 -21.89,-42.19 -21.89,-65.81 0,-47.4 -42.74,-25.44 -80.27,-24.37l65.67 243.73 -197 80.43 -121.61 -221.8c-30.79,-96.87 43.78,-166.33 43.78,-260.79 0,-49.45 -187.28,34.65 -187.28,-63.37 0,-44.45 -10.14,-103.49 0,-146.24 5.05,-21.27 24.32,-51.88 24.32,-73.12 -61.71,0 -130.18,10.31 -184.85,39l-287 419.22 -131.34 -73.12 68.11 -126.74 -58.38 -48.75c-239.49,-16.01 -231.33,-291.07 -362.39,53.62 -28.65,75.35 -334.02,-219.48 -394.02,-214.48 -77.77,6.47 -101.66,208.87 -233.49,109.68 -133.18,-100.19 -65.67,-249.56 -65.67,-380.22 -199.49,25.03 -83.93,138.64 -143.5,272.98 -48.56,109.54 -308.1,124.22 -340.51,2.43l-58.37 -219.35c-9.29,-34.89 32.99,-84.18 43.78,-119.43 52.42,-171.23 -20.02,-173.74 -107.02,-290.04 -57.09,-76.3 3.69,-59.6 58.38,-121.87 150.87,-131.44 277.31,-316.61 415.9,-463.09 111.81,-118.16 133.48,-243.12 201.87,-380.22 28.35,-56.85 119.18,-188.01 119.18,-243.73 -102.75,-25.79 -261.74,52.02 -352.67,95.06 -165.45,78.33 -382.87,231.72 -520.49,353.41 -47.42,43.58 -101.85,75.47 -148.36,116.99 -48.27,43.11 -117.39,55.47 -162.96,95.05 -90.25,78.36 69.31,184.05 43.78,241.3 -14.86,33.3 -95.15,92.52 -131.34,102.36 -91.55,24.88 -167.64,148.69 -255.38,180.36 -47,16.97 -246.82,-212.26 -150.79,-233.98 224.08,-179.61 372.12,-360.33 372.12,-660.51 0,-181.9 -174.13,-472.83 -325.91,-567.89 32.09,-8.05 63.74,-13.03 97.29,-19.5 38.63,-7.44 74.22,-25.91 114.31,-34.12 95.34,-19.55 174.34,-87.17 257.81,-131.62 106.05,0 258.63,37.61 342.94,-41.43 69.61,-65.27 124.3,-103.22 223.76,-114.56 224.09,-25.54 358.68,-5.05 574,31.69 64.41,10.99 222.09,-84.57 226.2,-155.99 4.67,-81.23 1.36,-274.32 -46.22,-333.91 -28.79,-36.07 -126.47,-79.48 -126.47,-136.49 -49.07,0 -112.52,146.8 -165.39,104.8 -12.45,-9.88 -33.58,-200.74 -43.78,-233.98 -70.99,-231.26 -82.1,-357.66 -362.4,-416.78 -103.23,-25.8 -226.16,-51.69 -267.54,-163.3 -29.26,-78.91 -48.48,-201.89 -116.74,-253.48 -186.69,-141.07 -395.3,-157.48 -612.92,-219.36 -153,-43.51 -164.55,12.34 -243.22,143.81 -41.13,68.72 -240.02,214.09 -316.18,194.98 -11.91,-59.98 -42.19,-108.69 -45.02,-168.17 54.98,-176.36 260.17,-212.46 403.74,-294.92 44.2,-25.38 84.86,14.64 109.45,-32.9 31.22,-60.33 59.69,-100.12 113.09,-142.58 32.32,-25.71 -65.99,-26.24 -77.82,-24.38l-94.86 107.24 -497.38 264.45 -98.5 -23.15 -147.15 64.59 -79.04 -65.81 698.03 -375.35 256.63 -268.09 2888.22 1909.62c16.56,22.09 -14.78,84.23 -21.89,104.81 -10.5,30.41 6.91,101.28 21.89,126.74 21.87,37.19 48.11,45.46 77.83,73.12 15.29,14.22 27.25,26.02 43.78,38.99 23.65,18.54 46.51,30.76 69.81,50.93l875.04 2637.43c45.69,130 77.63,259.57 237.13,259.57 112.24,0 235.63,-32.94 334.43,-85.31 159.48,-84.52 353.22,-151.15 306.89,-361.9l-2373 -6929.31c-65.04,-78.27 -124.41,-311.84 -262.67,-285.16 -134.28,25.92 -303.67,39.32 -369.7,180.36 -42.85,91.55 11.11,190.87 34.05,277.85l-1376.61 492.33 -77.88 -283.94c-16.98,-102.16 14.22,-198.61 42.56,-293.69 10.42,-34.99 51.43,-133.67 21.89,-163.3 -32.87,-32.99 -42.27,-54.04 -21.89,-99.93 12.91,-29.05 49.86,-128.37 49.86,-157.2 -13.22,-5.69 -109.11,-4.73 -128.9,0 -29.44,7.03 -20.64,84.09 -24.32,107.24 -4.54,28.61 -22.23,62.4 -29.19,93.83 -11.29,50.99 -25.78,92.04 -68.05,124.3l-527.79 -160.86 -51.07 255.91 -513.19 -129.17 117.94 -496 524.14 -910.33 -8.51 -143.8 -59.59 -3.66 25.54 130.4 -150.77 242.51 -504.69 -101.14 -386.72 1347.83c-206.75,0 -322.39,-104.68 -505.89,-143.81 -253.8,-54.11 -451.51,-61.17 -705.34,-17.06 -70.78,12.29 -346.13,-62.96 -313.75,-136.48 86.99,-197.56 83.91,-266.02 -139.52,-271.27l-79.38 -7408.71 -29.18 -409.46 -172.69 -336.35 -240.78 -1096.79c-84.99,-238.22 -60.09,-450.19 -90,-697.07 -9.86,-81.46 -52.88,-184.05 -43.78,-260.8 -26.27,-250.17 -55.15,-607.04 -216.46,-809.18 -140.64,-176.25 -425.28,-234.73 -525.35,-428.97 -75.08,-145.72 -126.26,162.61 -267.55,90.18l-209.16 -107.24c-308.71,-158.25 -543.16,-407.09 -895.05,-441.16 -102.44,-9.91 -191.09,-163.29 -282.14,-163.29 8.29,-33.19 68.46,-48.88 80.27,-95.06 8.28,-32.41 65.55,-78.43 85.12,-102.37 13.98,-17.09 43.44,-42.45 79.27,-69.75l0 0 -824.32 103.49 0 0 -18.66 39.38c-81.38,7.65 -207.73,-52.63 -296.72,-63.37 -478.76,-57.78 -681.93,278.24 -921.81,611.77 -41.01,57.03 -183.5,366.25 -233.49,353.41l-683.44 -175.49c-254.42,0 -548.08,-26.37 -785.6,80.43 -215.61,96.94 -332.56,168.74 -233.49,416.78l158.09 592.27 107.02 375.34c110.75,81.14 260.83,120.12 328.34,-24.37 42.32,-90.56 122.93,-76.42 211.6,-90.18 133.79,-20.76 285.65,-140.34 430.5,-173.05 95.04,-21.47 198.13,-40.9 287,-70.68 -26.16,-105.29 -65.68,-220.66 -92.43,-340.01 76.84,-20.72 150.48,-33.41 232.28,-42.64l152.01 643.44c-35.38,31.34 -134.13,49.06 -181.15,62.15 -62.74,17.46 -119.67,60.5 -182.41,71.9 -127.13,23.09 -228.7,20.18 -349.02,74.34l-227.41 102.37c-154.38,69.49 -159.95,4 -108.23,166.96 52.68,166.02 208.99,140 346.59,102.36l27.92 -9.75 158.09 -41.43 34.05 80.43 -425.63 119.43c-113.17,126.98 -165.39,322.37 -165.39,489.9 0,92.55 17.02,178.27 17.02,270.54 0,130.28 -83.24,256 -102.15,382.66 -55.36,84.12 -23.36,194.6 -68.1,290.04 -32.06,68.38 -72.28,102.24 -114.32,158.42 -46.28,61.86 -25.07,190.29 -58.37,277.86 -50.19,132.01 77.11,180.89 9.73,333.91 -97.33,221 -95.32,418.42 -269.97,626.39 -130.14,116.86 -204.24,256.93 -294.3,394.84 -82.87,126.92 -280.72,519.48 -398.88,587.39 -127.11,73.04 -204.6,149.56 -252.95,294.92 -48.52,145.9 34.05,206.95 34.05,316.85 -120.77,24.07 -218.89,200.97 -260.24,304.66 -93.11,112.73 -92.52,462.71 -68.1,604.45 45.54,264.35 302.07,524.87 508.33,682.45 217.54,166.18 317.35,382.06 466.98,606.89l1385.85 2950.46c76.65,219.43 112.4,503.72 112.4,737.19 0,158.26 -12.78,293.67 21.89,450.9 42.27,191.73 165.32,387.85 177.55,584.95 6.83,114.06 96.43,326.42 136.21,443.59 198.64,584.94 754.4,900.49 1206.36,1282.01 34.36,62.34 91.16,130.37 138.63,185.24l94.86 109.67c51.46,59.49 102.81,138.3 141.06,207.17 30.41,54.74 90.83,155.98 141.07,192.55l80.26 -63.37c-29.91,-109.95 -143.97,-205.95 -197,-304.66 -39.12,-72.8 -214.23,-245.06 -194.58,-324.16 147.29,0 299.02,19.5 449.96,19.5 55.62,0 117.54,0.95 172.68,7.31 20.19,2.33 -24.51,114.11 -9.73,155.99 17.46,49.5 53.66,115.42 55.94,168.17 3.26,75.15 -65.94,90.37 -70.53,151.11 -2.99,39.55 -24.49,146.02 4.86,175.49 90.74,114.82 64.01,302.18 87.55,438.74 32.78,190.2 164.48,316.3 262.68,480.15 33.09,60.49 34.99,116.88 43.78,182.8 9.89,74.1 7.29,159.01 7.29,233.98l19.46 767.76 2.43 87.74zm8706.5 -2247.79l-1113.19 -3194.73 -547.24 -129.17 -936.4 316.85 -17.02 148.67c-14.01,211.78 -91.18,437.19 -160.53,638.58 -65.9,191.35 -129.06,372.35 -260.24,524.02l2913.46 1912.8 121.16 -217.02zm-5469.25 3403.07l-693.17 -17.06 -4.87 792.13c135.99,109.77 244.28,27.39 386.72,-7.31 43.7,-10.65 69.71,0.21 85.13,-46.31 39.37,-118.76 257.86,-16.08 201.87,-241.3 -17.23,-69.34 -66.11,-94.58 -53.51,-173.04 10.4,-64.71 56.33,-127.48 63.24,-190.11l14.59 -117zm257.82 -385.09l-948.56 4.87 7.3 294.92 700.47 17.06c61.22,-22.31 113.08,-42.23 150.79,-92.62 47.16,-63.04 74.7,-119.69 99.72,-194.98l-9.72 -29.25zm-1865.5 -3382.99c169.22,0 393.05,-92.68 564.27,-129.18 62.19,-13.26 147.68,-19.5 204.31,-46.3 22.74,-10.77 122.61,-51.19 141.06,-51.19 -8.42,-33.92 5.09,-176.63 -26.75,-192.55 -48.88,-24.43 -144.1,-7.44 -170.26,-58.49 -17.6,-34.33 -35.34,-118.49 -75.39,-136.49 -97.87,-44.01 -130.22,-154.54 -206.74,-209.61 -47.69,-34.33 -214.24,-62.08 -265.11,-36.56 -85.85,43.05 -109.29,57.21 -60.8,131.62 58.04,89.09 99.21,223.62 -17.03,292.47 -152.16,90.11 -82.96,257.78 -109.45,399.72l21.89 36.56zm-4394.97 -7116.95l294.29 -99.93 753.98 -153.55 -89.99 -526.46 149.7 -26.72 881.57 4287.15c-43.42,95.56 -122.31,165.98 -233.49,151.11 -63.01,-8.42 -219.24,-129.42 -248.09,-43.87 -33.08,98.06 -32.21,104.8 -148.36,104.8 -134.48,0 -278.41,-25.27 -410.98,-2.43 -168.11,27 -280.89,80.44 -419.54,175.48 -106.75,73.16 -129.18,76.78 -260.24,76.78 0,-48.98 -65.74,-153.48 -86.34,-203.52l-128.91 -313.18c-20.45,-49.67 -77.96,-103.91 -86.09,-155.86l-1392.78 -2960.26c-31.11,-58.53 -55.81,-138.2 -29.12,-202.29 85.37,-85.75 301.46,-49.36 413.47,-52.41l581.28 -15.84 459.64 -39zm1141.95 -817.71l910.2 4325.55c195.26,71.82 306.34,-109.78 477.34,-171.15 294.97,-105.85 626.51,12.68 921.8,53.62 174.44,24.18 173.4,16.94 269.97,-112.12 84.88,-113.45 204.11,-59.89 325.91,-31.68 78.72,-42.47 391.84,-13.54 486.44,0 107.59,15.41 185.19,102.85 296.73,109.68 67.75,4.14 155.83,-1 214.03,36.56 40.05,25.84 179.27,120.91 214.03,29.24 10.8,-28.48 30.05,-48.37 38.92,-82.86 13.3,-51.67 2.9,-107.52 17.02,-153.55l-4.92 -58.18 -63.18 -7591.32c17.97,-78.93 -24.76,-189.11 -72.97,-252.27 -25.28,-33.13 -72.18,-59.38 -110.66,-70.68 -55.56,-16.33 -91.69,-22.78 -139.85,13.4l-155.66 18.28 -330.78 777.5 -571.57 -341.22 -133.77 246.17 201.87 136.49 -124.04 190.11c25.42,107.19 35.5,214.83 81.49,318.07 34.4,77.25 -33.54,85.58 -36.48,153.55 -3.08,71.04 95.02,142.72 121.61,210.82 0,61.71 2.79,117.74 47.43,164.52 77.12,80.84 17.33,207.09 119.17,279.07 126.59,89.46 57.04,185.41 -1.21,302.23 -50.12,90.63 -117.61,129.95 -74.19,243.73 24.07,63.1 170.25,163.73 170.25,204.74 -120.46,0 -110.45,152.41 -131.34,241.29 -18.73,79.72 -295.21,196.59 -374.56,177.92 -48.48,-11.4 -177.8,-432.25 -197,-509.39 -39.09,0 -136.31,81.45 -192.15,95.05 -145.47,35.43 -334.06,85.83 -469.41,141.37 -67.35,27.63 3.97,105.08 -75.4,131.61 -41.4,13.84 -70.24,-92.62 -128.91,-92.62 -67.15,0 -80.26,196.73 -80.26,246.17 0,149.62 -59.46,297.46 -116.74,433.84 -50.23,76.81 -69.9,163.25 -126.48,238.86 -192.24,256.94 -661.82,436.28 -975.31,436.28l-89.99 -514.28 -137.38 25.6zm-3112.03 252.26c161.15,0 338.04,208.38 503.46,60.93 68.49,-61.06 43.86,-282.12 31.62,-365.6 -43.26,-295.09 297.7,-78.86 335.64,-363.16 38.23,-286.51 153.79,-282.72 420.77,-282.72 22.39,89.21 -20.94,230.19 -48.64,316.85 -25.79,80.72 81.65,102.7 102.15,209.61 33.71,175.85 145.3,307.32 -63.23,411.9 -141.95,71.2 -53.22,192.87 -170.26,287.6 -116.53,94.3 -112.61,175.21 -308.89,146.24 -109.86,-16.22 -209.14,-78.54 -318.61,-92.62 -121.22,-15.6 -629.94,-129.47 -629.94,-302.22 38.39,-7.71 76.27,-23.69 116.74,-26.81l29.19 0zm3076.72 -304.67c-451.75,64.84 -697.86,57.14 -1082.32,-209.6 -123.08,-85.4 -128.42,-127.82 -55.94,-219.36 17.19,-21.72 -65.58,-92.05 -72.97,-121.87 -76.56,0 -130.57,62.26 -170.25,-26.81 -34.2,-76.78 -10.86,-159.79 -4.87,-238.86 3.83,-50.69 -103.23,-28.14 -124.04,-82.86 -58.72,-154.45 66.51,-616.64 252.95,-616.64 0,-44.78 1.02,-98.58 17.03,-141.37l690.74 363.16c8.58,123.51 -27.74,225.66 38.91,341.23 27.17,47.13 57.87,107.24 119.18,107.24 58.54,0 109.69,-47.57 162.96,-60.94l228.62 906.68zm48.65 -9.75l-221.33 -904.24c30.07,-39.07 38.91,-59.01 38.91,-107.24 0,-43.26 25.53,-95 41.35,-136.49 22.98,-60.29 62.9,-75.34 111.88,-114.55l425.64 1135.78 -396.45 126.74zm3538.84 -5135.41l252.95 894.49c61.12,196.02 -171.84,201.8 -318.62,238.86l-608.05 153.55c-6.11,24.65 -182.17,286.09 -201.87,294.92 -67.28,30.14 -230.59,-74.3 -279.7,-119.43 -74.67,-68.6 -177.54,-877.16 -155.66,-987.11 186.05,-23.35 413.13,-281.78 574,-229.11 209.84,68.71 327.31,-234.98 544.81,-248.61l192.14 2.44z"/>
  <path class="fil3 str1" d="M16360.95 26876.66l2451.88 0 0 1592.9 -2451.88 0 0 -1592.9z"/>
  <path class="fil4" d="M18991.56 28376.66c0,-17.45 4.47,-34.48 13.46,-51.13 8.93,-16.61 21.77,-29.59 38.43,-38.86 16.69,-9.26 34.1,-13.92 52.16,-13.92 17.92,0 35.18,4.56 51.69,13.74 16.56,9.12 29.4,21.92 38.53,38.43 9.17,16.51 13.73,33.77 13.73,51.74 0,18.01 -4.56,35.27 -13.73,51.78 -9.13,16.51 -21.97,29.35 -38.53,38.53 -16.51,9.17 -33.77,13.78 -51.69,13.78 -18.06,0 -35.47,-4.66 -52.16,-13.97 -16.66,-9.36 -29.5,-22.34 -38.43,-38.95 -8.99,-16.65 -13.46,-33.68 -13.46,-51.17zm17.22 0c0,14.62 3.76,28.88 11.24,42.7 7.48,13.83 18.2,24.65 32.13,32.46 13.92,7.81 28.41,11.71 43.46,11.71 15,0 29.35,-3.85 43.08,-11.52 13.74,-7.67 24.46,-18.39 32.13,-32.17 7.67,-13.79 11.52,-28.18 11.52,-43.18 0,-14.96 -3.85,-29.36 -11.52,-43.14 -7.67,-13.78 -18.39,-24.5 -32.13,-32.12 -13.73,-7.62 -28.08,-11.43 -43.08,-11.43 -15.05,0 -29.54,3.9 -43.46,11.66 -13.93,7.76 -24.65,18.58 -32.13,32.46 -7.48,13.87 -11.24,28.08 -11.24,42.57zm103.57 -33.35l5.08 -16.94c11.53,2.78 20.7,8.61 27.52,17.55 6.87,8.98 10.3,19.85 10.3,32.59 0,16.19 -5.22,29.31 -15.71,39.42 -10.49,10.11 -24.98,15.15 -43.55,15.15 -12.14,0 -22.68,-2.31 -31.61,-6.92 -8.99,-4.56 -15.71,-11.15 -20.28,-19.61 -4.56,-8.52 -6.82,-18.25 -6.82,-29.16 0,-12.23 2.92,-22.39 8.8,-30.48 5.88,-8.09 13.88,-13.6 23.94,-16.56l4.23 16.37c-6.91,2.77 -12.23,6.82 -15.89,12.23 -3.72,5.41 -5.55,11.71 -5.55,19 0,10.58 3.76,19.33 11.28,26.2 7.53,6.87 18.35,10.3 32.37,10.3 14.06,0 24.69,-3.24 31.89,-9.74 7.19,-6.49 10.81,-14.86 10.81,-25.16 0,-8.28 -2.39,-15.57 -7.24,-21.83 -4.8,-6.25 -11.33,-10.39 -19.57,-12.41z"/>
  <path id="1" class="fil4" d="M19197.02 28081.5l-18.58 0c14.44,9.27 21.68,22.91 21.68,40.92 0,11.67 -3.19,22.39 -9.64,32.13 -6.4,9.78 -15.38,17.35 -26.86,22.76 -11.52,5.37 -24.74,8.05 -39.69,8.05 -14.59,0 -27.8,-2.45 -39.7,-7.29 -11.86,-4.9 -20.98,-12.19 -27.29,-21.92 -6.35,-9.69 -9.5,-20.61 -9.5,-32.6 0,-8.84 1.88,-16.7 5.6,-23.56 3.72,-6.87 8.61,-12.47 14.58,-16.8l-72.67 0 0 -24.83 202.07 0 0 23.14zm-73.05 78.46c18.72,0 32.69,-3.95 41.96,-11.9 9.26,-7.91 13.87,-17.27 13.87,-28.04 0,-10.86 -4.42,-20.08 -13.26,-27.7 -8.84,-7.57 -22.34,-11.38 -40.5,-11.38 -19.94,0 -34.62,3.85 -43.98,11.61 -9.36,7.72 -14.01,17.27 -14.01,28.6 0,11.06 4.46,20.27 13.45,27.71 8.98,7.38 23.14,11.1 42.47,11.1z"/>
  <path id="2" class="fil4" d="M19136.34 28028.96l-24.83 0 0 -76.76 24.83 0 0 76.76z"/>
  <path id="3" class="fil4" d="M19197.02 27925.1l-146.47 0 0 -22.29 20.69 0c-7.15,-4.56 -12.93,-10.68 -17.26,-18.3 -4.37,-7.62 -6.54,-16.27 -6.54,-26.01 0,-10.82 2.26,-19.71 6.73,-26.62 4.52,-6.92 10.77,-11.81 18.86,-14.63 -17.07,-11.67 -25.59,-26.77 -25.59,-45.39 0,-14.58 4,-25.83 12.04,-33.63 8.05,-7.86 20.42,-11.81 37.12,-11.81l100.42 0 0 24.84 -92.19 0c-9.88,0 -17.03,0.84 -21.4,2.44 -4.38,1.6 -7.86,4.52 -10.54,8.8 -2.68,4.23 -4,9.22 -4,14.91 0,10.35 3.44,18.91 10.26,25.73 6.86,6.82 17.82,10.2 32.87,10.2l85 0 0 24.84 -95.06 0c-11.01,0 -19.29,2.02 -24.79,6.07 -5.5,4.04 -8.28,10.67 -8.28,19.85 0,6.96 1.84,13.4 5.51,19.33 3.66,5.93 9.03,10.21 16.13,12.89 7.05,2.63 17.26,3.95 30.57,3.95l75.92 0 0 24.83z"/>
  <path id="4" class="fil4" d="M19178.68 27594.34c7.85,9.22 13.35,18.11 16.6,26.62 3.25,8.52 4.84,17.64 4.84,27.43 0,16.08 -3.9,28.45 -11.75,37.11 -7.81,8.65 -17.83,12.98 -30.01,12.98 -7.15,0 -13.69,-1.65 -19.62,-4.89 -5.93,-3.29 -10.63,-7.57 -14.2,-12.84 -3.58,-5.32 -6.31,-11.24 -8.14,-17.88 -1.27,-4.89 -2.49,-12.27 -3.72,-22.1 -2.35,-20.04 -5.22,-34.86 -8.51,-44.31 -3.39,-0.1 -5.55,-0.14 -6.44,-0.14 -10.07,0 -17.17,2.35 -21.31,7.05 -5.6,6.35 -8.37,15.81 -8.37,28.32 0,11.71 2.07,20.36 6.16,25.92 4.09,5.59 11.38,9.68 21.78,12.37l-3.39 24.27c-10.4,-2.21 -18.82,-5.84 -25.21,-10.92 -6.4,-5.08 -11.29,-12.41 -14.77,-22.01 -3.44,-9.55 -5.18,-20.7 -5.18,-33.3 0,-12.51 1.46,-22.72 4.42,-30.57 2.97,-7.81 6.64,-13.6 11.11,-17.27 4.46,-3.67 10.11,-6.25 16.93,-7.76 4.23,-0.8 11.85,-1.22 22.81,-1.22l32.93 0c23,0 37.53,-0.52 43.69,-1.55 6.17,-0.99 12.05,-3.06 17.69,-6.07l0 25.96c-5.22,2.5 -11.34,4.1 -18.34,4.8zm-55.04 1.98c3.67,9.03 6.78,22.57 9.32,40.64 1.45,10.25 3.1,17.49 4.93,21.73 1.84,4.23 4.52,7.48 8,9.78 3.53,2.31 7.43,3.48 11.76,3.48 6.54,0 12.04,-2.49 16.42,-7.52 4.37,-5.04 6.58,-12.38 6.58,-22.02 0,-9.55 -2.07,-18.06 -6.25,-25.54 -4.14,-7.43 -9.84,-12.93 -17.03,-16.41 -5.6,-2.69 -13.83,-4 -24.7,-4l-9.03 -0.14z"/>
  <path id="5" class="fil4" d="M19253.18 27533.05l-202.63 0 0 -22.57 19.24 0c-7.44,-5.32 -13.03,-11.34 -16.75,-18.07 -3.72,-6.68 -5.6,-14.81 -5.6,-24.36 0,-12.51 3.2,-23.52 9.65,-33.07 6.39,-9.55 15.47,-16.74 27.14,-21.63 11.71,-4.85 24.5,-7.3 38.47,-7.3 14.91,0 28.37,2.69 40.36,8.05 11.95,5.36 21.12,13.17 27.52,23.42 6.35,10.21 9.54,20.98 9.54,32.27 0,8.28 -1.74,15.71 -5.22,22.25 -3.48,6.58 -7.85,11.94 -13.17,16.18l71.45 0 0 24.83zm-128.5 -22.57c18.77,0 32.69,-3.81 41.67,-11.39 8.99,-7.62 13.45,-16.84 13.45,-27.65 0,-11.01 -4.65,-20.42 -13.97,-28.23 -9.31,-7.85 -23.7,-11.76 -43.22,-11.76 -18.63,0 -32.55,3.81 -41.82,11.48 -9.26,7.67 -13.87,16.79 -13.87,27.42 0,10.54 4.94,19.85 14.77,27.94 9.87,8.14 24.17,12.19 42.99,12.19z"/>
  <path id="6" class="fil4" d="M19153.28 27385.97l-3.96 -24.55c9.84,-1.37 17.36,-5.22 22.63,-11.53 5.22,-6.3 7.85,-15.14 7.85,-26.43 0,-11.43 -2.3,-19.9 -6.96,-25.45 -4.61,-5.5 -10.06,-8.28 -16.32,-8.28 -5.6,0 -10.02,2.5 -13.22,7.44 -2.21,3.48 -4.98,11.94 -8.42,25.4 -4.56,18.15 -8.51,30.71 -11.85,37.77 -3.39,7 -7.99,12.32 -13.92,15.94 -5.88,3.62 -12.42,5.46 -19.57,5.46 -6.54,0 -12.56,-1.51 -18.11,-4.47 -5.55,-3.01 -10.16,-7.06 -13.83,-12.18 -2.82,-3.86 -5.22,-9.13 -7.19,-15.76 -1.98,-6.68 -2.97,-13.78 -2.97,-21.4 0,-11.48 1.65,-21.54 4.99,-30.2 3.29,-8.7 7.81,-15.1 13.45,-19.24 5.69,-4.09 13.27,-6.96 22.77,-8.51l3.38 24.27c-7.62,1.08 -13.59,4.28 -17.87,9.55 -4.28,5.27 -6.4,12.7 -6.4,22.34 0,11.34 1.88,19.47 5.65,24.32 3.76,4.84 8.18,7.29 13.21,7.29 3.2,0 6.12,-0.99 8.71,-3.01 2.63,-2.02 4.84,-5.18 6.58,-9.5 0.94,-2.5 3.06,-9.74 6.35,-21.87 4.66,-17.5 8.52,-29.73 11.48,-36.69 2.96,-6.96 7.34,-12.42 12.98,-16.37 5.69,-4 12.75,-5.98 21.21,-5.98 8.24,0 16,2.4 23.29,7.25 7.29,4.84 12.93,11.8 16.93,20.88 4,9.13 5.97,19.43 5.97,30.91 0,19 -3.95,33.53 -11.8,43.5 -7.9,9.98 -19.57,16.33 -35.04,19.1z"/>
  <path id="7" class="fil4" d="M19197.02 27227.93l-28.22 0 0 -28.22 28.22 0 0 28.22z"/>
  <path id="8" class="fil4" d="M19143.4 27060.9l3.38 -24.27c16.7,2.68 29.73,9.45 39.19,20.41 9.45,10.96 14.15,24.46 14.15,40.41 0,19.99 -6.53,36.08 -19.61,48.21 -13.08,12.18 -31.8,18.25 -56.16,18.25 -15.81,0 -29.59,-2.63 -41.39,-7.85 -11.86,-5.22 -20.75,-13.17 -26.63,-23.9 -5.92,-10.68 -8.89,-22.29 -8.89,-34.9 0,-15.85 4,-28.88 12.04,-38.95 8.05,-10.11 19.48,-16.6 34.25,-19.42l3.67 23.99c-9.83,2.3 -17.22,6.35 -22.2,12.23 -4.94,5.83 -7.44,12.88 -7.44,21.16 0,12.51 4.47,22.67 13.41,30.53 8.98,7.81 23.09,11.71 42.47,11.71 19.66,0 33.92,-3.76 42.81,-11.29 8.89,-7.57 13.35,-17.4 13.35,-29.49 0,-9.78 -2.96,-17.92 -8.93,-24.41 -5.93,-6.54 -15.1,-10.68 -27.47,-12.42z"/>
  <path id="9" class="fil4" d="M19123.78 27024.78c-27.04,0 -47.08,-7.53 -60.11,-22.63 -10.82,-12.56 -16.23,-27.94 -16.23,-46.05 0,-20.08 6.59,-36.54 19.76,-49.34 13.12,-12.75 31.33,-19.14 54.51,-19.14 18.82,0 33.59,2.82 44.36,8.46 10.77,5.65 19.14,13.88 25.12,24.7 5.97,10.77 8.93,22.58 8.93,35.32 0,20.51 -6.53,37.07 -19.66,49.72 -13.12,12.65 -32.03,18.96 -56.68,18.96zm0.05 -25.4c18.72,0 32.74,-4.1 42,-12.28 9.32,-8.23 13.97,-18.53 13.97,-31 0,-12.32 -4.65,-22.57 -14.01,-30.81 -9.36,-8.18 -23.61,-12.27 -42.76,-12.27 -18.06,0 -31.75,4.14 -41.01,12.37 -9.32,8.23 -13.97,18.48 -13.97,30.71 0,12.47 4.61,22.77 13.87,31 9.27,8.18 23.24,12.28 41.91,12.28z"/>
  <path id="10" class="fil4" d="M19197.02 26858.5l-146.47 0 0 -22.29 20.69 0c-7.15,-4.56 -12.93,-10.68 -17.26,-18.3 -4.37,-7.62 -6.54,-16.27 -6.54,-26.01 0,-10.82 2.26,-19.71 6.73,-26.62 4.52,-6.92 10.77,-11.81 18.86,-14.63 -17.07,-11.67 -25.59,-26.77 -25.59,-45.39 0,-14.58 4,-25.83 12.04,-33.63 8.05,-7.86 20.42,-11.81 37.12,-11.81l100.42 0 0 24.84 -92.19 0c-9.88,0 -17.03,0.84 -21.4,2.44 -4.38,1.6 -7.86,4.52 -10.54,8.8 -2.68,4.23 -4,9.22 -4,14.91 0,10.35 3.44,18.91 10.26,25.73 6.86,6.82 17.82,10.2 32.87,10.2l85 0 0 24.84 -95.06 0c-11.01,0 -19.29,2.02 -24.79,6.07 -5.5,4.04 -8.28,10.67 -8.28,19.85 0,6.96 1.84,13.4 5.51,19.33 3.66,5.93 9.03,10.21 16.13,12.89 7.05,2.63 17.26,3.95 30.57,3.95l75.92 0 0 24.83z"/>
  <g id="_1696228217808">
   <g>
    <path class="fil5 str2" d="M16491.41 27476.93l440.63 0 0 99.16 -440.63 0 0 -99.16z"/>
    <path class="fil6 str2" d="M16932.04 27476.93l440.63 0 0 99.16 -440.63 0 0 -99.16z"/>
    <path class="fil5 str2" d="M17372.66 27476.93l440.63 0 0 99.16 -440.63 0 0 -99.16z"/>
    <path class="fil6 str2" d="M17813.39 27476.93l440.63 0 0 99.16 -440.63 0 0 -99.16z"/>
    <path class="fil5 str2" d="M18254.03 27476.93l440.63 0 0 99.16 -440.63 0 0 -99.16z"/>
    <path class="fil6 str2" d="M17902.43 27775.87l704.74 0 0 99.16 -704.74 0 0 -99.16z"/>
    <path class="fil5 str2" d="M17197.69 27775.87l704.74 0 0 99.16 -704.74 0 0 -99.16z"/>
    <path class="fil6 str2" d="M16492.95 27775.87l704.74 0 0 99.16 -704.74 0 0 -99.16z"/>
   </g>
   <path class="fil4" d="M17282.9 27069.42l57.09 -27.52 5.71 0 0 197.2c0,13.12 0.53,21.35 1.64,24.58 1.12,3.18 3.36,5.71 6.82,7.41 3.47,1.71 10.53,2.7 21.17,2.94l0 6.35 -88.19 0 0 -6.35c11.05,-0.24 18.16,-1.18 21.34,-2.88 3.23,-1.65 5.47,-3.88 6.76,-6.7 1.24,-2.83 1.88,-11.29 1.88,-25.35l0 -126.29c0,-16.99 -0.59,-27.93 -1.7,-32.75 -0.83,-3.7 -2.3,-6.41 -4.41,-8.11 -2.18,-1.71 -4.71,-2.59 -7.71,-2.59 -4.29,0 -10.23,1.76 -17.81,5.35l-2.59 -5.29z"/>
   <path id="1" class="fil4" d="M17564.43 27035.2l0 157.16 39.98 -36.63c8.52,-7.82 13.46,-12.76 14.81,-14.82 0.95,-1.41 1.42,-2.76 1.42,-4.17 0,-2.29 -1,-4.23 -2.89,-5.94 -1.88,-1.65 -4.99,-2.59 -9.4,-2.82l0 -5.65 68.61 0 0 5.65c-9.35,0.23 -17.17,1.7 -23.4,4.35 -6.23,2.7 -13.05,7.47 -20.52,14.29l-40.63 37.22 40.34 51.33c11.29,14.05 18.81,23.04 22.58,26.98 5.58,5.24 10.4,8.65 14.58,10.17 2.94,1.12 7.99,1.71 15.17,1.71l0 6.35 -76.73 0 0 -6.35c4.41,-0.12 7.35,-0.76 8.88,-1.94 1.58,-1.24 2.35,-2.88 2.35,-5.06 0,-2.64 -2.3,-6.88 -6.88,-12.7l-48.27 -61.79 0 52.21c0,10.23 0.7,16.93 2.11,20.17 1.47,3.17 3.47,5.46 6.12,6.88 2.64,1.35 8.35,2.11 17.17,2.23l0 6.35 -80.08 0 0 -6.35c7.99,0 14.05,-1 18.05,-2.94 2.41,-1.23 4.23,-3.17 5.46,-5.76 1.71,-3.76 2.59,-10.29 2.59,-19.52l0 -143.94c0,-18.05 -0.41,-29.1 -1.18,-33.16 -0.82,-4.05 -2.11,-6.82 -3.99,-8.35 -1.83,-1.58 -4.24,-2.35 -7.18,-2.35 -2.41,0 -6.05,1 -10.82,2.94l-2.93 -6.35 46.74 -19.4 7.94 0z"/>
   <path id="2" class="fil4" d="M17741.17 27151.5c11.41,-11.53 18.17,-18.17 20.22,-19.93 5.12,-4.36 10.65,-7.77 16.59,-10.18 5.93,-2.41 11.81,-3.64 17.63,-3.64 9.88,0 18.29,2.88 25.4,8.64 7.06,5.76 11.82,14.11 14.17,25.11 11.88,-13.88 21.88,-22.93 30.05,-27.28 8.17,-4.3 16.58,-6.47 25.22,-6.47 8.35,0 15.82,2.17 22.35,6.47 6.46,4.29 11.64,11.34 15.4,21.16 2.53,6.65 3.82,17.11 3.82,31.4l0 67.97c0,9.82 0.71,16.58 2.18,20.23 1.12,2.46 3.23,4.64 6.23,6.4 3.06,1.77 8,2.65 14.88,2.65l0 6.35 -77.26 0 0 -6.35 3.29 0c6.7,0 11.99,-1.29 15.76,-3.94 2.64,-1.82 4.52,-4.76 5.64,-8.76 0.47,-1.94 0.71,-7.47 0.71,-16.58l0 -67.91c0,-12.88 -1.53,-21.93 -4.65,-27.22 -4.52,-7.35 -11.7,-11.06 -21.63,-11.06 -6.06,0 -12.23,1.53 -18.41,4.59 -6.11,3 -13.58,8.7 -22.34,16.93l-0.35 1.94 0.7 7.41 0 75.32c0,10.7 0.59,17.4 1.77,20.05 1.23,2.59 3.46,4.82 6.76,6.58 3.29,1.77 8.93,2.65 16.87,2.65l0 6.35 -79.37 0 0 -6.35c8.64,0 14.58,-1 17.81,-3.06 3.24,-2.06 5.47,-5.17 6.7,-9.29 0.59,-1.94 0.89,-7.58 0.89,-16.93l0 -67.91c0,-12.88 -1.88,-22.17 -5.65,-27.87 -5.05,-7.41 -12.05,-11.11 -21.11,-11.11 -6.17,0 -12.28,1.7 -18.34,5.05 -9.47,5.06 -16.82,10.82 -21.93,17.17l0 84.67c0,10.29 0.7,16.93 2.12,20.05 1.41,3.06 3.52,5.35 6.35,6.94 2.76,1.53 8.4,2.29 16.93,2.29l0 6.35 -77.97 0 0 -6.35c7.24,0 12.29,-0.76 15.17,-2.29 2.89,-1.59 5.06,-4 6.59,-7.41 1.47,-3.35 2.23,-9.88 2.23,-19.58l0 -60.33c0,-17.28 -0.53,-28.45 -1.53,-33.51 -0.82,-3.82 -2.05,-6.41 -3.82,-7.82 -1.7,-1.47 -4.05,-2.18 -6.99,-2.18 -3.24,0 -7.06,0.89 -11.53,2.59l-2.58 -6.35 47.62 -19.4 7.41 0 0 33.75z"/>
   <path class="fil4" d="M17125.33 28134.67c0,-26.64 4,-49.51 12.05,-68.74 8.06,-19.22 18.7,-33.57 32.05,-42.98 10.29,-7.47 20.99,-11.17 31.98,-11.17 17.94,0 33.99,9.11 48.22,27.34 17.81,22.64 26.69,53.27 26.69,91.96 0,27.05 -3.88,50.09 -11.7,69.03 -7.82,18.93 -17.76,32.63 -29.87,41.21 -12.11,8.53 -23.81,12.82 -35.04,12.82 -22.29,0 -40.81,-13.11 -55.62,-39.39 -12.53,-22.17 -18.76,-48.86 -18.76,-80.08zm33.87 4.23c0,32.1 3.94,58.33 11.82,78.67 6.52,17.11 16.28,25.63 29.22,25.63 6.17,0 12.58,-2.76 19.22,-8.34 6.65,-5.59 11.65,-14.88 15.11,-27.99 5.24,-19.7 7.88,-47.57 7.88,-83.43 0,-26.64 -2.76,-48.86 -8.23,-66.62 -4.11,-13.23 -9.46,-22.58 -15.99,-28.05 -4.65,-3.82 -10.35,-5.7 -16.99,-5.7 -7.76,0 -14.7,3.53 -20.76,10.52 -8.23,9.53 -13.87,24.46 -16.81,44.92 -3,20.41 -4.47,40.52 -4.47,60.39z"/>
   <path id="1" class="fil4" d="M17333.12 28216.75c5.35,0 9.88,1.88 13.58,5.58 3.64,3.71 5.47,8.17 5.47,13.47 0,5.23 -1.88,9.76 -5.59,13.46 -3.7,3.7 -8.17,5.59 -13.46,5.59 -5.24,0 -9.76,-1.89 -13.47,-5.59 -3.7,-3.7 -5.58,-8.23 -5.58,-13.46 0,-5.35 1.88,-9.88 5.58,-13.59 3.71,-3.64 8.23,-5.46 13.47,-5.46z"/>
   <path id="2" class="fil4" d="M17535.27 28011.78l0 6.7c-15.12,1.47 -27.46,4.47 -37.05,9 -9.58,4.53 -19.05,11.41 -28.34,20.7 -9.35,9.23 -17.11,19.58 -23.22,30.92 -6.12,11.41 -11.23,24.93 -15.35,40.57 16.47,-11.23 32.99,-16.87 49.63,-16.87 15.93,0 29.69,6.41 41.39,19.28 11.7,12.82 17.52,29.34 17.52,49.51 0,19.46 -5.88,37.28 -17.7,53.33 -14.23,19.46 -33.04,29.22 -56.44,29.22 -15.93,0 -29.52,-5.29 -40.63,-15.82 -21.81,-20.57 -32.69,-47.21 -32.69,-79.9 0,-20.87 4.17,-40.75 12.58,-59.56 8.35,-18.82 20.35,-35.51 35.87,-50.1 15.58,-14.52 30.45,-24.34 44.68,-29.39 14.23,-5.06 27.46,-7.59 39.75,-7.59l10 0zm-106.9 120.48c-2.11,15.52 -3.17,28.04 -3.17,37.57 0,11.05 2.06,22.99 6.11,35.92 4.06,12.94 10.12,23.17 18.11,30.75 5.82,5.41 12.94,8.12 21.29,8.12 9.93,0 18.87,-4.71 26.69,-14.12 7.82,-9.46 11.76,-22.87 11.76,-40.33 0,-19.64 -3.88,-36.63 -11.64,-51.04 -7.82,-14.34 -18.82,-21.52 -33.1,-21.52 -4.36,0 -9.06,0.95 -14,2.77 -5,1.82 -12.35,5.82 -22.05,11.88z"/>
   <path id="3" class="fil4" d="M17700.02 28121.38c11.41,-11.53 18.17,-18.17 20.22,-19.93 5.12,-4.36 10.65,-7.77 16.59,-10.18 5.93,-2.41 11.81,-3.64 17.63,-3.64 9.88,0 18.29,2.88 25.4,8.64 7.06,5.76 11.82,14.11 14.17,25.11 11.88,-13.88 21.88,-22.93 30.05,-27.28 8.17,-4.3 16.58,-6.47 25.22,-6.47 8.35,0 15.82,2.17 22.35,6.47 6.46,4.29 11.64,11.34 15.4,21.16 2.53,6.65 3.82,17.11 3.82,31.4l0 67.97c0,9.82 0.71,16.58 2.18,20.23 1.12,2.46 3.23,4.64 6.23,6.4 3.06,1.77 8,2.65 14.88,2.65l0 6.35 -77.26 0 0 -6.35 3.29 0c6.7,0 11.99,-1.29 15.76,-3.94 2.64,-1.82 4.52,-4.76 5.64,-8.76 0.47,-1.94 0.71,-7.47 0.71,-16.58l0 -67.91c0,-12.88 -1.53,-21.93 -4.65,-27.22 -4.52,-7.35 -11.7,-11.06 -21.63,-11.06 -6.06,0 -12.23,1.53 -18.41,4.59 -6.11,3 -13.58,8.7 -22.34,16.93l-0.35 1.94 0.7 7.41 0 75.32c0,10.7 0.59,17.4 1.77,20.05 1.23,2.59 3.46,4.82 6.76,6.58 3.29,1.77 8.93,2.65 16.87,2.65l0 6.35 -79.37 0 0 -6.35c8.64,0 14.58,-1 17.81,-3.06 3.24,-2.06 5.47,-5.17 6.7,-9.29 0.59,-1.94 0.89,-7.58 0.89,-16.93l0 -67.91c0,-12.88 -1.88,-22.17 -5.65,-27.87 -5.05,-7.41 -12.05,-11.11 -21.11,-11.11 -6.17,0 -12.28,1.7 -18.34,5.05 -9.47,5.06 -16.82,10.82 -21.93,17.17l0 84.67c0,10.29 0.7,16.93 2.12,20.05 1.41,3.06 3.52,5.35 6.35,6.94 2.76,1.53 8.4,2.29 16.93,2.29l0 6.35 -77.97 0 0 -6.35c7.24,0 12.29,-0.76 15.17,-2.29 2.89,-1.59 5.06,-4 6.59,-7.41 1.47,-3.35 2.23,-9.88 2.23,-19.58l0 -60.33c0,-17.28 -0.53,-28.45 -1.53,-33.51 -0.82,-3.82 -2.05,-6.41 -3.82,-7.82 -1.7,-1.47 -4.05,-2.18 -6.99,-2.18 -3.24,0 -7.06,0.89 -11.53,2.59l-2.58 -6.35 47.62 -19.4 7.41 0 0 33.75z"/>
   <path id="4" class="fil4" d="M17967.66 28005.08c4.76,0 8.88,1.7 12.29,5.05 3.35,3.41 5.05,7.53 5.05,12.29 0,4.82 -1.7,9 -5.05,12.41 -3.41,3.47 -7.53,5.17 -12.29,5.17 -4.82,0 -9,-1.7 -12.41,-5.17 -3.47,-3.41 -5.17,-7.59 -5.17,-12.41 0,-4.76 1.7,-8.88 5.05,-12.29 3.41,-3.35 7.59,-5.05 12.53,-5.05zm14.17 82.55l0 127c0,9.82 0.7,16.34 2.17,19.58 1.41,3.29 3.53,5.7 6.35,7.29 2.82,1.59 8,2.41 15.47,2.41l0 6.35 -76.56 0 0 -6.35c7.65,0 12.82,-0.76 15.41,-2.23 2.64,-1.47 4.7,-3.94 6.29,-7.35 1.53,-3.41 2.29,-10 2.29,-19.7l0 -61.03c0,-16.99 -0.53,-27.99 -1.53,-33.05 -0.82,-3.64 -2.05,-6.17 -3.82,-7.58 -1.7,-1.47 -4.06,-2.18 -7,-2.18 -3.23,0 -7.11,0.89 -11.7,2.59l-2.41 -6.35 47.45 -19.4 7.59 0z"/>
  </g>
  <rect class="fil7 str3" x="999.99" y="1000" width="18408.45" height="27700"/>
 </g>
</svg>
