<?xml version="1.0" encoding="UTF-8"?>
<!DOCTYPE svg PUBLIC "-//W3C//DTD SVG 1.1//EN" "http://www.w3.org/Graphics/SVG/1.1/DTD/svg11.dtd">
<!-- Creator: CorelDRAW -->
<svg xmlns="http://www.w3.org/2000/svg" xml:space="preserve" width="297mm" height="210mm" version="1.1" style="shape-rendering:geometricPrecision; text-rendering:geometricPrecision; image-rendering:optimizeQuality; fill-rule:evenodd; clip-rule:evenodd"
viewBox="0 0 29700 21000"
 xmlns:xlink="http://www.w3.org/1999/xlink">
 <defs>
  <font id="FontID1" horiz-adv-x="722" font-variant="normal" style="fill-rule:nonzero" font-style="normal" font-weight="400">
	<font-face 
		font-family="Times New Roman">
		<font-face-src>
			<font-face-name name="Times New Roman"/>
		</font-face-src>
	</font-face>
   <missing-glyph><path d="M0 0z"/></missing-glyph>
   <glyph unicode="0" horiz-adv-x="500" d="M35.9998 327.655c0,75.5145 11.3385,140.342 34.1573,194.852 22.8471,54.4815 53.0075,95.1585 90.8498,121.832 29.1683,21.1747 59.4988,31.6628 90.6514,31.6628 50.8532,0 96.349,-25.8235 136.686,-77.4987 50.4847,-64.176 75.6562,-151.001 75.6562,-260.672 0,-76.6767 -10.9984,-141.987 -33.1651,-195.674 -22.1668,-53.6595 -50.343,-92.4939 -84.6703,-116.815 -34.3273,-24.1794 -67.4925,-36.3399 -99.3254,-36.3399 -63.1839,0 -115.681,37.162 -157.662,111.656 -35.5179,62.8437 -53.1776,138.5 -53.1776,226.997zm96.0088 -11.9905c0,-90.9916 11.1684,-165.344 33.5053,-223 18.4818,-48.5005 46.1477,-72.6515 82.8278,-72.6515 17.4897,0 35.6596,7.82357 54.4815,23.6408 18.8503,15.8456 33.0234,42.1793 42.8312,79.3412 14.8534,55.8422 22.3369,134.843 22.3369,236.493 0,75.5145 -7.82357,138.5 -23.329,188.843 -11.6503,37.5021 -26.8156,64.0059 -45.3257,79.5113 -13.181,10.8283 -29.3384,16.1574 -48.1603,16.1574 -21.9967,0 -41.669,-10.0062 -58.8469,-29.8203 -23.329,-27.014 -39.3163,-69.335 -47.6501,-127.331 -8.50388,-57.8548 -12.6708,-114.859 -12.6708,-171.183z"/>
   <glyph unicode="k" horiz-adv-x="500" d="M164.012 694.994l0 -445.49 113.328 103.832c24.151,22.1668 38.1541,36.1699 41.9808,42.0092 2.6929,3.99683 4.02517,7.82357 4.02517,11.8204 0,6.4913 -2.83463,11.9905 -8.19207,16.8377 -5.3291,4.67714 -14.1448,7.34169 -26.6455,7.99365l0 16.0156 194.484 0 0 -16.0156c-26.5038,-0.651964 -48.6706,-4.81887 -66.3303,-12.3306 -17.6597,-7.6535 -36.9919,-21.1747 -58.1666,-40.5068l-115.171 -105.505 114.349 -145.501c32.0029,-39.8265 53.3193,-65.3098 64.0059,-76.4783 15.8172,-14.8534 29.4801,-24.5195 41.3289,-28.8282 8.33381,-3.17478 22.6487,-4.84721 43.0013,-4.84721l0 -17.9999 -217.501 0 0 17.9999c12.5007,0.340155 20.8345,2.15432 25.1715,5.49918 4.47871,3.51494 6.66138,8.16373 6.66138,14.3432 0,7.48342 -6.51964,19.5022 -19.5022,35.9998l-136.827 175.152 0 -147.996c0,-28.9982 1.98424,-47.9902 5.98106,-57.1744 4.1669,-8.98577 9.83616,-15.4771 17.3479,-19.5022 7.48342,-3.82675 23.6691,-5.98106 48.6706,-6.32122l0 -17.9999 -226.997 0 0 17.9999c22.6487,0 39.8265,2.83463 51.165,8.33381 6.83145,3.48659 11.9905,8.98577 15.4771,16.3275 4.84721,10.6582 7.34169,29.1683 7.34169,55.3319l0 408.016c0,51.165 -1.1622,82.4877 -3.34486,93.9963 -2.32439,11.4802 -5.98106,19.3322 -11.3102,23.6691 -5.18737,4.47871 -12.0188,6.66138 -20.3526,6.66138 -6.83145,0 -17.1495,-2.83463 -30.6707,-8.33381l-8.30546 17.9999 132.491 54.9918 22.5069 0z"/>
   <glyph unicode="2" horiz-adv-x="500" d="M457.991 128.664l-46.3178 -128.664 -390.668 0 0 18.34c115.001,104.825 195.816,190.317 242.672,256.647 46.8281,66.3586 70.3271,127.02 70.3271,182.011 0,42.0092 -12.8409,76.5066 -38.6643,103.492 -25.6817,27.014 -56.3524,40.5068 -92.1821,40.5068 -32.6549,0 -61.8232,-9.32593 -87.6467,-28.1762 -26.0219,-18.8219 -45.0139,-46.4879 -57.5146,-82.8278l-17.9999 0c8.16373,59.839 29.1683,105.845 62.8437,138.018 33.647,31.9746 75.8263,47.9902 126.481,47.9902 53.6879,0 98.6734,-17.3479 134.673,-51.8453 35.9998,-34.4974 53.9997,-75.146 53.9997,-122.144 0,-33.5053 -7.82357,-67.1807 -23.4991,-100.686 -24.0093,-52.6674 -63.1555,-108.481 -117.155,-167.498 -81.1837,-88.327 -131.187,-141.335 -150.349,-158.824l171.183 0c34.8376,0 59.3288,1.33228 73.3318,3.82675 14.0031,2.66455 26.6738,7.99365 37.984,16.0156 11.3385,7.82357 21.1747,19.1621 29.5085,33.8171l18.992 0z"/>
   <glyph unicode="m" horiz-adv-x="777" d="M165.004 365.327c32.3431,32.6833 51.5052,51.5052 57.3162,56.4941 14.5133,12.359 30.1888,22.0251 47.0265,28.8565 16.8093,6.83145 33.477,10.318 49.9745,10.318 28.0061,0 51.8453,-8.16373 71.9995,-24.4912 20.0125,-16.3275 33.5053,-39.9966 40.1667,-71.1775 33.6754,39.3446 62.0217,64.998 85.1806,77.3286 23.1589,12.1889 46.9981,18.34 71.4893,18.34 23.6691,0 44.8438,-6.15114 63.3539,-18.34 18.3117,-12.1606 32.9951,-32.1447 43.6533,-59.9807 7.17161,-18.8503 10.8283,-48.5005 10.8283,-89.0073l0 -192.67c0,-27.836 2.01259,-46.9981 6.17949,-57.3445 3.17478,-6.97318 9.15585,-13.1527 17.6597,-18.1416 8.67396,-5.01729 22.677,-7.51176 42.1793,-7.51176l0 -17.9999 -219.003 0 0 17.9999 9.32593 0c18.992,0 33.9872,3.65667 44.6737,11.1684 7.48342,5.15902 12.8125,13.4928 15.9873,24.8313 1.33228,5.49918 2.01259,21.1747 2.01259,46.9981l0 192.5c0,36.51 -4.33698,62.1634 -13.181,77.1586 -12.8125,20.8345 -33.1651,31.351 -61.313,31.351 -17.1778,0 -34.6675,-4.33698 -52.1855,-13.0109 -17.3196,-8.50388 -38.4942,-24.6613 -63.3256,-47.9902l-0.99212 -5.49918 1.98424 -21.0046 0 -213.504c0,-30.3305 1.67243,-49.3225 5.01729,-56.8343 3.48659,-7.34169 9.80781,-13.6629 19.1621,-18.6519 9.32593,-5.01729 25.3132,-7.51176 47.8202,-7.51176l0 -17.9999 -224.984 0 0 17.9999c24.4912,0 41.3289,2.83463 50.4847,8.67396 9.18419,5.83933 15.5054,14.655 18.992,26.3337 1.67243,5.49918 2.52282,21.4865 2.52282,47.9902l0 192.5c0,36.51 -5.3291,62.8437 -16.0156,79.0011 -14.3149,21.0046 -34.1573,31.4927 -59.839,31.4927 -17.4897,0 -34.8092,-4.81887 -51.9871,-14.3149 -26.8439,-14.3432 -47.6784,-30.6707 -62.1634,-48.6706l0 -240.008c0,-29.1683 1.98424,-47.9902 6.00941,-56.8343 3.99683,-8.67396 9.97789,-15.1653 17.9999,-19.6723 7.82357,-4.33698 23.8109,-6.4913 47.9902,-6.4913l0 -17.9999 -221.016 0 0 17.9999c20.5227,0 34.8376,2.15432 43.0013,6.4913 8.19207,4.50706 14.3432,11.3385 18.6802,21.0046 4.1669,9.496 6.32122,28.0061 6.32122,55.502l0 171.013c0,48.9824 -1.50235,80.6452 -4.33698,94.9884 -2.32439,10.8283 -5.81099,18.17 -10.8283,22.1668 -4.81887,4.1669 -11.4802,6.17949 -19.814,6.17949 -9.18419,0 -20.0125,-2.52282 -32.6833,-7.34169l-7.31334 17.9999 134.985 54.9918 21.0046 0 0 -95.6687z"/>
   <glyph unicode="4" horiz-adv-x="500" d="M464.992 244.005l0 -68.9948 -88.979 0 0 -175.01 -81.0137 0 0 175.01 -279.012 0 0 62.1634 306.026 438.829 53.9997 0 0 -431.997 88.979 0zm-169.993 0l0 328.987 -231.334 -328.987 231.334 0z"/>
   <glyph unicode=" " horiz-adv-x="250" d=""/>
   <glyph unicode="i" horiz-adv-x="277" d="M145.842 694.994c13.4928,0 25.1715,-4.81887 34.8376,-14.3149 9.496,-9.66608 14.3149,-21.3447 14.3149,-34.8376 0,-13.6629 -4.81887,-25.5117 -14.3149,-35.1777 -9.66608,-9.83616 -21.3447,-14.655 -34.8376,-14.655 -13.6629,0 -25.5117,4.81887 -35.1777,14.655 -9.83616,9.66608 -14.655,21.5148 -14.655,35.1777 0,13.4928 4.81887,25.1715 14.3149,34.8376 9.66608,9.496 21.5148,14.3149 35.5179,14.3149zm40.1667 -233.999l0 -359.998c0,-27.836 1.98424,-46.3178 6.15114,-55.502 3.99683,-9.32593 10.0062,-16.1574 17.9999,-20.6644 7.99365,-4.50706 22.677,-6.83145 43.8517,-6.83145l0 -17.9999 -217.019 0 0 17.9999c21.6849,0 36.3399,2.15432 43.6816,6.32122 7.48342,4.1669 13.3228,11.1684 17.8298,20.8345 4.33698,9.66608 6.4913,28.3463 6.4913,55.8422l0 172.997c0,48.1603 -1.50235,79.3412 -4.33698,93.6844 -2.32439,10.318 -5.81099,17.4897 -10.8283,21.4865 -4.81887,4.1669 -11.5086,6.17949 -19.8424,6.17949 -9.15585,0 -20.1542,-2.52282 -33.1651,-7.34169l-6.83145 17.9999 134.503 54.9918 21.5148 0z"/>
  </font>
  <font id="FontID0" horiz-adv-x="666" font-variant="normal" style="fill-rule:nonzero" font-style="normal" font-weight="400">
	<font-face 
		font-family="Arial">
		<font-face-src>
			<font-face-name name="Arial"/>
		</font-face-src>
	</font-face>
   <missing-glyph><path d="M0 0z"/></missing-glyph>
   <glyph unicode="c" horiz-adv-x="500" d="M405.003 189.994l85.9967 -11.9765c-9.49614,-59.1737 -33.4845,-105.343 -72.3195,-138.863 -38.835,-33.4845 -86.67,-50.1382 -143.186,-50.1382 -70.8313,0 -127.844,23.138 -170.824,69.4848 -43.1578,46.3468 -64.6659,112.678 -64.6659,198.994 0,56.0201 9.31897,104.847 27.8152,146.836 18.4962,41.8468 46.6657,73.347 84.6857,94.1818 37.8428,20.9765 78.9809,31.5002 123.662,31.5002 56.1619,0 102.332,-14.1733 138.013,-42.6618 35.8231,-28.5238 58.8194,-69.0242 68.8116,-121.359l-85.0046 -13.004c-8.14967,34.831 -22.5002,61.0162 -43.335,78.662 -20.6576,17.5041 -45.6382,26.3624 -74.977,26.3624 -44.3271,0 -80.3274,-15.8387 -108.178,-47.5161 -27.6734,-31.8191 -41.4925,-81.8156 -41.4925,-150.485 0,-69.662 13.3229,-120.19 40.0043,-151.69 26.823,-31.5002 61.654,-47.3035 104.493,-47.3035 34.6538,0 63.4966,10.4883 86.4928,31.642 23.1734,21.012 37.8428,53.5044 44.0082,97.3354z"/>
   <glyph unicode="-" horiz-adv-x="333" d="M31.0042 215.01l0 87.981 271.986 0 0 -87.981 -271.986 0z"/>
   <glyph unicode="©" horiz-adv-x="736" d="M369.818 728.014c61.8312,0 122.174,-15.8387 181.171,-47.6933 58.8548,-31.642 104.847,-77.1384 137.694,-136.17 32.8113,-59.1383 49.3232,-120.828 49.3232,-184.82 0,-63.4966 -16.1576,-124.655 -48.6854,-183.155 -32.3152,-58.6776 -77.6699,-104.174 -136.17,-136.525 -58.5005,-32.4924 -119.658,-48.65 -183.332,-48.65 -63.8155,0 -124.973,16.1576 -183.474,48.65 -58.5005,32.3506 -103.997,77.8471 -136.525,136.525 -32.4924,58.5005 -48.8272,119.658 -48.8272,183.155 0,63.9926 16.5119,125.682 49.5004,184.82 33.1656,59.032 79.1581,104.528 138.013,136.17 58.9965,31.8546 119.34,47.6933 181.312,47.6933zm0 -61.0162c-51.8036,0 -102.332,-13.3229 -151.3,-39.8271 -49.0043,-26.5041 -87.3432,-64.4887 -115.017,-113.847 -27.6734,-49.3232 -41.4925,-100.666 -41.4925,-153.993 0,-53.15 13.6418,-103.997 40.8192,-152.647 27.1774,-48.6854 65.1619,-86.67 113.989,-113.847 48.8626,-27.1774 99.8512,-40.8192 153.001,-40.8192 53.0083,0 104.032,13.6418 152.859,40.8192 48.8272,27.1774 86.8117,65.1619 113.812,113.847 27.0002,48.65 40.5003,99.4968 40.5003,152.647 0,53.3272 -13.819,104.67 -41.3153,153.993 -27.4963,49.3587 -65.8352,87.3432 -115.017,113.847 -49.1461,26.5041 -99.4968,39.8271 -150.84,39.8271zm118.17 -366.983l60.0241 -18.0001c-9.85047,-40.6775 -30.5081,-73.347 -62.1855,-97.5126 -31.8191,-24.3427 -70.3352,-36.4964 -115.477,-36.4964 -57.3666,0 -103.855,18.4962 -139.678,55.6658 -35.8231,37.1696 -53.6815,88.5125 -53.6815,154.312 0,43.0161 8.1851,80.3628 24.5199,112.005 16.1576,31.8546 39.5082,55.6658 69.4848,71.8588 30.1892,16.1576 64.6659,24.1655 103.324,24.1655 43.335,0 79.3353,-10.3465 108.001,-31.1813 28.6656,-20.8348 48.1894,-49.1815 58.6776,-84.8274l-58.0044 -14.9883c-9.81504,24.4844 -24.1655,43.335 -43.335,56.3036 -19.1694,13.1812 -41.4925,19.6655 -67.3234,19.6655 -37.4885,0 -68.4927,-13.3229 -92.8354,-39.9688 -24.3427,-26.6813 -36.4964,-65.0202 -36.4964,-114.698 0,-49.8193 11.4804,-87.4849 34.5121,-112.997 22.9962,-25.4766 52.654,-38.3035 89.1503,-38.3035 29.3388,0 55.1697,8.46857 77.351,25.6537 22.1458,17.008 36.8153,40.146 43.9728,69.3431z"/>
   <glyph unicode="s" horiz-adv-x="500" d="M31.0042 154.985l86.9889 14.0316c4.85437,-34.8664 18.4962,-61.5123 40.8547,-80.1857 22.323,-18.4962 53.6461,-27.8152 93.6503,-27.8152 40.5003,0 70.5124,8.14967 90.1779,24.6616 19.4883,16.3348 29.3388,35.6459 29.3388,57.8272 0,19.8427 -8.85834,35.5042 -26.3624,46.8429 -12.3308,7.83077 -42.3074,17.6458 -90.0007,29.8349 -64.3115,16.1576 -108.816,30.1538 -133.832,41.9885 -24.8033,12.0119 -43.6539,28.3112 -56.4808,49.3232 -12.8269,20.8348 -19.3466,44.0082 -19.3466,69.3431 0,23.1734 5.35044,44.5043 15.8387,64.1698 10.6654,19.6655 25.0159,36.0003 43.1578,49.0043 13.6773,9.9922 32.3506,18.4962 55.843,25.4766 23.6695,7.0158 48.8272,10.5237 75.8274,10.5237 40.6775,0 76.3234,-5.8465 107.009,-17.6812 30.827,-11.6576 53.5044,-27.6734 68.1738,-47.6579 14.4922,-20.1616 24.6616,-47.0201 30.1538,-80.6817l-85.9967 -11.9765c-3.8268,27.0002 -15.1655,48.1539 -33.8388,63.3194 -18.6734,15.1655 -45.0004,22.6773 -79.1581,22.6773 -40.1814,0 -68.9887,-6.66147 -86.1739,-20.0198 -17.1497,-13.3229 -25.8309,-28.9845 -25.8309,-46.8075 0,-11.3387 3.5079,-21.6852 10.6654,-30.8624 7.15754,-9.31897 18.3545,-17.1497 33.6617,-23.3151 8.85834,-3.33073 34.5121,-10.8426 77.4927,-22.5002 62.0084,-16.5119 105.343,-30.1892 130.005,-40.6775 24.6616,-10.4883 44.0082,-26.0081 58.0044,-45.9925 14.1733,-20.1616 21.1891,-45.1775 21.1891,-75.1541 0,-29.1971 -8.504,-56.6934 -25.6892,-82.5243 -17.1497,-25.8309 -41.8114,-45.8153 -73.9848,-59.9887 -32.3506,-14.1733 -68.847,-21.1537 -109.524,-21.1537 -67.3234,0 -118.808,13.9962 -154.135,41.8114 -35.3625,27.9923 -57.8627,69.3431 -67.6777,124.158z"/>
   <glyph unicode="p" horiz-adv-x="556" d="M66.0123 -198.994l0 717.986 79.9731 0 0 -68.1738c18.8505,26.3624 40.1814,46.1697 64.0281,59.3509 23.6695,13.1812 52.4768,19.8427 86.3156,19.8427 44.3271,0 83.3392,-11.3387 117.178,-34.1932 33.8388,-22.6419 59.3154,-54.8154 76.6423,-96.1661 17.1852,-41.4925 25.8663,-86.8117 25.8663,-136.312 0,-52.8311 -9.53157,-100.524 -28.5238,-143.009 -18.9923,-42.3429 -46.6657,-74.8352 -82.9849,-97.5126 -36.1775,-22.5002 -74.3392,-33.8034 -114.343,-33.8034 -29.3388,0 -55.6658,6.1654 -78.8392,18.4962 -23.3151,12.3308 -42.3074,27.8152 -57.3312,46.6657l0 -253.171 -87.981 0zm79.9731 455.319c0,-66.5084 13.5001,-115.654 40.3586,-147.509 27.0002,-31.8191 59.6698,-47.7996 97.9732,-47.7996 39.0121,0 72.3549,16.4765 100.028,49.5004 27.8152,32.9884 41.6696,83.977 41.6696,153.143 0,66.0123 -13.5001,115.336 -40.6775,148.182 -27.1774,32.8113 -59.4926,49.1461 -97.1582,49.1461 -37.3468,0 -70.3352,-17.5041 -99.0008,-52.3351 -28.8427,-34.9727 -43.1933,-85.6424 -43.1933,-152.328z"/>
   <glyph unicode="m" horiz-adv-x="833" d="M66.0123 0l0 518.992 78.9809 0 0 -73.3116c16.1576,25.3348 37.8428,45.8153 64.843,61.158 27.0002,15.4844 57.6501,23.1734 92.1621,23.1734 38.3389,0 69.8391,-8.00794 94.3236,-23.8466 24.5199,-16.0159 41.8468,-38.1617 51.839,-66.8273 41.3507,60.4847 94.8551,90.6739 160.832,90.6739 51.6618,0 91.5243,-14.1733 119.162,-42.6618 27.8506,-28.5238 41.8468,-72.3549 41.8468,-131.529l0 -355.822 -88.0164 0 0 326.66c0,35.0081 -2.9764,60.343 -8.64574,75.8274 -5.66934,15.5198 -16.0159,27.8506 -31.1813,37.3468 -14.9883,9.49614 -32.6695,14.1733 -52.8311,14.1733 -36.6735,0 -67.0045,-12.1891 -91.17,-36.3546 -24.1655,-24.3073 -36.142,-63.1422 -36.142,-116.469l0 -301.183 -88.0164 0 0 336.829c0,39.0121 -7.15754,68.3509 -21.508,87.8393 -14.3151,19.4883 -37.8074,29.3388 -70.3352,29.3388 -24.6616,0 -47.4807,-6.51974 -68.4927,-19.5238 -21.012,-12.9686 -36.1775,-31.9963 -45.6736,-57.154 -9.31897,-24.9805 -13.9962,-61.158 -13.9962,-108.32l0 -269.01 -87.981 0z"/>
   <glyph unicode="d" horiz-adv-x="556" d="M400.999 0l0 65.8352c-32.8467,-51.1658 -81.1778,-76.8195 -144.993,-76.8195 -41.3507,0 -79.3353,11.3032 -113.847,34.1577 -34.6538,22.6773 -61.4769,54.4965 -80.6463,95.174 -19.0277,40.8192 -28.5238,87.6621 -28.5238,140.635 0,51.6973 8.68117,98.5047 25.8309,140.67 17.3623,42.024 43.1933,74.3392 77.6699,96.6976 34.3349,22.5002 73.0281,33.6617 115.513,33.6617 31.3231,0 59.1737,-6.66147 83.481,-19.8427 24.3427,-13.1812 44.1854,-30.5081 59.528,-51.6618l0 257.494 87.981 0 0 -716.002 -81.9928 0zm-278.01 258.841c0,-66.3312 13.9962,-115.832 42.1657,-148.678 28.0278,-32.8113 61.1934,-49.1461 99.3551,-49.1461 38.4806,0 71.1502,15.6615 98.1504,46.9846 26.823,31.3231 40.3232,79.1581 40.3232,143.505 0,70.6541 -13.6418,122.67 -41.1381,155.836 -27.3545,33.1656 -61.1934,49.6421 -101.339,49.6421 -39.1893,0 -71.8234,-15.8033 -98.1858,-47.6579 -26.1498,-31.8191 -39.331,-81.9928 -39.331,-150.485z"/>
   <glyph unicode=" " horiz-adv-x="277" d=""/>
   <glyph unicode="." horiz-adv-x="277" d="M90.9928 0l0 99.9929 99.9929 0 0 -99.9929 -99.9929 0z"/>
   <glyph unicode="a" horiz-adv-x="556" d="M405.003 64.9848c-32.6695,-27.8152 -64.1698,-47.3035 -94.3236,-58.8194 -30.1892,-11.5158 -62.5044,-17.1497 -97.1937,-17.1497 -56.9768,0 -100.808,13.819 -131.493,41.6342 -30.6498,27.6734 -45.9925,63.1777 -45.9925,106.335 0,25.3348 5.8465,48.5083 17.3269,69.5202 11.6576,21.012 26.823,37.6657 45.4964,50.3154 18.8505,12.6851 39.8271,22.3584 63.3548,28.8427 17.3269,4.50004 43.4767,8.8229 78.3077,13.1812 71.0084,8.32684 123.521,18.4962 157.005,30.1538 0.354333,12.0119 0.496067,19.6655 0.496067,22.8191 0,35.6814 -8.32684,60.8391 -24.9805,75.5085 -22.5002,19.8427 -56.0201,29.6577 -100.347,29.6577 -41.4925,0 -72.1423,-7.3347 -91.8432,-21.8269 -19.8072,-14.4922 -34.2995,-40.146 -43.8311,-77.1738l-85.9967 12.0119c7.83077,36.8507 20.6931,66.6856 38.6932,89.3275 18.0001,22.6773 43.9728,40.0043 77.9888,52.3351 33.8388,12.1891 73.347,18.3545 117.993,18.3545 44.3271,0 80.5046,-5.17327 108.32,-15.6615 27.6734,-10.5237 48.1894,-23.5277 61.1934,-39.3665 13.004,-15.8033 22.1458,-35.8231 27.4963,-59.9887 2.83467,-14.9883 4.32287,-41.9885 4.32287,-80.8235l0 -116.682c0,-81.4967 1.84253,-132.981 5.49217,-154.808 3.5079,-21.8624 10.8426,-42.6972 21.508,-62.6816l-91.985 0c-8.85834,18.4962 -14.5277,40.1814 -17.008,64.9848zm-7.0158 195.025c-31.9963,-13.004 -79.9731,-24.0238 -144.001,-33.0239 -36.3192,-5.13784 -61.9729,-10.9843 -76.9967,-17.4686 -14.9883,-6.51974 -26.5041,-16.0159 -34.6538,-28.3467 -8.1851,-12.508 -12.3308,-26.327 -12.3308,-41.6696 0,-23.1734 8.8229,-42.6618 26.6459,-58.1816 17.8584,-15.4844 43.8665,-23.3151 78.0242,-23.3151 33.8388,0 63.9926,7.3347 90.4968,22.1458 26.327,14.6694 45.8153,34.8664 58.1461,60.343 9.53157,19.8427 14.1733,49.0043 14.1733,87.5204l0.496067 31.9963z"/>
   <glyph unicode="o" horiz-adv-x="556" d="M32.9884 259.514c0,95.8118 26.6813,166.82 80.1857,212.99 44.5043,38.3389 99.0008,57.5083 163.171,57.5083 71.1502,0 129.473,-23.3506 174.828,-70.0163 45.1775,-46.4886 67.8194,-111.013 67.8194,-193.147 0,-66.6856 -9.9922,-119.021 -29.9766,-157.182 -20.0198,-38.1617 -49.1815,-67.8194 -87.5204,-89.0086 -38.1617,-21.1537 -80.0085,-31.642 -125.151,-31.642 -72.6738,0 -131.351,23.138 -176.175,69.662 -44.8232,46.4886 -67.1816,113.493 -67.1816,200.836zm90.0007 -0.177167c0,-66.3312 14.5277,-116.009 43.5122,-148.82 29.1616,-33.0239 65.658,-49.5004 109.843,-49.5004 43.6539,0 79.9731,16.4765 109.17,49.6421 28.9845,33.1656 43.4767,83.6581 43.4767,151.513 0,63.9926 -14.6694,112.501 -43.8311,145.312 -29.1616,33.0239 -65.4808,49.5004 -108.816,49.5004 -44.1854,0 -80.6817,-16.3348 -109.843,-49.1461 -28.9845,-32.8467 -43.5122,-82.3471 -43.5122,-148.501z"/>
  </font>
  <style type="text/css">
   <![CDATA[
    @font-face { font-family:"Times New Roman";font-variant:normal;font-style:normal;font-weight:normal;src:url("#FontID1") format(svg)}
    @font-face { font-family:"Arial";font-variant:normal;font-style:normal;font-weight:normal;src:url("#FontID0") format(svg)}
    .str4 {stroke:black;stroke-width:10;stroke-miterlimit:3.864;stroke-opacity:0.501961}
    .str0 {stroke:#2B2A29;stroke-width:75;stroke-miterlimit:22.9256}
    .str6 {stroke:#1D1B19;stroke-width:50;stroke-miterlimit:3.864}
    .str2 {stroke:#003399;stroke-width:20;stroke-miterlimit:3.864}
    .str1 {stroke:black;stroke-width:10;stroke-miterlimit:22.9256}
    .str5 {stroke:black;stroke-width:10;stroke-miterlimit:3.864}
    .str3 {stroke:#003399;stroke-width:10;stroke-miterlimit:22.9256}
    .fil3 {fill:none}
    .fil1 {fill:#FEFEFE}
    .fil0 {fill:#2B2A29}
    .fil2 {fill:#A2D9F7}
    .fil5 {fill:black}
    .fil7 {fill:#FEFEFE;fill-rule:nonzero}
    .fil6 {fill:#D9DADA;fill-rule:nonzero}
    .fil4 {fill:#FEFEFE;fill-rule:nonzero;fill-opacity:0.501961}
    .fnt0 {font-weight:normal;font-size:282.22px;font-family:'Arial'}
    .fnt1 {font-weight:normal;font-size:352.78px;font-family:'Times New Roman'}
   ]]>
  </style>
 </defs>
<symbol id="Symbole2" viewBox="14797.31 10447.31 105.38 105.38">
 <circle class="fil0" cx="14850" cy="10500" r="52.69"/>
</symbol>
<symbol id="Symbole1" viewBox="14721.93 10371.93 256.13 256.13">
 <circle class="fil1 str0" cx="14849.99" cy="10499.99" r="90.56"/>
</symbol>
 <g id="Plan_x0020_1">
  <metadata id="CorelCorpID_0Corel-Layer"/>
  <rect class="fil2" x="1000" y="1000" width="27698.18" height="19000"/>
  <path class="fil1 str1" d="M11060.34 15097.22c171.17,0 494.83,-25.41 612.68,-171.68 52.91,-65.66 123.35,-51.23 196.47,-73.71 38.96,-11.98 285.21,-76.39 289.57,-125.04l1.87 -134.36 -5.59 -4.66c-38.36,0 -148.68,-27.89 -174.12,-3.73 -84.64,80.42 -177.62,-8.23 -269.09,-28.93 -68.04,-15.39 -108.35,41.99 -174.12,41.99 -32.02,0 -75.51,-30.36 -103.36,-9.33 -33.29,25.15 -87.6,23.32 -124.77,1.86 -67.31,-14.95 -102.29,-55.7 -148.05,-98.9 -44.95,-42.45 -97.07,-51.93 -143.39,-92.38l-275.61 -240.73c-56.66,-49.48 -161.53,-61.95 -190.88,-132.49 -23.87,-57.4 -231.88,19.33 -284.92,-9.33 -49.63,-5.56 -108.44,-78.38 -153.64,-78.38 -55.79,74.66 -87.84,67.1 -178.77,33.59 -80.6,-29.69 -182.16,-62.43 -248.61,-115.7 -163.54,0 -502.26,16.56 -573.57,-172.62 -52.73,-72.72 -195.53,-163.11 -273.75,-209 -78.28,-45.91 -257.51,-110.75 -301.68,-182.89 -27.1,-44.25 -90.5,-38.18 -130.36,-76.51 -70.7,-67.96 -169.66,-117.11 -243.95,-183.81 -90.09,-90.09 -114.74,-245.11 -197.4,-349.9 -100.27,-127.09 -207.69,-197.85 -339.86,-284.59 -50.89,-63.75 -136.56,-86.43 -187.15,-148.36 -61.16,-74.89 -128.69,-117.33 -214.16,-161.42 -100.21,-51.71 -408.76,-195.85 -408.76,-325.64 0,-46.24 -50.25,-17.33 -71.7,-46.65 -16.07,-81.42 -149.76,-193.93 -211.36,-250.99l-234.65 -217.41c-38.51,-35.67 -72.08,-113.8 -109.87,-140.89 0,-26.33 -6.78,-49.03 10.24,-72.78 31.26,-35.66 9.22,-136.81 -53.07,-125.97 -92.51,16.09 -137.2,-5.59 -225.33,-18.66 -43.6,-6.47 -97.4,-29.17 -86.6,-84.91 14.72,-76.02 -59.13,-50.3 -114.52,-88.64 -74.86,-51.8 -53.89,-126.42 -162.95,-164.22 -105.84,-36.69 -24.31,-46.8 -73.56,-92.37 -12.04,-11.15 -70.26,9.13 -91.25,4.66 -43.1,0 -64.46,-40.02 -98.7,-53.18 -38.3,-14.71 -86.28,51.51 -115.45,69.05 -116.87,70.32 -153.27,-28.56 -221.61,-97.04 -131.68,-131.93 -389.27,-237.79 -567.05,-290.19 -149.45,-44.04 -223.1,107.97 -347.31,7.47 -84.24,-30.76 -171.39,52.14 -232.78,-54.12 -35.43,-61.31 -44.55,-147.56 -87.53,-199.68 -84.2,-102.09 -108.94,-262.5 -108.94,-390.02 -70.88,-17.52 -175.61,102.72 -274.68,53.19 -74.78,-75.24 -99.29,56.99 -150.84,91.44 -62.61,41.86 -113.48,1.19 -185.29,-18.66 -142.76,-39.45 -277.21,-112.3 -365,-229.54 -155.21,-71.57 -250.73,-230.21 -412.49,-292.05 -113.21,-43.27 -285.49,-172.13 -416.21,-135.29 -33.2,7.38 -137.04,86.49 -146.18,122.23 -14.39,56.22 -24.83,117.52 -57.73,167.02 -20.27,30.48 -35.63,67.92 -54.94,97.04 -20.51,54.77 -26.08,67.62 -7.45,123.16 17.04,50.83 49.26,93.66 26.07,149.29 -13.92,33.37 -35.47,52.59 -53.07,83.04 -19.25,33.33 -36.5,93.37 -59.59,119.44 -39.46,42.27 -33.52,107.23 -33.52,161.42 0,49.88 -13.97,95.09 -13.97,142.76 26.85,23.05 35.14,63.61 44.69,96.1 22.34,76.06 91.51,62.42 115.46,125.97 23.08,61.21 50.73,110.18 64.25,178.21 -10.51,39.91 47.53,148.92 61.45,191.28 31.3,95.18 104.42,200.55 120.12,295.78 8.27,50.13 4,74.23 5.59,121.3 1.02,30.08 56.08,110.6 76.35,133.43 20.39,58 51.89,111.71 81.94,166.09 25.46,46.05 26.58,91.87 44.69,140.89 24.92,67.47 65.45,132.55 91.25,202.48 29.44,79.78 88.92,138.08 133.15,209 6.32,39.97 39.83,96.19 15.83,134.37 -25.67,40.86 -30.94,25.37 5.59,57.85 46.76,41.56 61.11,106.85 89.38,160.48 35.9,68.13 45.58,127.3 62.39,200.61 8.3,68.69 57.73,134.27 57.73,198.75 0,100.11 54.14,188.82 69.83,286.45 6.9,42.9 -54.65,37.83 -45.62,87.71 8,44.15 113.37,67.27 148.98,83.04 19.3,81.83 151.04,178.79 224.4,212.74 93.51,43.27 147.12,57 246.74,20.53 120.28,-44.02 195.52,25.9 200.19,147.42 1.31,34.07 14.49,86.56 -20.48,106.37 -34.19,19.38 -86.11,18.25 -96.84,57.85 37.03,10.77 68.3,-14 105.22,-14 7.46,30.33 -15.68,45.91 19.55,58.79 42.52,15.56 94.87,74.76 66.11,125.96 -7.1,12.66 -73.69,76.29 -73.56,77.45 1.85,16.68 39.1,68.26 46.56,95.17 16.78,60.58 91.86,96.23 136.87,135.29 51.24,44.45 78.66,78.81 122.91,128.77 40.68,86.55 320.7,86.48 407.83,131.56 35.16,18.18 20.51,66.87 54.94,77.44 79.56,24.45 43.87,82.11 148.05,82.11 45.34,0 124.92,26.72 168.53,42.92 101.74,37.78 12.86,118 153.63,33.6 83.33,-49.97 125.63,25.28 190.88,53.18 71.92,41.87 88.54,140.1 131.29,209.01 44.65,8.11 103.18,-2.85 132.22,43.85 68.62,24.92 102.44,-10.94 167.6,-22.39 37.72,-6.63 81.75,-10.27 110.81,16.79 30.29,28.19 166.13,4.16 214.15,7.47 28.74,1.98 158.29,79.88 158.29,22.39 28.5,-36.6 121.41,-234.74 204.85,-184.75 217.62,36.35 405.27,76.53 629.44,52.26 100.32,-10.86 191.9,30.74 282.13,18.66 92.96,-12.45 182.98,28.44 268.16,62.51 211.1,71.56 434.61,95.22 653.64,50.39 74.17,-15.18 200.04,-113.92 269.1,-88.64 52.91,19.36 136.35,-13.27 186.22,-35.46 55.73,-20.73 100.2,-52.03 146.19,-88.64 72.22,-57.5 244.87,-70.91 334.27,-70.91 69.54,0 129.19,19.01 174.12,72.77 54.87,65.67 198.23,63.54 269.09,142.76 62.72,70.1 141.61,98.91 232.78,98.91 77.47,7.88 124.93,18.22 198.33,39.19 123.7,35.33 308.96,21.22 439.49,21.46l476.73 0.93 630.37 -2.8zm3865.08 2876.65l838.01 -361.1c55.99,-24.12 184.3,-51.45 222.54,-91.44 137.79,-51.85 300.34,-96.89 422.72,-178.21 30.8,-20.46 227.2,-152.75 227.2,-176.35 0,-65.12 74.98,-82.3 -22.35,-106.37 -3.13,12.69 -26.23,80.55 -35.38,76.51l-111.74 -49.46c-152.27,-60.91 -187.8,-135.58 -264.43,-259.39 -29.09,-47.01 -347.33,24.41 -406.9,28.93 -60.22,4.56 -121.59,-16.64 -179.71,-8.4 -81.47,11.54 -126.93,61.28 -216.95,37.32 -182.08,-68.03 -374.23,-3.27 -562.4,-26.12 -120.19,-14.6 -399.11,-124.64 -451.59,-246.33 -28.29,-45.6 -64.24,-77.9 -86.59,-128.77l-65.18 -148.35c-26.72,-60.81 -13.4,-216.2 -62.39,-230.47 -61.06,-17.8 -134.2,-34.48 -199.26,-25.19 -96.47,13.77 -224.27,14.92 -308.2,-42.93 -34.51,-15.35 -93.16,-39.3 -131.29,-29.85 -60.51,14.99 -60.21,55.15 -137.8,28.92 -66.38,-22.43 -232.52,-68.46 -297.96,-46.65 -68.26,22.74 -119.21,-4.87 -190.88,38.25 -106.31,63.95 -146.9,81.08 -273.75,71.85l-263.51 94.24c-48.89,17.48 -172.45,80.62 -219.74,67.18 -158.96,-45.16 -278.14,56.54 -399.45,143.69 -28.33,20.36 -150.96,144.06 -180.64,137.16 -77.4,102.18 -222.84,144.43 -334.27,196.88 -125.02,58.86 -232.38,185.51 -310.99,293.92 -43.83,33.31 -104.48,124.52 -127.57,176.35 -44.58,100.08 26.07,200.02 26.07,296.71 0,66.35 -143.19,203.31 -189.94,250.06 -55.22,110.67 -128.3,236.95 -70.77,357.37 85.5,178.94 300.51,100.4 388.28,266.86 11.97,22.69 133.87,60.21 154.56,49.45 50.29,-26.14 56.72,-51.32 119.19,-51.32 45.05,0 85.17,-4.93 125.7,-25.19 204.65,-59.34 418.91,-46.87 624.78,25.19 170.15,59.55 396.71,158.94 525.15,287.38 30.86,45.22 82.14,56.53 112.67,106.37 22.94,37.44 -10.25,182.12 -10.25,230.47 0,67.17 58.68,285.52 137.81,285.52 64.23,0 97.39,39.28 162.01,30.79 36.94,-4.86 148.18,-10.48 179.71,0 28.8,23.46 17.28,55.8 38.18,82.11 21.59,27.2 29.07,-14.5 49.35,-30.79l126.63 -101.7c36.53,-29.34 63.75,-34.76 99.63,-55.99 23.1,-13.68 31.32,-49.41 58.66,-65.31 44.19,-25.69 55.19,-67.34 72.63,-111.04 18.85,-47.2 70.73,-88.1 108.01,-121.3 55.28,-11.33 150.08,-89.96 192.74,-127.83 79.95,-70.96 180.3,-120.89 266.3,-185.68l123.84 -93.3c45.17,-34.03 83.96,-81.3 129.42,-112.91 42.38,-21.19 79.51,-65.38 115.46,-96.1 133.85,-114.4 286.25,-233.59 441.35,-320.04l23.28 -5.6zm8259.03 -2273.89c34.72,29.82 100.99,68.21 148.98,54.12 29.07,-8.54 93.75,-20.51 117.32,-33.59 76.3,-42.38 91.66,-155.88 168.54,-202.47 42.32,-25.65 117.07,-71.22 165.74,-69.05 41.25,1.83 50.39,-36.51 84.73,-49.45 42.15,-15.87 66.37,-14.2 105.22,-40.13 50.57,-41.46 27.3,-148.66 54,-201.54 37.44,-74.17 -11.56,-91.31 -61.45,-120.36 -135.15,-78.69 -210.57,-231.46 -386.42,-256.6 -131.12,-18.75 -199.3,151.23 -349.17,88.64 -138.03,-50.24 -219.6,-167.93 -246.75,-308.84 -28.51,-147.91 90.18,-258.89 198.33,-334.04 75.53,-52.47 43.98,-69.05 -37.24,-69.05 -110.68,0 -223.88,175.06 -318.44,125.03 -27.83,-14.73 -58.87,-59.13 -47.49,-91.44 47.35,-63.13 76.65,-55.63 132.22,-94.24 18.48,-12.85 3.24,-91.33 -1.86,-111.96 -89.13,0 -84.74,-117.01 -53.08,-182.89 34.21,-71.16 127.05,-194.84 196.47,-231.4 49.22,-25.93 80.42,-63.94 61.45,-121.29 -38.51,0 -74.68,19.17 -92.18,-28 -12.64,-50.87 -46.58,-100.69 -61.45,-151.15 -20.46,-69.44 -16.02,-147.03 0,-217.41 31.04,-136.4 59.52,-294.41 138.73,-412.41 26.26,-29.57 31.75,-56.48 69.84,-75.58 26.01,-13.03 60.4,-6.25 84.73,-19.6 46.96,-25.76 74.19,-64.65 26.07,-112.9 -90.68,-90.9 -224.67,-98.39 -229.99,-260.32 -3.56,-108.58 47.88,-157.87 110.81,-239.8 53.7,-16.51 60.13,-6.47 82.87,-57.85 10.94,-24.7 59.97,41.11 65.18,47.58 47.67,59.13 112.68,98.09 187.15,110.11 193.87,31.29 170.51,-221.31 149.91,-334.97 -8.49,-46.9 14.9,-74.74 14.9,-116.64 -63.41,-15.68 -53.9,-118.55 -63.32,-169.82 -43.43,-69.63 -211.72,-49.35 -196.46,-159.55 14.61,-105.43 42.2,-245.5 107.08,-333.11 43.02,-58.11 63.69,-138.5 102.42,-200.61 167.71,-167.71 236.34,-411.4 407.83,-573.83 69.84,-66.14 89.68,13.06 133.15,13.06 16.2,0 37.62,-39.8 47.49,-51.32 61.29,-71.54 148.56,-48.02 178.77,-139.02 26.5,-99.88 95.87,-199.8 149.91,-286.46 58.7,-94.11 100.57,-176.94 145.26,-278.05 23.04,-52.11 68.91,-115.74 84.73,-166.09 125.88,-227.35 280.71,-428.94 365.93,-676.47 45.98,-133.58 -41.37,-47.67 -43.76,-139.96 10.22,-34.35 -19.16,-94.97 -58.66,-97.04 -58.72,-3.09 -86.5,-15.82 -102.43,-75.58 -31.98,-119.99 -18.62,-248.2 -49.35,-366.69 -14.34,-55.27 -59.15,-142.46 -60.52,-194.08 -29.25,-117.86 -106.31,-262.44 -225.33,-313.51 -155.31,-66.63 -362.92,6.46 -491.63,-127.83 -64.37,-67.15 -129.73,-151.8 -146.19,-246.33 0,-42.67 -25.15,-67.78 -54.93,-93.31 -28.29,-24.27 -40.21,-67.46 -74.49,-81.17 -97.5,-38.99 -108.54,-196.09 -118.26,-284.59 -5.1,-46.4 -43.09,-186.05 -30.72,-222.07 -4.02,-49 -7.26,-179.82 -35.39,-218.34l-129.42 -177.28c-31.69,-43.4 -62.41,-72.52 -100.56,-109.17 -46.29,-44.45 -123.11,-98.28 -146.19,-160.49 0,-37.47 -13.03,-71.74 -9.31,-112.9 2.35,-25.97 15.83,-51.5 15.83,-76.51 0,-63.09 -44.42,-112.42 -46.56,-180.08 -0.47,-14.95 -9.74,-117.01 -19.55,-119.43 -1.56,-11.14 -42.17,-7.88 -51.21,-8.4 -18.99,-1.09 -36.58,-33.36 -46.56,-46.66 -22.35,-29.82 -73.46,-99.66 -74.49,-135.29 -47.18,-47.18 -102.82,-40.03 -163.87,-28.93 -86.16,15.66 -96.94,4.64 -163.88,-50.38l-347.31 -285.52c-39.71,-32.64 -213.54,-114.7 -223.47,-154.89l-0.93 -0.93c-22.5,0 -37.94,24 -62.38,23.32 -60.33,23.29 -91.61,-9.69 -146.19,-6.53 -44.89,2.59 -125.87,42.54 -171.33,58.79 -142.96,51.09 -304.53,105.87 -432.97,188.48 -51,32.81 -166.06,122.1 -230.91,103.57 -74.14,38.33 -153.3,-49.63 -185.3,55.05 -5.13,16.78 -30.68,46.66 -26.07,60.65 32.25,97.88 -15.87,165.46 -81.94,239.8 -74.84,84.19 -135.25,203.78 -227.19,270.58 -32.88,37.48 -49.37,0.01 -82.87,2.8 -12.11,1.01 -120.6,176.77 -134.08,199.68 -33.89,57.63 -82.44,124.57 -124.77,175.42 -63.85,76.72 83.23,63.23 79.14,151.15 -2.88,61.84 -49.1,226.58 -93.11,270.59 -16.87,39.13 -32.59,45.16 -32.59,92.38 0,55.34 -24.03,81.6 -13.03,137.16 14.21,71.82 -78.64,214.83 -109.88,282.72 -32.05,69.68 -11.32,53.53 0,111.97 6.38,32.97 9.66,119.49 -7.44,146.49 7.75,80.68 -46.24,147.15 -77.29,217.4 -30.15,68.2 -84.48,138.1 -157.36,138.1 -5.74,17.35 -2.05,79.44 -6.51,107.3 -12.13,75.79 3.51,84.77 21.41,147.42 9.22,32.31 -1.86,120.87 -1.86,158.62 -5.32,85.49 24.03,136.54 -37.25,213.68 -67.99,85.6 -72.63,133.43 19.56,208.07 67.69,54.79 200.3,191.41 175.05,292.98 3.31,78.92 14.06,149.9 2.79,229.54 -13.4,94.77 -81.07,172.45 -84.73,271.52 -1.63,44.19 22.15,98.6 27.93,145.56 5.57,45.33 29.8,94.35 29.8,136.23l-47.49 292.05c-20.55,126.4 -84.17,25.54 -134.08,75.58 -80.63,80.82 -2.72,181.22 -117.32,267.79 -93.05,70.28 -162.83,116.77 -283.99,143.69 -94.14,102.49 -414.73,61.85 -552.16,107.3 -158.98,52.59 -271.3,175.35 -431.1,226.74 -42.25,10.88 -66.99,-48.12 -93.12,-28.93 -83.65,61.46 -171.4,61.94 -261.64,103.57 -70.17,32.37 -126.65,68.69 -203.92,87.71 -43.31,10.66 -77.58,-5.96 -86.59,41.06 -11.7,61.07 -2.76,156.29 14.9,216.47 22.63,77.14 71.69,129.59 71.69,217.4 -25.99,95.6 22.21,136.2 45.63,217.41 17.58,60.95 6.34,70.81 46.55,125.03 53.82,72.56 52.25,122.86 11.18,200.61 -18.38,34.78 -14.12,71.23 -28.87,102.63 -16.25,34.62 -34.83,45.4 -46.55,88.65 -15.77,12.06 -55.39,23.55 -62.39,38.25 -19.32,40.53 -12.55,108.18 -26.07,155.82 -24.28,85.57 13.11,166.17 73.56,226.74 60.59,60.73 52.18,142.66 71.7,220.2 13.91,75.92 71.69,109.08 71.69,198.75l4.66 4.66c43.43,6.14 34.17,52.96 62.38,75.58 70.16,0 117.67,55.44 178.78,45.72 97.44,-15.49 263.94,-78.82 353.82,-14.93 49,34.84 31.49,99.45 112.67,106.37 45.01,3.84 142.08,-46.04 184.36,-67.18 62.03,-5.61 134.55,-51.59 197.4,-39.19 1.42,1.42 1.91,1.77 3.72,2.8 3.79,19.23 -24.06,109.65 -31.66,132.5 -38.55,115.86 52.35,212.02 130.36,275.25 78.09,63.28 156.86,-45.26 212.3,24.26 68.63,86.08 174.46,193.93 299.82,133.43 51.62,-24.92 103.03,-83.99 167.6,-73.71 33.4,5.32 76.53,62.21 64.25,95.17 -6.13,17.92 7.04,37.51 0,52.25 -34.78,72.72 -7.45,124.81 -7.45,203.41 0,52.05 -27.85,115.63 -38.18,167.95 -12.8,64.78 49.18,83.73 91.25,119.43 16.79,14.26 65.82,76.62 84.73,75.58 18.56,-1.03 47.62,-25.82 64.25,-6.53 30.28,35.14 37.24,52.72 91.25,51.32 31.06,-0.81 81.87,-16.89 90.32,26.13 -4.94,32.56 46.97,130.07 62.38,166.08 42.3,98.86 14.43,171.29 36.32,268.73 18.17,80.85 83.19,150.52 115.46,223 8.12,47.79 74.31,47.22 82.87,113.83 12.43,96.75 -73.51,117.12 -116.39,181.02 -43.14,64.31 -66.11,196.98 -66.11,273.39l13.03 59.71 -418.07 -153.95 -7.45 19.59 439.49 165.15c10.71,51.44 8.77,159.95 -9.31,209.01 -30.75,83.48 -42.25,143.3 53.07,172.62 26.83,8.25 14.98,-80.41 19.55,-99.84 5.11,-21.69 13.04,-50.73 13.04,-72.78 0,-26.77 12.29,-40.66 17.69,-62.51 9.56,0 30.48,50.26 37.25,60.64 11.89,18.2 34.6,27.94 43.76,47.59 12.86,27.61 -2.39,54.45 38.17,66.25 25.78,7.49 60.7,28.45 81.01,44.79 18.57,28.37 28.38,41.68 21.42,69.98 -22.89,7.57 -25.87,-16.8 -46.56,-16.8 -54.69,165.27 158.27,-56.61 224.4,-47.59 57.13,7.8 158.83,91.08 213.23,120.37 23.97,12.91 77.97,35.41 93.11,57.85 54.55,80.86 -5.75,71.85 115.46,71.85 43.54,0 52.12,47.72 89.39,61.58 79.98,29.73 128.43,-4.32 177.84,-69.98 17.88,-23.77 43.47,-31.56 62.39,-53.19 8.25,-9.42 3.74,-76.09 9.31,-97.03 -23.95,-155.7 157.22,-207.91 224.4,-320.05 17.7,-29.56 -0.16,-74.93 45.62,-86.77 30.35,-7.84 41.06,-45.84 59.59,-69.05 22.87,-28.63 128.66,-96.28 163.88,-100.77 144.63,-18.48 111.31,113.94 213.23,139.03 43.05,10.6 80.5,-0.07 131.28,14.93 54.49,16.09 103.78,-11.98 157.36,-16.8 114.19,7.57 179.37,86.85 227.2,185.68 53.56,110.64 160.24,82.36 236.5,158.62l27 18.66zm-717.89 819.24c9.23,-44.05 36.95,-75.85 82.87,-73.72 16.33,0.76 29.47,1.73 45.63,-0.93 15.45,-2.55 62.81,-24.43 65.17,7.47 1.4,19.01 -18.47,30.03 -36.31,31.72 -14.39,1.37 -28.55,9.89 -41.9,15.86 -32.88,14.73 -86.31,57.32 -122.91,47.59l7.45 -27.99zm-2569.89 501.05c-14.23,-11.89 -25.5,-28 -31.66,-46.65 -3.1,-9.37 -18.13,-45.61 -8.38,-52.25 4.82,-3.29 25.58,5.6 34.45,5.6 26.81,0 44.58,-0.18 64.25,19.59 14.44,14.53 25.09,29.59 42.83,41.06 45.14,29.16 -5.01,22.7 -27.93,17.72 -9.92,-2.16 -22.45,5.05 -24.21,15.87 -2.14,13.08 -20.57,13.97 -30.73,15.86l-18.62 -16.8zm919.02 829.5c0,-32.8 13.17,-180.33 -14.9,-196.88 -53.67,-31.63 -128.65,16.89 -180.64,-25.19 -108.17,-87.57 -90.82,-308.49 -211.36,-382.56 -30.57,-18.79 -41.91,-53.75 -69.84,-76.51 -16.79,-13.67 -65.32,-29.41 -89.39,-44.79 -18.94,-12.09 25.46,96.29 28.87,110.11 14.94,60.37 21.18,124.53 13.03,186.61 4.44,38.8 4.66,85.71 -6.51,122.23 -8.39,27.47 -21.42,53.88 -21.42,83.04 29.09,7.35 58.74,-11.1 92.18,-1.86 111.41,30.81 166.67,151.9 166.67,258.46 -27.72,136.09 28.55,225.03 -141.53,286.45 -82.61,29.84 -90.32,98.9 -90.32,178.22 1.47,1.1 0.96,0.93 2.8,0.93 35.87,-53.62 153.88,-80.69 215.09,-83.04 38.16,-1.47 121.04,-61.04 153.63,-25.2 30.55,33.61 69.46,44.18 114.53,47.59 99.42,7.52 183.03,141.12 289.58,114.77 2.26,-9.22 -23.05,-48.8 -18.63,-75.58 6.91,-41.78 66.58,-102.87 82.87,-155.82 50.71,-164.73 -132.4,36.44 -160.15,-117.57 -11.62,-64.49 -26.78,-36.16 -70.76,-65.32 -51.54,-34.19 -59.84,-59.91 -85.67,-114.76l1.87 -23.33zm-47.49 1385.61c-7.06,-30.16 -13.01,-85.42 10.24,-110.11 17.42,-18.51 43.96,-15.34 60.52,-30.79 17.53,-16.37 8.06,-33.1 15.83,-52.25 8.21,-20.2 11.19,-26.9 6.52,-49.45 -10.85,-52.28 35.98,-32.95 34.45,-12.13 -2.02,27.32 -17.6,60.59 -24.21,87.71 -8.71,35.68 -10.86,71.59 -38.17,98.9 -21.53,21.53 -32.55,55.93 -54.94,72.78l-10.24 -4.66zm3903.25 -623.29c16.33,-82.26 17.71,-209.08 -12.1,-287.39 -33.57,-88.16 -71.51,-187.73 -82.87,-281.78 -50.56,-101.67 -53.5,-209.83 -65.18,-320.05 -9.21,-86.99 28.44,-175.26 15.83,-261.26 -32.5,-221.66 -249.27,-75.01 -369.66,-6.53 0,29.7 55.31,77.27 79.15,90.51 32.96,18.29 44.4,64.64 59.59,96.11 26.17,54.25 73.56,127.41 73.56,188.48 2.52,1.69 1.86,8.78 1.86,12.13 -16.31,73.63 27.23,165.93 9.31,250.06 -11.06,51.9 -76.35,72.88 -76.35,112.9 0,80.62 -29.14,195.38 94.98,155.82 134.73,-42.94 161.08,98.36 161.08,207.14 -9.93,92.25 -57.99,190.57 -98.7,272.46 -22.26,44.76 -43.39,79.1 -75.42,116.63 -27.92,32.73 -52.6,8.4 -84.73,8.4 -3.76,10.11 53.39,130.8 61.45,150.22 58.32,140.48 139.39,-33.01 185.29,-83.04 85.11,-92.79 82.94,-273.24 121.05,-388.16l1.86 -32.65zm-3765.45 -2063.95c-21.3,-22.87 -27,-65.18 -27,-95.17 15.28,-3.77 26.28,11.63 39.11,19.59 12.32,7.63 22.29,13.41 35.38,19.6 19.4,9.19 19.22,15.61 10.24,33.59 -8.57,17.14 -26.2,25.97 -42.83,35.45l-14.9 -13.06zm7198.33 -5997.75c-21.25,14.71 -159.22,-99.5 -159.22,-116.64 61.54,0 120.87,14.6 184.36,9.33 27.32,-2.27 56.8,-6.07 82.87,-13.06 16.79,-4.51 38.4,-15.1 54.93,-15.86 14.69,-0.68 42.67,127.66 18.63,139.02 -19.03,8.98 -53.63,2.28 -73.56,-0.93 -20.97,-3.37 -46.01,3.35 -67.04,4.67l-40.97 -6.53zm-1787.59 -668.08c0,-70.99 -1.46,-175.45 32.59,-235.13l141.53 -21.46c33.03,-5.01 82.19,-17.42 114.53,-11.2 19.28,3.7 12.64,65.03 19.55,83.98 33.66,92.34 87.94,221.39 -31.66,276.18 -39.54,18.12 -120.35,27.74 -154.56,-6.53 -34.75,-34.83 -70.47,-62.13 -121.98,-65.31l0 -20.53zm1438.27 -668.6c-1.4,-29.17 0.68,-57.25 28.4,-71.85 12.68,-6.67 44.61,-4.02 57.73,0 17.88,5.47 30.03,17.3 19.56,36.86 -11.28,21.05 -36.09,26.28 -50.75,43.85 -12.19,14.63 -40.63,23.24 -57.26,10.27l2.32 -19.13zm-1685.95 -81.59c41.23,-44.36 -8.79,-86.77 75.42,-86.77 24.44,0 25.97,-30.56 44.7,-41.06 45.19,-25.36 98.01,4.93 143.39,-13.99 44.41,-18.51 47.47,-78.6 106.15,-50.39 28.71,13.79 169.55,73.69 150.84,111.97 -6.39,13.06 -57.04,91.58 -66.11,93.31 -57.81,11.04 -46.36,29.24 -89.39,55.05 -22.6,13.56 -76.2,-0.98 -99.63,-10.27 -52.92,-20.98 -95.92,-14.93 -151.77,-14.93 -37.21,0 -123.64,31.82 -143.39,-15.86l29.79 -27.06zm-141.39 236.95c20.25,-2.5 32.65,-21.88 50.74,-27.99 8.96,-3.03 17.34,-4.21 26.08,-9.33 7.27,-4.27 14.82,-6.07 23.27,-6.07 12.65,15.75 -34.2,35.87 -42.83,42.46 -6.96,5.3 -15.93,12.52 -24.21,15.39 -10.49,3.65 -29.91,3.6 -38.17,-4.66l5.12 -9.8zm-1350.26 -4854.7c-5.02,-14.13 -31.42,-42.74 -41.9,-56.91 -16.05,-21.73 -36.01,-32.94 -53.07,-51.32 -20.53,-22.11 13,-45.41 32.58,-48.52 23.73,-3.76 41.81,8.67 65.18,13.99 72.59,16.51 166.63,83.25 126.64,168.89 -25.16,53.86 -118.26,100.85 -118.26,3.73l-11.17 -29.86zm-819.39 -1251.24c-17.75,-13.7 -40.79,-22.36 -55.86,-41.05 -54.78,-67.97 -85.44,-45.07 -160.16,-63.45l0 -1.87c79.69,-15.66 181.05,-115.53 263.51,-40.12 79.94,73.12 171.09,151.5 231.85,239.8 50.3,73.12 -67.32,15.38 -87.53,-0.94 -52.69,-42.57 -105.94,-53.25 -167.6,-79.31l-24.21 -13.06zm-1249.56 -1355.75c-119.78,-79.85 -240.97,-221.07 -370.58,-278.98 -151.17,-67.53 -204.28,87.43 -297.96,177.28 -54.4,52.19 -140.99,37.22 -203.92,87.71 -1.94,10.09 -2.79,17.91 -2.79,27.99 25.52,6.31 159.72,-49.13 189.95,-62.52 121.46,-53.83 250.4,-108.58 360.34,-2.79l305.41 293.91c13.06,24.66 44.34,52.41 62.38,76.51 31.08,41.54 78.8,63.25 111.74,101.71 23.38,27.28 59.56,12.91 81,-11.2 28.42,-31.98 1.69,-174.27 -21.41,-206.21 -52.47,-72.56 -135.52,-102.1 -188.09,-169.82l-26.07 -33.59zm-931.12 -298.58c5.2,-29.68 5.59,-61.12 5.59,-91.44 0,-37.53 16.71,-109.8 49.35,-131.56 37.31,-24.87 38.93,57.87 38.17,78.38 -1.98,53.72 -21.8,92.17 -32.59,140.89 -3.65,16.48 -11.24,46.78 -20.48,59.72 -23.42,32.76 -46.49,6.67 -41.9,-28l1.86 -27.99zm506.53 -80.24c-3.32,-10.84 -7.03,-24.7 -7.45,-36.39 -0.27,-7.47 -0.59,-13.91 0,-21.46 0.51,-6.64 4.38,-9.05 5.59,-14 1.78,0 2.3,0.57 2.79,-0.93 11.24,0 19.47,11.49 24.21,20.53 4.16,7.95 4.81,17.37 5.59,26.12 0.94,10.44 4.53,20.79 3.72,31.73 -0.98,13.35 -23.92,15.07 -33.52,12.13l-0.93 -17.73z"/>
  <g id="_2611586810320">
   <path class="fil3 str2" d="M5234.32 11917.33c-2.63,8.46 49.5,125.22 57.73,142.76 14.47,30.86 46.1,60.83 52.15,92.37 8.33,43.4 -64.2,71.44 -35.39,136.23 14.41,32.42 37.7,141.12 23.28,173.55 -22.49,50.6 -61.13,79.99 -89.39,128.76 -54.55,94.13 53.31,196.62 -71.69,259.4 -75.83,38.08 -33.66,199.79 -69.84,267.79 -30.49,57.31 -1.18,133.03 -45.62,180.08 -14.69,15.55 -38.01,23.95 -54.94,39.19 -28.15,25.34 -26.7,67.99 -69.83,97.97 -60.41,41.99 -98.99,81.03 -91.25,159.55 6.24,63.39 42.46,140.67 54.94,201.55 13.82,67.43 33.97,86.59 13.03,154.89 -26.68,87.01 0.01,182.05 -17.69,272.45 -7.27,37.11 -57.03,86.21 -76.35,122.23 -20.92,39 -79.77,101.51 -101.49,139.03 -33.09,57.15 -30.3,128.58 -45.46,192.87"/>
   <path class="fil3 str2" d="M4620.78 11629.01c-15.99,17.37 -22.06,56.95 -37.25,80.25 -32.54,49.91 -67.72,22.06 -80.07,98.9 -16.35,101.67 15.71,148.57 50.28,231.4 36.16,86.64 12.49,222.81 31.66,322.84 14.35,74.88 -12.81,89.14 -52.15,143.69 -41.98,58.21 -27.24,105.09 -67.04,156.76 -58.02,75.33 -68.09,76.87 -96.83,160.49 -23.97,69.76 -209.21,141.09 -275.61,117.56 -62.09,-22 -254.26,177.4 -333.34,197.81 -70.6,18.22 -107.25,141.32 -139.67,199.68 -43.16,77.69 -130.48,163.05 -219.74,188.48 -27.19,7.74 -52.44,21.17 -78.66,31.76"/>
   <path class="fil3 str2" d="M5965.31 12470.64c-8.84,5.59 -66.54,206.7 -68.9,231.4 -6.31,65.9 -44.21,104.53 -65.18,162.35 -17.06,47.03 -20.44,88.02 -44.7,134.36 -16.38,31.28 -39.12,53.89 -54,87.71 -22.5,51.12 19.96,106.93 -29.8,156.76 -30.91,30.96 -67.32,76.76 -78.21,126.89 -33.08,152.21 -88.49,204.68 -31.66,365.77 59.61,168.98 137.81,341.2 137.81,522.51 0,73.8 14.85,184.14 1.86,251.93 -20.15,105.12 33.06,140.9 40.97,222.07 3.23,33.17 22.04,62.92 33.05,94.38"/>
   <path class="fil3 str2" d="M6557.5 12619.93c-18.68,53.02 -61.46,95.5 -61.46,153.02 0,104.58 130.03,190.41 52.15,330.31 -40.88,73.44 -31.85,147.44 -74.49,212.74 -56.8,86.99 -180.91,278.26 -134.08,384.42 22.67,51.4 88.43,71.77 108,126.9 12.15,34.24 24.94,161.46 18.63,197.81 -28.89,166.35 131.04,256.17 178.77,403.08 20.42,62.87 23.74,106.94 13.04,173.55 -8.1,50.39 -15.78,148.32 -35.39,192.22 -11.88,26.61 -8.31,57.7 -12.46,86.56"/>
   <path class="fil3 str2" d="M7578 13319.73c3.04,73.29 13.19,93.28 0,166.09 -9.62,53.13 26.82,72.03 63.31,106.36 51.92,48.84 15.54,154.13 33.52,222.07 31.8,120.15 112.4,216.87 145.26,330.31 28.09,96.97 61.81,272.76 65.18,371.36 1.45,42.59 29.91,59.2 54,89.58 55.6,70.1 21.65,184.57 20.48,264.99 -0.21,14.98 -2.78,29.84 -4.16,44.77"/>
   <path class="fil3 str2" d="M4015.62 11280.04c-43.45,-116.19 -113.91,-254.05 -61.45,-382.55 27.93,-68.42 55.87,-136.86 83.8,-205.28 14.96,-36.66 23.65,-71.87 29.79,-110.1 5.82,-36.26 2.14,-41.59 -20.48,-46.65 -92.48,-20.71 -31.49,-56.85 -83.8,-106.37 -66.27,-62.75 -135.9,-30.28 -163.88,-128.77 -9.39,-33.08 17.57,-55.25 44.7,-76.51 21.51,-16.86 52.04,-31.75 65.17,-55.98 11.63,-21.48 13.72,-46.9 20.57,-70.35"/>
   <path class="fil3 str2" d="M2240.75 12114.95c70.36,1.61 135.41,-70.72 206.81,-86.59 142.28,-31.63 292.43,-35.18 424.59,-108.23 95.21,-52.62 165.25,-151.53 266.29,-209.01 91.13,-51.84 113.27,-134.92 186.23,-201.54 37.84,-34.55 102.54,-16.19 148.98,-24.26 106.07,-18.45 96.39,-107.05 204.84,-138.09 108.14,-30.95 14.4,-132.73 39.11,-207.15"/>
  </g>
  <path class="fil2 str3" d="M18973 11519.84c-42.76,-203.71 301.66,-306.37 361.27,-103.57 22.94,78.08 29.65,205.23 -50.28,257.53 -86.96,56.89 -296.02,2.5 -311.92,-109.17l0.93 -44.79zm-408.25 -594.34c10.11,-11.4 12.9,-21.84 29.33,-26.13 42.84,-11.21 91.6,28.78 77.28,74.18 -6.17,19.59 -19.02,35.79 -35.85,46.66 -74.15,47.85 -115.51,-44.19 -70.76,-94.71zm2290.04 2484.74c-22.88,1.74 -44.98,-0.94 -67.97,-0.94 -51.47,0 -92.18,-67.83 -92.18,-114.76 0,-92.61 138.14,-129.03 206.71,-95.18 37.7,18.6 52.14,68.26 52.14,107.31 0,40.93 -33.1,70.94 -67.97,89.57l-30.73 14zm224.4 -557.04c-22.04,-22.15 -25.14,-49.08 -25.14,-80.25 0,-23.8 12.74,-50.25 39.11,-51.32 47.92,-1.95 58.99,34.83 60.52,76.51 0.52,14.19 3.82,31.99 -3.72,43.86 -12.47,19.6 -40.3,17.73 -60.53,17.73l-10.24 -6.53zm1720.71 -1795.23c-60.24,60.54 -150.73,116.62 -197.4,190.35 -18.53,29.29 -14.14,82 26.08,83.98 40.62,1.99 59.82,-16.21 97.76,13.99 49.6,39.5 141.02,35.67 202.06,30.79 37.96,-3.04 100.95,-40.52 127.56,-67.18 44.04,-44.14 -8.86,-55.46 -27.93,-85.84 -42.74,-68.05 -73.22,-219.97 -176.92,-194.08l-51.21 27.99zm1742.13 -3220.01c-16.19,-13.7 -23.82,-38.9 -43.77,-49.45 -27.04,-14.31 -90.99,-34.11 -76.35,22.39 8.92,34.4 25.14,60.94 25.14,97.97 0,17.91 -2.47,40.06 1.87,56.92 4.07,15.83 18.36,20.11 28.86,5.6 17.32,-23.96 40.09,-9.37 56.8,-29.86 7.69,-9.42 8.35,-18.43 10.24,-30.79 2.49,-16.31 6.05,-35.62 7.45,-51.32l-10.24 -21.46z"/>
  <use x="24002.13" y="9791.63" width="256.13" height="256.13" xlink:href="#Symbole1"/>
  <use x="21891.35" y="4484.15" width="105.38" height="105.38" xlink:href="#Symbole2"/>
  <use x="23111.51" y="5369.51" width="105.38" height="105.38" xlink:href="#Symbole2"/>
  <use x="23499.5" y="6129.07" width="105.38" height="105.38" xlink:href="#Symbole2"/>
  <use x="20689.79" y="15353.99" width="105.38" height="105.38" xlink:href="#Symbole2"/>
  <use x="22248.47" y="15093.59" width="105.38" height="105.38" xlink:href="#Symbole2"/>
  <use x="22679.99" y="13973.87" width="105.38" height="105.38" xlink:href="#Symbole2"/>
  <use x="22929.23" y="12675.59" width="105.38" height="105.38" xlink:href="#Symbole2"/>
  <use x="24275.87" y="8393.87" width="105.38" height="105.38" xlink:href="#Symbole2"/>
  <use x="1439.63" y="9993.84" width="105.38" height="105.38" xlink:href="#Symbole2"/>
  <use x="2718.47" y="13162.91" width="105.38" height="105.38" xlink:href="#Symbole2"/>
  <use x="3324.83" y="13627.91" width="105.38" height="105.38" xlink:href="#Symbole2"/>
  <use x="5947.43" y="14714.15" width="105.38" height="105.38" xlink:href="#Symbole2"/>
  <use x="7331.27" y="14896.43" width="105.38" height="105.38" xlink:href="#Symbole2"/>
  <use x="8573.75" y="14602.55" width="105.38" height="105.38" xlink:href="#Symbole2"/>
  <use x="10054.31" y="14970.83" width="105.38" height="105.38" xlink:href="#Symbole2"/>
  <use x="7799.99" y="12590.03" width="105.38" height="105.38" xlink:href="#Symbole2"/>
  <polygon class="fil4 str4" points="1595.62,1232.43 4979.34,1232.43 4979.34,2825.33 1595.62,2825.33 "/>
  <g transform="matrix(2.64845E-14 -1 1 2.64845E-14 -9096.17 17917.8)">
   <text x="14850" y="10500"  class="fil5 fnt0">© </text>
   <text x="15136.36" y="10500"  class="fil5 fnt0">d-maps.com</text>
  </g>
  <g id="_2611543966944">
   <g>
    <polygon class="fil6 str5" points="1737.62,1825.31 2512.43,1825.31 2512.43,1924.47 1737.62,1924.47 "/>
    <polygon class="fil7 str5" points="2512.43,1825.31 3287.23,1825.31 3287.23,1924.47 2512.43,1924.47 "/>
    <polygon class="fil6 str5" points="3287.23,1825.31 4062.03,1825.31 4062.03,1924.47 3287.23,1924.47 "/>
    <polygon class="fil7 str5" points="4062.21,1825.31 4837.02,1825.31 4837.02,1924.47 4062.21,1924.47 "/>
    <polygon class="fil6 str5" points="2979.55,2124.25 4218.77,2124.25 4218.77,2223.41 2979.55,2223.41 "/>
    <polygon class="fil7 str5" points="1740.33,2124.25 2979.56,2124.25 2979.56,2223.41 1740.33,2223.41 "/>
   </g>
   <text x="2837.86" y="1662.6"  class="fil5 fnt1">40</text>
   <text x="3190.64" y="1662.6"  class="fil5 fnt1"> km</text>
   <text x="2596.53" y="2632.38"  class="fil5 fnt1">20</text>
   <text x="2949.31" y="2632.38"  class="fil5 fnt1"> mi</text>
  </g>
  <path class="fil3 str6" d="M1000 1000l27698.18 0 0 19000 -27698.18 0 0 -19000zm18407.87 19000l-9830.7 -19000"/>
 </g>
</svg>
