<?xml version="1.0" encoding="UTF-8"?>
<!DOCTYPE svg PUBLIC "-//W3C//DTD SVG 1.0//EN" "http://www.w3.org/TR/2001/REC-SVG-20010904/DTD/svg10.dtd">
<!-- Creator: CorelDRAW -->
<svg xmlns="http://www.w3.org/2000/svg" xml:space="preserve" width="210mm" height="297mm" version="1.0" style="shape-rendering:geometricPrecision; text-rendering:geometricPrecision; image-rendering:optimizeQuality; fill-rule:evenodd; clip-rule:evenodd"
viewBox="0 0 21000 29700"
 xmlns:xlink="http://www.w3.org/1999/xlink">
 <defs>
  <style type="text/css">
   <![CDATA[
    .str4 {stroke:black;stroke-width:10;stroke-miterlimit:3.864;stroke-opacity:0.501961}
    .str0 {stroke:#2B2A29;stroke-width:75;stroke-miterlimit:22.9256}
    .str6 {stroke:black;stroke-width:50;stroke-miterlimit:22.9256}
    .str3 {stroke:#003399;stroke-width:20;stroke-miterlimit:22.9256}
    .str1 {stroke:black;stroke-width:10;stroke-miterlimit:22.9256}
    .str5 {stroke:black;stroke-width:10;stroke-miterlimit:3.864}
    .str2 {stroke:#003399;stroke-width:10;stroke-miterlimit:22.9256}
    .fil4 {fill:none}
    .fil0 {fill:#FEFEFE}
    .fil3 {fill:#EBECEC}
    .fil1 {fill:#2B2A29}
    .fil2 {fill:#A2D9F7}
    .fil7 {fill:#FEFEFE;fill-rule:nonzero}
    .fil6 {fill:#D9DADA;fill-rule:nonzero}
    .fil8 {fill:black;fill-rule:nonzero}
    .fil5 {fill:#FEFEFE;fill-rule:nonzero;fill-opacity:0.501961}
   ]]>
  </style>
 </defs>
<symbol id="Capitale" viewBox="10371.93 14721.93 256.13 256.13">
 <circle class="fil0 str0" cx="10499.99" cy="14849.99" r="90.56"/>
</symbol>
<symbol id="villes" viewBox="10447.31 14797.31 105.38 105.38">
 <circle class="fil1" cx="10500" cy="14850" r="52.69"/>
</symbol>
 <g id="Plan_x0020_1">
  <metadata id="CorelCorpID_0Corel-Layer"/>
  <rect class="fil2" x="1000" y="1000" width="19000" height="27700"/>
  <path class="fil3 str1" d="M14417.05 27543.73c0,-18.34 -7.15,-30.82 -7.15,-50.13 46.43,0 73.08,43.36 128.7,20.29l201.39 -83.55c281.92,-124.54 593.16,-81.17 893.76,-81.17 67.97,0 80.34,-8.41 138.23,-22.68 22.53,-5.56 196.68,51.73 224.04,64.46 59.78,27.84 127.95,85.59 183.52,130.1 94.12,40.4 197.79,144.42 301.49,144.42 -11.33,-34.21 -149.71,-135.44 -179.94,-168.29 -6.5,-7.06 -52.88,-63.26 -34.56,-63.26 16.88,0 173.54,126.09 191.86,148 49.58,59.26 84.95,54.32 147.77,87.13 244.44,127.66 564.66,242.42 771.01,433.27 90.09,83.29 220.48,129.9 315.8,208.88l331.28 274.52 98.91 114.28 1876.84 0 0 -27700 -11152.86 0c-12.44,21.52 -0.46,53.92 -17.87,73.7 -27.34,31.04 -76.3,46.45 -110.83,66.84 -49.39,29.15 -21.01,58.89 -38.13,114.58 -10.67,34.74 -19.56,81.05 -52.44,99.07 -30.53,16.72 -37.95,-39.09 -75.07,-10.74 -35.66,27.25 33.95,34.23 54.82,37 44.76,5.96 80.32,84.97 42.9,118.16 -9.39,8.32 -54.88,65.24 -72.7,40.58 -21.17,-29.32 -17.67,-48.12 -50.05,-27.45 -21.51,13.74 -100.84,53.1 -125.12,57.29 -19.94,3.43 -55.74,1.49 -66.74,19.1 -11.6,18.59 23.84,43.7 23.84,62.07 -6.13,67.06 -11.09,158.37 16.68,218.42 23.69,51.22 29.31,96.83 19.07,156.36 -15.15,88.11 35.26,120.52 2.38,205.3 -31.73,81.85 15.96,179.72 -8.34,253.04 -4.16,28.44 8.45,48.83 10.72,76.38 7.48,11.24 6.42,28.17 11.92,40.59 0,12.94 1.19,25.24 1.19,38.19 11.28,22.62 2.39,94.88 2.39,124.13 0,51.14 -5.34,81.25 15.49,131.3 32.65,80.55 78.57,-40.6 103.67,-71.62 28.23,-34.91 56.88,-100.26 110.83,-100.26l0 0 125.13 -64.45c40.35,-32.68 89.46,-54.86 127.5,-87.13 72.71,-61.7 43.39,-136.29 89.38,-202.91 24.15,-34.99 63.71,-52.39 98.91,-74 44.01,-27.03 90.5,-1.15 126.32,-41.78 31.93,-39.27 101.29,-77.97 101.29,-130.1 0,-69.25 -6.24,-78.7 38.13,-120.55 70.86,-66.86 167.5,-132.75 277.67,-100.26 42.65,12.58 197.18,16.55 213.31,-39.39 14.55,-50.42 -3.98,-68.25 40.51,-99.07 5.01,-3.46 89.2,-0.82 116.79,-15.51 30.48,-16.22 46.05,10.97 83.41,3.58 47.55,-9.4 91.28,-51.23 117.98,2.38 22.47,45.09 76.22,61.57 109.63,15.52 28.64,-23.73 38.4,-38.58 63.16,-8.35 26.14,31.9 109.61,-42.62 135.86,-56.1 26.81,-13.78 75.38,17.48 102.48,26.26 28.96,9.37 55.04,-50.21 59.58,-71.62 6.75,-31.87 109.97,-49.76 147.77,-91.9 12.8,-14.28 38.09,-40.64 52.44,-48.94 42.58,-24.61 34.47,26.81 66.73,-45.36 35.82,-80.1 109.66,17.41 146.58,-37 17.74,-26.13 99.21,-69.23 132.27,-69.23 0,56.67 -14.3,113.18 -14.3,170.69 0,85.04 -2.01,193.33 25.03,269.75 27.82,78.65 74.77,-27.76 102.48,-45.36 29.83,-18.93 29.44,9.55 52.43,9.55 19.11,0 58.02,-29.46 83.42,-35.81 95.35,33.53 151.75,123.35 173.99,223.2 12.82,57.54 -1.85,178.99 -67.93,189.78 -54.45,8.88 -123.29,-17.51 -140.62,60.87 -17.5,79.17 -62.26,35.55 -106.06,56.1 -32.72,15.34 -30.51,125.53 -59.58,164.71 -17.24,23.25 -47.38,33.17 -67.93,53.72 -22.84,22.84 -35.43,62.4 -47.66,91.9 -8,18.04 -13.73,27.17 -26.22,40.58 -15.56,16.72 -28.81,34.58 -23.83,59.68 6.16,31.1 27.28,52.27 44.09,77.58 7.64,11.5 9.53,13.7 9.53,29.84 0,12.76 -0.65,39.58 -5.96,50.13l23.7 46.61 43.24 -16.49 44.46 -5.49 30.74 0 8.6 49.38c60.84,138.43 -63.78,274.74 140.03,313.91 66.5,12.78 259.32,-8.48 312.22,-44.16 33.11,-22.32 41.01,-57.34 87,-64.46 24.49,-3.79 65.21,5.07 82.22,-14.32 14.61,-16.64 91.76,-112.98 91.76,-130.1 0,-39.9 39.92,-81.75 72.69,-97.87 36.91,-18.17 59.71,11.93 91.76,11.93 25.36,0 120.32,-36.31 133.47,-56.1 18.84,-28.36 10.99,-97.79 34.56,-134.87 8.36,-27.23 7.15,-46.66 7.15,-74 0,-41.72 26.32,-42.02 61.97,-32.23 33.79,9.29 37.5,3.69 28.6,44.16 -9.3,42.24 -10.32,76.15 -1.2,118.17 7.21,33.26 5.86,95.66 -4.76,127.71 -5.06,23.87 -29.59,81.94 5.96,90.71 7.39,52.42 75.73,-33.42 102.48,-33.42 74.34,0 62.37,-11.22 59.58,-75.19 -1.9,-43.77 213.84,-1.96 266.94,-71.62 78.32,-102.77 87.19,-6.31 172.79,-22.68 52.07,-9.96 88.89,-68.53 139.43,-74 32.41,-3.5 130.19,73.93 144.19,103.84 42.55,90.85 141.02,22.68 203.78,22.68 4.86,34.44 87.79,26.26 116.78,26.26l0 3.58c-46.38,15.37 -93.17,176.11 -102.48,220.81 -17.37,83.4 33.28,37 91.76,37 22.8,0 27.76,18.87 56.01,11.94 31.59,-7.74 63.27,-28.29 96.52,-31.03 32.11,-2.93 179.95,-40.29 179.95,-76.39 -11.87,0 -23.66,-40.36 -25.03,-50.13 -4.13,-29.27 70.56,-77.46 81.04,-59.68 48.34,82.05 114.55,-39.77 160.87,64.45 12.62,28.39 64.72,157.3 91.76,161.13l25.03 93.1c23.85,0 173.98,-165.02 194.24,-190.97 32.76,-41.94 48.03,-35.17 64.35,4.77 17.22,42.17 293.95,-29.74 325.33,-68.03 40.91,-49.94 322.11,-110.46 330.09,-138.45 42.2,0 49.58,-148.27 82.23,-156.36 5.84,-23.67 11.92,-26.46 11.92,-58.49l-50.05 -88.32c-20.11,-35.51 43.15,-47.9 25.02,-78.78 -12,-20.46 -23.66,-133.68 11.92,-133.68 18.73,0 54.62,21.69 57.2,19.1 27.53,-27.58 44.68,-98.87 97.72,-71.62 78.95,40.58 180.39,8.86 214.5,120.55 22.17,72.63 72.39,119.06 138.23,77.59 40.15,-25.3 81.82,12.48 137.05,3.58 79.51,-12.81 85.23,-82.48 145.38,-119.36 54.43,-33.36 99.75,64.14 126.32,90.71 7.02,52.83 140.31,77.26 185.9,83.55 83.67,11.56 100.1,-42.97 159.69,-42.97 52.11,0 152.44,35.01 199.01,-17.9 24.59,-27.93 13.1,-128.06 13.1,-167.1l8.35 -41.78c4.37,-0.72 0.9,-1.65 4.76,-3.58 0.92,-4.69 4.73,-7.16 9.54,-7.16 13.12,46.11 161.44,-3.56 188.28,111 13.34,56.91 14.73,115.73 61.97,153.97 68.82,55.69 516.68,35.49 524.34,-17.9 46.37,0 75.92,-27.15 96.52,-63.26 46.68,-81.86 95.56,3.14 145.39,40.58 33,24.78 56.23,58.83 38.13,96.68 -31.18,65.24 -41.11,135.02 -70.31,198.14 -40.87,88.38 -7.33,93.96 116.79,106.23 25.72,2.54 57.72,21.48 78.65,21.48 0,19.29 -17.44,33.39 -28.6,48.94 -20.42,28.48 24.76,44.38 -4.77,74 -25.82,25.88 -25.03,65.36 -25.03,100.26 17.32,60.7 -30.65,64.69 -27.4,115.78 2.01,31.73 -11.01,10 -20.26,31.03 -10.5,23.84 1.55,65.64 -8.34,96.68 -19.13,59.97 -24.73,109.76 -61.97,159.94 -48.68,65.62 -22.12,54.81 9.53,109.81 15.67,27.25 -3.54,60.34 14.3,94.29 10.72,20.38 38.14,43.93 38.14,66.84 0,36.3 -50.64,32.02 -17.88,94.3 21.18,40.29 54.36,51.98 85.8,83.55 33.13,60.47 98.99,120.6 165.64,82.35 49.86,-28.62 114.14,-18.27 126.32,-74 24.6,-112.48 201,-17.9 282.43,-17.9 45.52,0 89.71,-20.7 132.28,0 148.8,72.38 274.4,113.72 384.91,247.07 39.49,47.66 69.75,123.83 126.32,149.2 60.36,27.08 108.58,55.23 131.08,122.93l11.92 32.23c-81.1,53.6 -78.81,95.28 -126.32,181.43 -38.43,69.69 -96.47,81.23 -110.83,164.71 -10.07,58.56 -78.65,81.74 -78.65,97.87 0,27.74 -20.84,38.83 -45.28,40.58 -18.47,1.32 -10.75,43.46 -13.11,56.1 -9.08,48.64 -48.31,57.37 -72.69,87.13 -43.56,53.16 3.42,52.01 9.53,101.46 4.48,36.23 -72.31,130.1 -110.82,130.1 -73.33,0 29.22,87.69 33.36,102.65 11.63,41.95 -127.36,104.99 -170.41,79.97 -32.05,-18.63 -32.49,-65.48 -73.88,-44.17 -41.89,21.57 -55.9,16.1 -58.39,74.01 -2.23,51.9 23.13,34.01 59.58,64.45 37.18,31.05 -82.09,88.63 -119.17,90.71 -25.53,1.43 -43.03,13.62 -60.77,29.84 -44.87,41.02 49.25,60.11 -17.88,94.29 -52.39,26.67 -9.28,117.92 -90.57,121.75 -13.35,0.63 -28.62,3.14 -43.76,5.71 -15.15,2.58 -30.24,5.26 -43.23,6.23 -22.59,1.68 -53.44,19.45 -67.92,37 -23.69,28.73 44.19,65.56 19.06,83.55 -42.02,30.08 -87.77,86.93 -131.08,38.19 -37.11,-41.76 -105.95,18.78 -127.51,53.71 -19.28,31.24 -10.37,64.48 -48.86,57.29 -23.34,-4.35 -49.29,47 -79.84,50.13 -37.76,3.87 -24.93,-56.05 -50.05,-65.64 -25.51,-9.74 -30.14,37.97 -51.24,28.64 -77.13,-34.13 -58.31,35.25 -104.87,15.52 -52.34,-22.18 -160.64,65.99 -191.86,115.78 -68.16,108.71 -89.16,230.04 -195.44,318.68 -87.6,73.06 -241.69,157.55 -139.42,273.33 0.43,0.48 25,31.38 16.68,47.75 -15.58,30.66 -46.54,54.08 -64.35,91.9 -29.96,63.62 -105.95,127.77 -125.13,189.78 -24.91,80.55 -33.41,101.82 -119.17,108.62 -45.68,3.62 -77.81,29.84 -128.7,29.84 -113.81,0 -146.56,-130.58 -260.97,-29.84 -4.79,24.62 -7.15,41.45 -7.15,66.84 19.25,5.5 19.94,34.72 21.45,51.32 64.3,27.66 140.36,148.32 184.71,213.65 62.1,91.5 107.58,156.23 129.89,268.56 -29.49,59.09 -4.94,117.69 40.52,149.2 71.75,49.72 127.51,6.46 127.51,131.29 0,85.78 32.06,125.33 -77.46,125.33 0,21.24 20.91,34.54 7.15,63.26 -27.95,58.37 55.43,178.78 14.3,213.65 -24.64,20.9 -21.61,70.26 -20.26,99.06 2.03,42.99 -26.22,67.78 -26.22,111.01 5.71,45.87 22.62,103.15 56.01,134.87 36.91,35.08 20.26,47.04 20.26,97.87 0,58.86 22.64,113.77 22.64,179.04 0,59.75 76.68,20.07 46.48,100.26 -25.94,68.89 -58.36,162.47 -103.68,218.43 -18.51,22.87 -63.16,57.76 -63.16,88.32 0,34.96 -15.7,72.77 -27.41,105.04 -17.9,68.22 55,72.17 104.87,88.32 100.12,32.41 32.74,128.4 79.84,206.49 53.75,89.14 -44.5,57.37 -71.5,115.78 -22.2,48 -23.8,84.24 -67.92,119.36 -102.93,81.96 -72.19,313.36 15.49,401.04 19.53,15.65 47.84,32.39 64.35,48.94 15.99,16.01 5.04,45.69 22.64,62.06 21.32,19.82 92.95,57.29 92.95,83.55 0,28.51 -36.6,42.38 -27.41,93.1 18.98,104.65 -0.34,114.42 -92.95,119.36 -65.78,3.5 -204.97,104.52 -204.97,176.65 0,57.95 1.77,107.39 -25.02,161.13 -15.82,31.76 -37.6,13.14 -61.97,7.17 -28.45,-6.98 -51.94,7.94 -75.07,21.48 -15.3,24.33 -83.05,-3.45 -119.17,-4.77l-65.54 -2.39c-25.65,-0.94 -29.47,65.96 -56.01,89.52 -39.44,35.03 -34.07,7.16 -77.46,7.16 -4.28,0 -62.06,28.9 -69.12,33.42 -56.83,36.37 -47.24,66.24 -64.35,131.29 -7.78,29.56 -52.43,73.56 -52.43,103.84 0,27.48 41.9,25.65 33.36,62.07 -15.08,64.25 28.65,71.13 25.03,122.94 -3.11,44.66 -41.97,97.98 17.87,140.84 31.11,35.4 145.67,87.05 187.1,76.39 102.51,-26.36 157.88,123.89 183.51,198.13 20.5,59.35 55.07,33.6 90.57,59.68 15,11.01 -11.85,51.44 16.69,77.59 51.13,46.83 57.5,67.68 61.96,140.84 3.06,50.26 78.35,17.42 17.88,72.81 -16.08,14.74 -11.47,62.07 -19.07,83.55 -6.93,19.62 -18.98,40.62 -30.98,57.29 -16,22.2 27.5,33.2 -3.58,79.97 -20.01,30.13 -2.38,74.01 -2.38,107.42 -7.85,84.24 -117.58,75.58 -73.88,156.36 24.66,45.6 -13.81,99.22 5.95,153.97 45.89,127.2 -117.97,129.01 -117.97,192.17 0,65.54 -46.97,61.21 -54.82,91.9 -10.22,39.99 -38.05,55.38 -72.69,34.62 -9.5,28.67 -80.17,47.57 -101.29,93.1 -40.43,87.12 58.18,102.28 48.85,176.65 -10.81,32.54 -21.15,40.9 -41.7,63.26 -10.37,11.27 1.19,38.78 1.19,52.52 0,40.78 -39.49,62.71 -36.94,96.68 1.76,23.55 26.81,43.55 11.91,75.19 -14.91,31.67 -40.13,55.77 -44.09,93.1 -2.76,26.07 -11.89,97.81 -28.6,116.97l-21.93 64.04c-44.81,10.67 -92.39,19.86 -137.81,33.84 -100.46,30.92 -267.81,-51.52 -343.2,16.71 -56.16,50.83 -179.04,-1.15 -237.14,-22.68 -48.68,-18.04 -83.73,29.7 -143,5.97 -147.15,-58.93 -195.7,3.34 -328.9,63.26 -21.59,9.71 -80.14,49.29 -102.48,39.38 -26.98,-11.97 -63.46,-20.43 -92.95,-32.22 -80.11,-32.03 -172.08,40.88 -234.76,-3.58 -30.7,-21.77 -92,-57.53 -129.89,-64.46 -57.4,-10.5 -137.33,-24.89 -196.62,-22.67 -40.8,1.52 -72.87,-5.97 -110.83,-5.97 -17.58,0 -30.16,3.07 -40.57,7.61 9.68,32.79 29.84,43.95 29.84,81.91 0,22.46 -3.05,63.14 5.96,82.35 12.86,27.43 34.07,22.58 50.05,40.58 52.83,59.48 5.92,188.65 107.25,217.23 35.95,10.13 112.3,43.34 126.32,79.97l48.86 127.71c25.44,81.69 130.8,62.41 193.05,74 30.94,5.76 25.02,111.39 25.02,133.68 0,9.36 56.57,80.47 69.12,89.52 40.96,29.53 100.52,4.34 101.29,8.35 11.68,60.9 108.55,71.53 151.34,111 20.39,18.82 50.94,2.51 48.86,41.78 -1.14,21.44 -27.8,39.88 -30.98,59.67 -15.95,99.27 40.84,161.15 -23.84,250.65 -89,123.18 2.6,70.77 17.88,163.52 -13.07,140.34 28.24,166.03 114.4,259 49.02,52.91 105.88,176.26 179.94,190.97 0.79,2.79 6.62,9.29 9.54,10.74 0,31.51 -55.47,88.9 -66.74,122.94 -8.1,24.49 28.6,52.66 28.6,79.97 0,113.59 -9.79,212.57 123.94,269.74 46.01,3.97 320.79,68.64 303.87,111 -17.16,42.99 -15.82,52.69 -7.15,97.88 12.56,65.53 -69.53,114.14 -20.26,189.77 16.52,25.37 110.83,55.99 143,57.29 36.84,1.5 71.27,-40.43 109.64,-48.93 77,-17.06 100.3,-57.39 183.51,-45.36 44.57,6.45 166.5,87.9 195.43,124.13 46.82,59.63 117.42,176.1 78.66,250.65 -38.79,74.58 98.22,84.44 38.13,149.19 -34.7,37.38 -56.76,96.9 -79.84,143.23 -37.55,75.34 -92.56,159.64 -150.15,217.23 -59.72,59.72 -25.41,130.22 -113.21,179.03 -35.97,25.9 -30.3,35.21 -7.15,64.46 22.01,27.8 33.58,88.97 26.22,124.13 -6.55,31.25 -36.89,82.64 -63.16,101.45l-30.2 36.05c-5.1,0.25 -12.36,1.36 -19.8,3.41 -71.72,19.77 -55.96,128.97 -100.1,163.52 -49.38,38.65 -116.28,-8.75 -175.18,33.42 -33,23.63 -65.23,75.31 -89.38,108.61 -41.76,57.58 -46.32,76.55 -108.44,112.2 -30.9,17.73 -44.9,47.91 -70.31,72.81 -16.26,15.94 -43.98,58.34 -65.54,79.97 -21.59,21.66 -46.13,29.22 -75.08,26.26 -46.81,-4.8 -83.41,39.49 -83.41,85.93 0,47.48 -8.45,45.64 -27.41,82.36 -14.89,28.84 -15.93,78.79 -9.54,112.2 6.82,35.63 0.19,120.99 -10.72,153.97 -27.15,82 -33.16,134.99 70.31,130.1 59.13,-2.79 3.14,55.48 -15.49,72.81 -38.31,35.63 -27.63,56.04 -33.84,109.21 -2.41,20.69 -21.94,35.42 -32.9,53.12l0 0 -59.66 85.34 -51.84 96.08 -53.03 168.89 -20.85 90.12c-1.98,20.33 -9.11,57.58 8.93,68.63 17.91,10.98 47.76,-15.3 70.91,0 37.9,25.04 8.06,59.2 -15.49,79.37 -10.09,8.63 -24.34,20.61 -32.78,31.03 -9.82,12.1 -22.88,28.64 -34.55,39.39 -13.42,12.92 -23.55,31.39 -38.14,42.97 -39.57,31.44 40.34,30.19 58.99,54.31 24.72,31.99 48.79,40.13 88.18,48.34 48.65,10.13 38.09,84.08 55.42,121.74 21.35,46.36 64.19,91.49 95.33,133.09 32.04,33.64 68.89,88.89 94.22,129.5 40.78,65.35 106.15,112.4 141.81,183.81 26.74,53.57 42.3,133.2 91.76,168.3 46.09,32.72 63.22,-7.03 73.89,66.84 8.8,60.88 19.61,167.41 63.16,213.65 38.25,40.6 109.63,93.7 109.63,156.36 -2.59,42.87 59.96,82.69 85.8,112.19 57.31,65.46 87.05,-52.51 114.4,-52.51 22.48,56.3 39.35,13.46 67.93,-1.2 21.84,-11.19 44.35,19.65 78.65,-2.38 21.77,-13.97 58.13,-63.01 59.58,-82.36 1.07,-14.41 43,-10.74 54.82,-10.74 14.84,0 50.11,-34.46 53.63,-23.87 4.28,0 4.64,0.67 8.34,1.19 3.52,24.96 11.82,22.68 30.98,22.68 28.71,-64.78 157.3,-93.52 157.3,0 -31.46,23.66 -79.05,100.65 -110.82,134.87 -48.56,52.33 -52.24,103.36 28.6,119.36 3.33,23.62 -81.03,256.44 -106.06,257.81 -78.85,4.32 9.38,217.66 -64.35,278.11 -18.12,39.71 2.88,107.74 -26.22,134.87 -22.42,20.89 -32.21,20 -56.01,4.78 -32.07,-20.52 -23.26,12.78 -45.28,15.51 -10.73,37.7 -95.76,12.53 -121.55,10.74 -30.52,-2.12 -29.69,-49.37 -47.67,-68.03 -7.05,-7.31 -46.09,-16.14 -58.39,-21.48 -20.43,-8.86 -61.37,-59.5 -83.42,-27.46 -19.83,28.8 -71.05,30.14 -77.46,42.97l-4.77 0c-0.39,2.8 -2.96,6.42 -5.95,7.16 0,34.39 -3.35,65.83 4.76,100.26 4.4,18.67 36.89,52.57 -3.57,56.1 -17.75,1.55 -38.63,-14.32 -53.63,-14.32 -21.02,0 -28.73,21.59 -45.28,38.19 -32.84,32.91 -82.32,16.33 -116.79,-9.54 -38.22,-16.4 -41.98,-24.3 -85.8,-20.29 -30.04,2.75 -28.38,31.35 -47.66,46.54 -28.57,22.52 -191.87,-12.5 -184.71,68.04 1.64,18.46 36.94,33.07 36.94,75.19 0,66.42 -32.53,95.78 -16.69,171.88 4.39,21.14 -36.37,81.95 -44.09,108.62 -20.32,70.19 -74.6,50.23 -70.31,145.61 1.51,33.61 2.16,62.78 -17.87,90.71 -18.13,25.27 -51.24,28.84 -51.24,68.04 -11.15,59.47 -77.35,141.15 -126.32,182.62 -26.12,22.13 -144.63,140.44 -166.84,143.23l-101.29 120.55c-11.76,14 -48.21,-32.35 -50.05,2.38 -1.87,35.2 -48.58,13.7 -51.24,29.84 -5.7,0.81 -1.84,1.84 -4.77,4.78 1.55,3.64 1.19,2.79 1.19,7.16 54.63,18.21 -3.68,73.48 -28.6,85.94l0 3.58c-5.7,1.89 8.57,40.11 4.77,52.52 -8.91,29.11 -37.56,44.86 -45.28,74 -14.17,53.53 37.95,40.98 -29.8,68.03 0,51.89 19.21,27.09 -3.57,77.59 -23.62,52.39 31.66,65.44 17.87,90.71 -11.11,26.54 -17.9,9.6 -30.98,23.87 -8.22,8.98 29.77,59.68 -22.64,59.68 -60.56,0 -23.28,63.16 -61.97,107.42 -31.33,35.85 -36.35,72.25 -59.58,109.81 -4.85,7.83 -13.51,27.02 -25.03,28.65 -45.87,6.5 -35.25,-20.38 -22.64,27.45 12.38,46.98 -39.46,72.63 -54.82,103.84 -12.07,24.51 2.28,28.78 15.49,50.13 17.55,28.39 -7.81,24.16 -23.83,38.19l-28.77 42.21c18.13,22.3 34.13,56.33 37.11,75.96 12,79 58.48,32.5 103.68,76.39 31.51,30.6 -19.46,126.06 50.05,131.29 64.62,4.86 14.3,86.57 14.3,115.78 0,31.56 42.76,50.62 52.43,82.36 16.09,52.79 -26.43,109.62 -1.19,152.77 9.74,16.66 80.86,51.69 44.09,63.26 -18.55,5.83 -95.56,-1.73 -63.16,38.2 6.83,8.42 49.6,33.13 53.63,33.42 53.55,3.93 58.65,199.12 48.86,241.1 -4.16,17.84 -32.12,43.05 -26.22,60.87 10.49,31.73 19.07,40.99 19.07,77.59 0,42.76 -4.46,51.22 4.77,96.68 6.4,31.51 29.15,48.63 23.83,76.39 -3.74,19.53 10.98,36.05 23.83,48.93 34,34.08 17.84,64.46 -10.72,93.1 -72.29,72.48 75.3,143.1 78.65,225.59 2.38,58.49 4.79,116.99 7.15,175.46 1.56,38.74 21.86,60.8 47.67,83.55l0 0z"/>
  <path class="fil0 str1" d="M8347.02 1108.91c-2.84,-4.55 -4.63,-9.61 -8.05,-13.73 -1.49,-1.81 -3.38,-3.34 -5.36,-4.77 -6.27,-4.52 -14.57,-15.24 -23.24,-6.57 -3.95,3.95 -0.97,12.97 -0.59,17.91 0.69,9.08 10.24,16.5 15.19,23.27 6,8.18 19.52,11.27 26.22,1.19l-4.17 -17.3zm862.39 8096.65c8.33,-14.82 10.73,-26.69 10.73,-44.16l-1.19 -1.2 -2.39 0c-1.78,-10.81 -49.06,7.7 -54.81,8.36 -48.06,5.5 -41.71,37.66 -41.71,78.77 0,14.51 1.49,26.29 -1.19,40.59 -2.28,12.12 -17.87,51.3 -7.15,62.06 23.42,23.49 90.22,27.47 103.67,-13.13 5.62,-16.95 -0.6,-36.13 9.53,-51.32 14.08,-21.13 15.53,-25.52 4.77,-52.52l-20.26 -27.45zm-1254.79 9398.25c4.14,-16.47 11.53,-66.84 -16.08,-66.84 -23.54,0 -23.08,38.15 -26.22,55.5 -5.02,27.79 -19.66,56.21 -19.66,84.15 0,9.32 0.64,23.27 11.91,23.27 11.96,0 25.59,-32.97 31.58,-41.18l18.47 -54.9zm-6705.02 -12548.67c-1.95,-7.51 -7.6,-17.79 -7.6,-24.98 0,-5.51 5.59,-8.81 6.69,-14.63 1.32,-7.04 16.05,-50.18 21.28,-51.48l0 -0.61c6.65,-1.66 21.4,8.21 26.75,12.18 10,7.44 15.53,3.1 22.8,13.71 8.89,13 21.13,26.42 16.12,42.96 -3.65,12.02 -8.62,23.71 -10.03,36.26 -0.71,6.29 0.78,20.76 -4.26,24.37 -5.42,3.9 -35.86,1.11 -45.6,3.66 -22.78,5.98 -18.04,-16.23 -21.89,-29.25l-4.26 -12.19zm90.6 -221.49c-1.18,-5.61 -3.25,-11.07 -3.95,-16.76 -0.49,-4.05 -1.88,-7.37 1.21,-10.66 3.22,-3.41 5.73,-7.55 8.82,-10.97 3.46,-3.81 3.08,-2.21 6.99,-1.22 2.74,0.7 13.73,4.81 14.9,7.62 1.44,3.49 -0.89,10.65 -1.52,14.62 -1.03,6.56 -0.37,12.25 -3.65,18.28 -1.19,2.18 -3.26,3.86 -5.47,5.18 -4.69,2.78 -8.79,0.92 -14.29,0.92l-3.04 -7.01zm1631.35 923.74c-10.26,8.62 -1.39,33.78 -13.08,43.57 -5.72,4.8 -29.67,-2.49 -39.82,-0.31 -13.49,2.91 -29.97,5.27 -43.78,3.05 -14.84,-2.38 -2.17,-38.36 -28.58,-44.79 -5.25,-1.27 -19.24,-8.54 -23.41,-11.88 -8.07,-6.48 -2.78,-15.15 5.78,-16.45 16.55,-2.53 28.55,5.78 38,-13.71 6.19,-12.79 6.56,-19.31 23.41,-18.58 6.91,0.29 19.36,5.49 24.93,9.44 19.44,13.82 53.81,6.74 53.81,39.3l2.74 10.36zm124.95 7.92c-1.84,0 -5.21,-0.43 -6.69,0.31 -26.93,-2.94 -41.86,-1.47 -64.76,10.05 -27,13.58 -17.02,7.84 -17.02,36.87 0,44.75 28.81,61.25 67.79,71.9 21.41,5.84 40.68,9.44 63.24,9.44 8.29,0 43.7,-5.93 48.64,-0.91 0,16.91 12.22,30.01 30.1,25.28 14,-3.71 12.1,-22.07 34.35,-17.67 21.57,4.26 52.4,9.51 73.58,-1.22 38.09,-19.31 -85.97,-54.6 -100.03,-62.76l-114 -66.11 -15.2 -5.18zm200.65 -52.4c-11.54,1.42 -66.09,-26.67 -76.31,-35.95l-51.38 -46.61c-3.17,-2.88 -17.48,-28.36 -9.12,-24.99l77.52 31.38c49.84,20.17 104.54,42.15 152.32,67.03l91.81 47.83c72.63,37.83 1.67,48.04 -32.53,24.38 -19.36,-13.38 -43.54,-26.68 -67.49,-27.42 -25.54,-0.8 -44.45,-17.49 -66.58,-28.64l-18.24 -7.01zm48.34 -330.86c-4.94,3.15 -15.17,-5.92 -18.24,-9.75 -8.41,-10.46 -19.57,-38.38 -6.08,-48.14 10.8,-7.8 28.83,2.74 37.09,10.66 6.97,6.69 10.82,17.1 14.28,25.9 2.74,6.96 18.19,19.25 14.9,26.81 -5.81,13.31 -23.06,7.38 -32.53,1.52l-9.42 -7zm548.14 311.06c-19.18,0 -44.5,5.58 -62.63,1.82 -15.82,-3.27 -35.02,-16.71 -48.64,-25.59 -27.33,-17.84 -31.74,-42.05 -21.89,-74.03 8.21,-26.62 75.09,-27.99 97.28,-24.07 15.02,2.66 30.38,7.91 45.3,9.75 21.46,2.66 43.92,2.78 55.94,23.76 24.9,43.48 4.33,99.83 -51.38,91.4l-13.98 -3.04zm1238.56 743.07c-11.53,4.6 -27.66,4.4 -40.13,8.23 -10.07,3.1 -19.76,9.05 -29.19,13.71 -21.88,10.84 -37.67,0.91 -58.98,0.91 -15.46,0 -28.84,8.91 -44.69,6.4 -14.85,-2.36 -21.67,-18.67 -39.22,-21.63 -10.07,-0.58 -16.52,-7.62 -27.96,-7.62 -25.81,0 -36.94,18.55 -65.37,0 -31.93,-20.84 -56.58,-46.97 -75.09,-78.91 -19.48,-33.6 28.14,-55.04 55.03,-41.13 25.88,13.39 35.74,44.68 67.79,49.97 16.54,2.72 44.27,16.89 59.29,14.62 16.33,-2.48 27.79,-25.84 40.13,-24.98 6.61,0.46 14.44,15.17 23.71,17.37 12.86,3.04 45.25,-4.48 57.76,-10.06 8.31,-3.71 14.29,-13.21 21.89,-15.84 9.69,-3.36 17.31,2.13 27.06,2.13 14.3,0 24.61,-5.24 38.3,-6.7 11.44,-1.21 47.51,-3.93 55.94,2.44 7.38,5.59 4.26,52.04 4.26,63.06 0,30.06 -25.68,23.5 -48.04,24.38l-22.49 3.65zm106.1 657.47c-2.4,-13.01 -13.24,-8.32 -20.98,-6.4 -12.57,3.11 -19.14,3.83 -31.01,-0.92 -12.71,-5.1 -6.99,-5.97 -6.99,-16.45 0,-8.33 -0.88,-18.01 1.82,-25.89 2.36,-6.86 5.6,-12.38 11.86,-5.49 4.12,4.55 18.6,4.77 24.02,3.05 10.45,-3.31 29.3,-15.72 36.18,-0.31 6.88,15.41 12.04,29.47 23.1,42.35 17.42,20.31 -10.36,13.31 -23.71,14.32l-14.29 -4.26zm-3743.85 20069.86c18.25,3.85 43.04,4.89 59.59,13.1 11.83,5.86 10.18,14.62 25.84,14.62 24.59,0 44.57,-20.37 71.45,-14.93 16.26,3.28 27.46,16.41 45.6,7.62 18.62,-9.01 22.28,-33.28 34.35,-47.53 44.19,-52.12 73.69,-101.16 142.28,-63.37 0.82,0.45 6.2,2.39 6.38,1.83 3.37,0 -1.95,-7.44 -3.04,-8.23 -3.2,-2.31 -5.51,-5.65 -9.12,-7.61 -7.47,-4.08 -18.12,-12.1 -26.75,-12.49 -30.98,-1.4 -71.3,-3.33 -102.45,-13.41 -24.42,-7.91 -44.95,-50.37 -65.97,-49.36 -16.05,-8.43 -29.93,-26.61 -41.05,-40.52 -13.66,-17.11 -30.56,-3.82 -49.55,-1.52 -13.2,1.59 -22.75,-3.58 -34.66,-3.96 -17.36,-0.55 -38.25,18.76 -55.03,22.85 -30.91,7.55 -43.26,0.28 -71.74,-8.53 -34.84,-10.79 -35.92,-21.98 -62.33,-42.35 -36.22,-27.95 -35.85,-27.02 -69.48,-3.05 -13.56,8.62 -28.99,25.7 -40.74,36.56 -10.73,9.9 -14.09,11.49 -3.04,24.38 12.14,14.14 18.38,38.29 24.32,56.06 16.41,49.03 70.16,62.81 113.1,85.91 16.48,6.72 20.17,23.45 39.99,27.12 18.58,3.45 34.83,5.36 51.38,14.92l20.67 11.89zm703.5 -466.14c-4.23,7.84 -23.68,12.43 -26.45,0.91 -1.43,-5.97 -8.87,-10.19 -8.52,-16.45 0.33,-6.05 10.95,-9.3 15.2,-12.49 10.39,-7.81 1.14,-23.57 11.56,-32.29 8.93,-7.49 21.79,-14.27 31.92,-20.11 10.29,-5.92 17.68,-19.06 31.92,-13.41 7.49,2.98 10.52,13.77 14.59,20.11 6.73,10.51 -5.51,24.87 5.78,31.08 2.52,1.39 17.4,11.66 11.55,14.32 -5.46,2.47 -13.22,-6.68 -19.45,-7.01 -22.45,-1.2 -46.15,9.81 -60.5,27.11l-7.6 8.23zm-165.09 653.5c-1.45,-9.35 -5.5,-17.1 -12.16,-23.76 -4.6,-4.6 -14.59,-5.81 -14.59,-13.4 0,-7.11 -5.84,-56.03 5.78,-29.86 6.42,14.44 13.7,30.94 22.19,44.17 5.71,8.88 8.59,19.8 12.77,29.25 3.91,8.81 12.61,24.13 9.42,33.82 -1.7,5.15 -8.46,0.81 -9.72,-2.44 -3.26,-8.34 -4.64,-18.07 -8.52,-26.5l-5.17 -11.28zm31.62 125.53c-8.72,-12.3 -28.17,-54.62 -11.55,-64.59 4.21,4.21 3.68,18.08 5.17,24.37 1.48,6.29 5.66,13.15 8.21,19.19 3.1,7.37 7.58,17.08 12.46,23.46 8.4,11.01 -0.51,13.6 -10.03,6.4l-4.26 -8.83zm6581.28 -25754.37l125.13 -64.45c40.35,-32.68 89.46,-54.86 127.5,-87.13 72.71,-61.7 43.39,-136.29 89.38,-202.91 24.15,-34.99 63.71,-52.39 98.91,-74 44.01,-27.03 90.5,-1.15 126.32,-41.78 31.93,-39.27 101.29,-77.97 101.29,-130.1 0,-69.25 -6.24,-78.7 38.13,-120.55 70.86,-66.86 167.5,-132.75 277.67,-100.26 42.65,12.58 197.18,16.55 213.31,-39.39 14.55,-50.42 -3.98,-68.25 40.51,-99.07 5.01,-3.46 89.2,-0.82 116.79,-15.51 30.48,-16.22 46.05,10.97 83.41,3.58 47.55,-9.4 91.28,-51.23 117.98,2.38 22.47,45.09 76.22,61.57 109.63,15.52 28.64,-23.73 38.4,-38.58 63.16,-8.35 26.14,31.9 109.61,-42.62 135.86,-56.1 26.81,-13.78 75.38,17.48 102.48,26.26 28.96,9.37 55.04,-50.21 59.58,-71.62 6.75,-31.87 109.97,-49.76 147.77,-91.9 12.8,-14.28 38.09,-40.64 52.44,-48.94 42.58,-24.61 34.47,26.81 66.73,-45.36 35.82,-80.1 109.66,17.41 146.58,-37 17.74,-26.13 99.21,-69.23 132.27,-69.23 0,56.67 -14.3,113.18 -14.3,170.69 0,85.04 -2.01,193.33 25.03,269.75 27.82,78.65 74.77,-27.76 102.48,-45.36 29.83,-18.93 29.44,9.55 52.43,9.55 19.11,0 58.02,-29.46 83.42,-35.81 95.35,33.53 151.75,123.35 173.99,223.2 12.82,57.54 -1.85,178.99 -67.93,189.78 -54.45,8.88 -123.29,-17.51 -140.62,60.87 -17.5,79.17 -62.26,35.55 -106.06,56.1 -32.72,15.34 -30.51,125.53 -59.58,164.71 -17.24,23.25 -47.38,33.17 -67.93,53.72 -22.84,22.84 -35.43,62.4 -47.66,91.9 -8,18.04 -13.73,27.17 -26.22,40.58 -15.56,16.72 -28.81,34.58 -23.83,59.68 6.16,31.1 27.28,52.27 44.09,77.58 7.64,11.5 9.53,13.7 9.53,29.84 0,12.76 -0.65,39.58 -5.96,50.13l23.7 46.61 43.24 -16.49 44.46 -5.49 30.74 0 8.6 49.38c60.84,138.43 -63.78,274.74 140.03,313.91 66.5,12.78 259.32,-8.48 312.22,-44.16 33.11,-22.32 41.01,-57.34 87,-64.46 24.49,-3.79 65.21,5.07 82.22,-14.32 14.61,-16.64 91.76,-112.98 91.76,-130.1 0,-39.9 39.92,-81.75 72.69,-97.87 36.91,-18.17 59.71,11.93 91.76,11.93 25.36,0 120.32,-36.31 133.47,-56.1 18.84,-28.36 10.99,-97.79 34.56,-134.87 8.36,-27.23 7.15,-46.66 7.15,-74 0,-41.72 26.32,-42.02 61.97,-32.23 33.79,9.29 37.5,3.69 28.6,44.16 -9.3,42.24 -10.32,76.15 -1.2,118.17 7.21,33.26 5.86,95.66 -4.76,127.71 -5.06,23.87 -29.59,81.94 5.96,90.71 7.39,52.42 75.73,-33.42 102.48,-33.42 74.34,0 62.37,-11.22 59.58,-75.19 -1.9,-43.77 213.84,-1.96 266.94,-71.62 78.32,-102.77 87.19,-6.31 172.79,-22.68 52.07,-9.96 88.89,-68.53 139.43,-74 32.41,-3.5 130.19,73.93 144.19,103.84 42.55,90.85 141.02,22.68 203.78,22.68 4.86,34.44 87.79,26.26 116.78,26.26l0 3.58c-46.38,15.37 -93.17,176.11 -102.48,220.81 -17.37,83.4 33.28,37 91.76,37 22.8,0 27.76,18.87 56.01,11.94 31.59,-7.74 63.27,-28.29 96.52,-31.03 32.11,-2.93 179.95,-40.29 179.95,-76.39 -11.87,0 -23.66,-40.36 -25.03,-50.13 -4.13,-29.27 70.56,-77.46 81.04,-59.68 48.34,82.05 114.55,-39.77 160.87,64.45 12.62,28.39 64.72,157.3 91.76,161.13l25.03 93.1c23.85,0 173.98,-165.02 194.24,-190.97 32.76,-41.94 48.03,-35.17 64.35,4.77 17.22,42.17 293.95,-29.74 325.33,-68.03 40.91,-49.94 322.11,-110.46 330.09,-138.45 42.2,0 49.58,-148.27 82.23,-156.36 5.84,-23.67 11.92,-26.46 11.92,-58.49l-50.05 -88.32c-20.11,-35.51 43.15,-47.9 25.02,-78.78 -12,-20.46 -23.66,-133.68 11.92,-133.68 18.73,0 54.62,21.69 57.2,19.1 27.53,-27.58 44.68,-98.87 97.72,-71.62 78.95,40.58 180.39,8.86 214.5,120.55 22.17,72.63 72.39,119.06 138.23,77.59 40.15,-25.3 81.82,12.48 137.05,3.58 79.51,-12.81 85.23,-82.48 145.38,-119.36 54.43,-33.36 99.75,64.14 126.32,90.71 7.02,52.83 140.31,77.26 185.9,83.55 83.67,11.56 100.1,-42.97 159.69,-42.97 52.11,0 152.44,35.01 199.01,-17.9 24.59,-27.93 13.1,-128.06 13.1,-167.1l8.35 -41.78c4.37,-0.72 0.9,-1.65 4.76,-3.58 0.92,-4.69 4.73,-7.16 9.54,-7.16 13.12,46.11 161.44,-3.56 188.28,111 13.34,56.91 14.73,115.73 61.97,153.97 68.82,55.69 516.68,35.49 524.34,-17.9 46.37,0 75.92,-27.15 96.52,-63.26 46.68,-81.86 95.56,3.14 145.39,40.58 33,24.78 56.23,58.83 38.13,96.68 -31.18,65.24 -41.11,135.02 -70.31,198.14 -40.87,88.38 -7.33,93.96 116.79,106.23 25.72,2.54 57.72,21.48 78.65,21.48 0,19.29 -17.44,33.39 -28.6,48.94 -20.42,28.48 24.76,44.38 -4.77,74 -25.82,25.88 -25.03,65.36 -25.03,100.26 17.32,60.7 -30.65,64.69 -27.4,115.78 2.01,31.73 -11.01,10 -20.26,31.03 -10.5,23.84 1.55,65.64 -8.34,96.68 -19.13,59.97 -24.73,109.76 -61.97,159.94 -48.68,65.62 -22.12,54.81 9.53,109.81 15.67,27.25 -3.54,60.34 14.3,94.29 10.72,20.38 38.14,43.93 38.14,66.84 0,36.3 -50.64,32.02 -17.88,94.3 21.18,40.29 54.36,51.98 85.8,83.55 33.13,60.47 98.99,120.6 165.64,82.35 49.86,-28.62 114.14,-18.27 126.32,-74 24.6,-112.48 201,-17.9 282.43,-17.9 45.52,0 89.71,-20.7 132.28,0 148.8,72.38 274.4,113.72 384.91,247.07 39.49,47.66 69.75,123.83 126.32,149.2 60.36,27.08 108.58,55.23 131.08,122.93l11.92 32.23c-81.1,53.6 -78.81,95.28 -126.32,181.43 -38.43,69.69 -96.47,81.23 -110.83,164.71 -10.07,58.56 -78.65,81.74 -78.65,97.87 0,27.74 -20.84,38.83 -45.28,40.58 -18.47,1.32 -10.75,43.46 -13.11,56.1 -9.08,48.64 -48.31,57.37 -72.69,87.13 -43.56,53.16 3.42,52.01 9.53,101.46 4.48,36.23 -72.31,130.1 -110.82,130.1 -73.33,0 29.22,87.69 33.36,102.65 11.63,41.95 -127.36,104.99 -170.41,79.97 -32.05,-18.63 -32.49,-65.48 -73.88,-44.17 -41.89,21.57 -55.9,16.1 -58.39,74.01 -2.23,51.9 23.13,34.01 59.58,64.45 37.18,31.05 -82.09,88.63 -119.17,90.71 -25.53,1.43 -43.03,13.62 -60.77,29.84 -44.87,41.02 49.25,60.11 -17.88,94.29 -52.39,26.67 -9.28,117.92 -90.57,121.75 -13.35,0.63 -28.62,3.14 -43.76,5.71 -15.15,2.58 -30.24,5.26 -43.23,6.23 -22.59,1.68 -53.44,19.45 -67.92,37 -23.69,28.73 44.19,65.56 19.06,83.55 -42.02,30.08 -87.77,86.93 -131.08,38.19 -37.11,-41.76 -105.95,18.78 -127.51,53.71 -19.28,31.24 -10.37,64.48 -48.86,57.29 -23.34,-4.35 -49.29,47 -79.84,50.13 -37.76,3.87 -24.93,-56.05 -50.05,-65.64 -25.51,-9.74 -30.14,37.97 -51.24,28.64 -77.13,-34.13 -58.31,35.25 -104.87,15.52 -52.34,-22.18 -160.64,65.99 -191.86,115.78 -68.16,108.71 -89.16,230.04 -195.44,318.68 -87.6,73.06 -241.69,157.55 -139.42,273.33 0.43,0.48 25,31.38 16.68,47.75 -15.58,30.66 -46.54,54.08 -64.35,91.9 -29.96,63.62 -105.95,127.77 -125.13,189.78 -24.91,80.55 -33.41,101.82 -119.17,108.62 -45.68,3.62 -77.81,29.84 -128.7,29.84 -113.81,0 -146.56,-130.58 -260.97,-29.84 -4.79,24.62 -7.15,41.45 -7.15,66.84 19.25,5.5 19.94,34.72 21.45,51.32 64.3,27.66 140.36,148.32 184.71,213.65 62.1,91.5 107.58,156.23 129.89,268.56 -29.49,59.09 -4.94,117.69 40.52,149.2 71.75,49.72 127.51,6.46 127.51,131.29 0,85.78 32.06,125.33 -77.46,125.33 0,21.24 20.91,34.54 7.15,63.26 -27.95,58.37 55.43,178.78 14.3,213.65 -24.64,20.9 -21.61,70.26 -20.26,99.06 2.03,42.99 -26.22,67.78 -26.22,111.01 5.71,45.87 22.62,103.15 56.01,134.87 36.91,35.08 20.26,47.04 20.26,97.87 0,58.86 22.64,113.77 22.64,179.04 0,59.75 76.68,20.07 46.48,100.26 -25.94,68.89 -58.36,162.47 -103.68,218.43 -18.51,22.87 -63.16,57.76 -63.16,88.32 0,34.96 -15.7,72.77 -27.41,105.04 -17.9,68.22 55,72.17 104.87,88.32 100.12,32.41 32.74,128.4 79.84,206.49 53.75,89.14 -44.5,57.37 -71.5,115.78 -22.2,48 -23.8,84.24 -67.92,119.36 -102.93,81.96 -72.19,313.36 15.49,401.04 19.53,15.65 47.84,32.39 64.35,48.94 15.99,16.01 5.04,45.69 22.64,62.06 21.32,19.82 92.95,57.29 92.95,83.55 0,28.51 -36.6,42.38 -27.41,93.1 18.98,104.65 -0.34,114.42 -92.95,119.36 -65.78,3.5 -204.97,104.52 -204.97,176.65 0,57.95 1.77,107.39 -25.02,161.13 -15.82,31.76 -37.6,13.14 -61.97,7.17 -28.45,-6.98 -51.94,7.94 -75.07,21.48 -15.3,24.33 -83.05,-3.45 -119.17,-4.77l-65.54 -2.39c-25.65,-0.94 -29.47,65.96 -56.01,89.52 -39.44,35.03 -34.07,7.16 -77.46,7.16 -4.28,0 -62.06,28.9 -69.12,33.42 -56.83,36.37 -47.24,66.24 -64.35,131.29 -7.78,29.56 -52.43,73.56 -52.43,103.84 0,27.48 41.9,25.65 33.36,62.07 -15.08,64.25 28.65,71.13 25.03,122.94 -3.11,44.66 -41.97,97.98 17.87,140.84 31.11,35.4 145.67,87.05 187.1,76.39 102.51,-26.36 157.88,123.89 183.51,198.13 20.5,59.35 55.07,33.6 90.57,59.68 15,11.01 -11.85,51.44 16.69,77.59 51.13,46.83 57.5,67.68 61.96,140.84 3.06,50.26 78.35,17.42 17.88,72.81 -16.08,14.74 -11.47,62.07 -19.07,83.55 -6.93,19.62 -18.98,40.62 -30.98,57.29 -16,22.2 27.5,33.2 -3.58,79.97 -20.01,30.13 -2.38,74.01 -2.38,107.42 -7.85,84.24 -117.58,75.58 -73.88,156.36 24.66,45.6 -13.81,99.22 5.95,153.97 45.89,127.2 -117.97,129.01 -117.97,192.17 0,65.54 -46.97,61.21 -54.82,91.9 -10.22,39.99 -38.05,55.38 -72.69,34.62 -9.5,28.67 -80.17,47.57 -101.29,93.1 -40.43,87.12 58.18,102.28 48.85,176.65 -10.81,32.54 -21.15,40.9 -41.7,63.26 -10.37,11.27 1.19,38.78 1.19,52.52 0,40.78 -39.49,62.71 -36.94,96.68 1.76,23.55 26.81,43.55 11.91,75.19 -14.91,31.67 -40.13,55.77 -44.09,93.1 -2.76,26.07 -11.89,97.81 -28.6,116.97l-21.93 64.04c-44.81,10.67 -92.39,19.86 -137.81,33.84 -100.46,30.92 -267.81,-51.52 -343.2,16.71 -56.16,50.83 -179.04,-1.15 -237.14,-22.68 -48.68,-18.04 -83.73,29.7 -143,5.97 -147.15,-58.93 -195.7,3.34 -328.9,63.26 -21.59,9.71 -80.14,49.29 -102.48,39.38 -26.98,-11.97 -63.46,-20.43 -92.95,-32.22 -80.11,-32.03 -172.08,40.88 -234.76,-3.58 -30.7,-21.77 -92,-57.53 -129.89,-64.46 -57.4,-10.5 -137.33,-24.89 -196.62,-22.67 -40.8,1.52 -72.87,-5.97 -110.83,-5.97 -17.58,0 -30.16,3.07 -40.57,7.61 9.68,32.79 29.84,43.95 29.84,81.91 0,22.46 -3.05,63.14 5.96,82.35 12.86,27.43 34.07,22.58 50.05,40.58 52.83,59.48 5.92,188.65 107.25,217.23 35.95,10.13 112.3,43.34 126.32,79.97l48.86 127.71c25.44,81.69 130.8,62.41 193.05,74 30.94,5.76 25.02,111.39 25.02,133.68 0,9.36 56.57,80.47 69.12,89.52 40.96,29.53 100.52,4.34 101.29,8.35 11.68,60.9 108.55,71.53 151.34,111 20.39,18.82 50.94,2.51 48.86,41.78 -1.14,21.44 -27.8,39.88 -30.98,59.67 -15.95,99.27 40.84,161.15 -23.84,250.65 -89,123.18 2.6,70.77 17.88,163.52 -13.07,140.34 28.24,166.03 114.4,259 49.02,52.91 105.88,176.26 179.94,190.97 0.79,2.79 6.62,9.29 9.54,10.74 0,31.51 -55.47,88.9 -66.74,122.94 -8.1,24.49 28.6,52.66 28.6,79.97 0,113.59 -9.79,212.57 123.94,269.74 46.01,3.97 320.79,68.64 303.87,111 -17.16,42.99 -15.82,52.69 -7.15,97.88 12.56,65.53 -69.53,114.14 -20.26,189.77 16.52,25.37 110.83,55.99 143,57.29 36.84,1.5 71.27,-40.43 109.64,-48.93 77,-17.06 100.3,-57.39 183.51,-45.36 44.57,6.45 166.5,87.9 195.43,124.13 46.82,59.63 117.42,176.1 78.66,250.65 -38.79,74.58 98.22,84.44 38.13,149.19 -34.7,37.38 -56.76,96.9 -79.84,143.23 -37.55,75.34 -92.56,159.64 -150.15,217.23 -59.72,59.72 -25.41,130.22 -113.21,179.03 -35.97,25.9 -30.3,35.21 -7.15,64.46 22.01,27.8 33.58,88.97 26.22,124.13 -6.55,31.25 -36.89,82.64 -63.16,101.45l-30.2 36.05c-5.1,0.25 -12.36,1.36 -19.8,3.41 -71.72,19.77 -55.96,128.97 -100.1,163.52 -49.38,38.65 -116.28,-8.75 -175.18,33.42 -33,23.63 -65.23,75.31 -89.38,108.61 -41.76,57.58 -46.32,76.55 -108.44,112.2 -30.9,17.73 -44.9,47.91 -70.31,72.81 -16.26,15.94 -43.98,58.34 -65.54,79.97 -21.59,21.66 -46.13,29.22 -75.08,26.26 -46.81,-4.8 -83.41,39.49 -83.41,85.93 0,47.48 -8.45,45.64 -27.41,82.36 -14.89,28.84 -15.93,78.79 -9.54,112.2 6.82,35.63 0.19,120.99 -10.72,153.97 -27.15,82 -33.16,134.99 70.31,130.1 59.13,-2.79 3.14,55.48 -15.49,72.81 -38.31,35.63 -27.63,56.04 -33.84,109.21 -2.41,20.69 -21.94,35.42 -32.9,53.12l0 0 -59.66 85.34 -51.84 96.08 -53.03 168.89 -20.85 90.12c-1.98,20.33 -9.11,57.58 8.93,68.63 17.91,10.98 47.76,-15.3 70.91,0 37.9,25.04 8.06,59.2 -15.49,79.37 -10.09,8.63 -24.34,20.61 -32.78,31.03 -9.82,12.1 -22.88,28.64 -34.55,39.39 -13.42,12.92 -23.55,31.39 -38.14,42.97 -39.57,31.44 40.34,30.19 58.99,54.31 24.72,31.99 48.79,40.13 88.18,48.34 48.65,10.13 38.09,84.08 55.42,121.74 21.35,46.36 64.19,91.49 95.33,133.09 32.04,33.64 68.89,88.89 94.22,129.5 40.78,65.35 106.15,112.4 141.81,183.81 26.74,53.57 42.3,133.2 91.76,168.3 46.09,32.72 63.22,-7.03 73.89,66.84 8.8,60.88 19.61,167.41 63.16,213.65 38.25,40.6 109.63,93.7 109.63,156.36 -2.59,42.87 59.96,82.69 85.8,112.19 57.31,65.46 87.05,-52.51 114.4,-52.51 22.48,56.3 39.35,13.46 67.93,-1.2 21.84,-11.19 44.35,19.65 78.65,-2.38 21.77,-13.97 58.13,-63.01 59.58,-82.36 1.07,-14.41 43,-10.74 54.82,-10.74 14.84,0 50.11,-34.46 53.63,-23.87 4.28,0 4.64,0.67 8.34,1.19 3.52,24.96 11.82,22.68 30.98,22.68 28.71,-64.78 157.3,-93.52 157.3,0 -31.46,23.66 -79.05,100.65 -110.82,134.87 -48.56,52.33 -52.24,103.36 28.6,119.36 3.33,23.62 -81.03,256.44 -106.06,257.81 -78.85,4.32 9.38,217.66 -64.35,278.11 -18.12,39.71 2.88,107.74 -26.22,134.87 -22.42,20.89 -32.21,20 -56.01,4.78 -32.07,-20.52 -23.26,12.78 -45.28,15.51 -10.73,37.7 -95.76,12.53 -121.55,10.74 -30.52,-2.12 -29.69,-49.37 -47.67,-68.03 -7.05,-7.31 -46.09,-16.14 -58.39,-21.48 -20.43,-8.86 -61.37,-59.5 -83.42,-27.46 -19.83,28.8 -71.05,30.14 -77.46,42.97l-4.77 0c-0.39,2.8 -2.96,6.42 -5.95,7.16 0,34.39 -3.35,65.83 4.76,100.26 4.4,18.67 36.89,52.57 -3.57,56.1 -17.75,1.55 -38.63,-14.32 -53.63,-14.32 -21.02,0 -28.73,21.59 -45.28,38.19 -32.84,32.91 -82.32,16.33 -116.79,-9.54 -38.22,-16.4 -41.98,-24.3 -85.8,-20.29 -30.04,2.75 -28.38,31.35 -47.66,46.54 -28.57,22.52 -191.87,-12.5 -184.71,68.04 1.64,18.46 36.94,33.07 36.94,75.19 0,66.42 -32.53,95.78 -16.69,171.88 4.39,21.14 -36.37,81.95 -44.09,108.62 -20.32,70.19 -74.6,50.23 -70.31,145.61 1.51,33.61 2.16,62.78 -17.87,90.71 -18.13,25.27 -51.24,28.84 -51.24,68.04 -11.15,59.47 -77.35,141.15 -126.32,182.62 -26.12,22.13 -144.63,140.44 -166.84,143.23l-101.29 120.55c-11.76,14 -48.21,-32.35 -50.05,2.38 -1.87,35.2 -48.58,13.7 -51.24,29.84 -5.7,0.81 -1.84,1.84 -4.77,4.78 1.55,3.64 1.19,2.79 1.19,7.16 54.63,18.21 -3.68,73.48 -28.6,85.94l0 3.58c-5.7,1.89 8.57,40.11 4.77,52.52 -8.91,29.11 -37.56,44.86 -45.28,74 -14.17,53.53 37.95,40.98 -29.8,68.03 0,51.89 19.21,27.09 -3.57,77.59 -23.62,52.39 31.66,65.44 17.87,90.71 -11.11,26.54 -17.9,9.6 -30.98,23.87 -8.22,8.98 29.77,59.68 -22.64,59.68 -60.56,0 -23.28,63.16 -61.97,107.42 -31.33,35.85 -36.35,72.25 -59.58,109.81 -4.85,7.83 -13.51,27.02 -25.03,28.65 -45.87,6.5 -35.25,-20.38 -22.64,27.45 12.38,46.98 -39.46,72.63 -54.82,103.84 -12.07,24.51 2.28,28.78 15.49,50.13 17.55,28.39 -7.81,24.16 -23.83,38.19l-28.77 42.21c18.13,22.3 34.13,56.33 37.11,75.96 12,79 58.48,32.5 103.68,76.39 31.51,30.6 -19.46,126.06 50.05,131.29 64.62,4.86 14.3,86.57 14.3,115.78 0,31.56 42.76,50.62 52.43,82.36 16.09,52.79 -26.43,109.62 -1.19,152.77 9.74,16.66 80.86,51.69 44.09,63.26 -18.55,5.83 -95.56,-1.73 -63.16,38.2 6.83,8.42 49.6,33.13 53.63,33.42 53.55,3.93 58.65,199.12 48.86,241.1 -4.16,17.84 -32.12,43.05 -26.22,60.87 10.49,31.73 19.07,40.99 19.07,77.59 0,42.76 -4.46,51.22 4.77,96.68 6.4,31.51 29.15,48.63 23.83,76.39 -3.74,19.53 10.98,36.05 23.83,48.93 34,34.08 17.84,64.46 -10.72,93.1 -72.29,72.48 75.3,143.1 78.65,225.59 2.38,58.49 4.79,116.99 7.15,175.46 1.56,38.74 21.86,60.8 47.67,83.55l0 0c-62.5,0 -83.24,-17.47 -143.01,-35.81 -78.74,-24.15 -166.01,3.99 -245.48,13.13 -104.95,12.08 -456.65,194.37 -501.7,290.04 -25.39,53.9 -242.34,199.51 -300.3,217.23 -163.56,92.53 -293.38,225.79 -443.31,325.85 -80.13,53.47 -291.21,252.33 -381.33,229.16 -90.19,-23.2 -164.65,-58.71 -250.25,-96.68 -54.84,-24.33 -87.12,-76.05 -135.86,-102.64 -13.87,-7.57 -49.68,-46.97 -45.28,-44.17 -142.46,-106.95 -355.73,-299.79 -525.53,-334.2 -208.51,-42.25 -432.87,-119.23 -632.78,22.68 -62.48,44.36 -215.86,-178.53 -326.52,-149.2 -124.08,0 -167.88,119.41 -313.41,66.84 -42.73,-15.44 -313.14,-96.52 -314.6,-120.55 -1.03,-17.05 21.08,-47.13 -17.88,-32.23 -38.13,14.59 -167.88,10.16 -196.63,-16.71 -25.37,-23.72 -84.29,-21.74 -117.97,-39.38 -49.16,-25.76 -212.04,96.9 -235.95,146.81 -15.46,32.29 -7.08,151.65 -67.93,82.35 -28.26,-32.2 -188.13,-7.71 -222.84,14.33 -63.59,21.19 -51.12,50.13 -129.9,50.13 -39.71,0 -88.89,45.78 -108.44,39.38 -24.38,-7.97 -42.79,-12.94 -69.12,-10.74 -48.47,4.06 -79.54,23.44 -122.74,34.62 -57.35,14.83 -63.63,92.47 -117.98,88.32 -94,-7.17 -101.13,11.8 -147.76,95.49 -15.05,27.03 -61.06,13.18 -82.23,37 -17.25,19.42 -59.21,105.03 -76.27,105.03 -22.7,-33.96 -9.5,-87.54 -33.36,-122.93 -45.25,-67.08 -102.66,-9.16 -150.16,-22.68 0,-28.44 29.6,-58.21 48.86,-71.62 18.8,-13.08 7.7,-67.68 7.15,-87.13 25.53,-70.08 104.56,-50.15 83.42,-146.81 -14.4,-65.89 63.99,-95.27 104.87,-146.81 31.54,-39.78 44.55,-82.12 58.39,-132.49 13.45,-48.92 43.71,-84.57 59.58,-132.48 15.21,-45.89 -21.74,-52.93 -19.06,-70.43 3.96,-25.9 -55.7,-92.9 -35.75,-94.29 58.99,-4.11 55.76,32.53 92.95,-33.42 30.18,-53.54 43.96,-110.76 69.12,-165.91 24.51,-38.81 77.45,-111.56 77.45,-158.74 0,-34.48 -23.83,-42.23 -23.83,-93.1 0,-38.36 -37.93,-30.34 -40.52,-48.94l-13.1 -94.29c-2.51,-18.08 187.13,-333.51 215.69,-355.69 103.36,-80.24 61.45,-203.75 101.29,-310.33 0,-69.93 0.91,-146.8 10.73,-214.84 7.43,-51.43 7.89,-137.95 26.21,-182.62 47.05,-114.74 -65.55,-249.78 -109.63,-348.53 -21.57,-48.31 17.11,-68.78 25.02,-109.81 10.27,-33.32 5.96,-59.15 5.96,-91.9 0,-28.64 16.09,-47.7 17.88,-71.62 3.71,-49.33 25.02,-90.38 25.02,-133.68 0,-32.87 13.23,-51.89 26.22,-79.97 18.77,-40.61 -23.42,-81.13 -5.96,-107.42 6.67,-10.03 36.64,-31.01 32.18,-45.36 -9.83,-31.57 -26.1,-34.4 -42.9,-59.68 -4.93,-7.43 -0.48,-36.58 -11.92,-38.19 -2.84,-20.13 -66.11,-28.95 -56.01,-70.42 9.64,-39.63 30.51,-53.16 23.83,-101.46 -3.73,-27.03 36.15,-212.82 53.63,-223.19 13.22,-48.82 12.33,-107.21 -7.15,-151.59 -13.56,-30.91 6.57,-105.67 4.77,-145.62 -3.23,-71.89 -8.63,-232.36 -67.93,-276.91 -70.85,-53.21 -104.74,-43.46 -189.48,-47.74 -23.2,-1.17 -4.41,-53.38 -25.02,-72.81 -16.84,-15.86 -91.76,4.76 -91.76,-35.81 0,-41.62 52.17,-55.79 77.46,-83.55 40.44,-44.41 59.11,-105.67 83.42,-163.52 63.02,-126.31 106.52,-272.83 146.57,-408.2 34.87,-117.83 80.25,-240.12 97.72,-359.27 29.21,-199.13 67.91,-405.98 34.56,-607.53 -18.41,-111.19 -13.7,-235.55 -56.01,-340.17 -13.98,-34.59 -52.89,-173.31 -46.47,-206.49 -6.93,-82.74 -87.1,-199.15 -133.47,-266.17 -47.08,-68.03 -125.96,-144.05 -188.29,-198.13 -18.82,-16.32 -141.13,-117.41 -101.29,-137.27 21.73,-10.84 54.75,12.41 66.73,26.26 17.51,20.22 60.48,38.84 72.7,54.91 12.24,16.11 18.97,32.39 35.75,42.97 37.5,44.63 153.72,95.83 153.72,157.55 0,57.9 45.54,115.43 71.5,163.52 9.18,16.99 40.48,112.2 59.59,112.2 1.95,-11.87 6.86,-39.5 15.49,-51.33 1.79,-21.81 17.26,-57.79 4.77,-74 -12.94,-16.78 2.64,-39.12 -4.77,-57.29 -3.63,-8.89 -88.2,-106.84 -26.22,-81.16 17.66,7.32 19.51,59.67 22.64,59.67 1.18,3.56 5.43,3.95 5.96,7.17 54.92,0 49.63,13.56 54.82,60.87 26,7.43 24.82,28.45 65.54,22.68 18.2,-2.58 43.16,-34.53 63.16,-45.36 39.15,-21.22 126.74,-12.46 164.45,10.74 47.42,29.19 53.65,15.52 102.49,15.52 10.82,0 42.63,14.11 48.86,4.77 12.17,-18.27 -8.66,-39.72 -21.45,-52.51 -19.52,-19.52 -42.74,-28.54 -58.4,-52.52 -11.79,-18.07 -33.63,-60.62 -53.62,-64.46 -57.35,-11.01 -78.34,38.11 -83.42,-53.71 -12.63,-67.71 8.86,-139.46 -2.38,-207.68 -150.7,-29.73 -275.78,52.62 -417.09,29.84 -32.44,-5.22 -66.83,-55.12 -86.99,-79.97 -34.92,-43.06 -129.76,-23.32 -135.85,-78.78 -53.66,-15.27 -105.28,30.33 -156.11,47.75 -62.99,37.77 -42.91,142.98 -127.51,131.29 -84.59,-11.68 -109.43,40.38 -163.26,93.1 -114.99,112.64 -225.28,140.84 -394.45,140.84 -102.08,0 -162.24,57.29 -271.7,57.29 -151.33,0 -109.71,151.43 -262.17,75.2 0,-78.21 63.45,-181.92 94.14,-251.85 44.88,-102.28 32.87,-214.59 42.9,-325.84 9.06,-100.61 -20.11,-128.81 -47.66,-217.23 -23.77,-90.16 -68.24,-209.58 -117.98,-284.08l-134.66 -201.71c17.2,-8.6 35.71,-23.22 57.2,-26.26 22.22,-78.05 308.7,-68.03 380.15,-68.03 100.94,0 20.66,222.98 263.36,101.45 46.46,-23.27 144.73,-178.99 182.32,-77.58 34.68,93.54 9.14,43.26 75.08,40.58 38.03,-1.55 51.79,40.58 76.27,40.58 0,-56.63 -72.44,-108.92 2.38,-142.04 36.03,-15.94 133.06,2.73 122.74,-70.42l-176.37 -8.35c-79.99,-3.78 -132.27,96.3 -132.27,-14.32 0,-129.49 180.24,-108.54 249.06,-206.49 94.99,-29.83 128.17,-91.91 232.38,-91.91 8.98,-15.04 -25.6,-65.44 -29.8,-82.36 -8.66,-34.91 -3.15,-76.65 -27.41,-105.03 -32.72,-38.3 -95.28,-191.78 -126.31,-106.23 -5.21,0.73 -4.89,4.77 -13.11,4.77 -15.96,-48.17 -19.28,-95.62 -22.64,-150.39 -6.9,-112.2 -103.15,-2.9 -137.05,-56.1 -10.81,-17.01 112.02,-197.91 112.02,-251.84 6.38,-23.52 7.05,-54.9 -1.19,-76.39 -5.6,-14.58 -13.39,-39.48 -1.19,-54.9 28.36,-35.81 38.7,-91.32 73.88,-122.94 19.46,-17.48 46.1,-32.36 67.93,-48.94 22.89,-17.37 72.93,-84.24 67.92,-114.58 -18.74,5.36 -49.13,54.23 -59.58,74 -20.68,39.08 -40.78,48.85 -75.08,70.42 -28.35,17.84 -41.39,36.31 -63.16,62.07 -55.55,62.55 -102.28,191.78 -125.12,272.13 -8.26,29.04 -36.94,64.75 -36.94,94.29 0,57.38 -24.4,60.88 -41.71,108.62 -8.13,22.42 -6.62,57.75 -21.45,77.58 -37.35,49.9 -90.97,104.47 -138.24,140.85 -37.94,29.21 -35.42,52.38 -44.09,100.26 0,143.34 8.2,355.72 -129.89,434.46 -43.93,25.04 -94.93,19.17 -140.62,39.39 -29.04,12.84 -69.76,27.5 -101.29,34.61 -39,8.8 -69.87,11.94 -112.02,11.94 -34.35,0 -96,-13.74 -121.55,-7.16 -137.77,-26.02 -161.01,26.6 -264.55,52.51 -40.55,10.15 -34.39,50.77 -61.97,59.68 -71.17,23.02 -258.97,-120.92 -331.29,-142.03 -92.17,-26.9 -57.08,102.69 -150.15,56.09 -38.33,-19.2 -233.16,-50.03 -184.71,-122.93 93.96,-141.41 16.85,-174.61 -42.9,-284.08 -62.3,-114.12 124.15,-323.01 159.69,-447.59l109.63 -358.07c37.68,-123.09 28.86,-186.52 7.15,-312.72 -14.37,-83.58 -14.86,-116.3 9.53,-200.52 13.17,-45.51 4.91,-94.06 16.69,-137.26 0,-61.08 -28.18,-130.72 0,-183.82 29.51,-55.59 83.41,-86.67 83.41,-156.35 0,-55.78 51.5,-67.72 67.93,-108.62 75.38,-187.71 178.12,-367.39 157.3,-583.66 13.8,-41.52 28.6,-93.37 28.6,-137.26 0,-44.72 -43.93,-75.11 -46.47,-121.75 -1.38,-25.25 3.13,-55.85 -9.54,-76.39 -22.6,-36.66 -43.55,-37.47 -40.51,-85.93 2.63,-41.9 -0.79,-92.37 -36.95,-114.59 -46.87,-28.81 -158.76,-6.15 -151.34,-81.16 48.53,-6.98 100.33,-46.52 153.73,2.39 66.12,60.58 104.75,-20.61 134.66,-72.81 26.27,0 90.83,24.67 109.63,-8.36 34.09,0 200.45,-140.53 221.65,-179.04 27.56,-36.83 61.12,-85.65 100.1,-59.67 34.36,22.91 63.26,93.26 47.67,138.45 -26.01,75.34 55.54,-10.54 63.16,-16.71 71.87,-58.16 -6.88,-29.95 -25.03,-77.58 -9.74,-25.54 -0.77,-32.96 -30.98,-44.16 -27.6,-10.22 -55.06,-0.14 -56.01,-37.01 38.96,-36 128.7,-172.53 128.7,-226.78 69.57,0 93.16,-145.41 152.54,-164.71 33.4,-10.86 57.93,-1.61 79.84,-35.81 23.97,-37.44 29.63,-67.83 56.01,-106.23 30.87,-44.91 303.28,-346.55 163.26,-366.42 -30.99,-4.4 14.48,-114.86 25.02,-131.3 8.05,-32.02 78.08,-282.63 95.34,-290.04 9.58,-106.61 21.39,-216.78 81.03,-305.56 20.28,-30.18 12.62,-77.43 16.69,-113.39 12.81,-113.19 126.47,-316.74 181.13,-422.52l333.67 -927.41c20.35,-61.31 26.16,-126.6 48.86,-186.2 21.74,-57.06 51.68,-118.1 64.35,-179.04 7.98,-38.37 81.98,-277.29 32.18,-296.01 -5.51,-65.76 -111.38,-111.68 -144.2,-168.29 -39.08,-67.38 18.18,-165.74 48.86,-229.17l214.5 -656.47 232.38 -999.03c23.45,-89.16 34.97,-195.46 70.31,-279.29 24.12,-57.24 45.46,-126.09 57.2,-183.82 9.66,-47.55 -8.78,-64.73 13.11,-108.61 23.63,0 48.58,-47.74 72.69,-47.74 47.77,0 57.01,-6.41 71.5,-50.13 35.56,0 97.92,53.95 123.94,79.97 46.99,46.99 62.38,-65.34 101.29,-87.14 17.94,-19.62 64.35,-44.9 64.35,-69.22 0,-45.5 -39.13,-9.03 -51.24,-28.65 -8.87,-14.39 -5.83,-27.45 -28.6,-22.68 -16.91,3.55 -52.44,35.95 -52.44,-2.38 0,-30.55 18.97,-55.86 10.73,-87.14 -12.52,-47.5 -24.52,-87.25 35.75,-89.51 65.42,-2.46 93.23,-29.46 157.3,-40.59 28.98,-5.04 37.37,-47.35 -13.11,-29.84 -44.78,15.54 -66.44,47.59 -106.06,10.75 -22.97,-21.37 -83.1,-16.09 -97.72,-45.36 -10.69,-21.38 -14.32,-116.79 -15.49,-144.42 -3.13,-73.96 32.82,-87.17 44.1,-143.23 32.07,0 43.94,-45.91 59.58,-64.46 14.85,-17.63 90.57,-83.32 90.57,-95.48 -60.55,-15.2 -56.72,-30.97 -69.12,25.06 -3.88,17.53 -62.89,99.81 -79.84,48.94 -34.03,-6.73 -13.33,73.02 -36.95,96.68 -47.25,47.35 -59.52,105.95 -77.45,170.68 -5.58,66.62 -21.55,80.81 0,146.81 23.12,70.84 -24.5,95.87 -60.78,142.04 -38.58,49.12 -18.72,51.64 -32.18,103.84 -13.37,51.83 13.3,100.06 -40.51,134.87 -31.04,20.07 -137.92,145.83 -112.02,33.42 7.3,-31.67 39.26,-70.49 34.56,-102.64l231.18 -860.57c96.47,-240.99 112.5,-516.5 159.69,-765.09 16.15,-85.05 3.73,-171.55 15.49,-254.23 -32.05,-128.93 -51.01,-185 -36.94,-322.27 9.5,-92.65 -50.05,-185.25 -50.05,-282.88 0,-63.75 -59.99,-77.2 -73.89,-136.07 -7.65,-32.4 -4.5,-59.82 -30.98,-78.77 -38.77,-27.76 -39.46,-39.43 -65.54,-78.78 -25.49,-38.44 -19.4,-87.06 -11.92,-133.68 0,-45.38 -26.27,-77.17 -45.28,-114.58 -17.31,-34.04 23.91,-58.48 8.34,-96.68 -32.81,-80.54 -44.67,-167.65 -56.01,-253.04 -6.8,-51.18 4,-108.92 -4.77,-159.94 -9.13,-53.18 -17.55,-20.35 -42.9,-44.16 -21.8,-20.49 -24.94,-60.52 -29.79,-90.72 -13.14,-81.79 -112.28,-179.4 -90.57,-263.78 -66.47,-66.47 -18.85,-190.43 8.35,-270.94 33.47,-99.1 -37.51,-181.72 -61.97,-274.52 -12.96,-49.16 7.15,-132.91 7.15,-187.4 0,-90.62 -46.88,-167.59 -58.39,-254.23l-15.5 -113.39c-5.1,-37.27 -38.92,-50.09 -48.85,-77.58 -8.42,-23.33 3.84,-43.93 4.76,-65.65 1.45,-34.38 -19.8,-40.49 -29.79,-66.84 -8.87,-23.42 4.13,-81.81 10.73,-107.42 9.45,-36.64 24.16,-122.51 -29.8,-105.04 -109.02,35.29 -89.71,-35.63 -131.08,-124.13 -46.36,-99.2 -55.28,-209.02 -45.28,-315.1 9.86,-37.13 26.63,-85.92 16.68,-122.94 -17.2,-64.04 29.79,-52.15 29.79,-79.97 0,-17.83 -15.43,-59.24 -35.75,-63.26 -9.58,-33.65 16.71,-66.4 -8.34,-97.88 -12.99,-16.32 20.35,-75.56 33.37,-78.77 0,-18.18 -2.55,-70.42 8.34,-70.42 8.91,-15.66 82.35,-48.83 103.67,-74.01 26.96,-31.82 67.89,-88.15 60.78,-131.29l0 0z"/>
  <path class="fil2 str2" d="M19155.16 19715.03c-12.2,-14.63 -34.98,-8.02 -44.1,-26.26 -4.53,-9.08 -14.8,-50.17 -16.68,-59.67 -28.99,0 -108.18,-44.88 -83.42,-85.94 27.48,-45.56 -67.23,-171.16 -98.91,-202.91 -88.65,-88.82 -50.97,135.14 -53.62,143.23 -19.95,-5.03 -33.37,-127.42 -33.37,-151.59 0,-21.44 -1.34,-90.41 29.79,-51.32 34.34,43.14 50.44,-3.58 88.19,-3.58 3.84,23.33 59.85,8.35 81.03,8.35 6.49,0 33.24,1.26 28.6,13.13 -4.26,10.92 -34.56,6.48 -34.56,23.88 42.9,0 72.92,39.86 91.76,70.42 16.99,27.54 13.11,69.88 13.11,101.45 0,47.72 67.07,74.9 57.2,130.1 -3.18,17.79 -16.59,47.88 -8.34,64.45 10.5,21.06 25.87,26.9 28.6,57.3l-45.28 -31.04zm-4384.19 999.03c-16.83,20.24 10.47,21.72 -17.87,50.13 -16.1,16.13 -2.89,29.78 16.68,28.65 29.36,-1.69 94.11,-20.33 109.64,15.51 13.4,30.9 -0.77,47.84 45.28,54.91 64.64,9.93 41.62,31.03 -11.92,31.03 -30.26,0 -127.02,22.58 -131.08,56.1 -4.45,36.64 -33.51,29.85 -44.09,56.1 -15.49,38.44 -19.24,32.79 -50.05,54.9 -33.06,23.74 -29.88,55 -53.63,84.75 -16.09,20.14 49.33,83.47 34.56,118.16 -20.26,0 -27.16,-4.82 -46.48,0 0,17.3 21.06,45.02 -17.87,34.61 -28.47,-7.62 -35.42,9.66 -41.71,28.65 -18.31,55.33 43.77,33.91 36.94,82.36 -19.67,0 -22.45,-14.89 -41.71,-3.58 -18.04,49.15 -65.42,77.5 -113.21,51.32 -52.47,-28.76 -11.91,75.79 -11.91,78.78 -36.89,9.14 -66.23,-24.72 -92.95,-21.49 -20.94,2.54 16.59,45.23 22.64,48.94 22.52,13.85 103.49,51.88 48.86,78.78 -58.59,28.84 -22.33,55.55 -48.86,74 -49.46,34.38 -48.63,54.13 5.96,29.84 33.88,-15.08 82.2,-52.52 127.51,-52.52 37.25,0 46.1,-19.1 71.5,-19.1 24.78,0 22.94,24.47 50.05,-5.97 15.26,-17.15 -0.49,-45.8 13.11,-57.29 23.34,-19.73 27.91,15.75 40.51,22.68 17.71,9.76 42.64,-3.75 59.59,-11.94 35.17,-16.98 92.23,-16.31 98.91,-56.09 19.38,0 24.59,10.04 35.75,23.87 12.31,15.27 31.47,-5.02 48.85,-5.97l108.45 -5.97c-1.85,11.28 -64.09,33.98 -76.27,37 0,5.49 1.44,7.15 2.38,11.94 4.16,0 33.44,20.58 34.56,26.26 -19.5,9.75 -52.02,-29.17 -76.27,-31.04 -30.27,-2.33 -73.42,33.59 -81.03,26.26 -15.97,-15.41 -50.86,-3.01 -45.28,23.87 3,14.44 -55.33,15.89 -70.31,14.33 -71.22,-7.42 -24.89,71.95 -64.35,89.52 -36.95,16.44 -20.26,9.42 -20.26,52.51 -3.01,0.75 -1.95,0.52 -2.38,3.58 -27.23,0 -36.97,-22.72 -51.25,-40.58 -18.01,-22.55 -40.76,-11.93 -65.54,-11.93 -97.79,0 -29.21,25.22 -58.39,78.77 -11.77,21.61 -56.46,13.89 -76.27,40.58 -21.33,28.76 55.25,67.44 67.93,75.2 16.55,10.12 139.87,57.96 140.61,63.26 -27.55,0 -143.97,8.13 -150.15,-22.68 -61.12,0 -69.14,-56.2 -100.1,0 -19.46,25.12 27.41,59.53 38.14,71.62 28.8,32.42 -46.24,-0.47 -45.29,14.32 0.33,5.15 25.91,58.05 -7.15,35.81 -11.68,-7.86 -27.29,-56.82 -36.94,-50.13 -51.81,35.88 -4.78,35.47 -13.11,77.58 -24.98,0 -42.99,-32.22 -53.62,-31.03 -31,3.5 3.51,45.02 -4.77,50.13 -8.76,5.42 -27.55,-13.6 -34.56,5.96 -6.8,18.95 -14.6,29.28 -39.32,20.3 -50.17,-18.22 18.46,43.57 17.87,45.35 -7.55,0 -51.22,8.64 -52.43,0 -9.82,-1.94 -14.95,-17.94 -32.18,-16.71 -13.07,0.94 -34.39,22.89 -44.09,29.84 -33.84,24.22 -43.52,-13.51 -75.08,-27.45 -1.26,-11.47 -48.97,-55.27 -36.94,-62.07 25.97,-14.7 49.78,31.04 71.5,31.04 78.26,0 -76.28,-103.79 1.19,-113.39 2.42,-16.92 -18.17,-32.45 -25.02,-51.33 -6.65,-18.35 5.61,-45.59 1.19,-66.84 -12.09,-58.16 -50.43,-65.36 -98.91,-87.13 -48.36,-21.73 5.54,-30.6 3.58,-56.1 -3.46,-44.81 -56.9,-17.49 -47.67,-82.36 37.67,-4.85 45.28,18.81 51.24,48.94 39.05,7.73 23.52,60.3 51.24,82.36 29.85,23.77 46.26,-48.94 78.65,-48.94 10.24,51.03 -34.46,105.55 11.92,145.62 18.58,16.04 6.41,57.97 4.77,78.77 -2.75,34.66 0.97,51.62 21.45,82.36 17.49,6.58 41.93,29.84 58.39,29.84 0.54,-2.19 0.2,-1.84 2.38,-2.39 1.25,-9.94 -1.27,-40.43 16.69,-27.45 11.46,8.27 27.07,3.23 28.6,-10.74 13.19,-1.87 9.53,-37.47 9.53,-47.74 0,-61.91 44.49,-20.21 57.2,-48.94 5.12,-11.56 3.01,-21.48 9.53,-33.42 11.5,-21.03 -9.86,-29.21 -19.06,-45.36 -3.51,-7.47 -9.54,-18.05 -9.54,-26.26 29.99,0 11.09,-35.59 7.15,-48.93 -19.52,-66.12 41.35,22.13 45.29,23.87 19.68,8.74 49.77,-32.24 29.79,-46.55 -45.61,-32.65 -5.96,-89.62 -5.96,-137.26 0,-25.28 -17.22,-97.63 2.39,-109.81 24.64,-15.29 83.39,-6.33 28.6,-51.33 -10.85,-8.92 -41.09,-29.3 -23.84,-45.35 36.03,-33.5 -8.65,-82.04 39.33,-108.62 20.79,-11.52 25.94,0.22 41.71,10.74 26.05,17.36 55.85,-4.28 78.65,-9.54 19.88,-9.1 29.45,-18.48 47.66,-28.65 12.31,-6.88 8.17,-15.6 5.96,-27.45 -4.07,-21.83 39.36,-39.44 52.44,-52.52 9.94,-9.94 22.06,-46.32 22.64,-62.07 0.84,-22.5 -8.07,-15.64 -22.64,-8.35 -19.65,9.84 -20.15,-3.58 -34.56,-3.58 -10.66,0 -14.08,46.32 -25.03,59.68 -15.77,19.26 -28.68,29.97 -51.24,38.19 -21.46,7.83 -43.78,-18.15 -69.12,0 -19.24,13.77 -55.16,5.18 -72.69,-3.58 3.59,-8.99 18.24,-18.01 22.64,-31.03 12.23,-36.19 -28.51,-36.23 15.49,-77.58 10.06,-9.45 22.07,54.24 29.8,63.26 14.3,16.71 36.56,36.74 56.01,11.93 15.12,-19.27 -15.86,-35.81 29.79,-35.81 16.38,0 17.88,-6.33 21.45,-20.29 3.68,-14.43 14.84,-21.42 0,-33.42 -16.97,-13.74 -61.14,-53.89 -35.75,-78.77 37.23,-36.46 80.96,8.81 120.36,-13.13 12.94,-7.21 18.81,-11.7 28.6,-21.49 11.69,-11.69 34.98,-10.92 44.09,-22.68 18.83,-21.99 33.92,-45.38 60.77,-52.51 13.86,-3.67 27.9,-30.51 33.37,-44.17 22.41,-55.87 96.53,-63.24 96.53,-131.29 -25.62,0 -52.57,34.04 -81.04,14.32 -10.38,-7.2 -19.59,-29.59 -11.91,-41.77 16,-25.34 19.08,-31.84 10.72,-63.26 3.41,-41.15 26.42,-57.12 33.37,-95.49 9.21,-50.79 25.94,-84.92 36.94,-131.29 3.97,-16.73 11.55,-38.02 5.96,-54.91 -4.72,-14.28 -24.24,-41.18 -17.88,-56.09 18.64,0 17.39,33.78 40.52,26.25 11.13,-3.63 12.65,-28.36 16.68,-38.19 4.72,-11.54 70.52,-84.74 83.42,-84.74l1.19 5.96c-7,2.36 -21.59,36.17 -15.49,45.36 9.39,14.13 24.85,17.58 21.45,38.19 -15.06,6.48 -55.73,11.12 -61.97,29.84 -9.28,27.88 -33.64,51.08 -50.05,77.59 -21.06,34.09 -50.05,127.05 -50.05,171.87l0 39.39zm-3725.19 -6055.03c-14.07,20.38 -3.59,56.1 -15.49,74 -20.41,30.73 -29,-24.9 -52.43,-19.1 8.46,16.99 35.56,17.33 15.49,40.59 -21.67,25.1 -33.37,31.87 -33.37,76.38 0,13.89 -2.23,33.91 -16.68,37 -26.89,5.74 3.34,41.05 -30.98,62.07 -10.62,6.51 -27.21,-7.07 -35.75,-2.39 -47.71,26.13 8.54,36.82 40.51,48.94 116.44,44.14 15.5,59.12 15.5,124.13 0,37.32 -45.55,15.8 -65.55,35.8 -19.54,19.54 -65.51,70.44 -101.29,57.3 -36.97,-13.59 -25.12,7.73 -14.3,29.83 11.97,24.43 -12.73,36.99 -3.57,60.88 9.11,23.73 25.15,-22.08 29.79,-29.84 12.46,-20.81 66.18,-74.65 85.8,-83.55 28.6,-12.99 46.47,35.36 46.47,-22.68 0,-24.92 86.34,-90.97 95.34,-127.71 6.54,-26.68 -48.94,-58.17 -66.74,-70.42 -25.37,-17.44 51.85,-108.91 60.78,-145.62 20.15,-82.89 83.94,7.17 138.23,7.17 0,-25.43 -59.9,-41.12 -76.26,-53.71 -35.02,-26.97 13.23,-57.11 4.76,-88.33l-20.26 -10.74zm3603.64 10328.05c-25.74,59.04 -40.3,1.87 -59.58,40.58 -8.4,16.85 -28.92,20.07 -47.67,19.1 -28.36,-1.46 -21.81,6.05 -40.52,10.74 0,22.41 -70.12,55.95 -90.56,59.68 -13.89,2.54 -39.88,16.18 -40.52,33.42 -0.82,22.15 38.2,50.85 50.05,66.84 11.57,15.59 13.42,35.37 25.03,52.52 9.59,14.15 9.61,20.57 15.49,37 1.24,3.46 39.1,5.99 50.05,13.13 3.87,2.53 51.71,25.06 53.62,25.06 -4.11,-29.15 -97.44,-52.09 -69.11,-97.87 14.14,-22.87 70.51,10.04 86.99,-17.91 13.39,-22.72 43.6,-26.25 70.31,-26.25 10.74,0 77.62,-5.36 36.94,-25.07 -20.25,-9.8 -37.13,8.51 -54.82,-1.19 -26.64,-14.59 -68.83,15.49 -107.25,11.93 -28.58,-2.65 -84.82,-16.84 -47.67,-56.1 15.81,-16.7 57.09,-16.83 63.16,-38.19 12.94,-45.53 26.79,-33.56 59.59,-48.94 7.77,-3.65 125.1,-55.04 79.84,-63.26l-33.37 4.78zm-2767.07 -1432.3c-9.25,7.83 -21.35,17.9 -34.56,17.9 -17.64,0 -10.73,-25.42 -10.73,-37 -14.79,0 -22.35,37.09 -46.47,19.1 -8.69,-6.47 -4.38,-15.23 -8.34,-22.68 -2.94,-5.51 -11.5,9.26 -13.11,10.74 -19.94,18.45 -35.17,2.18 -44.1,-19.09 -3.65,-8.68 -28.39,-31.52 -23.83,-9.55 11.11,53.57 -0.16,39.63 -26.22,76.39 -33.76,47.64 28.02,88.57 35.75,131.29 7.97,44.07 48.68,62.96 82.23,88.33 9.07,-18.3 -73.62,-85.81 -56.01,-128.91 4.3,-10.55 28.19,2.82 34.56,-3.58 6.76,-6.78 -16.27,-20.57 -19.07,-22.68 -16.52,-12.4 -27.14,-51.98 1.2,-59.68 23.81,-6.46 62.51,-2.1 88.18,-3.58 10.27,-0.59 41.5,-5.79 50.05,-10.74 28.46,-16.45 16.67,-22.44 -8.34,-33.42l-1.19 7.16zm5573.47 -9448.38c-64.2,8.02 -35.58,107.91 -123.93,62.07 -62.99,-32.67 -114.39,8.35 -177.56,8.35 -39.55,0 -40.47,-31.37 -89.38,-7.16 -88.59,43.85 -37.99,-45.36 -115.59,-45.36 -35.62,0 -64.24,20.29 -102.48,20.29 -36.63,0 -69.1,37.82 -109.64,44.17 -12.85,17.17 -63.81,40.77 -83.42,56.09 -25.26,19.72 -66.79,15.13 -92.95,37.01 -15.53,13 -32.52,45.35 -51.24,45.35 -38.92,0 8.18,-118.04 10.73,-136.07 4.33,-30.66 34.24,-54.57 38.13,-84.74 3.19,-24.68 6.38,-38.8 20.26,-59.68 11.69,-17.6 45.55,-40.81 61.97,-53.71 41.34,-32.5 19.9,-57.97 35.75,-100.26 26.76,-76.46 96.53,-111.96 119.16,-180.23 19.19,4.73 -49.88,114.44 -65.54,130.1 -39.29,39.29 -20.33,74.17 -42.9,113.39 -40.98,71.23 -83.42,96.48 -112.02,182.62 -2.65,7.98 -92.7,162.01 -16.68,114.58l145.38 -90.71c76.03,-47.44 184.15,-55.13 269.32,-90.71 48.26,-20.15 82.81,-19.55 131.09,-48.94l121.55 -74c0,14.08 -19.52,30.69 -27.41,40.58 -25.45,31.94 -6.48,52.52 -64.35,52.52 -28.61,0 -46.18,9.21 -64.35,27.45 -24.99,25.11 -119.12,30.56 -33.37,65.65 14.15,5.78 43.29,-15.26 61.97,-13.13 37.9,4.34 34.48,52.47 90.57,32.22 31.56,-11.4 45.21,-45.16 83.42,-33.42 23.07,7.09 106.66,33.94 115.59,0 9.25,-35.18 126.85,-96.48 160.87,-68.03 42.37,35.46 92.17,66.62 141.81,97.87 42.75,26.92 72.91,77.5 123.94,93.1 40.5,12.39 84.26,22.79 122.74,41.78 84.13,41.51 127.2,92.69 207.35,10.74 18.8,-19.21 64.69,-44.73 54.82,3.58 -9.13,44.74 5.54,29 21.45,56.1 11.08,18.89 -34.56,23.34 -34.56,48.93 0,20.38 -12.84,41.97 -38.13,33.42 -40,-13.52 28.81,-108.09 -23.84,-82.35 -81.32,39.74 -276.88,-91.58 -355.12,-119.36 -59.49,-21.11 -229.77,-208.14 -295.53,-150.39l-17.88 20.29zm407.56 -2013.57c-15.02,31.59 -43.8,49.77 -75.08,64.45 -22.23,10.42 -81.03,22.62 -81.03,54.91 5.86,1.16 9.31,9.47 16.68,10.74 15.66,2.69 34.14,4.38 45.28,15.52 8.5,8.5 12.1,14.32 25.03,14.32 25.86,0 20.69,-30.25 23.83,-47.74 2.5,-13.89 15.6,-41.78 32.18,-41.78 2.03,-3.58 17.3,-9.55 21.45,-9.55 2.99,-9.04 1.82,-22.95 5.96,-32.22 6.57,-14.74 10.62,-37.99 0,-51.33 -3.6,0.72 -3.5,2.35 -5.96,3.58l-8.34 19.1zm1078.47 -6177.97c-21.03,42.09 -111.44,117.38 -169.22,119.36 -110.21,3.77 -7.93,61.89 2.38,89.51 17.88,47.93 -2.33,72.39 27.41,127.72 21.23,39.48 68.91,58.2 44.09,111 -7.55,16.06 -12.49,24.41 -3.57,41.78 15.66,30.47 -77.5,37.78 -25.03,68.03 4.49,2.58 -5.31,38.76 -2.38,47.74 16.11,49.37 32.15,-40 67.92,-26.26 28.09,10.8 6.42,-40.77 40.52,-56.09 39,-17.51 -17.87,-58.9 -17.87,-88.33 0,-47.74 48.09,-58.05 75.07,-29.84 61.65,64.48 92.57,-49.56 100.1,91.91 2.42,45.51 -9.38,86.63 -2.38,136.07 0.7,5.01 35.83,-93.58 58.39,-131.3 32.13,-53.75 76.48,6.03 115.59,26.26 24.71,12.79 30.18,45.37 57.2,59.68 32.33,17.11 71.84,-50.04 132.28,7.16 54.93,52 55.55,28.75 52.43,93.1 -2.85,58.65 61.66,-16.66 82.23,38.2 20.85,55.62 62.91,2.67 98.91,11.93 11.98,3.08 73.85,42.2 72.69,34.61 -13.28,-87.07 -140.6,-39.1 -162.07,-101.45 -29.8,-86.51 -36.86,-41.26 -89.37,-72.81 -60.45,-36.31 -88.74,-61.51 -163.26,-70.42 -15.23,-1.82 -101.36,-56.32 -114.4,-68.03 -15.5,-13.93 17.84,-27.61 22.64,-35.81 3.13,-5.33 -70.88,6.4 -94.14,-8.36 -34.01,-21.6 4.76,-45.84 4.76,-74 0,-31.26 -38.33,-9.14 -59.58,-16.71 -11.23,-3.99 -10.54,-48.9 -15.49,-64.45 -8.4,-26.34 -27.17,-9.69 -44.09,-21.49 -15.12,-10.53 11.18,-48.02 -25.03,-60.87 -38.26,-13.59 -55.04,29.96 -104.87,5.97 -104.82,-50.45 -6.46,-70.6 21.45,-113.39 14.17,-21.71 66.9,-94.29 27.41,-94.29l-10.72 23.87zm-6249.16 -2286.9c39.38,-23.68 32.8,2.11 69.11,3.58 17.26,0.7 40.58,-18.49 47.67,-33.42 16.9,-35.61 51.17,-22.95 65.54,-53.71 9.15,-19.57 44.1,-30.69 44.1,-47.75 -34.84,-6.87 -11.11,-49.73 -32.18,-63.26 -18.54,-11.92 -16.38,43.67 -34.56,48.94 -39.04,11.31 -87.1,7.57 -123.93,26.26 -29.78,15.12 -63.71,13.94 -95.34,22.68 -31.98,8.83 -127.14,-1.03 -90.56,54.9 10.22,15.64 22.07,25.69 32.17,41.78 17.31,27.54 68.83,-7.22 89.38,-8.36l28.6 8.36zm-1053.45 13677.23c-8.1,36.59 -71.86,90.48 -97.71,115.78 -34.12,33.38 -46.82,78.52 -73.89,119.36l-103.67 156.36c-18.43,27.8 -70.17,114.03 -65.55,142.03l19.07 0c0,-49.34 64.14,-113.56 89.38,-156.35 23.39,-39.67 31.48,-53.14 72.69,-75.2 9.06,-4.84 0.35,-52.07 9.53,-66.84l72.69 -116.97c13.26,-21.33 70.38,-59.98 72.7,-81.16 11.44,0 61.09,-56.1 15.49,-56.1l-10.73 19.09zm709.05 4557.09c17.32,6.21 41.26,25.11 44.09,-3.58 13.88,-5.21 106.49,9.62 56.01,-31.03 -5.59,-4.51 -20.95,-24.93 -21.45,-32.23 -1.73,-24.82 29.29,-12.14 23.84,-38.19 -8.34,-39.87 19.17,-28.65 44.09,-28.65 16.39,0 20.74,-15.8 32.17,-26.26 4.35,-3.99 29.87,-11.99 36.95,-15.51 -4.94,-14.84 -36.5,12.07 -42.9,13.13 -20.93,3.46 -16.27,-49.75 -60.78,-26.26 -31.64,16.71 -10.79,37.06 -28.6,60.87 -18.09,24.17 -25.34,-2.57 -42.9,23.87 -10.52,15.83 -34.19,5.33 -42.9,-8.35 -16.9,-26.57 37.05,-58.53 -21.45,-78.78 -8.24,-2.85 -23.7,0.25 -20.26,-14.32 5.82,-24.57 -32.94,-44.09 -36.94,-29.84 -5.46,19.49 57.9,49.59 48.86,93.1 -2.35,11.29 -3.42,27.57 3.57,37 15.74,21.21 14.81,43.3 21.45,71.61l7.15 33.42z"/>
  <g id="_1933394752560">
   <path class="fil4 str3" d="M8640.86 3882.33c133.14,-76.51 324.69,-35.94 456.54,-129.05 75.19,-53.09 141.82,-79.4 221.65,-119.35 29.33,-14.67 56.15,-70.56 89.37,-94.3 44.36,-31.71 70.01,-52.04 125.13,-70.42 26.6,-8.87 45.04,-23.89 73.88,-26.26 53.61,-4.42 90.35,4.21 141.81,-20.29 70.37,-33.51 100.17,-84.74 185.9,-84.74 37.27,0 69.63,-12.48 97.72,-37 45.09,-39.36 86.18,-59.01 141.81,-76.39 119.47,-37.32 278.81,53.12 388.49,11.93 58.21,-21.86 201.54,-138.13 232.38,-190.97 52.76,-90.38 110.17,-85.94 197.81,-85.94 103.58,0 144.21,-86.91 243.11,-100.26 39.04,-5.26 90.92,5.12 125.12,-13.13 49.15,-26.23 64.17,-84.28 120.36,-100.26 95.55,-27.18 110.73,-100.24 182.33,-151.58 50.65,-36.32 102.39,-44.74 154.92,-78.78 34.69,-22.48 65.54,-68.5 100.1,-87.13 69.35,-37.39 97.59,-15.57 125.12,-99.07 8.12,-24.66 50.4,-18.07 67.93,-34.61 20.73,-19.56 11.96,-50.3 36.94,-66.84 84.44,-55.93 145.38,-5.05 221.65,-105.04 48.63,-63.75 73.85,-55.61 141.81,-74 77.76,-21.05 158.07,-164.14 224.04,-213.65 89.78,-67.39 159.87,-73.09 269.32,-41.77"/>
   <path class="fil4 str3" d="M14467.1 1520.1c-11.54,30.76 -10.61,85.11 -1.2,115.77 15.26,49.68 46.91,45.39 88.19,62.07 56.71,22.92 104.75,63.44 158.49,95.49 73.9,44.07 92.3,-14.66 132.28,-64.46 59.95,-74.67 129.06,17.7 206.16,-38.19 32.18,-23.33 23.8,-56.57 45.28,-84.75 23.34,-30.62 56.77,-27.92 84.61,-45.35 30.94,-19.37 29.85,-72.5 35.75,-105.04 5.29,-29.18 43.8,-49.14 57.2,-78.77 22.44,-49.58 13.96,-98.43 53.63,-143.23 37.83,-42.72 91.86,-71.16 117.97,-126.52 16.05,-34.03 23.83,-71.41 35.75,-107.12"/>
   <path class="fil4 str3" d="M16927.94 1240.8c47.95,96.07 50.41,229.48 185.9,238.71 120.17,8.18 124.87,10.86 193.06,95.49 42.9,53.24 126.39,60.45 166.83,121.75 37.02,56.11 50.35,105.04 109.64,150.39 97.2,74.35 150.69,101.88 235.95,193.36 47.13,50.57 138.06,131.36 219.27,102.64 212.41,-75.13 129.07,18 290.77,38.2 60.25,7.52 128.88,2.82 185.9,21.48 52.73,17.25 51.26,89.5 147.77,90.72 12.55,0.15 173.89,2.45 181.14,-2.39 28.64,-19.14 49.37,-64.86 92.95,-66.84 51.19,-2.33 67.72,29.42 104.87,31.03 77.28,3.37 122.19,-17.78 193.05,28.65 142.87,93.6 173.19,17.53 293.15,-28.65 114.72,-44.16 179.7,63.13 324.14,16.71 48.04,-15.44 98.44,-22.28 147.67,-33.42"/>
   <path class="fil4 str3" d="M20000 5121.13c-34.94,-17.91 -69.62,-36.34 -104.81,-53.71 -25.15,-12.41 -65.34,-17.1 -77.46,-40.59 -13.08,-25.35 -20.58,-34.92 -41.71,-56.09 -39.83,-39.91 -54.87,-73.56 -60.78,-131.3 -4.25,-41.53 -51.73,-60.34 -81.03,-78.77 -42.16,-26.52 -14.6,-104 -32.17,-140.85 -32.84,-68.86 -109.81,-49.56 -151.35,-106.22 -21.94,-29.92 -6.85,-51.33 -56.01,-51.33 -40.96,0 -71.2,11.96 -103.67,33.42 -81.1,53.6 -78.81,95.28 -126.32,181.43 -38.43,69.69 -96.47,81.23 -110.83,164.71 -10.07,58.56 -78.65,81.74 -78.65,97.87 0,27.74 -20.84,38.83 -45.28,40.58 -18.47,1.32 -10.75,43.46 -13.11,56.1 -9.08,48.64 -48.31,57.37 -72.69,87.13 -43.56,53.16 3.42,52.01 9.53,101.46 4.48,36.23 -72.31,130.1 -110.82,130.1 -73.33,0 29.22,87.69 33.36,102.65 11.63,41.95 -127.36,104.99 -170.41,79.97 -32.05,-18.63 -32.49,-65.48 -73.88,-44.17 -41.89,21.57 -55.9,16.1 -58.39,74.01 -2.23,51.9 23.13,34.01 59.58,64.45 37.18,31.05 -82.09,88.63 -119.17,90.71 -25.53,1.43 -43.03,13.62 -60.77,29.84 -44.87,41.02 49.25,60.11 -17.88,94.29 -52.39,26.67 -9.28,117.92 -90.57,121.75 -13.35,0.63 -28.62,3.14 -43.76,5.71 -15.15,2.58 -30.24,5.26 -43.23,6.23 -22.59,1.68 -53.44,19.45 -67.92,37 -23.69,28.73 44.19,65.56 19.06,83.55 -42.02,30.08 -87.77,86.93 -131.08,38.19 -37.11,-41.76 -105.95,18.78 -127.51,53.71 -19.28,31.24 -10.37,64.48 -48.86,57.29 -23.34,-4.35 -49.29,47 -79.84,50.13 -37.76,3.87 -24.93,-56.05 -50.05,-65.64 -25.51,-9.74 -30.14,37.97 -51.24,28.64 -77.13,-34.13 -58.31,35.25 -104.87,15.52 -52.34,-22.18 -160.64,65.99 -191.86,115.78 -68.16,108.71 -89.16,230.04 -195.44,318.68 -87.6,73.06 -241.69,157.55 -139.42,273.33 0.43,0.48 25,31.38 16.68,47.75 -15.58,30.66 -46.54,54.08 -64.35,91.9 -29.96,63.62 -105.95,127.77 -125.13,189.78 -24.91,80.55 -33.41,101.82 -119.17,108.62 -45.68,3.62 -77.81,29.84 -128.7,29.84 -113.81,0 -146.56,-130.58 -260.97,-29.84 -2.34,2.06 8.64,-3.98 5.95,-2.39 -27.45,16.26 -71.16,2.61 -108.44,-5.97 -22.75,-5.24 -81.87,-62.46 -85.8,-5.97 -1.72,24.79 -62.5,58.28 -71.5,22.68 -18.83,-74.49 -82.38,-58.93 -146.58,-68.03 -77.5,-10.99 -64.9,-42.45 -102.48,-93.1 -51.14,-68.93 -130.76,-63.02 -179.94,-112.2 -31.06,-31.06 -18.84,-73.1 -16.69,-112.19 3.04,-55.24 50,-57.9 58.4,-85.94 23.68,-79.02 -36.84,-119.15 -109.64,-96.68 -24.12,7.44 -51.58,-8.51 -45.28,-37 10.21,-46.12 59.91,-51.17 63.16,-118.17 1.18,-24.49 -11.47,-112.5 -58.4,-81.16 -30.01,20.04 -10.28,79.34 -52.43,111 -31.19,23.43 -36.85,-0.5 -58.39,39.39 -21.88,40.52 -16.83,133.68 -77.46,133.68 -70.98,0 -64.42,-21.54 -114.4,-52.52 -31.19,-19.33 -47.53,-3.58 -81.04,-3.58 -41.59,0 -103.43,-67.37 -134.66,-51.32 -38.68,19.87 -97.11,42.9 -143,40.58 -37.39,-1.89 -51.57,3.21 -67.92,-33.42 -6.76,-15.17 -94.05,-15.86 -117.98,-13.13 -44.83,5.13 -70.1,21.94 -95.33,-22.68 -31.59,-55.86 -27.94,-26.33 -70.31,-52.51 -7.04,-4.35 16.82,-45.57 -5.96,-70.43 -32.22,-35.17 -36.66,-83.19 -73.88,-118.16 -25.2,-23.68 -49.31,-37.08 -72.7,-66.84 -19.28,-24.52 -138.85,-34.99 -166.83,-21.48 -29.37,14.18 -48.35,49.73 -79.84,68.03 -29.05,16.88 -72.41,3.58 -106.06,3.58 -37.22,0 -66.78,-8.36 -104.87,10.74 -58.32,29.25 -91.35,111.38 -139.43,162.33 -37.32,39.55 -79.12,88.03 -145.38,69.23 -57.52,-16.32 -208.87,-64.52 -265.75,-47.75 -48.37,14.26 -37.1,48.76 -70.31,70.42 -42.48,27.71 -103.78,46.18 -159.68,41.78 -50.75,-4 -87.85,1.2 -134.66,-35.81 -24.16,-19.1 -92.05,-85.91 -126.32,-59.68 -119.19,91.23 -92.65,81.34 -234.76,23.88 -191.52,-77.44 -134.39,173.29 -275.28,202.9 -64.47,13.54 -123.26,-37.29 -197.81,-7.16 -78.42,31.7 -144.8,66.28 -233.57,99.07 -78.81,29.11 -154.34,52.55 -235.96,33.42 -27.65,-6.47 -50.55,-48.94 -72.69,-48.94 -32.61,0 -81.56,79.18 -148.96,82.36 -53.55,2.53 -300.68,-46.15 -316.98,-19.1 -44.64,74.07 -229.84,174.95 -299.12,89.52 -81.74,-100.79 -48.85,59.95 -109.63,78.78 -26.06,8.07 -68.3,-2.38 -83.42,26.26 -25.16,47.65 -31.75,67.97 -90.56,75.19 -34.68,4.26 -79.78,-13.75 -106.06,-38.19 -19.52,-18.15 -56.17,-78.78 -81.04,-78.78 -16.43,0 -41.14,66.41 -67.92,78.78 -113.93,52.65 -118.94,-72.45 -176.37,-115.78 -79.25,-59.79 -219.9,21.12 -276.47,-96.68 -21.26,-44.27 17.79,-104.01 -36.94,-140.84 -57.13,-38.44 -68.64,-51.67 -116.79,-108.62 -25.4,-30.04 -35.47,-27.45 -75.07,-27.45 -22.91,0 -40.91,8.35 -61.97,8.35 -30.4,0 -68.39,-9.34 -94.14,-22.67 -23.58,-12.21 -90,-1.09 -116.79,2.38 -22.75,2.95 -45.28,7.51 -67.93,11.27"/>
   <path class="fil4 str3" d="M18200.95 5974.28c14.19,21.96 23.37,48.16 42.57,65.9 29.11,26.9 71.55,52.52 113.21,52.52 64.19,0 120.72,-64.61 179.95,-45.35 19.21,6.24 36.98,21.33 52.43,34.61 9.77,8.39 18.15,20 32.17,25.06 16.2,5.85 32.71,5.01 48.86,7.17 30.31,4.05 61.17,0.79 91.76,1.19"/>
   <path class="fil4 str3" d="M19748.61 6687.1c28.59,6.26 42.9,32.28 42.9,59.68 0,45.09 17.59,73.56 50.05,101.46 15.24,13.09 23.69,28.08 36.94,42.97 15.53,17.45 30.37,39.79 47.67,56.1 20.71,19.53 49.22,28.64 73.83,42.96"/>
   <path class="fil4 str3" d="M14417.05 27543.73c-25.81,-22.75 -46.1,-44.8 -47.67,-83.55 -2.37,-58.48 -4.77,-116.97 -7.15,-175.46 -3.35,-82.49 -150.94,-153.11 -78.65,-225.59 28.56,-28.64 44.72,-59.02 10.72,-93.1 -12.85,-12.88 -27.57,-29.4 -23.83,-48.93 5.32,-27.76 -17.43,-44.88 -23.83,-76.39 -9.23,-45.46 -4.77,-53.92 -4.77,-96.68 0,-36.6 -8.58,-45.86 -19.07,-77.59 -5.9,-17.82 22.06,-43.03 26.22,-60.87 9.79,-41.98 4.69,-237.17 -48.86,-241.1 -4.03,-0.29 -46.8,-25 -53.63,-33.42 -32.4,-39.93 44.61,-32.37 63.16,-38.2 36.77,-11.57 -34.35,-46.6 -44.09,-63.26 -25.24,-43.15 17.28,-99.98 1.19,-152.77 -9.67,-31.74 -52.43,-50.8 -52.43,-82.36 0,-29.21 50.32,-110.92 -14.3,-115.78 -69.51,-5.23 -18.54,-100.69 -50.05,-131.29 -45.2,-43.89 -91.68,2.61 -103.68,-76.39 -3.81,-25.13 -28.96,-73.83 -50.05,-88.33 -19.08,-13.12 -40.16,15.52 -61.97,15.52 -26.21,0 -161.81,-7.97 -163.26,-34.61 -5.55,-101.45 -52.85,-190.32 -164.45,-198.14 -83.43,-5.84 -57.42,-31.32 -100.1,-77.58 -25.31,-27.43 -70.44,-67.09 -77.46,-101.46 -9.07,-44.39 40.21,-53.7 53.63,-90.71 21.09,-58.15 -54.29,-135.44 -38.13,-186.2 17.26,-54.2 67.92,-69.57 67.92,-138.45 0,-48.01 -4.51,-75.9 32.18,-109.81 21.93,-20.27 -42.5,-93.84 -36.95,-133.68 9.2,-65.96 44.42,-139.02 47.67,-205.3 2.71,-55.22 -4.48,-71.19 -50.05,-109.81 -31.75,-26.91 -5.96,-67.41 -5.96,-103.84 0,-71.98 -45.37,-143.99 -35.75,-213.65 5.71,-41.42 90.41,-87.84 58.39,-122.94 -44.38,-48.64 -136.47,-91.78 -168.02,-142.03 -24.92,-39.7 18.02,-76.98 47.66,-94.3 15.97,-9.33 37.97,-94.53 46.48,-115.77 21.28,-53.1 65.95,-59.82 75.08,-131.3 10.93,-85.51 -35.81,-156.02 -41.71,-235.13 -3.95,-53.05 3.38,-51.47 50.05,-59.68 82.51,-14.53 -155.68,-226.86 4.76,-241.11 85.85,-7.63 36.41,-60.26 101.3,-85.93 54.47,-21.55 -3.35,-134 29.79,-176.65 31.4,-40.41 64.2,-76.46 116.78,-84.75 79.11,-12.48 154.46,58.49 226.42,84.75 34.3,12.51 64.25,16.71 95.34,-7.16 51.35,-39.43 48.39,-51.16 50.05,-108.62 1.05,-36.47 -28.64,-67.12 -42.96,-100.69"/>
   <path class="fil4 str3" d="M14925.89 20305.86c10.96,-17.7 30.49,-32.43 32.9,-53.12 6.21,-53.17 -4.47,-73.58 33.84,-109.21 18.63,-17.33 74.62,-75.6 15.49,-72.81 -103.47,4.89 -97.46,-48.1 -70.31,-130.1 10.91,-32.98 17.54,-118.34 10.72,-153.97 -6.39,-33.41 -5.35,-83.36 9.54,-112.2 18.96,-36.72 27.41,-34.88 27.41,-82.36 0,-46.44 36.6,-90.73 83.41,-85.93 28.95,2.96 53.49,-4.6 75.08,-26.26 21.56,-21.63 49.28,-64.03 65.54,-79.97 25.41,-24.9 39.41,-55.08 70.31,-72.81 62.12,-35.65 66.68,-54.62 108.44,-112.2 24.15,-33.3 56.38,-84.98 89.38,-108.61 58.9,-42.17 125.8,5.23 175.18,-33.42 44.14,-34.55 28.38,-143.75 100.1,-163.52 79.39,-21.89 136.39,64.11 178.77,-27.46 19.28,-41.65 86.96,-114.37 138.24,-105.03 70.71,12.88 98.24,-97.84 147.77,-95.49 50.05,2.38 100.1,4.79 150.15,7.16 65.69,3.12 231.83,-89.93 316.99,-107.42 61.41,-12.61 172.39,-16.41 228.8,7.16 110.25,46.07 112.2,142.32 224.04,195.75 73.47,35.1 132,8.8 207.35,23.87 29.05,5.8 42.29,40.11 73.88,50.13 48.25,15.31 102.23,16.79 152.54,9.55 75.8,-10.92 258.4,-168.27 321.75,-136.07 140.89,71.62 167.46,9.11 271.71,-69.22 40.81,-30.66 95.91,-28.92 126.32,-62.07 164.71,-179.55 353.2,-76.16 448.07,128.91 49.41,106.82 122.31,262.58 255.02,262.58 84.15,0 147.93,-106.27 207.35,-157.55 68.52,-59.14 9.51,-98.66 112.02,-162.33 52.95,-32.88 45.6,-210.17 147.77,-276.91 82.28,-53.75 77.12,41.5 128.7,74.01 40.3,25.39 84.66,7.81 128.7,-7.17 50.76,-17.26 112.27,-12.51 166.84,-16.71 38.65,-2.98 76.2,-14.32 114.3,-21.48"/>
   <path class="fil4 str3" d="M18220.88 14355.86c171.04,80.78 171.85,-0.95 320.49,-62.06 58.12,-23.89 125.68,-73.55 189.47,-52.52 38.4,12.66 114.43,-17.9 164.45,-17.9 56.59,0 96.16,-24.05 144.19,-45.35 69.72,-30.93 118.6,0.8 196.63,-48.94 29.46,-18.77 47.4,-47.47 85.8,-48.94 57.45,-2.21 61.72,-25.92 113.21,-47.74 24.71,-10.47 38.48,-25.02 65.54,-33.42 36.73,-11.41 83.91,1.32 119.16,-17.9 30.41,-16.58 37.28,-52.13 69.12,-66.84 52.34,-24.18 63.61,-23.36 91.76,-78.78 21.47,-42.27 80.3,-46.02 121.55,-29.83 30.55,11.99 65.16,7.96 97.75,11.93"/>
   <path class="fil4 str3" d="M19308.92 28700c65.7,-107.48 83.53,-217.41 104.87,-341.06 22.9,-132.66 101.09,-102.16 188.29,-157.55 92.55,-58.78 114.4,-244.88 114.4,-350.91 0,-119.85 -138.97,-328.01 -69.12,-434.47 33.19,-50.58 64.3,-85.38 112.02,-116.97 56.98,-37.73 52.43,-138.67 52.43,-200.52 0,-34.49 40.26,-177.11 71.51,-198.13 54.24,-36.48 85.8,-98.67 128.7,-148.01"/>
   <path class="fil4 str3" d="M16795.63 13712.52c21.29,-37.34 24.17,-82.48 35.75,-125.33 12.46,-46.11 67.88,-29.91 100.11,-70.42 30.59,-38.44 58.94,-36.74 101.29,-51.32 134.67,-46.37 245.73,-221.7 383.72,-239.91 92.11,-12.15 148.55,-47.56 221.65,-100.26 83.44,-60.16 167.53,27.77 221.65,-60.88 37.56,-61.51 143.31,-152.14 194.25,-50.13 71.27,142.72 58.29,67.14 181.13,87.13 63.55,10.34 127.12,20.7 190.67,31.04 140.65,22.88 181.57,28.64 316.99,28.64 46.08,0 84.04,-4.27 116.78,-38.19 39.84,-41.28 -75.64,-101.33 -72.69,-159.94 1.04,-20.73 35.92,-26 20.26,-57.29 -18.96,-37.87 -77.15,-57.33 -67.93,-111.01 4.78,-27.88 56.9,-47.37 69.12,-79.97 19.24,-51.33 -1.36,-94.87 15.49,-145.61 10.17,-30.65 79.64,-123.64 104.87,-144.43 28.36,-23.37 101.9,-45.6 121.55,-65.64 26.9,-27.44 32.37,-64.15 65.54,-87.13 63.24,-43.83 74.97,-118.82 151.34,-138.46 81.06,-20.84 214.69,-108.9 222.85,-200.52 3.35,-37.72 43.77,-106.69 39.32,-131.29 -12.68,-69.96 -12.85,-85.94 17.88,-156.36 28.26,-64.76 76.11,-138.73 28.6,-202.91 -42.86,-57.89 -31.08,-274.15 -7.15,-343.75 10.11,-29.42 86.93,-94 113.21,-109.81 60.21,-36.25 42.84,-58.56 53.62,-119.36 2.18,-12.33 52.95,-31.93 40.52,-37 -44.09,-17.98 -2.29,-43.64 7.15,-58.49 14.03,-22.08 31.23,-31.66 45.28,-50.13 16.32,-21.46 -1.21,-51.17 17.88,-75.19 11.59,-14.59 24.73,-22.1 33.37,-39.39 9.82,-19.66 13.14,-32.25 27.4,-50.13 34.66,-43.43 61.93,-92.3 92.9,-138.46"/>
   <path class="fil4 str3" d="M16497.44 14321.92c-34.09,27.23 -66.76,56.35 -102.26,81.69 -31.15,22.24 -55.81,29.61 -81.04,58.48 -16.83,19.25 -37.34,37.05 -53.62,57.29 -38.71,48.13 -98.67,36.57 -153.73,69.23 -87.22,51.74 -193.85,59.69 -290.77,89.52 -100.46,30.93 -267.81,-51.52 -343.2,16.71 -56.16,50.83 -179.04,-1.15 -237.14,-22.68 -48.68,-18.04 -83.73,29.7 -143,5.97 -147.15,-58.93 -195.7,3.34 -328.9,63.26 -21.59,9.71 -80.14,49.29 -102.48,39.38 -26.98,-11.97 -63.46,-20.43 -92.95,-32.22 -80.11,-32.03 -172.08,40.88 -234.76,-3.58 -30.7,-21.77 -92,-57.53 -129.89,-64.46 -57.4,-10.5 -137.33,-24.89 -196.62,-22.67 -40.8,1.52 -72.87,-5.97 -110.83,-5.97 -53.58,0 -60.74,28.45 -101.29,40.58 -63.68,19.05 -93.11,-30.16 -146.58,37 -52.97,66.53 -123.9,148.52 -220.46,153.97 -50.06,2.82 -60.22,-108.61 -146.57,-108.61 -35.56,0 -99.46,33.31 -127.51,51.32 -64.34,41.32 9.05,186.6 -75.07,202.9 -26.06,5.04 -91.29,5.9 -108.45,27.46 -30.96,38.89 -30.88,87.06 -64.34,130.09 -47.15,60.64 -201.73,81.95 -225.23,152.78 -31.15,93.87 -78.24,91.19 -116.78,149.19 -43.86,66 -164.62,128.07 -240.72,153.97 -42.82,14.57 -112.8,-45.04 -152.53,-57.29 -71.38,-22.01 -112.83,20.7 -171.6,37 -32,8.87 -42.59,35.81 -77.46,35.81 -28.68,0 -18.78,-29.49 -53.63,-7.16 -33.72,21.61 -223.22,60.21 -263.35,33.42 -90.47,-60.41 -154.68,-77.77 -245.49,-27.45 -191.15,105.94 -159.47,137.54 -353.92,23.87 -88.97,-52 -119.7,-4.18 -190.67,28.64 -66.25,30.64 -119.4,-66.29 -190.67,-50.13 -145.93,33.09 -464.75,37.05 -464.75,237.52 0,124.39 32.93,164.26 -61.96,266.17 -29.35,31.53 -68.18,53.05 -98.91,79.96 -30.26,26.49 -88.06,60.26 -104.87,94.3 -67.38,136.44 -159.52,79.99 -224.03,186.19 -49.36,81.25 -176.76,24.53 -213.31,149.2 -15.34,52.36 -6.39,148.57 -47.67,187.38 -81.83,76.92 -182.32,49.62 -182.32,187.39 0,117 -23.12,153.73 -65.54,259.01 -22.17,55.02 -50.5,94 -64.35,156.35 -14.04,63.22 -28.99,70.62 -79.84,102.65 -60.73,38.26 -100.05,171.78 -147.77,235.13 -43.15,57.29 -122.99,31.55 -165.64,112.19 -71.4,134.98 -123.42,63.98 -249.06,59.68 -147.19,-5.04 -213.98,-13.45 -280.04,127.71 -14.02,29.97 3.96,66.08 5.93,99.13"/>
   <path class="fil4 str3" d="M10623.93 15659.23c-0.39,-23.86 -1.02,-47.73 -1.19,-71.6 -0.22,-31.28 -0.18,-58.18 -11.91,-84.74 -12.6,-28.54 -44.97,-56.73 -34.56,-95.49 5.89,-21.94 20,-30.03 39.32,-40.58 10.92,-5.96 28.65,-10 40.52,-14.32 14.04,-5.11 34.42,-6.28 48.86,-14.33 19.43,-10.83 30.72,-32.2 46.08,-48.31"/>
   <path class="fil4 str3" d="M11045.78 14659.03c1.99,-17.92 13.47,-32.97 9.54,-50.13 -0.98,-4.29 -8.51,-0.99 -9.54,-4.77 -7.89,-28.89 -7.94,-37.09 -3.57,-68.04 1.42,-10.1 17.3,-64.2 10.72,-66.84 -1.16,-0.46 0.06,-3.46 -1.19,-3.58 -11.48,-1.15 -42.39,-24.11 -36.94,-40.58 6.93,-20.97 45.98,-29.89 32.18,-52.51 -11.15,-18.27 -41.8,-57.53 -26.22,-66.84 33.31,-19.92 40.85,-112.38 25.02,-145.62 -13.08,-27.47 -22.94,-62.64 -48.86,-76.39 -41.52,-22.03 -70.11,37.16 -131.08,3.59 -54.96,-30.26 -6.94,-56.88 -28.6,-101.46 -17.77,-36.59 -65.19,-82.24 -16.68,-116.97 11.3,-8.09 34.9,2.17 44.09,-3.58 46.31,-29 -59.66,-171.83 60.77,-134.87 60.86,18.67 94.23,-72.43 170.41,-44.16 55.24,20.5 68.45,-50.15 83.42,-77.58 6.28,-11.51 23.25,-14.66 34.56,-22.68 20.12,-14.28 14.42,-58.04 44.09,-52.52 13.3,2.47 28.17,26.66 45.28,9.55 39.59,-39.59 4.49,-28.36 64.35,-47.74 34.95,-11.31 42.4,-48.37 45.29,-82.36 2.98,-35.02 50.86,-117.34 65.55,-148.02 27.86,-58.19 6.44,-112.31 94.14,-75.2 65.41,27.68 61.27,-8.15 53.63,-68.03 -8.4,-65.81 73.84,11.06 91.75,-8.36 31.65,-34.31 4.23,-85.43 64.36,-25.06 43.31,43.48 52.55,-19.96 58.39,-48.94 21.49,-106.64 88.18,70.81 88.18,-33.42 0,-56.61 65.12,19.42 100.1,-29.84 25.12,-35.37 52.29,0 79.85,0 49.46,0 58.01,-87.34 117.97,-90.71 20.96,-1.18 35.73,19.67 56.01,10.74 28.32,-12.48 53,-17.94 83.42,-32.23 28.74,-13.51 90.31,-140.4 109.63,-60.87 17.91,73.75 65.15,30.65 96.53,14.32 32.98,-17.17 91.72,1.25 113.21,-31.03 17.75,-26.66 7.46,-53 39.32,-78.78 52.89,-42.8 16.33,-57.43 46.48,-108.61 25.61,-43.47 -29.97,-55.14 -33.37,-77.59 -0.8,-5.26 39.1,-67.92 46.48,-70.42 47.86,-16.26 51.87,83.12 79.84,95.49 26.89,11.9 34.38,-34.69 40.52,-47.74 10.13,-21.53 37.43,-36.35 58.39,-45.36 60.88,-26.18 139.6,-57.9 182.32,-139.65 74.82,-143.18 69.75,-39.3 113.21,-131.29 17.24,-36.49 135.31,-110.04 175.18,-81.17 22.04,15.96 57.42,106.06 92.95,29.84 13.85,-29.73 -7.96,-58.17 -9.53,-89.51 -1.24,-24.79 33.82,-45.36 56.01,-45.36 49.37,0 59,-60.87 100.1,-60.87 48.28,0 95.6,-43.79 145.38,-62.07 106.19,-39 118.63,-164.78 206.18,-212.46 159.74,-87 208.87,-206.12 247.87,-374.78 15.39,-66.58 -14.12,-115.44 52.43,-171.88 56.85,-48.21 224.79,-157.76 119.17,-255.42 -69.03,-63.82 -184.44,-22.23 -243.1,-69.23 -74.41,-59.62 -96.7,-29.74 -173.99,-14.32 -93.77,18.71 -207.6,-1.37 -238.33,112.19 -20.7,76.49 -59.69,215.09 -154.92,241.11"/>
  </g>
  <use x="10196.81" y="4592.2" width="105.38" height="105.38" xlink:href="#villes"/>
  <use x="10729.58" y="5114.28" width="105.38" height="105.38" xlink:href="#villes"/>
  <use x="9348.58" y="6690.51" width="105.38" height="105.38" xlink:href="#villes"/>
  <use x="12251.35" y="9337.59" width="105.38" height="105.38" xlink:href="#villes"/>
  <use x="9262.07" y="9437.55" width="105.38" height="105.38" xlink:href="#villes"/>
  <use x="10218.83" y="11703.31" width="105.38" height="105.38" xlink:href="#villes"/>
  <use x="13907.83" y="11322.51" width="105.38" height="105.38" xlink:href="#villes"/>
  <use x="8643.27" y="14145.19" width="105.38" height="105.38" xlink:href="#villes"/>
  <use x="7239.85" y="19362.93" width="256.13" height="256.13" xlink:href="#Capitale"/>
  <use x="7160.65" y="19807.96" width="105.38" height="105.38" xlink:href="#villes"/>
  <use x="8357.67" y="20442.67" width="105.38" height="105.38" xlink:href="#villes"/>
  <use x="12272.97" y="20263.91" width="105.38" height="105.38" xlink:href="#villes"/>
  <use x="9776.15" y="27525.55" width="105.38" height="105.38" xlink:href="#villes"/>
  <use x="12208.51" y="28168.15" width="105.38" height="105.38" xlink:href="#villes"/>
  <path class="fil5 str4" d="M16664.2 26876.66l2740.18 0 0 1592.9 -2740.18 0 0 -1592.9z"/>
  <g id="_1933394728528">
   <path class="fil6 str5" d="M16806.28 27476.78l496.27 0 0 99.16 -496.27 0 0 -99.16z"/>
   <path class="fil7 str5" d="M17302.55 27476.78l496.26 0 0 99.16 -496.26 0 0 -99.16z"/>
   <path class="fil6 str5" d="M17798.81 27476.78l496.27 0 0 99.16 -496.27 0 0 -99.16z"/>
   <path class="fil7 str5" d="M18295.19 27476.78l496.27 0 0 99.16 -496.27 0 0 -99.16z"/>
   <path class="fil6 str5" d="M18791.47 27476.78l496.27 0 0 99.16 -496.27 0 0 -99.16z"/>
   <path class="fil7 str5" d="M18395.47 27775.72l793.73 0 0 99.16 -793.73 0 0 -99.16z"/>
   <path class="fil6 str5" d="M17601.74 27775.72l793.73 0 0 99.16 -793.73 0 0 -99.16z"/>
   <path class="fil7 str5" d="M16808.02 27775.72l793.73 0 0 99.16 -793.73 0 0 -99.16z"/>
  </g>
  <path class="fil8" d="M17766.4 27047.76l-13.47 29.28 -70.55 0 -15.47 31.28c30.81,4.52 55.04,15.81 72.79,33.98 15.23,15.64 22.82,33.99 22.82,55.15 0,12.29 -2.47,23.7 -7.47,34.11 -5,10.46 -11.29,19.4 -18.87,26.75 -7.53,7.35 -16,13.29 -25.29,17.75 -13.17,6.3 -26.69,9.47 -40.57,9.47 -13.99,0 -24.16,-2.35 -30.57,-7.11 -6.35,-4.71 -9.53,-9.94 -9.53,-15.64 0,-3.18 1.3,-6 3.94,-8.47 2.65,-2.47 6,-3.65 10,-3.65 2.94,0 5.58,0.42 7.82,1.36 2.23,0.88 6,3.23 11.4,6.99 8.59,5.94 17.35,8.88 26.17,8.88 13.4,0 25.22,-5.11 35.39,-15.29 10.12,-10.17 15.23,-22.57 15.23,-37.21 0,-14.12 -4.52,-27.34 -13.58,-39.57 -9.11,-12.29 -21.58,-21.76 -37.57,-28.4 -12.46,-5.18 -29.52,-8.18 -51.09,-9l44.8 -90.66 83.67 0z"/>
  <path id="1" class="fil8" d="M17802.38 27166.06c0,-26.64 4,-49.51 12.05,-68.74 8.06,-19.22 18.7,-33.57 32.05,-42.98 10.29,-7.47 20.99,-11.17 31.98,-11.17 17.94,0 33.99,9.11 48.22,27.34 17.81,22.64 26.69,53.27 26.69,91.96 0,27.05 -3.88,50.09 -11.7,69.03 -7.82,18.93 -17.76,32.63 -29.87,41.21 -12.11,8.53 -23.81,12.82 -35.04,12.82 -22.29,0 -40.81,-13.11 -55.62,-39.39 -12.53,-22.17 -18.76,-48.86 -18.76,-80.08zm33.87 4.23c0,32.1 3.94,58.33 11.82,78.67 6.52,17.11 16.28,25.63 29.22,25.63 6.17,0 12.58,-2.76 19.22,-8.34 6.65,-5.59 11.65,-14.88 15.11,-27.99 5.24,-19.7 7.88,-47.57 7.88,-83.43 0,-26.64 -2.76,-48.86 -8.23,-66.62 -4.11,-13.23 -9.46,-22.58 -15.99,-28.05 -4.65,-3.82 -10.35,-5.7 -16.99,-5.7 -7.76,0 -14.7,3.53 -20.76,10.52 -8.23,9.53 -13.87,24.46 -16.81,44.92 -3,20.41 -4.47,40.52 -4.47,60.39z"/>
  <path id="2" class="fil8" d="M18112.13 27036.47l0 157.16 39.98 -36.63c8.52,-7.82 13.46,-12.76 14.81,-14.82 0.95,-1.41 1.42,-2.76 1.42,-4.17 0,-2.29 -1,-4.23 -2.89,-5.94 -1.88,-1.65 -4.99,-2.59 -9.4,-2.82l0 -5.65 68.61 0 0 5.65c-9.35,0.23 -17.17,1.7 -23.4,4.35 -6.23,2.7 -13.05,7.47 -20.52,14.29l-40.63 37.22 40.34 51.33c11.29,14.05 18.81,23.04 22.58,26.98 5.58,5.24 10.4,8.65 14.58,10.17 2.94,1.12 7.99,1.71 15.17,1.71l0 6.35 -76.73 0 0 -6.35c4.41,-0.12 7.35,-0.76 8.88,-1.94 1.58,-1.24 2.35,-2.88 2.35,-5.06 0,-2.64 -2.3,-6.88 -6.88,-12.7l-48.27 -61.79 0 52.21c0,10.23 0.7,16.93 2.11,20.17 1.47,3.17 3.47,5.46 6.12,6.88 2.64,1.35 8.35,2.11 17.17,2.23l0 6.35 -80.08 0 0 -6.35c7.99,0 14.05,-1 18.05,-2.94 2.41,-1.23 4.23,-3.17 5.46,-5.76 1.71,-3.76 2.59,-10.29 2.59,-19.52l0 -143.94c0,-18.05 -0.41,-29.1 -1.18,-33.16 -0.82,-4.05 -2.11,-6.82 -3.99,-8.35 -1.83,-1.58 -4.24,-2.35 -7.18,-2.35 -2.41,0 -6.05,1 -10.82,2.94l-2.93 -6.35 46.74 -19.4 7.94 0z"/>
  <path id="3" class="fil8" d="M18288.87 27152.77c11.41,-11.53 18.17,-18.17 20.22,-19.93 5.12,-4.36 10.65,-7.77 16.59,-10.18 5.93,-2.41 11.81,-3.64 17.63,-3.64 9.88,0 18.29,2.88 25.4,8.64 7.06,5.76 11.82,14.11 14.17,25.11 11.88,-13.88 21.88,-22.93 30.05,-27.28 8.17,-4.3 16.58,-6.47 25.22,-6.47 8.35,0 15.82,2.17 22.35,6.47 6.46,4.29 11.64,11.34 15.4,21.16 2.53,6.65 3.82,17.11 3.82,31.4l0 67.97c0,9.82 0.71,16.58 2.18,20.23 1.12,2.46 3.23,4.64 6.23,6.4 3.06,1.77 8,2.65 14.88,2.65l0 6.35 -77.26 0 0 -6.35 3.29 0c6.7,0 11.99,-1.29 15.76,-3.94 2.64,-1.82 4.52,-4.76 5.64,-8.76 0.47,-1.94 0.71,-7.47 0.71,-16.58l0 -67.91c0,-12.88 -1.53,-21.93 -4.65,-27.22 -4.52,-7.35 -11.7,-11.06 -21.63,-11.06 -6.06,0 -12.23,1.53 -18.41,4.59 -6.11,3 -13.58,8.7 -22.34,16.93l-0.35 1.94 0.7 7.41 0 75.32c0,10.7 0.59,17.4 1.77,20.05 1.23,2.59 3.46,4.82 6.76,6.58 3.29,1.77 8.93,2.65 16.87,2.65l0 6.35 -79.37 0 0 -6.35c8.64,0 14.58,-1 17.81,-3.06 3.24,-2.06 5.47,-5.17 6.7,-9.29 0.59,-1.94 0.89,-7.58 0.89,-16.93l0 -67.91c0,-12.88 -1.88,-22.17 -5.65,-27.87 -5.05,-7.41 -12.05,-11.11 -21.11,-11.11 -6.17,0 -12.28,1.7 -18.34,5.05 -9.47,5.06 -16.82,10.82 -21.93,17.17l0 84.67c0,10.29 0.7,16.93 2.12,20.05 1.41,3.06 3.52,5.35 6.35,6.94 2.76,1.53 8.4,2.29 16.93,2.29l0 6.35 -77.97 0 0 -6.35c7.24,0 12.29,-0.76 15.17,-2.29 2.89,-1.59 5.06,-4 6.59,-7.41 1.47,-3.35 2.23,-9.88 2.23,-19.58l0 -60.33c0,-17.28 -0.53,-28.45 -1.53,-33.51 -0.82,-3.82 -2.05,-6.41 -3.82,-7.82 -1.7,-1.47 -4.05,-2.18 -6.99,-2.18 -3.24,0 -7.06,0.89 -11.53,2.59l-2.58 -6.35 47.62 -19.4 7.41 0 0 33.75z"/>
  <path class="fil8" d="M17641.58 28062.44c6.64,-15.76 15.11,-27.93 25.28,-36.51 10.17,-8.59 22.87,-12.88 38.04,-12.88 18.76,0 33.11,6.06 43.1,18.23 7.59,9.05 11.41,18.75 11.41,29.1 0,16.99 -10.7,34.57 -32.11,52.68 14.41,5.65 25.29,13.64 32.7,24.11 7.35,10.41 11.05,22.7 11.05,36.81 0,20.22 -6.47,37.69 -19.34,52.5 -16.76,19.29 -41.1,28.93 -72.97,28.93 -15.76,0 -26.46,-1.94 -32.16,-5.88 -5.71,-3.88 -8.53,-8.11 -8.53,-12.58 0,-3.35 1.35,-6.23 4.06,-8.76 2.7,-2.53 5.94,-3.82 9.76,-3.82 2.88,0 5.82,0.47 8.82,1.41 1.94,0.59 6.35,2.7 13.29,6.35 6.88,3.64 11.7,5.82 14.34,6.52 4.24,1.3 8.82,1.94 13.64,1.94 11.76,0 21.93,-4.52 30.64,-13.64 8.7,-9.05 13.05,-19.81 13.05,-32.22 0,-9.05 -2,-17.93 -6.06,-26.51 -3,-6.47 -6.29,-11.35 -9.82,-14.65 -4.99,-4.58 -11.76,-8.76 -20.4,-12.52 -8.64,-3.7 -17.46,-5.58 -26.46,-5.58l-5.52 0 0 -5.3c9.11,-1.17 18.16,-4.41 27.34,-9.82 9.11,-5.4 15.75,-11.87 19.87,-19.46 4.17,-7.58 6.23,-15.87 6.23,-24.99 0,-11.81 -3.7,-21.34 -11.11,-28.63 -7.47,-7.29 -16.7,-10.94 -27.75,-10.94 -17.82,0 -32.69,9.65 -44.69,28.87l-5.7 -2.76z"/>
  <path id="1" class="fil8" d="M17813.03 28135.94c0,-26.64 4,-49.51 12.05,-68.74 8.06,-19.22 18.7,-33.57 32.05,-42.98 10.29,-7.47 20.99,-11.17 31.98,-11.17 17.94,0 33.99,9.11 48.22,27.34 17.81,22.64 26.69,53.27 26.69,91.96 0,27.05 -3.88,50.09 -11.7,69.03 -7.82,18.93 -17.76,32.63 -29.87,41.21 -12.11,8.53 -23.81,12.82 -35.04,12.82 -22.29,0 -40.81,-13.11 -55.62,-39.39 -12.53,-22.17 -18.76,-48.86 -18.76,-80.08zm33.87 4.23c0,32.1 3.94,58.33 11.82,78.67 6.52,17.11 16.28,25.63 29.22,25.63 6.17,0 12.58,-2.76 19.22,-8.34 6.65,-5.59 11.65,-14.88 15.11,-27.99 5.24,-19.7 7.88,-47.57 7.88,-83.43 0,-26.64 -2.76,-48.86 -8.23,-66.62 -4.11,-13.23 -9.46,-22.58 -15.99,-28.05 -4.65,-3.82 -10.35,-5.7 -16.99,-5.7 -7.76,0 -14.7,3.53 -20.76,10.52 -8.23,9.53 -13.87,24.46 -16.81,44.92 -3,20.41 -4.47,40.52 -4.47,60.39z"/>
  <path id="2" class="fil8" d="M18123.13 28122.65c11.41,-11.53 18.17,-18.17 20.22,-19.93 5.12,-4.36 10.65,-7.77 16.59,-10.18 5.93,-2.41 11.81,-3.64 17.63,-3.64 9.88,0 18.29,2.88 25.4,8.64 7.06,5.76 11.82,14.11 14.17,25.11 11.88,-13.88 21.88,-22.93 30.05,-27.28 8.17,-4.3 16.58,-6.47 25.22,-6.47 8.35,0 15.82,2.17 22.35,6.47 6.46,4.29 11.64,11.34 15.4,21.16 2.53,6.65 3.82,17.11 3.82,31.4l0 67.97c0,9.82 0.71,16.58 2.18,20.23 1.12,2.46 3.23,4.64 6.23,6.4 3.06,1.77 8,2.65 14.88,2.65l0 6.35 -77.26 0 0 -6.35 3.29 0c6.7,0 11.99,-1.29 15.76,-3.94 2.64,-1.82 4.52,-4.76 5.64,-8.76 0.47,-1.94 0.71,-7.47 0.71,-16.58l0 -67.91c0,-12.88 -1.53,-21.93 -4.65,-27.22 -4.52,-7.35 -11.7,-11.06 -21.63,-11.06 -6.06,0 -12.23,1.53 -18.41,4.59 -6.11,3 -13.58,8.7 -22.34,16.93l-0.35 1.94 0.7 7.41 0 75.32c0,10.7 0.59,17.4 1.77,20.05 1.23,2.59 3.46,4.82 6.76,6.58 3.29,1.77 8.93,2.65 16.87,2.65l0 6.35 -79.37 0 0 -6.35c8.64,0 14.58,-1 17.81,-3.06 3.24,-2.06 5.47,-5.17 6.7,-9.29 0.59,-1.94 0.89,-7.58 0.89,-16.93l0 -67.91c0,-12.88 -1.88,-22.17 -5.65,-27.87 -5.05,-7.41 -12.05,-11.11 -21.11,-11.11 -6.17,0 -12.28,1.7 -18.34,5.05 -9.47,5.06 -16.82,10.82 -21.93,17.17l0 84.67c0,10.29 0.7,16.93 2.12,20.05 1.41,3.06 3.52,5.35 6.35,6.94 2.76,1.53 8.4,2.29 16.93,2.29l0 6.35 -77.97 0 0 -6.35c7.24,0 12.29,-0.76 15.17,-2.29 2.89,-1.59 5.06,-4 6.59,-7.41 1.47,-3.35 2.23,-9.88 2.23,-19.58l0 -60.33c0,-17.28 -0.53,-28.45 -1.53,-33.51 -0.82,-3.82 -2.05,-6.41 -3.82,-7.82 -1.7,-1.47 -4.05,-2.18 -6.99,-2.18 -3.24,0 -7.06,0.89 -11.53,2.59l-2.58 -6.35 47.62 -19.4 7.41 0 0 33.75z"/>
  <path id="3" class="fil8" d="M18390.77 28006.35c4.76,0 8.88,1.7 12.29,5.05 3.35,3.41 5.05,7.53 5.05,12.29 0,4.82 -1.7,9 -5.05,12.41 -3.41,3.47 -7.53,5.17 -12.29,5.17 -4.82,0 -9,-1.7 -12.41,-5.17 -3.47,-3.41 -5.17,-7.59 -5.17,-12.41 0,-4.76 1.7,-8.88 5.05,-12.29 3.41,-3.35 7.59,-5.05 12.53,-5.05zm14.17 82.55l0 127c0,9.82 0.7,16.34 2.17,19.58 1.41,3.29 3.53,5.7 6.35,7.29 2.82,1.59 8,2.41 15.47,2.41l0 6.35 -76.56 0 0 -6.35c7.65,0 12.82,-0.76 15.41,-2.23 2.64,-1.47 4.7,-3.94 6.29,-7.35 1.53,-3.41 2.29,-10 2.29,-19.7l0 -61.03c0,-16.99 -0.53,-27.99 -1.53,-33.05 -0.82,-3.64 -2.05,-6.17 -3.82,-7.58 -1.7,-1.47 -4.06,-2.18 -7,-2.18 -3.23,0 -7.11,0.89 -11.7,2.59l-2.41 -6.35 47.45 -19.4 7.59 0z"/>
  <path class="fil8" d="M19583.11 28376.66c0,-17.45 4.47,-34.48 13.46,-51.13 8.93,-16.61 21.77,-29.59 38.43,-38.86 16.69,-9.26 34.1,-13.92 52.16,-13.92 17.92,0 35.18,4.56 51.69,13.74 16.56,9.12 29.4,21.92 38.53,38.43 9.17,16.51 13.73,33.77 13.73,51.74 0,18.01 -4.56,35.27 -13.73,51.78 -9.13,16.51 -21.97,29.35 -38.53,38.53 -16.51,9.17 -33.77,13.78 -51.69,13.78 -18.06,0 -35.47,-4.66 -52.16,-13.97 -16.66,-9.36 -29.5,-22.34 -38.43,-38.95 -8.99,-16.65 -13.46,-33.68 -13.46,-51.17zm17.22 0c0,14.62 3.76,28.88 11.24,42.7 7.48,13.83 18.2,24.65 32.13,32.46 13.92,7.81 28.41,11.71 43.46,11.71 15,0 29.35,-3.85 43.08,-11.52 13.74,-7.67 24.46,-18.39 32.13,-32.17 7.67,-13.79 11.52,-28.18 11.52,-43.18 0,-14.96 -3.85,-29.36 -11.52,-43.14 -7.67,-13.78 -18.39,-24.5 -32.13,-32.12 -13.73,-7.62 -28.08,-11.43 -43.08,-11.43 -15.05,0 -29.54,3.9 -43.46,11.66 -13.93,7.76 -24.65,18.58 -32.13,32.46 -7.48,13.87 -11.24,28.08 -11.24,42.57zm103.57 -33.35l5.08 -16.94c11.53,2.78 20.7,8.61 27.52,17.55 6.87,8.98 10.3,19.85 10.3,32.59 0,16.19 -5.22,29.31 -15.71,39.42 -10.49,10.11 -24.98,15.15 -43.55,15.15 -12.14,0 -22.68,-2.31 -31.61,-6.92 -8.99,-4.56 -15.71,-11.15 -20.28,-19.61 -4.56,-8.52 -6.82,-18.25 -6.82,-29.16 0,-12.23 2.92,-22.39 8.8,-30.48 5.88,-8.09 13.88,-13.6 23.94,-16.56l4.23 16.37c-6.91,2.77 -12.23,6.82 -15.89,12.23 -3.72,5.41 -5.55,11.71 -5.55,19 0,10.58 3.76,19.33 11.28,26.2 7.53,6.87 18.35,10.3 32.37,10.3 14.06,0 24.69,-3.24 31.89,-9.74 7.19,-6.49 10.81,-14.86 10.81,-25.16 0,-8.28 -2.39,-15.57 -7.24,-21.83 -4.8,-6.25 -11.33,-10.39 -19.57,-12.41z"/>
  <path id="1" class="fil8" d="M19788.57 28081.5l-18.58 0c14.44,9.27 21.68,22.91 21.68,40.92 0,11.67 -3.19,22.39 -9.64,32.13 -6.4,9.78 -15.38,17.35 -26.86,22.76 -11.52,5.37 -24.74,8.05 -39.69,8.05 -14.59,0 -27.8,-2.45 -39.7,-7.29 -11.86,-4.9 -20.98,-12.19 -27.29,-21.92 -6.35,-9.69 -9.5,-20.61 -9.5,-32.6 0,-8.84 1.88,-16.7 5.6,-23.56 3.72,-6.87 8.61,-12.47 14.58,-16.8l-72.67 0 0 -24.83 202.07 0 0 23.14zm-73.05 78.46c18.72,0 32.69,-3.95 41.96,-11.9 9.26,-7.91 13.87,-17.27 13.87,-28.04 0,-10.86 -4.42,-20.08 -13.26,-27.7 -8.84,-7.57 -22.34,-11.38 -40.5,-11.38 -19.94,0 -34.62,3.85 -43.98,11.61 -9.36,7.72 -14.01,17.27 -14.01,28.6 0,11.06 4.46,20.27 13.45,27.71 8.98,7.38 23.14,11.1 42.47,11.1z"/>
  <path id="2" class="fil8" d="M19727.89 28028.96l-24.83 0 0 -76.76 24.83 0 0 76.76z"/>
  <path id="3" class="fil8" d="M19788.57 27925.1l-146.47 0 0 -22.29 20.69 0c-7.15,-4.56 -12.93,-10.68 -17.26,-18.3 -4.37,-7.62 -6.54,-16.27 -6.54,-26.01 0,-10.82 2.26,-19.71 6.73,-26.62 4.52,-6.92 10.77,-11.81 18.86,-14.63 -17.07,-11.67 -25.59,-26.77 -25.59,-45.39 0,-14.58 4,-25.83 12.04,-33.63 8.05,-7.86 20.42,-11.81 37.12,-11.81l100.42 0 0 24.84 -92.19 0c-9.88,0 -17.03,0.84 -21.4,2.44 -4.38,1.6 -7.86,4.52 -10.54,8.8 -2.68,4.23 -4,9.22 -4,14.91 0,10.35 3.44,18.91 10.26,25.73 6.86,6.82 17.82,10.2 32.87,10.2l85 0 0 24.84 -95.06 0c-11.01,0 -19.29,2.02 -24.79,6.07 -5.5,4.04 -8.28,10.67 -8.28,19.85 0,6.96 1.84,13.4 5.51,19.33 3.66,5.93 9.03,10.21 16.13,12.89 7.05,2.63 17.26,3.95 30.57,3.95l75.92 0 0 24.83z"/>
  <path id="4" class="fil8" d="M19770.23 27594.34c7.85,9.22 13.35,18.11 16.6,26.62 3.25,8.52 4.84,17.64 4.84,27.43 0,16.08 -3.9,28.45 -11.75,37.11 -7.81,8.65 -17.83,12.98 -30.01,12.98 -7.15,0 -13.69,-1.65 -19.62,-4.89 -5.93,-3.29 -10.63,-7.57 -14.2,-12.84 -3.58,-5.32 -6.31,-11.24 -8.14,-17.88 -1.27,-4.89 -2.49,-12.27 -3.72,-22.1 -2.35,-20.04 -5.22,-34.86 -8.51,-44.31 -3.39,-0.1 -5.55,-0.14 -6.44,-0.14 -10.07,0 -17.17,2.35 -21.31,7.05 -5.6,6.35 -8.37,15.81 -8.37,28.32 0,11.71 2.07,20.36 6.16,25.92 4.09,5.59 11.38,9.68 21.78,12.37l-3.39 24.27c-10.4,-2.21 -18.82,-5.84 -25.21,-10.92 -6.4,-5.08 -11.29,-12.41 -14.77,-22.01 -3.44,-9.55 -5.18,-20.7 -5.18,-33.3 0,-12.51 1.46,-22.72 4.42,-30.57 2.97,-7.81 6.64,-13.6 11.11,-17.27 4.46,-3.67 10.11,-6.25 16.93,-7.76 4.23,-0.8 11.85,-1.22 22.81,-1.22l32.93 0c23,0 37.53,-0.52 43.69,-1.55 6.17,-0.99 12.05,-3.06 17.69,-6.07l0 25.96c-5.22,2.5 -11.34,4.1 -18.34,4.8zm-55.04 1.98c3.67,9.03 6.78,22.57 9.32,40.64 1.45,10.25 3.1,17.49 4.93,21.73 1.84,4.23 4.52,7.48 8,9.78 3.53,2.31 7.43,3.48 11.76,3.48 6.54,0 12.04,-2.49 16.42,-7.52 4.37,-5.04 6.58,-12.38 6.58,-22.02 0,-9.55 -2.07,-18.06 -6.25,-25.54 -4.14,-7.43 -9.84,-12.93 -17.03,-16.41 -5.6,-2.69 -13.83,-4 -24.7,-4l-9.03 -0.14z"/>
  <path id="5" class="fil8" d="M19844.73 27533.05l-202.63 0 0 -22.57 19.24 0c-7.44,-5.32 -13.03,-11.34 -16.75,-18.07 -3.72,-6.68 -5.6,-14.81 -5.6,-24.36 0,-12.51 3.2,-23.52 9.65,-33.07 6.39,-9.55 15.47,-16.74 27.14,-21.63 11.71,-4.85 24.5,-7.3 38.47,-7.3 14.91,0 28.37,2.69 40.36,8.05 11.95,5.36 21.12,13.17 27.52,23.42 6.35,10.21 9.54,20.98 9.54,32.27 0,8.28 -1.74,15.71 -5.22,22.25 -3.48,6.58 -7.85,11.94 -13.17,16.18l71.45 0 0 24.83zm-128.5 -22.57c18.77,0 32.69,-3.81 41.67,-11.39 8.99,-7.62 13.45,-16.84 13.45,-27.65 0,-11.01 -4.65,-20.42 -13.97,-28.23 -9.31,-7.85 -23.7,-11.76 -43.22,-11.76 -18.63,0 -32.55,3.81 -41.82,11.48 -9.26,7.67 -13.87,16.79 -13.87,27.42 0,10.54 4.94,19.85 14.77,27.94 9.87,8.14 24.17,12.19 42.99,12.19z"/>
  <path id="6" class="fil8" d="M19744.83 27385.97l-3.96 -24.55c9.84,-1.37 17.36,-5.22 22.63,-11.53 5.22,-6.3 7.85,-15.14 7.85,-26.43 0,-11.43 -2.3,-19.9 -6.96,-25.45 -4.61,-5.5 -10.06,-8.28 -16.32,-8.28 -5.6,0 -10.02,2.5 -13.22,7.44 -2.21,3.48 -4.98,11.94 -8.42,25.4 -4.56,18.15 -8.51,30.71 -11.85,37.77 -3.39,7 -7.99,12.32 -13.92,15.94 -5.88,3.62 -12.42,5.46 -19.57,5.46 -6.54,0 -12.56,-1.51 -18.11,-4.47 -5.55,-3.01 -10.16,-7.06 -13.83,-12.18 -2.82,-3.86 -5.22,-9.13 -7.19,-15.76 -1.98,-6.68 -2.97,-13.78 -2.97,-21.4 0,-11.48 1.65,-21.54 4.99,-30.2 3.29,-8.7 7.81,-15.1 13.45,-19.24 5.69,-4.09 13.27,-6.96 22.77,-8.51l3.38 24.27c-7.62,1.08 -13.59,4.28 -17.87,9.55 -4.28,5.27 -6.4,12.7 -6.4,22.34 0,11.34 1.88,19.47 5.65,24.32 3.76,4.84 8.18,7.29 13.21,7.29 3.2,0 6.12,-0.99 8.71,-3.01 2.63,-2.02 4.84,-5.18 6.58,-9.5 0.94,-2.5 3.06,-9.74 6.35,-21.87 4.66,-17.5 8.52,-29.73 11.48,-36.69 2.96,-6.96 7.34,-12.42 12.98,-16.37 5.69,-4 12.75,-5.98 21.21,-5.98 8.24,0 16,2.4 23.29,7.25 7.29,4.84 12.93,11.8 16.93,20.88 4,9.13 5.97,19.43 5.97,30.91 0,19 -3.95,33.53 -11.8,43.5 -7.9,9.98 -19.57,16.33 -35.04,19.1z"/>
  <path id="7" class="fil8" d="M19788.57 27227.93l-28.22 0 0 -28.22 28.22 0 0 28.22z"/>
  <path id="8" class="fil8" d="M19734.95 27060.9l3.38 -24.27c16.7,2.68 29.73,9.45 39.19,20.41 9.45,10.96 14.15,24.46 14.15,40.41 0,19.99 -6.53,36.08 -19.61,48.21 -13.08,12.18 -31.8,18.25 -56.16,18.25 -15.81,0 -29.59,-2.63 -41.39,-7.85 -11.86,-5.22 -20.75,-13.17 -26.63,-23.9 -5.92,-10.68 -8.89,-22.29 -8.89,-34.9 0,-15.85 4,-28.88 12.04,-38.95 8.05,-10.11 19.48,-16.6 34.25,-19.42l3.67 23.99c-9.83,2.3 -17.22,6.35 -22.2,12.23 -4.94,5.83 -7.44,12.88 -7.44,21.16 0,12.51 4.47,22.67 13.41,30.53 8.98,7.81 23.09,11.71 42.47,11.71 19.66,0 33.92,-3.76 42.81,-11.29 8.89,-7.57 13.35,-17.4 13.35,-29.49 0,-9.78 -2.96,-17.92 -8.93,-24.41 -5.93,-6.54 -15.1,-10.68 -27.47,-12.42z"/>
  <path id="9" class="fil8" d="M19715.33 27024.78c-27.04,0 -47.08,-7.53 -60.11,-22.63 -10.82,-12.56 -16.23,-27.94 -16.23,-46.05 0,-20.08 6.59,-36.54 19.76,-49.34 13.12,-12.75 31.33,-19.14 54.51,-19.14 18.82,0 33.59,2.82 44.36,8.46 10.77,5.65 19.14,13.88 25.12,24.7 5.97,10.77 8.93,22.58 8.93,35.32 0,20.51 -6.53,37.07 -19.66,49.72 -13.12,12.65 -32.03,18.96 -56.68,18.96zm0.05 -25.4c18.72,0 32.74,-4.1 42,-12.28 9.32,-8.23 13.97,-18.53 13.97,-31 0,-12.32 -4.65,-22.57 -14.01,-30.81 -9.36,-8.18 -23.61,-12.27 -42.76,-12.27 -18.06,0 -31.75,4.14 -41.01,12.37 -9.32,8.23 -13.97,18.48 -13.97,30.71 0,12.47 4.61,22.77 13.87,31 9.27,8.18 23.24,12.28 41.91,12.28z"/>
  <path id="10" class="fil8" d="M19788.57 26858.5l-146.47 0 0 -22.29 20.69 0c-7.15,-4.56 -12.93,-10.68 -17.26,-18.3 -4.37,-7.62 -6.54,-16.27 -6.54,-26.01 0,-10.82 2.26,-19.71 6.73,-26.62 4.52,-6.92 10.77,-11.81 18.86,-14.63 -17.07,-11.67 -25.59,-26.77 -25.59,-45.39 0,-14.58 4,-25.83 12.04,-33.63 8.05,-7.86 20.42,-11.81 37.12,-11.81l100.42 0 0 24.84 -92.19 0c-9.88,0 -17.03,0.84 -21.4,2.44 -4.38,1.6 -7.86,4.52 -10.54,8.8 -2.68,4.23 -4,9.22 -4,14.91 0,10.35 3.44,18.91 10.26,25.73 6.86,6.82 17.82,10.2 32.87,10.2l85 0 0 24.84 -95.06 0c-11.01,0 -19.29,2.02 -24.79,6.07 -5.5,4.04 -8.28,10.67 -8.28,19.85 0,6.96 1.84,13.4 5.51,19.33 3.66,5.93 9.03,10.21 16.13,12.89 7.05,2.63 17.26,3.95 30.57,3.95l75.92 0 0 24.83z"/>
  <rect class="fil4 str6" x="1000" y="999.99" width="19000" height="27699.99"/>
  <rect class="fil4 str6" x="1000" y="5396.24" width="5268.68" height="3221.14"/>
  <rect class="fil4 str6" x="1000" y="26362.24" width="3095.84" height="2337.76"/>
 </g>
</svg>
